Siesta Version  : 5.0.0-alpha-120-g24fa496ce-dirty
Architecture    : ----
Compiler version: GNU-11.4.0
Compiler flags  : -fallow-argument-mismatch;-O3 -march=native
PP flags        : ----
Libraries       : ----
Parallelisations: none
GEMM3M support
NetCDF support
NetCDF-4 support
Lua support

Runtime information:
* Directory : /home/fnpedron/Siesta/siesta-dev/Tests/07.ForceConstants/work/born_sp
* Running in serial mode.
>> Start of run:  25-SEP-2023   9:45:14

                           *********************** 
                           *  WELCOME TO SIESTA  * 
                           *********************** 

reinit: Reading from standard input
reinit: Dumping input in INPUT_TMP.64169
************************** Dump of input data file ****************************
%include ../../basejob.fdf
SystemLabel       born_sp
Spin polarized
BornCharge T
%block PolarizationGrids
7  3  3
3  7  3
3  3  7
%endblock PolarizationGrids
************************** End of input data file *****************************

reinit: -----------------------------------------------------------------------
reinit: System Name: si2 Force constants
reinit: -----------------------------------------------------------------------
reinit: System Label: born_sp
reinit: -----------------------------------------------------------------------

initatom: Reading input for the pseudopotentials and atomic orbitals ----------
Species number:   1 Atomic number:   14 Label: Si


---- Processing specs for species: Si
Ground state valence configuration:   3s02  3p02
Reading pseudopotential information in formatted form from:
  /home/fnpedron/Siesta/siesta-dev/Tests/Pseudos/Si.psf

---- Pseudopotential check for Si

Pseudized shells:
3s( 2.00) rc: 1.89
3p( 2.00) rc: 1.89
3d( 0.00) rc: 1.89
4f( 0.00) rc: 1.89
Valence configuration for ps generation: (assumed as above)
For Si, standard SIESTA heuristics set lmxkb to 2
 (one more than the basis l, including polarization orbitals).
Use PS.lmax or PS.KBprojectors blocks to override.

<basis_specs>
===============================================================================
Si                   Z=  14    Mass=  28.090        Charge= 0.17977+309
Lmxo=1 Lmxkb= 2    BasisType=split      Semic=F
L=0  Nsemic=0  Cnfigmx=3
          i=1  nzeta=1  polorb=0  (3s)
            splnorm:   0.15000    
               vcte:    0.0000    
               rinn:    0.0000    
               qcoe:    0.0000    
               qyuk:    0.0000    
               qwid:   0.10000E-01
                rcs:    0.0000    
            lambdas:    1.0000    
L=1  Nsemic=0  Cnfigmx=3
          i=1  nzeta=1  polorb=0  (3p)
            splnorm:   0.15000    
               vcte:    0.0000    
               rinn:    0.0000    
               qcoe:    0.0000    
               qyuk:    0.0000    
               qwid:   0.10000E-01
                rcs:    0.0000    
            lambdas:    1.0000    
-------------------------------------------------------------------------------
L=0  Nkbl=1  erefs: 0.17977+309
L=1  Nkbl=1  erefs: 0.17977+309
L=2  Nkbl=1  erefs: 0.17977+309
===============================================================================
</basis_specs>

atom: Called for Si                    (Z =  14)

read_vps: Pseudopotential generation method:
read_vps: ATM3      Troullier-Martins                       
Valence charge in pseudo generation:    4.00000

xc_check: Exchange-correlation functional:
xc_check: Ceperley-Alder
V l=0 = -2*Zval/r beyond r=  2.5494
V l=1 = -2*Zval/r beyond r=  2.5494
V l=2 = -2*Zval/r beyond r=  2.5494
All V_l potentials equal beyond r=  1.8652
This should be close to max(r_c) in ps generation
All pots = -2*Zval/r beyond r=  2.5494
Using large-core scheme (fit) for Vlocal

atom: Estimated core radius    2.54944

atom: Including non-local core corrections could be a good idea
Fit of Vlocal with continuous 2nd derivative
Fitting vlocal at       1.9364
Choosing vlocal chloc cutoff:776  2.853027
qtot up to nchloc:    3.99976076
atom: Maximum radius for chlocal:    2.85303
atom: Maximum radius for r*vlocal+2*Zval:    2.85303

KBgen: Kleinman-Bylander projectors: 
GHOST: No ghost state for L =  0
   l= 0   rc=  1.936440   el= -0.796617   Ekb=  4.661340   kbcos=  0.299756
GHOST: No ghost state for L =  1
   l= 1   rc=  1.936440   el= -0.307040   Ekb=  1.494238   kbcos=  0.301471
GHOST: No ghost state for L =  2
   l= 2   rc=  1.936440   el=  0.002313   Ekb= -2.808672   kbcos= -0.054903

KBgen: Total number of Kleinman-Bylander projectors:   9
atom: -------------------------------------------------------------------------

atom: SANKEY-TYPE ORBITALS:

SPLIT: Orbitals with angular momentum L= 0

SPLIT: Basis orbitals for state 3s

SPLIT: PAO cut-off radius determined from an
SPLIT: energy shift=  0.020000 Ry

   izeta = 1
                 lambda =    1.000000
                     rc =    5.007352
                 energy =   -0.777669
                kinetic =    0.573829
    potential(screened) =   -1.351499
       potential(ionic) =   -3.827441

SPLIT: Orbitals with angular momentum L= 1

SPLIT: Basis orbitals for state 3p

SPLIT: PAO cut-off radius determined from an
SPLIT: energy shift=  0.020000 Ry

   izeta = 1
                 lambda =    1.000000
                     rc =    6.270866
                 energy =   -0.288955
                kinetic =    0.877930
    potential(screened) =   -1.166885
       potential(ionic) =   -3.426998
atom: Total number of Sankey-type orbitals:  4

atm_pop: Valence configuration (for local Pseudopot. screening):
 3s( 2.00)                                                            
 3p( 2.00)                                                            
Vna: chval, zval:    4.00000   4.00000

Vna:  Cut-off radius for the neutral-atom potential:   6.270866

atom: _________________________________________________________________________

prinput: Basis input 

PAO.BasisType split     

%block ChemicalSpeciesLabel
    1   14 Si                      # Species index, atomic number, species label
%endblock ChemicalSpeciesLabel

%block PAO.Basis                 # Define Basis set
# WARNING: This information might be incomplete!
Si                    2                    # Species label, number of l-shells
 n=3   0   1                         # n, l, Nzeta 
   5.007   
   1.000   
 n=3   1   1                         # n, l, Nzeta 
   6.271   
   1.000   
%endblock PAO.Basis

prinput: ----------------------------------------------------------------------

Dumping basis to NetCDF file Si.ion.nc
coor:   Atomic-coordinates input format  =     Fractional

siesta: Atomic coordinates (Bohr) and species
siesta:      0.00000   0.00000   0.00000  1        1
siesta:      2.56530   2.56530   2.56530  1        2

siesta: System type = bulk      

initatomlists: Number of atoms, orbitals, and projectors:      2     8    18

siesta: ******************** Simulation parameters ****************************
siesta:
siesta: The following are some of the parameters of the simulation.
siesta: A complete list of the parameters used, including default values,
siesta: can be found in file out.fdf
siesta:
redata: Spin configuration                          = collinear
redata: Number of spin components                   = 2
redata: Time-Reversal Symmetry                      = T
redata: Spin spiral                                 = F
redata: Long output                                 =   F
redata: Number of Atomic Species                    =        1
redata: Charge density info will appear in .RHO file
redata: Write Mulliken Pop.                         = NO
redata: Matel table size (NRTAB)                    =     1024
redata: Mesh Cutoff                                 =   130.0000 Ry
redata: Net charge of the system                    =     0.0000 |e|
redata: Min. number of SCF Iter                     =        0
redata: Max. number of SCF Iter                     =     1000
redata: SCF convergence failure will abort job
redata: SCF mix quantity                            = Hamiltonian
redata: Mix DM or H after convergence               =   F
redata: Recompute H after scf cycle                 =   F
redata: Mix DM in first SCF step                    =   T
redata: Write Pulay info on disk                    =   F
redata: New DM Occupancy tolerance                  = 0.000000000001
redata: No kicks to SCF
redata: DM Mixing Weight for Kicks                  =     0.5000
redata: Require Harris convergence for SCF          =   F
redata: Harris energy tolerance for SCF             =     0.000100 eV
redata: Require DM convergence for SCF              =   T
redata: DM tolerance for SCF                        =     0.000100
redata: Require EDM convergence for SCF             =   F
redata: EDM tolerance for SCF                       =     0.001000 eV
redata: Require H convergence for SCF               =   T
redata: Hamiltonian tolerance for SCF               =     0.001000 eV
redata: Require (free) Energy convergence for SCF   =   F
redata: (free) Energy tolerance for SCF             =     0.000100 eV
redata: Antiferro initial spin density              =   F
redata: Using DFT-D3 dispersion                     =   F
redata: Using Saved Data (generic)                  =   F
redata: Use continuation files for DM               =   F
redata: Neglect nonoverlap interactions             =   F
redata: Method of Calculation                       = Diagonalization
redata: Electronic Temperature                      =   299.9863 K
redata: Fix the spin of the system                  =   F
redata: Max. number of TDED Iter                    =        1
redata: Number of TDED substeps                     =        3
redata: Dynamics option                             = Force Constants Matrix Calculation
redata: Atomic displ for force constants            =     0.0212  Ang
redata: First atom to move                          =        1
redata: Last atom to move                           =        2
mix.SCF: Pulay mixing                            = Pulay
mix.SCF:    Variant                              = stable
mix.SCF:    History steps                        = 2
mix.SCF:    Linear mixing weight                 =     0.250000
mix.SCF:    Mixing weight                        =     0.250000
mix.SCF:    SVD condition                        = 0.1000E-07
mix.SCF: Spin-component mixing                   all
redata: Save all siesta data in one NC              =   F
redata: ***********************************************************************

%block SCF.Mixers
  Pulay
%endblock SCF.Mixers

%block SCF.Mixer.Pulay
  # Mixing method
  method pulay
  variant stable

  # Mixing options
  weight 0.2500
  weight.linear 0.2500
  history 2
%endblock SCF.Mixer.Pulay

DM_history_depth set to one for 'Forces' run
Size of DM history Fstack: 1
Total number of electrons:     8.000000
Total ionic charge:     8.000000

siesta: k-grid: Number of k-points = 1
siesta: k-point is Gamma-only

diag: Algorithm                                     = D&C
diag: Used triangular part                          = Lower
diag: Absolute tolerance                            =  0.100E-15
diag: Orthogonalization factor                      =  0.100E-05
diag: Memory factor                                 =  1.0000

superc: Internal auxiliary supercell:     5 x     5 x     5  =     125
superc: Number of atoms, orbitals, and projectors:    250   1000   2250


ts: **************************************************************
ts: Save H and S matrices                           =    F
ts: Save DM and EDM matrices                        =    F
ts: Only save the overlap matrix S                  =    F
ts: **************************************************************

************************ Begin: TS CHECKS AND WARNINGS ************************
************************ End: TS CHECKS AND WARNINGS **************************


                     ====================================
                        Begin FC step =      0
                        Undisplaced coordinates
                     ====================================

superc: Internal auxiliary supercell:     5 x     5 x     5  =     125
superc: Number of atoms, orbitals, and projectors:    250   1000   2250

outcell: Unit cell vectors (Ang):
        0.000000    2.715001    2.715001
        2.715001    0.000000    2.715001
        2.715001    2.715001    0.000000

outcell: Cell vector modules (Ang)   :    3.839591    3.839591    3.839591
outcell: Cell angles (23,13,12) (deg):     60.0000     60.0000     60.0000
outcell: Cell volume (Ang**3)        :     40.0258
<dSpData1D:S at geom step 0
  <sparsity:sparsity for geom step 0
    nrows_g=8 nrows=8 sparsity=33.0625 nnzs=2116, refcount: 7>
  <dData1D:(new from dSpData1D) n=2116, refcount: 1>
refcount: 1>
new_DM -- step:     1
Initializing Density Matrix...
DM filled with atomic data:
<dSpData2D:DM initialized from atoms
  <sparsity:sparsity for geom step 0
    nrows_g=8 nrows=8 sparsity=33.0625 nnzs=2116, refcount: 8>
  <dData2D:DM n=2116 m=2, refcount: 1>
refcount: 1>
     spin moment: {S} , |S| = {        0.0        0.0    4.00000 }     4.00000
No. of atoms with KB's overlaping orbs in proc 0. Max # of overlaps:      26      56

InitMesh: MESH = 24 x 24 x 24 = 13824
InitMesh: Mesh cutoff (required, used) =   130.000   161.974 Ry
New grid distribution [1]: sub = 2

stepf: Fermi-Dirac step function

siesta: Program's energy decomposition (eV):
siesta: Ebs     =       -46.737122
siesta: Eions   =       380.799132
siesta: Ena     =       115.501580
siesta: Ekin    =       115.571560
siesta: Enl     =        29.932767
siesta: Eso     =         0.000000
siesta: Edftu   =         0.000000
siesta: DEna    =        -8.119880
siesta: DUscf   =         1.765357
siesta: DUext   =         0.000000
siesta: Ex      =       -58.139025
siesta: Ec      =       -10.407993
siesta: Exc     =       -68.547018
siesta: EbV     =         0.000000
siesta: eta*DQ  =         0.000000
siesta: Emadel  =         0.000000
siesta: Emeta   =         0.000000
siesta: Emolmec =         0.000000
siesta: Ekinion =         0.000000
siesta: Eharris =      -173.638790
siesta: Etot    =      -194.694766
siesta: FreeEng =      -194.694766

        iscf     Eharris(eV)        E_KS(eV)     FreeEng(eV)     dDmax    Ef(eV) dHmax(eV)
   scf:    1     -173.638790     -194.694766     -194.694766  0.726175 -2.357785  2.041232
     spin moment: {S} , |S| = {        0.0        0.0    0.00000 }     0.00000
timer: Routine,Calls,Time,% = IterSCF        1       0.013  14.43
   scf:    2     -194.694767     -194.694767     -194.694767  0.000000 -2.134117  1.530924
     spin moment: {S} , |S| = {        0.0        0.0    0.00000 }     0.00000
   scf:    3     -194.694767     -194.694767     -194.694767  0.000000 -1.348957  0.000001
     spin moment: {S} , |S| = {        0.0        0.0    0.00000 }     0.00000

SCF Convergence by DM+H criterion
max |DM_out - DM_in|         :     0.0000000000
max |H_out - H_in|      (eV) :     0.0000007228
SCF cycle converged after 3 iterations

Using DM_out to compute the final energy and forces
No. of atoms with KB's overlaping orbs in proc 0. Max # of overlaps:      26      56

siesta: E_KS(eV) =             -194.6948

siesta: E_KS - E_eggbox =      -194.6948
     spin moment: {S} , |S| = {        0.0        0.0    0.00000 }     0.00000

siesta: Atomic forces (eV/Ang):
----------------------------------------
   Tot    0.000000    0.000000   -0.000000
----------------------------------------
   Max    0.000000
   Res    0.000000    sqrt( Sum f_i^2 / 3N )
----------------------------------------
   Max    0.000000    constrained

Stress tensor Voigt[x,y,z,yz,xz,xy] (kbar):     -515.34     -515.34     -515.34       -0.00       -0.00       -0.00
(Free)E + p*V (eV/cell)     -181.8204
Target enthalpy (eV/cell)     -194.6948

siesta: Calculating polarization. 

siesta: Macroscopic polarization for spin Up:

siesta: Macroscopic polarization per unit cell (a.u.):
siesta: Along the lattice vectors        3.627888      3.627888     10.883664
siesta: Along cartesian directions      10.261217     10.261217      5.130608

siesta: Macroscopic polarization per unit cell (Debye):
siesta: Along the lattice vectors        9.221172      9.221172     27.663515
siesta: Along cartesian directions      26.081412     26.081412     13.040706

siesta: Macroscopic polarization for spin Down:

siesta: Macroscopic polarization per unit cell (a.u.):
siesta: Along the lattice vectors        3.627888      3.627888     10.883664
siesta: Along cartesian directions      10.261217     10.261217      5.130608

siesta: Macroscopic polarization per unit cell (Debye):
siesta: Along the lattice vectors        9.221172      9.221172     27.663515
siesta: Along cartesian directions      26.081412     26.081412     13.040706

siesta: Sum along cartesian directions (a.u.): 
siesta:      20.522434     20.522434     10.261217

siesta: Sum along cartesian directions (Debye): 
siesta:      52.162824     52.162824     26.081412

obc: Macroscopic polarization for spin Up:

obc: Macroscopic polarization per unit cell along the lattice vectors (Bohr): 
obc:      3.627888      3.627888     10.883664

obc: Macroscopic polarization for spin Down:

obc: Macroscopic polarization per unit cell along the lattice vectors (Bohr): 
obc:      3.627888      3.627888     10.883664

                     ====================================
                        Begin FC step =      1
                         displace atom 1
                         in direction 1 by -0.021167 Ang
                     ====================================

superc: Internal auxiliary supercell:     5 x     5 x     5  =     125
superc: Number of atoms, orbitals, and projectors:    250   1000   2250

outcell: Unit cell vectors (Ang):
        0.000000    2.715001    2.715001
        2.715001    0.000000    2.715001
        2.715001    2.715001    0.000000

outcell: Cell vector modules (Ang)   :    3.839591    3.839591    3.839591
outcell: Cell angles (23,13,12) (deg):     60.0000     60.0000     60.0000
outcell: Cell volume (Ang**3)        :     40.0258
<dSpData1D:S at geom step 1
  <sparsity:sparsity for geom step 1
    nrows_g=8 nrows=8 sparsity=33.0625 nnzs=2116, refcount: 7>
  <dData1D:(new from dSpData1D) n=2116, refcount: 1>
refcount: 1>
new_DM -- step:     2
Re-using DM from previous geometries...
Number of DMs in history: 1
 DM extrapolation coefficients: 
1   1.00000
New DM after history re-use:
<dSpData2D:SpM extrapolated using coords
  <sparsity:sparsity for geom step 1
    nrows_g=8 nrows=8 sparsity=33.0625 nnzs=2116, refcount: 9>
  <dData2D:(temp array for extrapolation) n=2116 m=2, refcount: 1>
refcount: 1>
     spin moment: {S} , |S| = {        0.0        0.0   -0.00000 }    -0.00000
No. of atoms with KB's overlaping orbs in proc 0. Max # of overlaps:      26      56

InitMesh: MESH = 24 x 24 x 24 = 13824
InitMesh: Mesh cutoff (required, used) =   130.000   161.974 Ry
New grid distribution [1]: sub = 2

        iscf     Eharris(eV)        E_KS(eV)     FreeEng(eV)     dDmax    Ef(eV) dHmax(eV)
   scf:    1     -194.678419     -194.687788     -194.687788  0.009529 -1.349260  0.037791
     spin moment: {S} , |S| = {        0.0        0.0    0.00000 }     0.00000
   scf:    2     -194.687778     -194.687785     -194.687785  0.000502 -1.349101  0.002508
     spin moment: {S} , |S| = {        0.0        0.0    0.00000 }     0.00000
   scf:    3     -194.687788     -194.687788     -194.687788  0.000403 -1.349103  0.000415
     spin moment: {S} , |S| = {        0.0        0.0    0.00000 }     0.00000
   scf:    4     -194.687789     -194.687789     -194.687789  0.000059 -1.349102  0.000064
     spin moment: {S} , |S| = {        0.0        0.0   -0.00000 }    -0.00000

SCF Convergence by DM+H criterion
max |DM_out - DM_in|         :     0.0000591820
max |H_out - H_in|      (eV) :     0.0000635928
SCF cycle converged after 4 iterations

Using DM_out to compute the final energy and forces
No. of atoms with KB's overlaping orbs in proc 0. Max # of overlaps:      26      56

siesta: E_KS(eV) =             -194.6878
     spin moment: {S} , |S| = {        0.0        0.0   -0.00000 }    -0.00000

siesta: Atomic forces (eV/Ang):
----------------------------------------
   Tot   -0.010426   -0.000000   -0.000000
----------------------------------------
   Max    0.795751
   Res    0.456428    sqrt( Sum f_i^2 / 3N )
----------------------------------------
   Max    0.795751    constrained

Stress tensor Voigt[x,y,z,yz,xz,xy] (kbar):     -518.02     -518.40     -518.40       23.80       -0.00       -0.00
(Free)E + p*V (eV/cell)     -181.7402
Target enthalpy (eV/cell)     -194.6878

                     ====================================
                        Begin FC step =      2
                         displace atom 1
                         in direction 1 by  0.021167 Ang
                     ====================================

superc: Internal auxiliary supercell:     5 x     5 x     5  =     125
superc: Number of atoms, orbitals, and projectors:    250   1000   2250

outcell: Unit cell vectors (Ang):
        0.000000    2.715001    2.715001
        2.715001    0.000000    2.715001
        2.715001    2.715001    0.000000

outcell: Cell vector modules (Ang)   :    3.839591    3.839591    3.839591
outcell: Cell angles (23,13,12) (deg):     60.0000     60.0000     60.0000
outcell: Cell volume (Ang**3)        :     40.0258
<dSpData1D:S at geom step 2
  <sparsity:sparsity for geom step 2
    nrows_g=8 nrows=8 sparsity=33.0625 nnzs=2116, refcount: 7>
  <dData1D:(new from dSpData1D) n=2116, refcount: 1>
refcount: 1>
new_DM -- step:     3
Re-using DM from previous geometries...
Number of DMs in history: 1
 DM extrapolation coefficients: 
1   1.00000
New DM after history re-use:
<dSpData2D:SpM extrapolated using coords
  <sparsity:sparsity for geom step 2
    nrows_g=8 nrows=8 sparsity=33.0625 nnzs=2116, refcount: 9>
  <dData2D:(temp array for extrapolation) n=2116 m=2, refcount: 1>
refcount: 1>
     spin moment: {S} , |S| = {        0.0        0.0   -0.00000 }    -0.00000
No. of atoms with KB's overlaping orbs in proc 0. Max # of overlaps:      26      56

InitMesh: MESH = 24 x 24 x 24 = 13824
InitMesh: Mesh cutoff (required, used) =   130.000   161.974 Ry
New grid distribution [1]: sub = 2

        iscf     Eharris(eV)        E_KS(eV)     FreeEng(eV)     dDmax    Ef(eV) dHmax(eV)
   scf:    1     -194.678419     -194.687788     -194.687788  0.009529 -1.349260  0.037791
     spin moment: {S} , |S| = {        0.0        0.0    0.00000 }     0.00000
   scf:    2     -194.687778     -194.687785     -194.687785  0.000502 -1.349101  0.002508
     spin moment: {S} , |S| = {        0.0        0.0   -0.00000 }    -0.00000
   scf:    3     -194.687788     -194.687788     -194.687788  0.000403 -1.349103  0.000415
     spin moment: {S} , |S| = {        0.0        0.0   -0.00000 }    -0.00000
   scf:    4     -194.687789     -194.687789     -194.687789  0.000059 -1.349102  0.000064
     spin moment: {S} , |S| = {        0.0        0.0    0.00000 }     0.00000

SCF Convergence by DM+H criterion
max |DM_out - DM_in|         :     0.0000591820
max |H_out - H_in|      (eV) :     0.0000635927
SCF cycle converged after 4 iterations

Using DM_out to compute the final energy and forces
No. of atoms with KB's overlaping orbs in proc 0. Max # of overlaps:      26      56

siesta: E_KS(eV) =             -194.6878
     spin moment: {S} , |S| = {        0.0        0.0    0.00000 }     0.00000

siesta: Atomic forces (eV/Ang):
----------------------------------------
   Tot    0.010426    0.000000    0.000000
----------------------------------------
   Max    0.795752
   Res    0.456428    sqrt( Sum f_i^2 / 3N )
----------------------------------------
   Max    0.795752    constrained

Stress tensor Voigt[x,y,z,yz,xz,xy] (kbar):     -518.02     -518.40     -518.40      -23.80       -0.00       -0.00
(Free)E + p*V (eV/cell)     -181.7402
Target enthalpy (eV/cell)     -194.6878

siesta: Calculating polarization. 

siesta: Macroscopic polarization for spin Up:

siesta: Macroscopic polarization per unit cell (a.u.):
siesta: Along the lattice vectors        3.627946     10.883621     10.883621
siesta: Along cartesian directions      15.391765     10.261228     10.261228

siesta: Macroscopic polarization per unit cell (Debye):
siesta: Along the lattice vectors        9.221320     27.663406     27.663406
siesta: Along cartesian directions      39.121964     26.081439     26.081439

siesta: Macroscopic polarization for spin Down:

siesta: Macroscopic polarization per unit cell (a.u.):
siesta: Along the lattice vectors        3.627946     10.883621     10.883621
siesta: Along cartesian directions      15.391765     10.261228     10.261228

siesta: Macroscopic polarization per unit cell (Debye):
siesta: Along the lattice vectors        9.221320     27.663406     27.663406
siesta: Along cartesian directions      39.121964     26.081439     26.081439

siesta: Sum along cartesian directions (a.u.): 
siesta:      30.783529     20.522456     20.522456

siesta: Sum along cartesian directions (Debye): 
siesta:      78.243927     52.162879     52.162879

obc: Macroscopic polarization for spin Up:

obc: Macroscopic polarization per unit cell along the lattice vectors (Bohr): 
obc:      3.627946     10.883621     10.883621

obc: Macroscopic polarization for spin Down:

obc: Macroscopic polarization per unit cell along the lattice vectors (Bohr): 
obc:      3.627946     10.883621     10.883621

                     ====================================
                        Begin FC step =      3
                         displace atom 1
                         in direction 2 by -0.021167 Ang
                     ====================================

superc: Internal auxiliary supercell:     5 x     5 x     5  =     125
superc: Number of atoms, orbitals, and projectors:    250   1000   2250

outcell: Unit cell vectors (Ang):
        0.000000    2.715001    2.715001
        2.715001    0.000000    2.715001
        2.715001    2.715001    0.000000

outcell: Cell vector modules (Ang)   :    3.839591    3.839591    3.839591
outcell: Cell angles (23,13,12) (deg):     60.0000     60.0000     60.0000
outcell: Cell volume (Ang**3)        :     40.0258
<dSpData1D:S at geom step 3
  <sparsity:sparsity for geom step 3
    nrows_g=8 nrows=8 sparsity=33.0625 nnzs=2116, refcount: 7>
  <dData1D:(new from dSpData1D) n=2116, refcount: 1>
refcount: 1>
new_DM -- step:     4
Re-using DM from previous geometries...
Number of DMs in history: 1
 DM extrapolation coefficients: 
1   1.00000
New DM after history re-use:
<dSpData2D:SpM extrapolated using coords
  <sparsity:sparsity for geom step 3
    nrows_g=8 nrows=8 sparsity=33.0625 nnzs=2116, refcount: 9>
  <dData2D:(temp array for extrapolation) n=2116 m=2, refcount: 1>
refcount: 1>
     spin moment: {S} , |S| = {        0.0        0.0   -0.00000 }    -0.00000
No. of atoms with KB's overlaping orbs in proc 0. Max # of overlaps:      26      56

InitMesh: MESH = 24 x 24 x 24 = 13824
InitMesh: Mesh cutoff (required, used) =   130.000   161.974 Ry
New grid distribution [1]: sub = 2

        iscf     Eharris(eV)        E_KS(eV)     FreeEng(eV)     dDmax    Ef(eV) dHmax(eV)
   scf:    1     -194.678419     -194.687788     -194.687788  0.009529 -1.349260  0.037791
     spin moment: {S} , |S| = {        0.0        0.0   -0.00000 }    -0.00000
   scf:    2     -194.687778     -194.687785     -194.687785  0.000502 -1.349101  0.002508
     spin moment: {S} , |S| = {        0.0        0.0   -0.00000 }    -0.00000
   scf:    3     -194.687788     -194.687788     -194.687788  0.000403 -1.349103  0.000415
     spin moment: {S} , |S| = {        0.0        0.0   -0.00000 }    -0.00000
   scf:    4     -194.687789     -194.687789     -194.687789  0.000059 -1.349102  0.000064
     spin moment: {S} , |S| = {        0.0        0.0   -0.00000 }    -0.00000

SCF Convergence by DM+H criterion
max |DM_out - DM_in|         :     0.0000591820
max |H_out - H_in|      (eV) :     0.0000635928
SCF cycle converged after 4 iterations

Using DM_out to compute the final energy and forces
No. of atoms with KB's overlaping orbs in proc 0. Max # of overlaps:      26      56

siesta: E_KS(eV) =             -194.6878
     spin moment: {S} , |S| = {        0.0        0.0   -0.00000 }    -0.00000

siesta: Atomic forces (eV/Ang):
----------------------------------------
   Tot   -0.000000   -0.010426   -0.000000
----------------------------------------
   Max    0.795751
   Res    0.456428    sqrt( Sum f_i^2 / 3N )
----------------------------------------
   Max    0.795751    constrained

Stress tensor Voigt[x,y,z,yz,xz,xy] (kbar):     -518.40     -518.02     -518.40       -0.00       23.80       -0.00
(Free)E + p*V (eV/cell)     -181.7402
Target enthalpy (eV/cell)     -194.6878

                     ====================================
                        Begin FC step =      4
                         displace atom 1
                         in direction 2 by  0.021167 Ang
                     ====================================

superc: Internal auxiliary supercell:     5 x     5 x     5  =     125
superc: Number of atoms, orbitals, and projectors:    250   1000   2250

outcell: Unit cell vectors (Ang):
        0.000000    2.715001    2.715001
        2.715001    0.000000    2.715001
        2.715001    2.715001    0.000000

outcell: Cell vector modules (Ang)   :    3.839591    3.839591    3.839591
outcell: Cell angles (23,13,12) (deg):     60.0000     60.0000     60.0000
outcell: Cell volume (Ang**3)        :     40.0258
<dSpData1D:S at geom step 4
  <sparsity:sparsity for geom step 4
    nrows_g=8 nrows=8 sparsity=33.0625 nnzs=2116, refcount: 7>
  <dData1D:(new from dSpData1D) n=2116, refcount: 1>
refcount: 1>
new_DM -- step:     5
Re-using DM from previous geometries...
Number of DMs in history: 1
 DM extrapolation coefficients: 
1   1.00000
New DM after history re-use:
<dSpData2D:SpM extrapolated using coords
  <sparsity:sparsity for geom step 4
    nrows_g=8 nrows=8 sparsity=33.0625 nnzs=2116, refcount: 9>
  <dData2D:(temp array for extrapolation) n=2116 m=2, refcount: 1>
refcount: 1>
     spin moment: {S} , |S| = {        0.0        0.0   -0.00000 }    -0.00000
No. of atoms with KB's overlaping orbs in proc 0. Max # of overlaps:      26      56

InitMesh: MESH = 24 x 24 x 24 = 13824
InitMesh: Mesh cutoff (required, used) =   130.000   161.974 Ry
New grid distribution [1]: sub = 2

        iscf     Eharris(eV)        E_KS(eV)     FreeEng(eV)     dDmax    Ef(eV) dHmax(eV)
   scf:    1     -194.678419     -194.687788     -194.687788  0.009529 -1.349260  0.037791
     spin moment: {S} , |S| = {        0.0        0.0    0.00000 }     0.00000
   scf:    2     -194.687778     -194.687785     -194.687785  0.000502 -1.349101  0.002508
     spin moment: {S} , |S| = {        0.0        0.0   -0.00000 }    -0.00000
   scf:    3     -194.687788     -194.687788     -194.687788  0.000403 -1.349103  0.000415
     spin moment: {S} , |S| = {        0.0        0.0   -0.00000 }    -0.00000
   scf:    4     -194.687789     -194.687789     -194.687789  0.000059 -1.349102  0.000064
     spin moment: {S} , |S| = {        0.0        0.0    0.00000 }     0.00000

SCF Convergence by DM+H criterion
max |DM_out - DM_in|         :     0.0000591820
max |H_out - H_in|      (eV) :     0.0000635927
SCF cycle converged after 4 iterations

Using DM_out to compute the final energy and forces
No. of atoms with KB's overlaping orbs in proc 0. Max # of overlaps:      26      56

siesta: E_KS(eV) =             -194.6878
     spin moment: {S} , |S| = {        0.0        0.0    0.00000 }     0.00000

siesta: Atomic forces (eV/Ang):
----------------------------------------
   Tot    0.000000    0.010426    0.000000
----------------------------------------
   Max    0.795752
   Res    0.456428    sqrt( Sum f_i^2 / 3N )
----------------------------------------
   Max    0.795752    constrained

Stress tensor Voigt[x,y,z,yz,xz,xy] (kbar):     -518.40     -518.02     -518.40       -0.00      -23.80       -0.00
(Free)E + p*V (eV/cell)     -181.7402
Target enthalpy (eV/cell)     -194.6878

siesta: Calculating polarization. 

siesta: Macroscopic polarization for spin Up:

siesta: Macroscopic polarization per unit cell (a.u.):
siesta: Along the lattice vectors       10.883621      3.627946     10.883621
siesta: Along cartesian directions      10.261228     15.391765     10.261228

siesta: Macroscopic polarization per unit cell (Debye):
siesta: Along the lattice vectors       27.663406      9.221320     27.663406
siesta: Along cartesian directions      26.081439     39.121964     26.081439

siesta: Macroscopic polarization for spin Down:

siesta: Macroscopic polarization per unit cell (a.u.):
siesta: Along the lattice vectors       10.883621      3.627946     10.883621
siesta: Along cartesian directions      10.261228     15.391765     10.261228

siesta: Macroscopic polarization per unit cell (Debye):
siesta: Along the lattice vectors       27.663406      9.221320     27.663406
siesta: Along cartesian directions      26.081439     39.121964     26.081439

siesta: Sum along cartesian directions (a.u.): 
siesta:      20.522456     30.783529     20.522456

siesta: Sum along cartesian directions (Debye): 
siesta:      52.162879     78.243927     52.162879

obc: Macroscopic polarization for spin Up:

obc: Macroscopic polarization per unit cell along the lattice vectors (Bohr): 
obc:     10.883621      3.627946     10.883621

obc: Macroscopic polarization for spin Down:

obc: Macroscopic polarization per unit cell along the lattice vectors (Bohr): 
obc:     10.883621      3.627946     10.883621

                     ====================================
                        Begin FC step =      5
                         displace atom 1
                         in direction 3 by -0.021167 Ang
                     ====================================

superc: Internal auxiliary supercell:     5 x     5 x     5  =     125
superc: Number of atoms, orbitals, and projectors:    250   1000   2250

outcell: Unit cell vectors (Ang):
        0.000000    2.715001    2.715001
        2.715001    0.000000    2.715001
        2.715001    2.715001    0.000000

outcell: Cell vector modules (Ang)   :    3.839591    3.839591    3.839591
outcell: Cell angles (23,13,12) (deg):     60.0000     60.0000     60.0000
outcell: Cell volume (Ang**3)        :     40.0258
<dSpData1D:S at geom step 5
  <sparsity:sparsity for geom step 5
    nrows_g=8 nrows=8 sparsity=33.0625 nnzs=2116, refcount: 7>
  <dData1D:(new from dSpData1D) n=2116, refcount: 1>
refcount: 1>
new_DM -- step:     6
Re-using DM from previous geometries...
Number of DMs in history: 1
 DM extrapolation coefficients: 
1   1.00000
New DM after history re-use:
<dSpData2D:SpM extrapolated using coords
  <sparsity:sparsity for geom step 5
    nrows_g=8 nrows=8 sparsity=33.0625 nnzs=2116, refcount: 9>
  <dData2D:(temp array for extrapolation) n=2116 m=2, refcount: 1>
refcount: 1>
     spin moment: {S} , |S| = {        0.0        0.0    0.00000 }     0.00000
No. of atoms with KB's overlaping orbs in proc 0. Max # of overlaps:      26      56

InitMesh: MESH = 24 x 24 x 24 = 13824
InitMesh: Mesh cutoff (required, used) =   130.000   161.974 Ry
New grid distribution [1]: sub = 2

        iscf     Eharris(eV)        E_KS(eV)     FreeEng(eV)     dDmax    Ef(eV) dHmax(eV)
   scf:    1     -194.678419     -194.687788     -194.687788  0.009529 -1.349260  0.037791
     spin moment: {S} , |S| = {        0.0        0.0   -0.00000 }    -0.00000
   scf:    2     -194.687778     -194.687785     -194.687785  0.000502 -1.349101  0.002508
     spin moment: {S} , |S| = {        0.0        0.0    0.00000 }     0.00000
   scf:    3     -194.687788     -194.687788     -194.687788  0.000403 -1.349103  0.000415
     spin moment: {S} , |S| = {        0.0        0.0    0.00000 }     0.00000
   scf:    4     -194.687789     -194.687789     -194.687789  0.000059 -1.349102  0.000064
     spin moment: {S} , |S| = {        0.0        0.0   -0.00000 }    -0.00000

SCF Convergence by DM+H criterion
max |DM_out - DM_in|         :     0.0000591820
max |H_out - H_in|      (eV) :     0.0000635928
SCF cycle converged after 4 iterations

Using DM_out to compute the final energy and forces
No. of atoms with KB's overlaping orbs in proc 0. Max # of overlaps:      26      56

siesta: E_KS(eV) =             -194.6878
     spin moment: {S} , |S| = {        0.0        0.0   -0.00000 }    -0.00000

siesta: Atomic forces (eV/Ang):
----------------------------------------
   Tot   -0.000000   -0.000000   -0.010426
----------------------------------------
   Max    0.795751
   Res    0.456428    sqrt( Sum f_i^2 / 3N )
----------------------------------------
   Max    0.795751    constrained

Stress tensor Voigt[x,y,z,yz,xz,xy] (kbar):     -518.40     -518.40     -518.02       -0.00       -0.00       23.80
(Free)E + p*V (eV/cell)     -181.7402
Target enthalpy (eV/cell)     -194.6878

                     ====================================
                        Begin FC step =      6
                         displace atom 1
                         in direction 3 by  0.021167 Ang
                     ====================================

superc: Internal auxiliary supercell:     5 x     5 x     5  =     125
superc: Number of atoms, orbitals, and projectors:    250   1000   2250

outcell: Unit cell vectors (Ang):
        0.000000    2.715001    2.715001
        2.715001    0.000000    2.715001
        2.715001    2.715001    0.000000

outcell: Cell vector modules (Ang)   :    3.839591    3.839591    3.839591
outcell: Cell angles (23,13,12) (deg):     60.0000     60.0000     60.0000
outcell: Cell volume (Ang**3)        :     40.0258
<dSpData1D:S at geom step 6
  <sparsity:sparsity for geom step 6
    nrows_g=8 nrows=8 sparsity=33.0625 nnzs=2116, refcount: 7>
  <dData1D:(new from dSpData1D) n=2116, refcount: 1>
refcount: 1>
new_DM -- step:     7
Re-using DM from previous geometries...
Number of DMs in history: 1
 DM extrapolation coefficients: 
1   1.00000
New DM after history re-use:
<dSpData2D:SpM extrapolated using coords
  <sparsity:sparsity for geom step 6
    nrows_g=8 nrows=8 sparsity=33.0625 nnzs=2116, refcount: 9>
  <dData2D:(temp array for extrapolation) n=2116 m=2, refcount: 1>
refcount: 1>
     spin moment: {S} , |S| = {        0.0        0.0   -0.00000 }    -0.00000
No. of atoms with KB's overlaping orbs in proc 0. Max # of overlaps:      26      56

InitMesh: MESH = 24 x 24 x 24 = 13824
InitMesh: Mesh cutoff (required, used) =   130.000   161.974 Ry
New grid distribution [1]: sub = 2

        iscf     Eharris(eV)        E_KS(eV)     FreeEng(eV)     dDmax    Ef(eV) dHmax(eV)
   scf:    1     -194.678419     -194.687788     -194.687788  0.009529 -1.349260  0.037791
     spin moment: {S} , |S| = {        0.0        0.0    0.00000 }     0.00000
   scf:    2     -194.687778     -194.687785     -194.687785  0.000502 -1.349101  0.002508
     spin moment: {S} , |S| = {        0.0        0.0   -0.00000 }    -0.00000
   scf:    3     -194.687788     -194.687788     -194.687788  0.000403 -1.349103  0.000415
     spin moment: {S} , |S| = {        0.0        0.0   -0.00000 }    -0.00000
   scf:    4     -194.687789     -194.687789     -194.687789  0.000059 -1.349102  0.000064
     spin moment: {S} , |S| = {        0.0        0.0   -0.00000 }    -0.00000

SCF Convergence by DM+H criterion
max |DM_out - DM_in|         :     0.0000591820
max |H_out - H_in|      (eV) :     0.0000635927
SCF cycle converged after 4 iterations

Using DM_out to compute the final energy and forces
No. of atoms with KB's overlaping orbs in proc 0. Max # of overlaps:      26      56

siesta: E_KS(eV) =             -194.6878
     spin moment: {S} , |S| = {        0.0        0.0   -0.00000 }    -0.00000

siesta: Atomic forces (eV/Ang):
----------------------------------------
   Tot    0.000000    0.000000    0.010426
----------------------------------------
   Max    0.795752
   Res    0.456428    sqrt( Sum f_i^2 / 3N )
----------------------------------------
   Max    0.795752    constrained

Stress tensor Voigt[x,y,z,yz,xz,xy] (kbar):     -518.40     -518.40     -518.02       -0.00       -0.00      -23.80
(Free)E + p*V (eV/cell)     -181.7402
Target enthalpy (eV/cell)     -194.6878

siesta: Calculating polarization. 

siesta: Macroscopic polarization for spin Up:

siesta: Macroscopic polarization per unit cell (a.u.):
siesta: Along the lattice vectors       10.883621     10.883621      3.627946
siesta: Along cartesian directions      10.261228     10.261228     15.391765

siesta: Macroscopic polarization per unit cell (Debye):
siesta: Along the lattice vectors       27.663406     27.663406      9.221320
siesta: Along cartesian directions      26.081439     26.081439     39.121964

siesta: Macroscopic polarization for spin Down:

siesta: Macroscopic polarization per unit cell (a.u.):
siesta: Along the lattice vectors       10.883621     10.883621      3.627946
siesta: Along cartesian directions      10.261228     10.261228     15.391765

siesta: Macroscopic polarization per unit cell (Debye):
siesta: Along the lattice vectors       27.663406     27.663406      9.221320
siesta: Along cartesian directions      26.081439     26.081439     39.121964

siesta: Sum along cartesian directions (a.u.): 
siesta:      20.522456     20.522456     30.783529

siesta: Sum along cartesian directions (Debye): 
siesta:      52.162879     52.162879     78.243927

obc: Macroscopic polarization for spin Up:

obc: Macroscopic polarization per unit cell along the lattice vectors (Bohr): 
obc:     10.883621     10.883621      3.627946

obc: Macroscopic polarization for spin Down:

obc: Macroscopic polarization per unit cell along the lattice vectors (Bohr): 
obc:     10.883621     10.883621      3.627946

                     ====================================
                        Begin FC step =      7
                         displace atom 2
                         in direction 1 by -0.021167 Ang
                     ====================================

superc: Internal auxiliary supercell:     5 x     5 x     5  =     125
superc: Number of atoms, orbitals, and projectors:    250   1000   2250

outcell: Unit cell vectors (Ang):
        0.000000    2.715001    2.715001
        2.715001    0.000000    2.715001
        2.715001    2.715001    0.000000

outcell: Cell vector modules (Ang)   :    3.839591    3.839591    3.839591
outcell: Cell angles (23,13,12) (deg):     60.0000     60.0000     60.0000
outcell: Cell volume (Ang**3)        :     40.0258
<dSpData1D:S at geom step 7
  <sparsity:sparsity for geom step 7
    nrows_g=8 nrows=8 sparsity=33.0625 nnzs=2116, refcount: 7>
  <dData1D:(new from dSpData1D) n=2116, refcount: 1>
refcount: 1>
new_DM -- step:     8
Re-using DM from previous geometries...
Number of DMs in history: 1
 DM extrapolation coefficients: 
1   1.00000
New DM after history re-use:
<dSpData2D:SpM extrapolated using coords
  <sparsity:sparsity for geom step 7
    nrows_g=8 nrows=8 sparsity=33.0625 nnzs=2116, refcount: 9>
  <dData2D:(temp array for extrapolation) n=2116 m=2, refcount: 1>
refcount: 1>
     spin moment: {S} , |S| = {        0.0        0.0   -0.00000 }    -0.00000
No. of atoms with KB's overlaping orbs in proc 0. Max # of overlaps:      26      56

InitMesh: MESH = 24 x 24 x 24 = 13824
InitMesh: Mesh cutoff (required, used) =   130.000   161.974 Ry
New grid distribution [1]: sub = 2

        iscf     Eharris(eV)        E_KS(eV)     FreeEng(eV)     dDmax    Ef(eV) dHmax(eV)
   scf:    1     -194.678419     -194.687788     -194.687788  0.009529 -1.349260  0.037791
     spin moment: {S} , |S| = {        0.0        0.0    0.00000 }     0.00000
   scf:    2     -194.687778     -194.687785     -194.687785  0.000502 -1.349101  0.002508
     spin moment: {S} , |S| = {        0.0        0.0   -0.00000 }    -0.00000
   scf:    3     -194.687788     -194.687788     -194.687788  0.000403 -1.349103  0.000415
     spin moment: {S} , |S| = {        0.0        0.0    0.00000 }     0.00000
   scf:    4     -194.687789     -194.687789     -194.687789  0.000059 -1.349102  0.000064
     spin moment: {S} , |S| = {        0.0        0.0    0.00000 }     0.00000

SCF Convergence by DM+H criterion
max |DM_out - DM_in|         :     0.0000591820
max |H_out - H_in|      (eV) :     0.0000635927
SCF cycle converged after 4 iterations

Using DM_out to compute the final energy and forces
No. of atoms with KB's overlaping orbs in proc 0. Max # of overlaps:      26      56

siesta: E_KS(eV) =             -194.6878
     spin moment: {S} , |S| = {        0.0        0.0    0.00000 }     0.00000

siesta: Atomic forces (eV/Ang):
----------------------------------------
   Tot   -0.010426   -0.000000   -0.000000
----------------------------------------
   Max    0.795752
   Res    0.456428    sqrt( Sum f_i^2 / 3N )
----------------------------------------
   Max    0.795752    constrained

Stress tensor Voigt[x,y,z,yz,xz,xy] (kbar):     -518.02     -518.40     -518.40      -23.80       -0.00       -0.00
(Free)E + p*V (eV/cell)     -181.7402
Target enthalpy (eV/cell)     -194.6878

                     ====================================
                        Begin FC step =      8
                         displace atom 2
                         in direction 1 by  0.021167 Ang
                     ====================================

superc: Internal auxiliary supercell:     5 x     5 x     5  =     125
superc: Number of atoms, orbitals, and projectors:    250   1000   2250

outcell: Unit cell vectors (Ang):
        0.000000    2.715001    2.715001
        2.715001    0.000000    2.715001
        2.715001    2.715001    0.000000

outcell: Cell vector modules (Ang)   :    3.839591    3.839591    3.839591
outcell: Cell angles (23,13,12) (deg):     60.0000     60.0000     60.0000
outcell: Cell volume (Ang**3)        :     40.0258
<dSpData1D:S at geom step 8
  <sparsity:sparsity for geom step 8
    nrows_g=8 nrows=8 sparsity=33.0625 nnzs=2116, refcount: 7>
  <dData1D:(new from dSpData1D) n=2116, refcount: 1>
refcount: 1>
new_DM -- step:     9
Re-using DM from previous geometries...
Number of DMs in history: 1
 DM extrapolation coefficients: 
1   1.00000
New DM after history re-use:
<dSpData2D:SpM extrapolated using coords
  <sparsity:sparsity for geom step 8
    nrows_g=8 nrows=8 sparsity=33.0625 nnzs=2116, refcount: 9>
  <dData2D:(temp array for extrapolation) n=2116 m=2, refcount: 1>
refcount: 1>
     spin moment: {S} , |S| = {        0.0        0.0    0.00000 }     0.00000
No. of atoms with KB's overlaping orbs in proc 0. Max # of overlaps:      26      56

InitMesh: MESH = 24 x 24 x 24 = 13824
InitMesh: Mesh cutoff (required, used) =   130.000   161.974 Ry
New grid distribution [1]: sub = 2

        iscf     Eharris(eV)        E_KS(eV)     FreeEng(eV)     dDmax    Ef(eV) dHmax(eV)
   scf:    1     -194.678419     -194.687788     -194.687788  0.009529 -1.349260  0.037791
     spin moment: {S} , |S| = {        0.0        0.0    0.00000 }     0.00000
   scf:    2     -194.687778     -194.687785     -194.687785  0.000502 -1.349101  0.002508
     spin moment: {S} , |S| = {        0.0        0.0    0.00000 }     0.00000
   scf:    3     -194.687788     -194.687788     -194.687788  0.000403 -1.349103  0.000415
     spin moment: {S} , |S| = {        0.0        0.0    0.00000 }     0.00000
   scf:    4     -194.687789     -194.687789     -194.687789  0.000059 -1.349102  0.000064
     spin moment: {S} , |S| = {        0.0        0.0    0.00000 }     0.00000

SCF Convergence by DM+H criterion
max |DM_out - DM_in|         :     0.0000591820
max |H_out - H_in|      (eV) :     0.0000635928
SCF cycle converged after 4 iterations

Using DM_out to compute the final energy and forces
No. of atoms with KB's overlaping orbs in proc 0. Max # of overlaps:      26      56

siesta: E_KS(eV) =             -194.6878
     spin moment: {S} , |S| = {        0.0        0.0    0.00000 }     0.00000

siesta: Atomic forces (eV/Ang):
----------------------------------------
   Tot    0.010426    0.000000    0.000000
----------------------------------------
   Max    0.795751
   Res    0.456428    sqrt( Sum f_i^2 / 3N )
----------------------------------------
   Max    0.795751    constrained

Stress tensor Voigt[x,y,z,yz,xz,xy] (kbar):     -518.02     -518.40     -518.40       23.80       -0.00       -0.00
(Free)E + p*V (eV/cell)     -181.7402
Target enthalpy (eV/cell)     -194.6878

siesta: Calculating polarization. 

siesta: Macroscopic polarization for spin Up:

siesta: Macroscopic polarization per unit cell (a.u.):
siesta: Along the lattice vectors        3.627931     10.883606     10.883606
siesta: Along cartesian directions      15.391743     10.261206     10.261206

siesta: Macroscopic polarization per unit cell (Debye):
siesta: Along the lattice vectors        9.221281     27.663367     27.663367
siesta: Along cartesian directions      39.121909     26.081385     26.081385

siesta: Macroscopic polarization for spin Down:

siesta: Macroscopic polarization per unit cell (a.u.):
siesta: Along the lattice vectors        3.627931     10.883606     10.883606
siesta: Along cartesian directions      15.391743     10.261206     10.261206

siesta: Macroscopic polarization per unit cell (Debye):
siesta: Along the lattice vectors        9.221281     27.663367     27.663367
siesta: Along cartesian directions      39.121909     26.081385     26.081385

siesta: Sum along cartesian directions (a.u.): 
siesta:      30.783486     20.522412     20.522412

siesta: Sum along cartesian directions (Debye): 
siesta:      78.243817     52.162769     52.162769

obc: Macroscopic polarization for spin Up:

obc: Macroscopic polarization per unit cell along the lattice vectors (Bohr): 
obc:      3.627931     10.883606     10.883606

obc: Macroscopic polarization for spin Down:

obc: Macroscopic polarization per unit cell along the lattice vectors (Bohr): 
obc:      3.627931     10.883606     10.883606

                     ====================================
                        Begin FC step =      9
                         displace atom 2
                         in direction 2 by -0.021167 Ang
                     ====================================

superc: Internal auxiliary supercell:     5 x     5 x     5  =     125
superc: Number of atoms, orbitals, and projectors:    250   1000   2250

outcell: Unit cell vectors (Ang):
        0.000000    2.715001    2.715001
        2.715001    0.000000    2.715001
        2.715001    2.715001    0.000000

outcell: Cell vector modules (Ang)   :    3.839591    3.839591    3.839591
outcell: Cell angles (23,13,12) (deg):     60.0000     60.0000     60.0000
outcell: Cell volume (Ang**3)        :     40.0258
<dSpData1D:S at geom step 9
  <sparsity:sparsity for geom step 9
    nrows_g=8 nrows=8 sparsity=33.0625 nnzs=2116, refcount: 7>
  <dData1D:(new from dSpData1D) n=2116, refcount: 1>
refcount: 1>
new_DM -- step:    10
Re-using DM from previous geometries...
Number of DMs in history: 1
 DM extrapolation coefficients: 
1   1.00000
New DM after history re-use:
<dSpData2D:SpM extrapolated using coords
  <sparsity:sparsity for geom step 9
    nrows_g=8 nrows=8 sparsity=33.0625 nnzs=2116, refcount: 9>
  <dData2D:(temp array for extrapolation) n=2116 m=2, refcount: 1>
refcount: 1>
     spin moment: {S} , |S| = {        0.0        0.0   -0.00000 }    -0.00000
No. of atoms with KB's overlaping orbs in proc 0. Max # of overlaps:      26      56

InitMesh: MESH = 24 x 24 x 24 = 13824
InitMesh: Mesh cutoff (required, used) =   130.000   161.974 Ry
New grid distribution [1]: sub = 2

        iscf     Eharris(eV)        E_KS(eV)     FreeEng(eV)     dDmax    Ef(eV) dHmax(eV)
   scf:    1     -194.678419     -194.687788     -194.687788  0.009529 -1.349260  0.037791
     spin moment: {S} , |S| = {        0.0        0.0    0.00000 }     0.00000
   scf:    2     -194.687778     -194.687785     -194.687785  0.000502 -1.349101  0.002508
     spin moment: {S} , |S| = {        0.0        0.0    0.00000 }     0.00000
   scf:    3     -194.687788     -194.687788     -194.687788  0.000403 -1.349103  0.000415
     spin moment: {S} , |S| = {        0.0        0.0   -0.00000 }    -0.00000
   scf:    4     -194.687789     -194.687789     -194.687789  0.000059 -1.349102  0.000064
     spin moment: {S} , |S| = {        0.0        0.0    0.00000 }     0.00000

SCF Convergence by DM+H criterion
max |DM_out - DM_in|         :     0.0000591820
max |H_out - H_in|      (eV) :     0.0000635927
SCF cycle converged after 4 iterations

Using DM_out to compute the final energy and forces
No. of atoms with KB's overlaping orbs in proc 0. Max # of overlaps:      26      56

siesta: E_KS(eV) =             -194.6878
     spin moment: {S} , |S| = {        0.0        0.0    0.00000 }     0.00000

siesta: Atomic forces (eV/Ang):
----------------------------------------
   Tot   -0.000000   -0.010426   -0.000000
----------------------------------------
   Max    0.795752
   Res    0.456428    sqrt( Sum f_i^2 / 3N )
----------------------------------------
   Max    0.795752    constrained

Stress tensor Voigt[x,y,z,yz,xz,xy] (kbar):     -518.40     -518.02     -518.40       -0.00      -23.80       -0.00
(Free)E + p*V (eV/cell)     -181.7402
Target enthalpy (eV/cell)     -194.6878

                     ====================================
                        Begin FC step =     10
                         displace atom 2
                         in direction 2 by  0.021167 Ang
                     ====================================

superc: Internal auxiliary supercell:     5 x     5 x     5  =     125
superc: Number of atoms, orbitals, and projectors:    250   1000   2250

outcell: Unit cell vectors (Ang):
        0.000000    2.715001    2.715001
        2.715001    0.000000    2.715001
        2.715001    2.715001    0.000000

outcell: Cell vector modules (Ang)   :    3.839591    3.839591    3.839591
outcell: Cell angles (23,13,12) (deg):     60.0000     60.0000     60.0000
outcell: Cell volume (Ang**3)        :     40.0258
<dSpData1D:S at geom step 10
  <sparsity:sparsity for geom step 10
    nrows_g=8 nrows=8 sparsity=33.0625 nnzs=2116, refcount: 7>
  <dData1D:(new from dSpData1D) n=2116, refcount: 1>
refcount: 1>
new_DM -- step:    11
Re-using DM from previous geometries...
Number of DMs in history: 1
 DM extrapolation coefficients: 
1   1.00000
New DM after history re-use:
<dSpData2D:SpM extrapolated using coords
  <sparsity:sparsity for geom step 10
    nrows_g=8 nrows=8 sparsity=33.0625 nnzs=2116, refcount: 9>
  <dData2D:(temp array for extrapolation) n=2116 m=2, refcount: 1>
refcount: 1>
     spin moment: {S} , |S| = {        0.0        0.0    0.00000 }     0.00000
No. of atoms with KB's overlaping orbs in proc 0. Max # of overlaps:      26      56

InitMesh: MESH = 24 x 24 x 24 = 13824
InitMesh: Mesh cutoff (required, used) =   130.000   161.974 Ry
New grid distribution [1]: sub = 2

        iscf     Eharris(eV)        E_KS(eV)     FreeEng(eV)     dDmax    Ef(eV) dHmax(eV)
   scf:    1     -194.678419     -194.687788     -194.687788  0.009529 -1.349260  0.037791
     spin moment: {S} , |S| = {        0.0        0.0   -0.00000 }    -0.00000
   scf:    2     -194.687778     -194.687785     -194.687785  0.000502 -1.349101  0.002508
     spin moment: {S} , |S| = {        0.0        0.0    0.00000 }     0.00000
   scf:    3     -194.687788     -194.687788     -194.687788  0.000403 -1.349103  0.000415
     spin moment: {S} , |S| = {        0.0        0.0   -0.00000 }    -0.00000
   scf:    4     -194.687789     -194.687789     -194.687789  0.000059 -1.349102  0.000064
     spin moment: {S} , |S| = {        0.0        0.0    0.00000 }     0.00000

SCF Convergence by DM+H criterion
max |DM_out - DM_in|         :     0.0000591820
max |H_out - H_in|      (eV) :     0.0000635928
SCF cycle converged after 4 iterations

Using DM_out to compute the final energy and forces
No. of atoms with KB's overlaping orbs in proc 0. Max # of overlaps:      26      56

siesta: E_KS(eV) =             -194.6878
     spin moment: {S} , |S| = {        0.0        0.0    0.00000 }     0.00000

siesta: Atomic forces (eV/Ang):
----------------------------------------
   Tot    0.000000    0.010426    0.000000
----------------------------------------
   Max    0.795751
   Res    0.456428    sqrt( Sum f_i^2 / 3N )
----------------------------------------
   Max    0.795751    constrained

Stress tensor Voigt[x,y,z,yz,xz,xy] (kbar):     -518.40     -518.02     -518.40       -0.00       23.80       -0.00
(Free)E + p*V (eV/cell)     -181.7402
Target enthalpy (eV/cell)     -194.6878

siesta: Calculating polarization. 

siesta: Macroscopic polarization for spin Up:

siesta: Macroscopic polarization per unit cell (a.u.):
siesta: Along the lattice vectors       10.883606      3.627931     10.883606
siesta: Along cartesian directions      10.261206     15.391743     10.261206

siesta: Macroscopic polarization per unit cell (Debye):
siesta: Along the lattice vectors       27.663367      9.221281     27.663367
siesta: Along cartesian directions      26.081385     39.121909     26.081385

siesta: Macroscopic polarization for spin Down:

siesta: Macroscopic polarization per unit cell (a.u.):
siesta: Along the lattice vectors       10.883606      3.627931     10.883606
siesta: Along cartesian directions      10.261206     15.391743     10.261206

siesta: Macroscopic polarization per unit cell (Debye):
siesta: Along the lattice vectors       27.663367      9.221281     27.663367
siesta: Along cartesian directions      26.081385     39.121909     26.081385

siesta: Sum along cartesian directions (a.u.): 
siesta:      20.522412     30.783486     20.522412

siesta: Sum along cartesian directions (Debye): 
siesta:      52.162769     78.243817     52.162769

obc: Macroscopic polarization for spin Up:

obc: Macroscopic polarization per unit cell along the lattice vectors (Bohr): 
obc:     10.883606      3.627931     10.883606

obc: Macroscopic polarization for spin Down:

obc: Macroscopic polarization per unit cell along the lattice vectors (Bohr): 
obc:     10.883606      3.627931     10.883606

                     ====================================
                        Begin FC step =     11
                         displace atom 2
                         in direction 3 by -0.021167 Ang
                     ====================================

superc: Internal auxiliary supercell:     5 x     5 x     5  =     125
superc: Number of atoms, orbitals, and projectors:    250   1000   2250

outcell: Unit cell vectors (Ang):
        0.000000    2.715001    2.715001
        2.715001    0.000000    2.715001
        2.715001    2.715001    0.000000

outcell: Cell vector modules (Ang)   :    3.839591    3.839591    3.839591
outcell: Cell angles (23,13,12) (deg):     60.0000     60.0000     60.0000
outcell: Cell volume (Ang**3)        :     40.0258
<dSpData1D:S at geom step 11
  <sparsity:sparsity for geom step 11
    nrows_g=8 nrows=8 sparsity=33.0625 nnzs=2116, refcount: 7>
  <dData1D:(new from dSpData1D) n=2116, refcount: 1>
refcount: 1>
new_DM -- step:    12
Re-using DM from previous geometries...
Number of DMs in history: 1
 DM extrapolation coefficients: 
1   1.00000
New DM after history re-use:
<dSpData2D:SpM extrapolated using coords
  <sparsity:sparsity for geom step 11
    nrows_g=8 nrows=8 sparsity=33.0625 nnzs=2116, refcount: 9>
  <dData2D:(temp array for extrapolation) n=2116 m=2, refcount: 1>
refcount: 1>
     spin moment: {S} , |S| = {        0.0        0.0   -0.00000 }    -0.00000
No. of atoms with KB's overlaping orbs in proc 0. Max # of overlaps:      26      56

InitMesh: MESH = 24 x 24 x 24 = 13824
InitMesh: Mesh cutoff (required, used) =   130.000   161.974 Ry
New grid distribution [1]: sub = 2

        iscf     Eharris(eV)        E_KS(eV)     FreeEng(eV)     dDmax    Ef(eV) dHmax(eV)
   scf:    1     -194.678419     -194.687788     -194.687788  0.009529 -1.349260  0.037791
     spin moment: {S} , |S| = {        0.0        0.0   -0.00000 }    -0.00000
   scf:    2     -194.687778     -194.687785     -194.687785  0.000502 -1.349101  0.002508
     spin moment: {S} , |S| = {        0.0        0.0    0.00000 }     0.00000
   scf:    3     -194.687788     -194.687788     -194.687788  0.000403 -1.349103  0.000415
     spin moment: {S} , |S| = {        0.0        0.0   -0.00000 }    -0.00000
   scf:    4     -194.687789     -194.687789     -194.687789  0.000059 -1.349102  0.000064
     spin moment: {S} , |S| = {        0.0        0.0   -0.00000 }    -0.00000

SCF Convergence by DM+H criterion
max |DM_out - DM_in|         :     0.0000591820
max |H_out - H_in|      (eV) :     0.0000635927
SCF cycle converged after 4 iterations

Using DM_out to compute the final energy and forces
No. of atoms with KB's overlaping orbs in proc 0. Max # of overlaps:      26      56

siesta: E_KS(eV) =             -194.6878
     spin moment: {S} , |S| = {        0.0        0.0   -0.00000 }    -0.00000

siesta: Atomic forces (eV/Ang):
----------------------------------------
   Tot   -0.000000   -0.000000   -0.010426
----------------------------------------
   Max    0.795752
   Res    0.456428    sqrt( Sum f_i^2 / 3N )
----------------------------------------
   Max    0.795752    constrained

Stress tensor Voigt[x,y,z,yz,xz,xy] (kbar):     -518.40     -518.40     -518.02       -0.00       -0.00      -23.80
(Free)E + p*V (eV/cell)     -181.7402
Target enthalpy (eV/cell)     -194.6878

                     ====================================
                        Begin FC step =     12
                         displace atom 2
                         in direction 3 by  0.021167 Ang
                     ====================================

superc: Internal auxiliary supercell:     5 x     5 x     5  =     125
superc: Number of atoms, orbitals, and projectors:    250   1000   2250

outcell: Unit cell vectors (Ang):
        0.000000    2.715001    2.715001
        2.715001    0.000000    2.715001
        2.715001    2.715001    0.000000

outcell: Cell vector modules (Ang)   :    3.839591    3.839591    3.839591
outcell: Cell angles (23,13,12) (deg):     60.0000     60.0000     60.0000
outcell: Cell volume (Ang**3)        :     40.0258
<dSpData1D:S at geom step 12
  <sparsity:sparsity for geom step 12
    nrows_g=8 nrows=8 sparsity=33.0625 nnzs=2116, refcount: 7>
  <dData1D:(new from dSpData1D) n=2116, refcount: 1>
refcount: 1>
new_DM -- step:    13
Re-using DM from previous geometries...
Number of DMs in history: 1
 DM extrapolation coefficients: 
1   1.00000
New DM after history re-use:
<dSpData2D:SpM extrapolated using coords
  <sparsity:sparsity for geom step 12
    nrows_g=8 nrows=8 sparsity=33.0625 nnzs=2116, refcount: 9>
  <dData2D:(temp array for extrapolation) n=2116 m=2, refcount: 1>
refcount: 1>
     spin moment: {S} , |S| = {        0.0        0.0   -0.00000 }    -0.00000
No. of atoms with KB's overlaping orbs in proc 0. Max # of overlaps:      26      56

InitMesh: MESH = 24 x 24 x 24 = 13824
InitMesh: Mesh cutoff (required, used) =   130.000   161.974 Ry
New grid distribution [1]: sub = 2

        iscf     Eharris(eV)        E_KS(eV)     FreeEng(eV)     dDmax    Ef(eV) dHmax(eV)
   scf:    1     -194.678419     -194.687788     -194.687788  0.009529 -1.349260  0.037791
     spin moment: {S} , |S| = {        0.0        0.0    0.00000 }     0.00000
   scf:    2     -194.687778     -194.687785     -194.687785  0.000502 -1.349101  0.002508
     spin moment: {S} , |S| = {        0.0        0.0   -0.00000 }    -0.00000
   scf:    3     -194.687788     -194.687788     -194.687788  0.000403 -1.349103  0.000415
     spin moment: {S} , |S| = {        0.0        0.0    0.00000 }     0.00000
   scf:    4     -194.687789     -194.687789     -194.687789  0.000059 -1.349102  0.000064
     spin moment: {S} , |S| = {        0.0        0.0   -0.00000 }    -0.00000

SCF Convergence by DM+H criterion
max |DM_out - DM_in|         :     0.0000591820
max |H_out - H_in|      (eV) :     0.0000635928
SCF cycle converged after 4 iterations

Using DM_out to compute the final energy and forces
No. of atoms with KB's overlaping orbs in proc 0. Max # of overlaps:      26      56

siesta: E_KS(eV) =             -194.6878
     spin moment: {S} , |S| = {        0.0        0.0   -0.00000 }    -0.00000

siesta: Atomic forces (eV/Ang):
----------------------------------------
   Tot    0.000000    0.000000    0.010426
----------------------------------------
   Max    0.795751
   Res    0.456428    sqrt( Sum f_i^2 / 3N )
----------------------------------------
   Max    0.795751    constrained

Stress tensor Voigt[x,y,z,yz,xz,xy] (kbar):     -518.40     -518.40     -518.02       -0.00       -0.00       23.80
(Free)E + p*V (eV/cell)     -181.7402
Target enthalpy (eV/cell)     -194.6878

siesta: Calculating polarization. 

siesta: Macroscopic polarization for spin Up:

siesta: Macroscopic polarization per unit cell (a.u.):
siesta: Along the lattice vectors       10.883606     10.883606      3.627931
siesta: Along cartesian directions      10.261206     10.261206     15.391743

siesta: Macroscopic polarization per unit cell (Debye):
siesta: Along the lattice vectors       27.663367     27.663367      9.221281
siesta: Along cartesian directions      26.081385     26.081385     39.121909

siesta: Macroscopic polarization for spin Down:

siesta: Macroscopic polarization per unit cell (a.u.):
siesta: Along the lattice vectors       10.883606     10.883606      3.627931
siesta: Along cartesian directions      10.261206     10.261206     15.391743

siesta: Macroscopic polarization per unit cell (Debye):
siesta: Along the lattice vectors       27.663367     27.663367      9.221281
siesta: Along cartesian directions      26.081385     26.081385     39.121909

siesta: Sum along cartesian directions (a.u.): 
siesta:      20.522412     20.522412     30.783486

siesta: Sum along cartesian directions (Debye): 
siesta:      52.162769     52.162769     78.243817

obc: Macroscopic polarization for spin Up:

obc: Macroscopic polarization per unit cell along the lattice vectors (Bohr): 
obc:     10.883606     10.883606      3.627931

obc: Macroscopic polarization for spin Down:

obc: Macroscopic polarization per unit cell along the lattice vectors (Bohr): 
obc:     10.883606     10.883606      3.627931

siesta: Program's energy decomposition (eV):
siesta: Ebs     =       -46.736163
siesta: Eions   =       380.799132
siesta: Ena     =       115.500725
siesta: Ekin    =       115.576771
siesta: Enl     =        29.935602
siesta: Eso     =         0.000000
siesta: Edftu   =         0.000000
siesta: DEna    =        -8.120371
siesta: DUscf   =         1.765869
siesta: DUext   =         0.000000
siesta: Ex      =       -58.139211
siesta: Ec      =       -10.408042
siesta: Exc     =       -68.547253
siesta: EbV     =         0.000000
siesta: eta*DQ  =         0.000000
siesta: Emadel  =         0.000000
siesta: Emeta   =         0.000000
siesta: Emolmec =         0.000000
siesta: Ekinion =         0.000000
siesta: Eharris =      -194.687789
siesta: Etot    =      -194.687789
siesta: FreeEng =      -194.687789

siesta: Final energy (eV):
siesta:  Band Struct. =     -46.736163
siesta:       Kinetic =     115.576771
siesta:       Hartree =      23.677920
siesta:         Edftu =       0.000000
siesta:       Eso     =       0.000000
siesta:    Ext. field =       0.000000
siesta:         Exch. =     -58.139211
siesta:         Corr. =     -10.408042
siesta:     Bulk bias =       0.000000
siesta:   Exch.-corr. =     -68.547253
siesta:  Ion-electron =    -120.257522
siesta:       Ion-ion =    -145.137706
siesta:       Ekinion =       0.000000
siesta: D3 dispersion =       0.000000
siesta:         Total =    -194.687789
siesta:         Fermi =      -1.349102

siesta: Atomic forces (eV/Ang):
siesta:      1   -0.000000   -0.000000    0.795751
siesta:      2    0.000000    0.000000   -0.785326
siesta: ----------------------------------------
siesta:    Tot    0.000000    0.000000    0.010426

siesta: Stress tensor (static) (eV/Ang**3):
siesta:    -0.323560    0.014856   -0.000000
siesta:     0.014856   -0.323560   -0.000000
siesta:    -0.000000   -0.000000   -0.323322

siesta: Cell volume =         40.025800 Ang**3

siesta: Pressure (static):
siesta:                Solid            Molecule  Units
siesta:           0.00352315          0.00362201  Ry/Bohr**3
siesta:           0.32348091          0.33255747  eV/Ang**3
siesta:         518.27355490        532.81580466  kBar
(Free)E+ p_basis*V_orbitals  =        -194.111081
(Free)Eharris+ p_basis*V_orbitals  =        -194.111082
     spin moment: {S} , |S| = {        0.0        0.0   -0.00000 }    -0.00000

cite: Please see "born_sp.bib" for an exhaustive BiBTeX file.
cite: Please clearly indicate Siesta version in published work: 5.0.0-alpha-120-g24fa496ce-dirty
cite: This calculation has made use of the following articles
cite: which are encouraged to be cited in a published work.
        Primary SIESTA paper
          DOI: www.doi.org/10.1088/0953-8984/14/11/302


timer: Elapsed wall time (sec) =       2.076
timer: CPU execution times (sec):

Routine            Calls   Time/call    Tot.time        %
siesta                 1       2.076       2.076   100.00
Setup                  1       0.017       0.017     0.80
bands                  1       0.000       0.000     0.00
KSV_init               1       0.000       0.000     0.00
IterGeom              13       0.158       2.059    99.19
geom_init             13       0.049       0.639    30.79
state_init            13       0.003       0.041     1.97
hsparse               13       0.000       0.004     0.20
overlap               13       0.000       0.004     0.19
Setup_H0              13       0.033       0.424    20.42
naefs                 26       0.000       0.001     0.06
MolMec                26       0.000       0.000     0.00
kinefsm               26       0.000       0.006     0.27
nlefsm                26       0.003       0.081     3.90
DHSCF_Init            13       0.029       0.378    18.21
DHSCF1                13       0.005       0.064     3.08
INITMESH              13       0.000       0.000     0.00
DHSCF2                13       0.024       0.314    15.12
REMESH                13       0.003       0.042     2.01
REORD                425       0.000       0.005     0.23
PHION                 13       0.016       0.214    10.31
COMM_BSC             668       0.000       0.005     0.25
POISON                90       0.000       0.019     0.94
fft                  180       0.000       0.012     0.59
setup_H               64       0.013       0.821    39.58
DHSCF                 77       0.018       1.383    66.62
DHSCF3                77       0.013       0.985    47.47
rhoofd                77       0.005       0.417    20.09
XC                    77       0.002       0.159     7.68
GXC-CellXC            77       0.002       0.157     7.56
vmat                  77       0.005       0.376    18.11
IterSCF               51       0.013       0.656    31.58
compute_dm            51       0.000       0.005     0.22
diagon                51       0.000       0.004     0.20
r-eigvec             102       0.000       0.002     0.11
r-buildHS            102       0.000       0.000     0.02
rdiag                102       0.000       0.002     0.09
rdiag1               102       0.000       0.000     0.01
rdiag2               102       0.000       0.000     0.01
rdiag3               102       0.000       0.001     0.04
rdiag4               102       0.000       0.000     0.01
r-buildD              51       0.000       0.001     0.07
MIXER                 38       0.000       0.001     0.04
PostSCF               13       0.047       0.608    29.28
DHSCF4                13       0.031       0.397    19.14
dfscf                 13       0.025       0.329    15.86
overfsm               13       0.000       0.003     0.12
state_analysis        13       0.012       0.155     7.49
KSV_pol                7       0.022       0.154     7.40
phirphi               21       0.003       0.054     2.58
cdiag               1764       0.000       0.017     0.84
cdiag1              1764       0.000       0.001     0.04
cdiag2              1764       0.000       0.002     0.10
cdiag3              1764       0.000       0.010     0.46
cdiag4              1764       0.000       0.001     0.05
siesta_move           13       0.000       0.000     0.01
Analysis               1       0.000       0.000     0.01
optical                1       0.000       0.000     0.00
  

>> End of run:  25-SEP-2023   9:45:16
Job completed
