Siesta Version  : 5.0.0-alpha-120-g24fa496ce-dirty
Architecture    : ----
Compiler version: GNU-11.4.0
Compiler flags  : -fallow-argument-mismatch;-O3 -march=native
PP flags        : ----
Libraries       : ----
Parallelisations: none
GEMM3M support
NetCDF support
NetCDF-4 support
Lua support

Runtime information:
* Directory : /home/fnpedron/Siesta/siesta-dev/Tests/11.ElectronicProperties/work/optical_sp
* Running in serial mode.
>> Start of run:  25-SEP-2023   9:47:01

                           *********************** 
                           *  WELCOME TO SIESTA  * 
                           *********************** 

reinit: Reading from standard input
reinit: Dumping input in INPUT_TMP.71170
************************** Dump of input data file ****************************
%include ../../basejob.fdf
SystemLabel     optical_sp
Spin Polarized
OpticalCalculation       T
Optical.OffsetMesh       T
Optical.PolarizationType polarized
Optical.Broaden          0.2 eV
Optical.EnergyMaximum    20.0 eV
Optical.EnergyMinimum    0.0 eV
%block  Optical.Mesh
  10 10 10
%endblock  Optical.Mesh
%block  Optical.Vector
  1.0 0.0 0.0
%endblock  Optical.Vector
************************** End of input data file *****************************

reinit: -----------------------------------------------------------------------
reinit: System Name: FeN in ZB structure
reinit: -----------------------------------------------------------------------
reinit: System Label: optical_sp
reinit: -----------------------------------------------------------------------

initatom: Reading input for the pseudopotentials and atomic orbitals ----------
Species number:   1 Atomic number:   26 Label: Fe
Species number:   2 Atomic number:    7 Label: N


---- Processing specs for species: Fe
Ground state valence configuration:   4s02  3d06
Reading pseudopotential information in formatted form from:
  /home/fnpedron/Siesta/siesta-dev/Tests/Pseudos/Fe.psf

---- Processing specs for species: N
Ground state valence configuration:   2s02  2p03
Reading pseudopotential information in formatted form from:
  /home/fnpedron/Siesta/siesta-dev/Tests/Pseudos/N.psf

---- Pseudopotential check for Fe

Pseudopotential generated from a fully relativistic atomic calculation
There are spin-orbit semi-local pseudopotentials available

Pseudized shells:
4s( 2.00) rc: 2.00
4p( 0.00) rc: 2.00
3d( 6.00) rc: 2.00
4f( 0.00) rc: 2.00
Valence configuration for ps generation: (assumed as above)

---- Pseudopotential check for N 

Pseudized shells:
2s( 2.00) rc: 1.14
2p( 3.00) rc: 1.14
3d( 0.00) rc: 1.14
4f( 0.00) rc: 1.14
Valence configuration for ps generation: (assumed as above)
For Fe, standard SIESTA heuristics set lmxkb to 3
 (one more than the basis l, including polarization orbitals).
Use PS.lmax or PS.KBprojectors blocks to override.
For N, standard SIESTA heuristics set lmxkb to 3
 (one more than the basis l, including polarization orbitals).
Use PS.lmax or PS.KBprojectors blocks to override.

<basis_specs>
===============================================================================
Fe                   Z=  26    Mass=  55.845        Charge= 0.17977+309
Lmxo=2 Lmxkb= 3    BasisType=split      Semic=F
L=0  Nsemic=0  Cnfigmx=4
          i=1  nzeta=1  polorb=1  (4s)  (to be polarized perturbatively)
            splnorm:   0.15000    
               vcte:    0.0000    
               rinn:    0.0000    
               qcoe:    0.0000    
               qyuk:    0.0000    
               qwid:   0.10000E-01
                rcs:    0.0000    
            lambdas:    1.0000    
L=1  Nsemic=0  Cnfigmx=4
          i=1  nzeta=0  polorb=0  (4p)  (perturbative polarization orbital) (from 4s)
L=2  Nsemic=0  Cnfigmx=3
          i=1  nzeta=1  polorb=0  (3d)
            splnorm:   0.15000    
               vcte:    0.0000    
               rinn:    0.0000    
               qcoe:    0.0000    
               qyuk:    0.0000    
               qwid:   0.10000E-01
                rcs:    0.0000    
            lambdas:    1.0000    
-------------------------------------------------------------------------------
L=0  Nkbl=1  erefs: 0.17977+309
L=1  Nkbl=1  erefs: 0.17977+309
L=2  Nkbl=1  erefs: 0.17977+309
L=3  Nkbl=1  erefs: 0.17977+309
===============================================================================
</basis_specs>

atom: Called for Fe                    (Z =  26)

read_vps: Pseudopotential generation method:
read_vps: ATM3      Troullier-Martins                       
Valence charge in pseudo generation:    8.00000

read_vps: Pseudopotential includes a core correction:
read_vps: Pseudo-core for xc-correction

xc_check: Exchange-correlation functional:
xc_check: Ceperley-Alder
xc_check: WARNING: Pseudopotential generated with GGA PBE functional
V l=0 = -2*Zval/r beyond r=  2.7645
V l=1 = -2*Zval/r beyond r=  2.7645
V l=2 = -2*Zval/r beyond r=  2.7645
V l=3 = -2*Zval/r beyond r=  2.7645
All V_l potentials equal beyond r=  1.9726
This should be close to max(r_c) in ps generation
All pots = -2*Zval/r beyond r=  2.7645
Using large-core scheme (fit) for Vlocal

atom: Estimated core radius    2.76453
Fit of Vlocal with continuous 2nd derivative
Fitting vlocal at       2.0480
Choosing vlocal chloc cutoff:831  3.055283
qtot up to nchloc:    7.99925673
atom: Maximum radius for chlocal:    3.05528
atom: Maximum radius for r*vlocal+2*Zval:    3.05528

KBgen: Kleinman-Bylander projectors: 
GHOST: No ghost state for L =  0
   l= 0   rc=  2.047986   el= -0.408929   Ekb=  4.240890   kbcos=  0.266904
GHOST: No ghost state for L =  1
   l= 1   rc=  2.047986   el= -0.109133   Ekb=  2.851399   kbcos=  0.199314
GHOST: No ghost state for L =  2
   l= 2   rc=  2.022544   el= -0.538965   Ekb=-12.565378   kbcos= -0.675907
GHOST: No ghost state for L =  3
   l= 3   rc=  2.047986   el=  0.003534   Ekb= -1.648281   kbcos= -0.006868

KBgen: Total number of Kleinman-Bylander projectors:  16
atom: -------------------------------------------------------------------------

atom: SANKEY-TYPE ORBITALS:

SPLIT: Orbitals with angular momentum L= 0

SPLIT: Basis orbitals for state 4s

SPLIT: PAO cut-off radius determined from an
SPLIT: energy shift=  0.022050 Ry

   izeta = 1
                 lambda =    1.000000
                     rc =    6.152681
                 energy =   -0.386474
                kinetic =    0.362635
    potential(screened) =   -0.749109
       potential(ionic) =   -6.188851

SPLIT: Orbitals with angular momentum L= 2

SPLIT: Basis orbitals for state 3d

SPLIT: PAO cut-off radius determined from an
SPLIT: energy shift=  0.022050 Ry

   izeta = 1
                 lambda =    1.000000
                     rc =    3.639613
                 energy =   -0.516566
                kinetic =    9.509387
    potential(screened) =  -10.025953
       potential(ionic) =  -18.871108

POLgen: Perturbative polarization orbital with L=  1

POLgen: Polarization orbital for state 4s

   izeta = 1
                     rc =    6.152681
                 energy =   -0.039072
                kinetic =    0.679934
    potential(screened) =   -0.719006
       potential(ionic) =   -5.809476
atom: Total number of Sankey-type orbitals:  9

atm_pop: Valence configuration (for local Pseudopot. screening):
 4s( 2.00)                                                            
 4p( 0.00)                                                            
 3d( 6.00)                                                            
Vna: chval, zval:    8.00000   8.00000

Vna:  Cut-off radius for the neutral-atom potential:   6.152681
comcore: Pseudo-core radius Rcore=  3.778693

atom: _________________________________________________________________________

<basis_specs>
===============================================================================
N                    Z=   7    Mass=  14.007        Charge= 0.17977+309
Lmxo=2 Lmxkb= 3    BasisType=split      Semic=F
L=0  Nsemic=0  Cnfigmx=2
          i=1  nzeta=1  polorb=0  (2s)
            splnorm:   0.15000    
               vcte:    0.0000    
               rinn:    0.0000    
               qcoe:    0.0000    
               qyuk:    0.0000    
               qwid:   0.10000E-01
                rcs:    0.0000    
            lambdas:    1.0000    
L=1  Nsemic=0  Cnfigmx=2
          i=1  nzeta=1  polorb=1  (2p)  (to be polarized perturbatively)
            splnorm:   0.15000    
               vcte:    0.0000    
               rinn:    0.0000    
               qcoe:    0.0000    
               qyuk:    0.0000    
               qwid:   0.10000E-01
                rcs:    0.0000    
            lambdas:    1.0000    
L=2  Nsemic=0  Cnfigmx=3
          i=1  nzeta=0  polorb=0  (3d)  (perturbative polarization orbital) (from 2p)
-------------------------------------------------------------------------------
L=0  Nkbl=1  erefs: 0.17977+309
L=1  Nkbl=1  erefs: 0.17977+309
L=2  Nkbl=1  erefs: 0.17977+309
L=3  Nkbl=1  erefs: 0.17977+309
===============================================================================
</basis_specs>

atom: Called for N                     (Z =   7)

read_vps: Pseudopotential generation method:
read_vps: ATM 3.2.2 Troullier-Martins                       
Valence charge in pseudo generation:    5.00000

xc_check: Exchange-correlation functional:
xc_check: Ceperley-Alder
V l=0 = -2*Zval/r beyond r=  1.1958
V l=1 = -2*Zval/r beyond r=  1.1958
V l=2 = -2*Zval/r beyond r=  1.1958
V l=3 = -2*Zval/r beyond r=  1.1958
All V_l potentials equal beyond r=  1.1233
This should be close to max(r_c) in ps generation
All pots = -2*Zval/r beyond r=  1.1958
Using small-core scheme (local charge) for Vlocal

VLOCAL_FROM_CHLOCAL: 99.0% of the norm of Vloc inside     34.401 Ry
VLOCAL_FROM_CHLOCAL: 99.9% of the norm of Vloc inside     78.401 Ry
atom: Maximum radius for chlocal:    1.35504
atom: Maximum radius for r*vlocal+2*Zval:    1.24148

KBgen: Kleinman-Bylander projectors: 
GHOST: No ghost state for L =  0
   l= 0   rc=  1.406829   el= -1.352238   Ekb=  9.654792   kbcos=  0.296969
GHOST: No ghost state for L =  1
   l= 1   rc=  1.406829   el= -0.532622   Ekb= -6.526027   kbcos= -0.327655
GHOST: No ghost state for L =  2
   l= 2   rc=  1.614250   el=  0.002346   Ekb= -1.736131   kbcos= -0.003799
GHOST: No ghost state for L =  3
   l= 3   rc=  1.740002   el=  0.003449   Ekb= -0.683681   kbcos= -0.000362

KBgen: Total number of Kleinman-Bylander projectors:  16
atom: -------------------------------------------------------------------------

atom: SANKEY-TYPE ORBITALS:

SPLIT: Orbitals with angular momentum L= 0

SPLIT: Basis orbitals for state 2s

SPLIT: PAO cut-off radius determined from an
SPLIT: energy shift=  0.022050 Ry

   izeta = 1
                 lambda =    1.000000
                     rc =    3.593014
                 energy =   -1.329776
                kinetic =    1.271966
    potential(screened) =   -2.601742
       potential(ionic) =   -8.187977

SPLIT: Orbitals with angular momentum L= 1

SPLIT: Basis orbitals for state 2p

SPLIT: PAO cut-off radius determined from an
SPLIT: energy shift=  0.022050 Ry

   izeta = 1
                 lambda =    1.000000
                     rc =    4.280232
                 energy =   -0.512460
                kinetic =    3.775375
    potential(screened) =   -4.287835
       potential(ionic) =   -9.745937

POLgen: Perturbative polarization orbital with L=  2

POLgen: Polarization orbital for state 2p

   izeta = 1
                     rc =    4.280232
                 energy =    1.824660
                kinetic =    3.632389
    potential(screened) =   -1.807729
       potential(ionic) =   -6.292152
atom: Total number of Sankey-type orbitals:  9

atm_pop: Valence configuration (for local Pseudopot. screening):
 2s( 2.00)                                                            
 2p( 3.00)                                                            
 3d( 0.00)                                                            
Vna: chval, zval:    5.00000   5.00000

Vna:  Cut-off radius for the neutral-atom potential:   4.280232

atom: _________________________________________________________________________

prinput: Basis input 

PAO.BasisType split     

%block ChemicalSpeciesLabel
    1   26 Fe                      # Species index, atomic number, species label
    2    7 N                       # Species index, atomic number, species label
%endblock ChemicalSpeciesLabel

%block PAO.Basis                 # Define Basis set
# WARNING: This information might be incomplete!
Fe                    2                    # Species label, number of l-shells
 n=4   0   1 P   1                   # n, l, Nzeta, Polarization, NzetaPol
   6.153   
   1.000   
 n=3   2   1                         # n, l, Nzeta 
   3.640   
   1.000   
N                     2                    # Species label, number of l-shells
 n=2   0   1                         # n, l, Nzeta 
   3.593   
   1.000   
 n=2   1   1 P   1                   # n, l, Nzeta, Polarization, NzetaPol
   4.280   
   1.000   
%endblock PAO.Basis

prinput: ----------------------------------------------------------------------

Dumping basis to NetCDF file Fe.ion.nc
Dumping basis to NetCDF file N.ion.nc
coor:   Atomic-coordinates input format  =     Fractional

siesta: Atomic coordinates (Bohr) and species
siesta:      0.00000   0.00000   0.00000  1        1
siesta:      2.03618   2.03618   2.03618  2        2

siesta: System type = bulk      

initatomlists: Number of atoms, orbitals, and projectors:      2    18    32

siesta: ******************** Simulation parameters ****************************
siesta:
siesta: The following are some of the parameters of the simulation.
siesta: A complete list of the parameters used, including default values,
siesta: can be found in file out.fdf
siesta:
redata: Spin configuration                          = collinear
redata: Number of spin components                   = 2
redata: Time-Reversal Symmetry                      = T
redata: Spin spiral                                 = F
redata: Long output                                 =   F
redata: Number of Atomic Species                    =        2
redata: Charge density info will appear in .RHO file
redata: Write Mulliken Pop.                         = NO
redata: Matel table size (NRTAB)                    =     1024
redata: Mesh Cutoff                                 =    50.0000 Ry
redata: Net charge of the system                    =     0.0000 |e|
redata: Min. number of SCF Iter                     =        0
redata: Max. number of SCF Iter                     =     1000
redata: SCF convergence failure will abort job
redata: SCF mix quantity                            = Hamiltonian
redata: Mix DM or H after convergence               =   F
redata: Recompute H after scf cycle                 =   F
redata: Mix DM in first SCF step                    =   T
redata: Write Pulay info on disk                    =   F
redata: New DM Occupancy tolerance                  = 0.000000000001
redata: No kicks to SCF
redata: DM Mixing Weight for Kicks                  =     0.5000
redata: Require Harris convergence for SCF          =   F
redata: Harris energy tolerance for SCF             =     0.000100 eV
redata: Require DM convergence for SCF              =   T
redata: DM tolerance for SCF                        =     0.000100
redata: Require EDM convergence for SCF             =   F
redata: EDM tolerance for SCF                       =     0.001000 eV
redata: Require H convergence for SCF               =   T
redata: Hamiltonian tolerance for SCF               =     0.001000 eV
redata: Require (free) Energy convergence for SCF   =   F
redata: (free) Energy tolerance for SCF             =     0.000100 eV
redata: Antiferro initial spin density              =   F
redata: Using DFT-D3 dispersion                     =   F
redata: Using Saved Data (generic)                  =   F
redata: Use continuation files for DM               =   F
redata: Neglect nonoverlap interactions             =   F
redata: Method of Calculation                       = Diagonalization
redata: Electronic Temperature                      =   299.9863 K
redata: Fix the spin of the system                  =   F
redata: Max. number of TDED Iter                    =        1
redata: Number of TDED substeps                     =        3
redata: Dynamics option                             = Single-point calculation
mix.SCF: Pulay mixing                            = Pulay
mix.SCF:    Variant                              = stable
mix.SCF:    History steps                        = 3
mix.SCF:    Linear mixing weight                 =     0.300000
mix.SCF:    Mixing weight                        =     0.300000
mix.SCF:    SVD condition                        = 0.1000E-07
mix.SCF: Spin-component mixing                   all
redata: Save all siesta data in one NC              =   F
redata: ***********************************************************************

%block SCF.Mixers
  Pulay
%endblock SCF.Mixers

%block SCF.Mixer.Pulay
  # Mixing method
  method pulay
  variant stable

  # Mixing options
  weight 0.3000
  weight.linear 0.3000
  history 3
%endblock SCF.Mixer.Pulay

DM_history_depth set to one: no extrapolation allowed by default for geometry relaxation
Size of DM history Fstack: 1
Total number of electrons:    13.000000
Total ionic charge:    13.000000
 Kpoints in:           32 . Kpoints trimmed:           32

siesta: k-grid: Number of k-points = 32
siesta: k-points from cutoff
siesta: k-cutoff (effective) =     6.095 Ang
siesta: k-point supercell and displacements
siesta: k-grid:     0     4     0      0.500
siesta: k-grid:     0     0     4      0.500
siesta: k-grid:     4     0     0      0.500

diag: Algorithm                                     = D&C
diag: Used triangular part                          = Lower
diag: Absolute tolerance                            =  0.100E-15
diag: Orthogonalization factor                      =  0.100E-05
diag: Memory factor                                 =  1.0000

superc: Internal auxiliary supercell:     5 x     5 x     5  =     125
superc: Number of atoms, orbitals, and projectors:    250   2250   4000


ts: **************************************************************
ts: Save H and S matrices                           =    F
ts: Save DM and EDM matrices                        =    F
ts: Only save the overlap matrix S                  =    F
ts: **************************************************************

************************ Begin: TS CHECKS AND WARNINGS ************************
************************ End: TS CHECKS AND WARNINGS **************************


                     ====================================
                        Single-point calculation
                     ====================================

superc: Internal auxiliary supercell:     5 x     5 x     5  =     125
superc: Number of atoms, orbitals, and projectors:    250   2250   4000

outcell: Unit cell vectors (Ang):
        2.155000    2.155000    0.000000
        0.000000    2.155000    2.155000
        2.155000    0.000000    2.155000

outcell: Cell vector modules (Ang)   :    3.047630    3.047630    3.047630
outcell: Cell angles (23,13,12) (deg):     60.0000     60.0000     60.0000
outcell: Cell volume (Ang**3)        :     20.0157
<dSpData1D:S at geom step 0
  <sparsity:sparsity for geom step 0
    nrows_g=18 nrows=18 sparsity=42.4012 nnzs=13738, refcount: 7>
  <dData1D:(new from dSpData1D) n=13738, refcount: 1>
refcount: 1>
new_DM -- step:     1
Initializing Density Matrix...
DM filled with atomic data:
<dSpData2D:DM initialized from atoms
  <sparsity:sparsity for geom step 0
    nrows_g=18 nrows=18 sparsity=42.4012 nnzs=13738, refcount: 8>
  <dData2D:DM n=13738 m=2, refcount: 1>
refcount: 1>
     spin moment: {S} , |S| = {        0.0        0.0    7.00000 }     7.00000
No. of atoms with KB's overlaping orbs in proc 0. Max # of overlaps:      38     189

InitMesh: MESH = 12 x 12 x 12 = 1728
InitMesh: Mesh cutoff (required, used) =    50.000    64.273 Ry
New grid distribution [1]: sub = 2

stepf: Fermi-Dirac step function

siesta: Program's energy decomposition (eV):
siesta: Ebs     =      -126.862147
siesta: Eions   =      1253.301917
siesta: Ena     =       176.266736
siesta: Ekin    =       927.541084
siesta: Enl     =      -437.733058
siesta: Eso     =         0.000000
siesta: Edftu   =         0.000000
siesta: DEna    =        -9.972159
siesta: DUscf   =         5.386239
siesta: DUext   =         0.000000
siesta: Ex      =      -409.948809
siesta: Ec      =       -39.099164
siesta: Exc     =      -449.047973
siesta: EbV     =         0.000000
siesta: eta*DQ  =         0.000000
siesta: Emadel  =         0.000000
siesta: Emeta   =         0.000000
siesta: Emolmec =         0.000000
siesta: Ekinion =         0.000000
siesta: Eharris =     -1033.310774
siesta: Etot    =     -1040.861048
siesta: FreeEng =     -1040.865409

        iscf     Eharris(eV)        E_KS(eV)     FreeEng(eV)     dDmax    Ef(eV) dHmax(eV)
   scf:    1    -1033.310774    -1040.861048    -1040.865409  0.928867 -2.904011  6.790156
     spin moment: {S} , |S| = {        0.0        0.0    4.16524 }     4.16524
timer: Routine,Calls,Time,% = IterSCF        1       0.041   2.05
   scf:    2    -1042.180790    -1044.210313    -1044.217490  0.246314 -3.960775  3.690831
     spin moment: {S} , |S| = {        0.0        0.0    3.00182 }     3.00182
   scf:    3    -1045.043770    -1044.899287    -1044.908348  0.065915 -3.687158  1.242462
     spin moment: {S} , |S| = {        0.0        0.0    2.99577 }     2.99577
   scf:    4    -1045.604148    -1045.281456    -1045.289180  0.300827 -4.518140  3.200358
     spin moment: {S} , |S| = {        0.0        0.0    1.16470 }     1.16470
   scf:    5    -1045.736749    -1045.694464    -1045.700831  0.069869 -4.145290  0.567254
     spin moment: {S} , |S| = {        0.0        0.0    1.40527 }     1.40527
   scf:    6    -1045.976720    -1045.824399    -1045.827295  0.086499 -4.080768  0.755547
     spin moment: {S} , |S| = {        0.0        0.0    0.99295 }     0.99295
   scf:    7    -1045.897122    -1045.861064    -1045.864401  0.017953 -4.050566  0.301576
     spin moment: {S} , |S| = {        0.0        0.0    0.88431 }     0.88431
   scf:    8    -1045.939526    -1045.895631    -1045.902286  0.029823 -4.007903  0.215381
     spin moment: {S} , |S| = {        0.0        0.0    0.68186 }     0.68186
   scf:    9    -1046.041176    -1045.956790    -1045.959644  0.048919 -4.090697  0.222760
     spin moment: {S} , |S| = {        0.0        0.0    0.37497 }     0.37497
   scf:   10    -1045.960124    -1045.958454    -1045.961288  0.001755 -4.119009  0.175157
     spin moment: {S} , |S| = {        0.0        0.0    0.37484 }     0.37484
   scf:   11    -1045.962313    -1045.960616    -1045.963461  0.004010 -4.142969  0.066628
     spin moment: {S} , |S| = {        0.0        0.0    0.37486 }     0.37486
   scf:   12    -1045.963944    -1045.962209    -1045.965150  0.003339 -4.181499  0.045655
     spin moment: {S} , |S| = {        0.0        0.0    0.37303 }     0.37303
   scf:   13    -1045.963963    -1045.962984    -1045.966176  0.003271 -4.203924  0.032574
     spin moment: {S} , |S| = {        0.0        0.0    0.36758 }     0.36758
   scf:   14    -1045.963546    -1045.963174    -1045.966609  0.003549 -4.212992  0.016864
     spin moment: {S} , |S| = {        0.0        0.0    0.36050 }     0.36050
   scf:   15    -1045.963160    -1045.963153    -1045.966665  0.001446 -4.214902  0.008600
     spin moment: {S} , |S| = {        0.0        0.0    0.35778 }     0.35778
   scf:   16    -1045.963144    -1045.963149    -1045.966668  0.000236 -4.213929  0.003184
     spin moment: {S} , |S| = {        0.0        0.0    0.35764 }     0.35764
   scf:   17    -1045.963140    -1045.963144    -1045.966670  0.000251 -4.213653  0.002885
     spin moment: {S} , |S| = {        0.0        0.0    0.35750 }     0.35750
   scf:   18    -1045.963150    -1045.963147    -1045.966671  0.000148 -4.213221  0.001885
     spin moment: {S} , |S| = {        0.0        0.0    0.35770 }     0.35770
   scf:   19    -1045.963159    -1045.963153    -1045.966672  0.000165 -4.212842  0.001195
     spin moment: {S} , |S| = {        0.0        0.0    0.35804 }     0.35804
   scf:   20    -1045.963162    -1045.963158    -1045.966672  0.000122 -4.212491  0.000917
     spin moment: {S} , |S| = {        0.0        0.0    0.35831 }     0.35831
   scf:   21    -1045.963165    -1045.963161    -1045.966673  0.000080 -4.212340  0.000373
     spin moment: {S} , |S| = {        0.0        0.0    0.35851 }     0.35851

SCF Convergence by DM+H criterion
max |DM_out - DM_in|         :     0.0000800658
max |H_out - H_in|      (eV) :     0.0003727024
SCF cycle converged after 21 iterations

Using DM_out to compute the final energy and forces
No. of atoms with KB's overlaping orbs in proc 0. Max # of overlaps:      38     189

siesta: E_KS(eV) =            -1045.9632

siesta: E_KS - E_eggbox =     -1045.9632
     spin moment: {S} , |S| = {        0.0        0.0    0.35851 }     0.35851

siesta: Atomic forces (eV/Ang):
----------------------------------------
   Tot   -0.003867   -0.003867   -0.003867
----------------------------------------
   Max    0.413892
   Res    0.411963    sqrt( Sum f_i^2 / 3N )
----------------------------------------
   Max    0.413892    constrained

Stress tensor Voigt[x,y,z,yz,xz,xy] (kbar):      122.52      122.52      122.52       10.84       10.84       10.84
(Free)E + p*V (eV/cell)    -1047.4973
Target enthalpy (eV/cell)    -1045.9667

siesta: Program's energy decomposition (eV):
siesta: Ebs     =      -123.987398
siesta: Eions   =      1253.301917
siesta: Ena     =       176.266736
siesta: Ekin    =       955.856667
siesta: Enl     =      -477.378933
siesta: Eso     =         0.000000
siesta: Edftu   =         0.000000
siesta: DEna    =         2.471000
siesta: DUscf   =         0.461814
siesta: DUext   =         0.000000
siesta: Ex      =      -410.377009
siesta: Ec      =       -39.961520
siesta: Exc     =      -450.338529
siesta: EbV     =         0.000000
siesta: eta*DQ  =         0.000000
siesta: Emadel  =         0.000000
siesta: Emeta   =         0.000000
siesta: Emolmec =         0.000000
siesta: Ekinion =         0.000000
siesta: Eharris =     -1045.963165
siesta: Etot    =     -1045.963161
siesta: FreeEng =     -1045.966673

siesta: Final energy (eV):
siesta:  Band Struct. =    -123.987398
siesta:       Kinetic =     955.856667
siesta:       Hartree =     160.288747
siesta:         Edftu =       0.000000
siesta:       Eso     =       0.000000
siesta:    Ext. field =       0.000000
siesta:         Exch. =    -410.377009
siesta:         Corr. =     -39.961520
siesta:     Bulk bias =       0.000000
siesta:   Exch.-corr. =    -450.338529
siesta:  Ion-electron =   -1125.910800
siesta:       Ion-ion =    -585.859247
siesta:       Ekinion =       0.000000
siesta: D3 dispersion =       0.000000
siesta:         Total =   -1045.963161
siesta:         Fermi =      -4.212340

siesta: Atomic forces (eV/Ang):
siesta:      1   -0.413891   -0.413891   -0.413892
siesta:      2    0.410025    0.410025    0.410025
siesta: ----------------------------------------
siesta:    Tot   -0.003867   -0.003867   -0.003867

siesta: Stress tensor (static) (eV/Ang**3):
siesta:     0.076470    0.006766    0.006766
siesta:     0.006766    0.076470    0.006766
siesta:     0.006766    0.006766    0.076470

siesta: Cell volume =         20.015748 Ang**3

siesta: Pressure (static):
siesta:                Solid            Molecule  Units
siesta:          -0.00083287         -0.00107440  Ry/Bohr**3
siesta:          -0.07647028         -0.09864707  eV/Ang**3
siesta:        -122.51889491       -158.05002419  kBar
(Free)E+ p_basis*V_orbitals  =       -1045.410916
(Free)Eharris+ p_basis*V_orbitals  =       -1045.410919
     spin moment: {S} , |S| = {        0.0        0.0    0.35851 }     0.35851

Optical: Performing optical calculation: 

Optical: Polarization type       = polarized   
Optical: Minimum of energy range =   0.0000 Ry 
Optical: Maximum of energy range =   1.4700 Ry 
Optical: Gaussian broadening     =   0.0147 Ry 
Optical: Scissor operator        =   0.0000 Ry 
Optical: Number of bands         =       18
Optical: Number of electrons     = ********
Optical: BZ mesh dimensions      =   10  10  10

Optical: electric field direction
Optical:      1.00000     0.00000     0.00000

Optical: Checking f-sum rule  0.307736
Optical: For insulators and closed shell systems
Optical: this number should be close to 1 if an enough
Optical: number of unoccupied bands have been included

cite: Please see "optical_sp.bib" for an exhaustive BiBTeX file.
cite: Please clearly indicate Siesta version in published work: 5.0.0-alpha-120-g24fa496ce-dirty
cite: This calculation has made use of the following articles
cite: which are encouraged to be cited in a published work.
        Primary SIESTA paper
          DOI: www.doi.org/10.1088/0953-8984/14/11/302


timer: Elapsed wall time (sec) =       9.836
timer: CPU execution times (sec):

Routine            Calls   Time/call    Tot.time        %
siesta                 1       9.834       9.834   100.00
Setup                  1       0.039       0.039     0.39
bands                  1       0.000       0.000     0.00
KSV_init               1       0.000       0.000     0.00
IterGeom               1       2.815       2.815    28.63
geom_init              1       1.898       1.898    19.30
state_init             1       0.180       0.180     1.83
hsparse                1       0.003       0.003     0.03
overlap                1       0.169       0.169     1.72
Setup_H0               1       1.707       1.707    17.36
naefs                  2       0.000       0.000     0.00
MolMec                 2       0.000       0.000     0.00
kinefsm                2       0.085       0.169     1.72
nlefsm                 2       0.778       1.557    15.83
DHSCF_Init             1       0.014       0.014     0.15
DHSCF1                 1       0.002       0.002     0.02
INITMESH               1       0.000       0.000     0.00
DHSCF2                 1       0.013       0.013     0.13
REMESH                 1       0.002       0.002     0.02
REORD                110       0.000       0.000     0.00
PHION                  1       0.009       0.009     0.09
COMM_BSC             188       0.000       0.000     0.00
POISON                24       0.000       0.001     0.01
fft                   48       0.000       0.000     0.00
setup_H               22       0.010       0.212     2.15
DHSCF                 23       0.010       0.240     2.44
DHSCF3                23       0.010       0.219     2.23
rhoofd                23       0.005       0.106     1.08
XC                    23       0.000       0.007     0.07
GXC-CellXC            23       0.000       0.007     0.07
vmat                  23       0.005       0.105     1.06
IterSCF               21       0.041       0.851     8.66
compute_dm            21       0.031       0.641     6.52
diagon                21       0.030       0.640     6.51
c-eigval            1344       0.000       0.195     1.98
c-buildHS           1344       0.000       0.168     1.71
cdiag               3688       0.000       0.136     1.38
cdiag1              3688       0.000       0.005     0.05
cdiag2              3688       0.000       0.018     0.18
cdiag3              3688       0.000       0.096     0.98
c-eigvec            1344       0.000       0.225     2.29
cdiag4              2344       0.000       0.004     0.05
c-buildD            1344       0.000       0.215     2.19
MIXER                 20       0.000       0.004     0.04
PostSCF                1       0.065       0.065     0.66
DHSCF4                 1       0.020       0.020     0.21
dfscf                  1       0.019       0.019     0.19
overfsm                1       0.002       0.002     0.02
state_analysis         1       0.000       0.000     0.00
siesta_move            1       0.000       0.000     0.00
Analysis               1       6.980       6.980    70.98
optical                1       6.979       6.979    70.97
phirphiopt             1       4.002       4.002    40.70
transrate           1000       0.000       0.179     1.82
  

>> End of run:  25-SEP-2023   9:47:11
Job completed
