Siesta Version  : 5.0.0-alpha-120-g24fa496ce-dirty
Architecture    : ----
Compiler version: GNU-11.4.0
Compiler flags  : -fallow-argument-mismatch;-O3 -march=native
PP flags        : ----
Libraries       : ----
Parallelisations: none
GEMM3M support
NetCDF support
NetCDF-4 support
Lua support

Runtime information:
* Directory : /home/fnpedron/Siesta/siesta-dev/Tests/16.TranSiesta/work/Elec_ts_n_terminal_elec_x
* Running in serial mode.
>> Start of run:  25-SEP-2023   9:48:24

                           *********************** 
                           *  WELCOME TO SIESTA  * 
                           *********************** 

reinit: Reading from file ts_n_terminal_elec_x.fdf

reinit: -----------------------------------------------------------------------
reinit: System Name: 
reinit: -----------------------------------------------------------------------
reinit: System Label: ts_n_terminal_elec_x
reinit: -----------------------------------------------------------------------

initatom: Reading input for the pseudopotentials and atomic orbitals ----------
Species number:   1 Atomic number:    6 Label: C


---- Processing specs for species: C
Ground state valence configuration:   2s02  2p02
Reading pseudopotential information in formatted form from:
  /home/fnpedron/Siesta/siesta-dev/Tests/Pseudos/C.psf

---- Pseudopotential check for C 

Pseudized shells:
2s( 2.00) rc: 1.49
2p( 2.00) rc: 1.52
3d( 0.00) rc: 1.58
Valence configuration for ps generation: (assumed as above)
relmxkb: Read Max KB Ang. Momentum=    2 for species C

<basis_specs>
===============================================================================
C                    Z=   6    Mass=  12.011        Charge= 0.17977+309
Lmxo=1 Lmxkb= 2    BasisType=split      Semic=F
L=0  Nsemic=0  Cnfigmx=2
          i=1  nzeta=1  polorb=0  (2s)
            splnorm:   0.15000    
               vcte:    0.0000    
               rinn:    0.0000    
               qcoe:    0.0000    
               qyuk:    0.0000    
               qwid:   0.10000E-01
                rcs:    0.0000    
            lambdas:    1.0000    
L=1  Nsemic=0  Cnfigmx=2
          i=1  nzeta=1  polorb=0  (2p)
            splnorm:   0.15000    
               vcte:    0.0000    
               rinn:    0.0000    
               qcoe:    0.0000    
               qyuk:    0.0000    
               qwid:   0.10000E-01
                rcs:    0.0000    
            lambdas:    1.0000    
-------------------------------------------------------------------------------
L=0  Nkbl=1  erefs: 0.17977+309
L=1  Nkbl=1  erefs: 0.17977+309
L=2  Nkbl=1  erefs: 0.17977+309
===============================================================================
</basis_specs>

atom: Called for C                     (Z =   6)

read_vps: Pseudopotential generation method:
read_vps: ATM3      Troullier-Martins                       
Valence charge in pseudo generation:    4.00000

xc_check: Exchange-correlation functional:
xc_check: Ceperley-Alder
V l=0 = -2*Zval/r beyond r=  1.4666
V l=1 = -2*Zval/r beyond r=  1.5038
V l=2 = -2*Zval/r beyond r=  1.5612
All V_l potentials equal beyond r=  1.5612
This should be close to max(r_c) in ps generation
All pots = -2*Zval/r beyond r=  1.5612
Using small-core scheme (local charge) for Vlocal

VLOCAL_FROM_CHLOCAL: 99.0% of the norm of Vloc inside     17.809 Ry
VLOCAL_FROM_CHLOCAL: 99.9% of the norm of Vloc inside     40.586 Ry
atom: Maximum radius for chlocal:    1.88329
atom: Maximum radius for r*vlocal+2*Zval:    1.72547

KBgen: Kleinman-Bylander projectors: 
GHOST: No ghost state for L =  0
   l= 0   rc=  1.747182   el= -1.001947   Ekb=  5.181700   kbcos=  0.300603
GHOST: No ghost state for L =  1
   l= 1   rc=  1.747182   el= -0.398598   Ekb= -4.328763   kbcos= -0.367074
GHOST: No ghost state for L =  2
   l= 2   rc=  1.955272   el=  0.002326   Ekb= -1.016175   kbcos= -0.009979

KBgen: Total number of Kleinman-Bylander projectors:   9
atom: -------------------------------------------------------------------------

atom: SANKEY-TYPE ORBITALS:

SPLIT: Orbitals with angular momentum L= 0

SPLIT: Basis orbitals for state 2s

SPLIT: PAO cut-off radius determined from an
SPLIT: energy shift=  0.020212 Ry

   izeta = 1
                 lambda =    1.000000
                     rc =    4.191849
                 energy =   -0.983897
                kinetic =    0.886956
    potential(screened) =   -1.870853
       potential(ionic) =   -5.479661

SPLIT: Orbitals with angular momentum L= 1

SPLIT: Basis orbitals for state 2p

SPLIT: PAO cut-off radius determined from an
SPLIT: energy shift=  0.020212 Ry

   izeta = 1
                 lambda =    1.000000
                     rc =    4.870301
                 energy =   -0.379093
                kinetic =    2.545357
    potential(screened) =   -2.924450
       potential(ionic) =   -6.433151
atom: Total number of Sankey-type orbitals:  4

atm_pop: Valence configuration (for local Pseudopot. screening):
 2s( 2.00)                                                            
 2p( 2.00)                                                            
Vna: chval, zval:    4.00000   4.00000

Vna:  Cut-off radius for the neutral-atom potential:   4.870301

atom: _________________________________________________________________________

prinput: Basis input 

PAO.BasisType split     

%block ChemicalSpeciesLabel
    1    6 C                       # Species index, atomic number, species label
%endblock ChemicalSpeciesLabel

%block PAO.Basis                 # Define Basis set
# WARNING: This information might be incomplete!
C                     2                    # Species label, number of l-shells
 n=2   0   1                         # n, l, Nzeta 
   4.192   
   1.000   
 n=2   1   1                         # n, l, Nzeta 
   4.870   
   1.000   
%endblock PAO.Basis

prinput: ----------------------------------------------------------------------

Dumping basis to NetCDF file C.ion.nc
coor:   Atomic-coordinates input format  =     Cartesian coordinates
coor:                                          (in Angstroms)

siesta: Atomic coordinates (Bohr) and species
siesta:      0.00000   0.00000   0.00000  1        1
siesta:      2.39995   0.00000   0.00000  1        2
siesta:      4.79990   0.00000   0.00000  1        3
siesta:      7.19986   0.00000   0.00000  1        4

siesta: System type = chain     

initatomlists: Number of atoms, orbitals, and projectors:      4    16    36

siesta: ******************** Simulation parameters ****************************
siesta:
siesta: The following are some of the parameters of the simulation.
siesta: A complete list of the parameters used, including default values,
siesta: can be found in file out.fdf
siesta:
redata: Spin configuration                          = none
redata: Number of spin components                   = 1
redata: Time-Reversal Symmetry                      = T
redata: Spin spiral                                 = F
redata: Long output                                 =   F
redata: Number of Atomic Species                    =        1
redata: Charge density info will appear in .RHO file
redata: Write Mulliken Pop.                         = Atomic and Orbital charges
redata: Matel table size (NRTAB)                    =     1024
redata: Mesh Cutoff                                 =    50.0000 Ry
redata: Net charge of the system                    =     0.0000 |e|
redata: Min. number of SCF Iter                     =        3
redata: Max. number of SCF Iter                     =      200
redata: SCF convergence failure will abort job
redata: SCF mix quantity                            = Hamiltonian
redata: Mix DM or H after convergence               =   F
redata: Recompute H after scf cycle                 =   F
redata: Mix DM in first SCF step                    =   T
redata: Write Pulay info on disk                    =   F
redata: New DM Occupancy tolerance                  = 0.000000000001
redata: No kicks to SCF
redata: DM Mixing Weight for Kicks                  =     0.5000
redata: Require Harris convergence for SCF          =   F
redata: Harris energy tolerance for SCF             =     0.000100 eV
redata: Require DM convergence for SCF              =   T
redata: DM tolerance for SCF                        =     0.000100
redata: Require EDM convergence for SCF             =   F
redata: EDM tolerance for SCF                       =     0.001000 eV
redata: Require H convergence for SCF               =   T
redata: Hamiltonian tolerance for SCF               =     0.001000 eV
redata: Require (free) Energy convergence for SCF   =   F
redata: (free) Energy tolerance for SCF             =     0.000100 eV
redata: Using DFT-D3 dispersion                     =   F
redata: Using Saved Data (generic)                  =   F
redata: Use continuation files for DM               =   T
redata: Neglect nonoverlap interactions             =   F
redata: Method of Calculation                       = Diagonalization
redata: Electronic Temperature                      =   300.0000 K
redata: Fix the spin of the system                  =   F
redata: Max. number of TDED Iter                    =        1
redata: Number of TDED substeps                     =        3
redata: Dynamics option                             = Single-point calculation
mix.SCF: Pulay mixing                            = Pulay
mix.SCF:    Variant                              = stable
mix.SCF:    History steps                        = 6
mix.SCF:    Linear mixing weight                 =     0.050000
mix.SCF:    Mixing weight                        =     0.050000
mix.SCF:    SVD condition                        = 0.1000E-07
redata: Save all siesta data in one NC              =   F
redata: ***********************************************************************

%block SCF.Mixers
  Pulay
%endblock SCF.Mixers

%block SCF.Mixer.Pulay
  # Mixing method
  method pulay
  variant stable

  # Mixing options
  weight 0.0500
  weight.linear 0.0500
  history 6
%endblock SCF.Mixer.Pulay

DM_history_depth set to one: no extrapolation allowed by default for geometry relaxation
Size of DM history Fstack: 1
Total number of electrons:    16.000000
Total ionic charge:    16.000000
k-point displ. along   1 input, could be:     0.00    0.50
 Kpoints in:           26 . Kpoints trimmed:           26

siesta: k-grid: Number of k-points = 26
siesta: k-points from Monkhorst-Pack grid
siesta: k-cutoff (effective) =     6.000 Ang
siesta: k-point supercell and displacements
siesta: k-grid:    50     0     0      0.000
siesta: k-grid:     0     1     0      0.000
siesta: k-grid:     0     0     1      0.000

diag: Algorithm                                     = D&C
diag: Used triangular part                          = Lower
diag: Absolute tolerance                            =  0.100E-15
diag: Orthogonalization factor                      =  0.100E-05
diag: Memory factor                                 =  1.0000

superc: Internal auxiliary supercell:     3 x     1 x     1  =       3
superc: Number of atoms, orbitals, and projectors:     12     48    108


ts: **************************************************************
ts: Save H and S matrices                           =    T
ts: Save DM and EDM matrices                        =    T
ts: Only save the overlap matrix S                  =    F
ts: **************************************************************

************************ Begin: TS CHECKS AND WARNINGS ************************
************************ End: TS CHECKS AND WARNINGS **************************


                     ====================================
                        Single-point calculation
                     ====================================

superc: Internal auxiliary supercell:     3 x     1 x     1  =       3
superc: Number of atoms, orbitals, and projectors:     12     48    108

outcell: Unit cell vectors (Ang):
        5.080000    0.000000    0.000000
        0.000000   12.000000    0.000000
        0.000000    0.000000   12.000000

outcell: Cell vector modules (Ang)   :    5.080000   12.000000   12.000000
outcell: Cell angles (23,13,12) (deg):     90.0000     90.0000     90.0000
outcell: Cell volume (Ang**3)        :    731.5200
<dSpData1D:S at geom step 0
  <sparsity:sparsity for geom step 0
    nrows_g=16 nrows=16 sparsity=2.2500 nnzs=576, refcount: 7>
  <dData1D:(new from dSpData1D) n=576, refcount: 1>
refcount: 1>
new_DM -- step:     1
Initializing Density Matrix...

Attempting to read DM from file... Failed...
DM filled with atomic data:
<dSpData2D:DM initialized from atoms
  <sparsity:sparsity for geom step 0
    nrows_g=16 nrows=16 sparsity=2.2500 nnzs=576, refcount: 8>
  <dData2D:DM n=576 m=1, refcount: 1>
refcount: 1>
No. of atoms with KB's overlaping orbs in proc 0. Max # of overlaps:       8      20

InitMesh: MESH = 24 x 54 x 54 = 69984
InitMesh: Mesh cutoff (required, used) =    50.000    55.966 Ry
New grid distribution [1]: sub = 2

stepf: Fermi-Dirac step function

siesta: Program's energy decomposition (eV):
siesta: Ebs     =      -255.170954
siesta: Eions   =       997.132104
siesta: Ena     =       201.603719
siesta: Ekin    =       399.521186
siesta: Enl     =       -57.097200
siesta: Eso     =         0.000000
siesta: Edftu   =         0.000000
siesta: DEna    =        19.154232
siesta: DUscf   =         0.826693
siesta: DUext   =         0.000000
siesta: Ex      =      -152.757850
siesta: Ec      =       -23.031196
siesta: Exc     =      -175.789046
siesta: EbV     =         0.000000
siesta: eta*DQ  =         0.000000
siesta: Emadel  =         0.000000
siesta: Emeta   =         0.000000
siesta: Emolmec =         0.000000
siesta: Ekinion =         0.000000
siesta: Eharris =      -609.305098
siesta: Etot    =      -608.912521
siesta: FreeEng =      -608.915404

        iscf     Eharris(eV)        E_KS(eV)     FreeEng(eV)     dDmax    Ef(eV) dHmax(eV)
   scf:    1     -609.305098     -608.912521     -608.915404  1.596302 -5.784578  2.042700
timer: Routine,Calls,Time,% = IterSCF        1       0.006  13.17
   scf:    2     -608.913527     -608.913024     -608.915908  0.000654 -5.869965  1.938968
   scf:    3     -608.921867     -608.917531     -608.920420  0.012403 -7.470138  0.004767
   scf:    4     -608.917536     -608.917534     -608.920422  0.000369 -7.470284  0.005823
mix: Pulay -- inversion failed, > SVD [rank/size] 2 / 3
   scf:    5     -608.917534     -608.917534     -608.920422  0.000078 -7.473889  0.000001

SCF Convergence by DM+H criterion
max |DM_out - DM_in|         :     0.0000779642
max |H_out - H_in|      (eV) :     0.0000005864
SCF cycle converged after 5 iterations

Using DM_out to compute the final energy and forces
No. of atoms with KB's overlaping orbs in proc 0. Max # of overlaps:       8      20

siesta: E_KS(eV) =             -608.9175

siesta: E_KS - E_eggbox =      -608.9175

siesta: Atomic forces (eV/Ang):
     1    0.000000    0.000000    0.000000
     2   -0.000000   -0.000000    0.000000
     3   -0.000000    0.000000    0.000000
     4    0.000000    0.000000    0.000000
----------------------------------------
   Tot    0.000000    0.000000    0.000000
----------------------------------------
   Max    0.000000
   Res    0.000000    sqrt( Sum f_i^2 / 3N )
----------------------------------------
   Max    0.000000    constrained

Stress tensor Voigt[x,y,z,yz,xz,xy] (kbar):      -50.65       -0.16       -0.16       -0.00       -0.00        0.00
(Free)E + p*V (eV/cell)     -601.1630
Target enthalpy (eV/cell)     -608.9204

mulliken: Atomic and Orbital Populations:

Species: C                   
Atom  Qatom  Qorb
               2s      2py     2pz     2px     
   1  4.000   0.842   1.000   1.000   1.158
   2  4.000   0.842   1.000   1.000   1.158
   3  4.000   0.842   1.000   1.000   1.158
   4  4.000   0.842   1.000   1.000   1.158

mulliken: Qtot =       16.000

siesta: Program's energy decomposition (eV):
siesta: Ebs     =      -254.817715
siesta: Eions   =       997.132104
siesta: Ena     =       201.603719
siesta: Ekin    =       400.512668
siesta: Enl     =       -57.752008
siesta: Eso     =         0.000000
siesta: Edftu   =         0.000000
siesta: DEna    =        18.876941
siesta: DUscf   =         0.823643
siesta: DUext   =         0.000000
siesta: Ex      =      -152.816510
siesta: Ec      =       -23.033882
siesta: Exc     =      -175.850392
siesta: EbV     =         0.000000
siesta: eta*DQ  =         0.000000
siesta: Emadel  =         0.000000
siesta: Emeta   =         0.000000
siesta: Emolmec =         0.000000
siesta: Ekinion =         0.000000
siesta: Eharris =      -608.917534
siesta: Etot    =      -608.917534
siesta: FreeEng =      -608.920422

siesta: Final energy (eV):
siesta:  Band Struct. =    -254.817715
siesta:       Kinetic =     400.512668
siesta:       Hartree =    1011.585191
siesta:         Edftu =       0.000000
siesta:       Eso     =       0.000000
siesta:    Ext. field =       0.000000
siesta:         Exch. =    -152.816510
siesta:         Corr. =     -23.033882
siesta:     Bulk bias =       0.000000
siesta:   Exch.-corr. =    -175.850392
siesta:  Ion-electron =   -2448.679205
siesta:       Ion-ion =     603.514204
siesta:       Ekinion =       0.000000
siesta: D3 dispersion =       0.000000
siesta:         Total =    -608.917534
siesta:         Fermi =      -7.473889

siesta: Stress tensor (static) (eV/Ang**3):
siesta:    -0.031616    0.000000    0.000000
siesta:     0.000000   -0.000099   -0.000000
siesta:    -0.000000   -0.000000   -0.000099

siesta: Cell volume =        731.520000 Ang**3

siesta: Pressure (static):
siesta:                Solid            Molecule  Units
siesta:           0.00011550          0.00011550  Ry/Bohr**3
siesta:           0.01060459          0.01060459  eV/Ang**3
siesta:          16.99042017         16.99042017  kBar
(Free)E+ p_basis*V_orbitals  =        -608.334085
(Free)Eharris+ p_basis*V_orbitals  =        -608.334086

siesta: Electric dipole (a.u.)  =    0.000000   -0.000000   -0.000000
siesta: Electric dipole (Debye) =    0.000000   -0.000000   -0.000000

cite: Please see "ts_n_terminal_elec_x.bib" for an exhaustive BiBTeX file.
cite: Please clearly indicate Siesta version in published work: 5.0.0-alpha-120-g24fa496ce-dirty
cite: This calculation has made use of the following articles
cite: which are encouraged to be cited in a published work.
        Primary SIESTA paper
          DOI: www.doi.org/10.1088/0953-8984/14/11/302


timer: Elapsed wall time (sec) =       0.080
timer: CPU execution times (sec):

Routine            Calls   Time/call    Tot.time        %
siesta                 1       0.080       0.080    99.98
Setup                  1       0.017       0.017    21.26
bands                  1       0.000       0.000     0.02
KSV_init               1       0.000       0.000     0.00
IterGeom               1       0.062       0.062    78.16
geom_init              1       0.022       0.022    27.64
state_init             1       0.002       0.002     2.45
hsparse                1       0.000       0.000     0.05
overlap                1       0.002       0.002     2.06
Setup_H0               1       0.016       0.016    19.99
naefs                  2       0.000       0.000     0.16
MolMec                 2       0.000       0.000     0.00
kinefsm                2       0.001       0.001     1.69
nlefsm                 2       0.004       0.008     9.57
DHSCF_Init             1       0.007       0.007     9.15
DHSCF1                 1       0.001       0.001     1.23
INITMESH               1       0.000       0.000     0.00
DHSCF2                 1       0.006       0.006     7.87
REMESH                 1       0.000       0.000     0.36
REORD                 22       0.000       0.001     1.28
PHION                  1       0.003       0.003     3.84
COMM_BSC              31       0.000       0.001     1.26
POISON                 8       0.001       0.011    13.84
fft                   16       0.000       0.007     8.87
setup_H                6       0.004       0.024    30.54
DHSCF                  7       0.005       0.034    43.00
DHSCF3                 7       0.004       0.028    35.30
rhoofd                 7       0.000       0.003     4.32
XC                     7       0.001       0.008     9.85
GXC-CellXC             7       0.001       0.007     8.56
vmat                   7       0.000       0.003     3.26
IterSCF                5       0.006       0.029    36.58
compute_dm             5       0.002       0.008    10.65
diagon                 5       0.002       0.008    10.63
c-eigval             130       0.000       0.003     3.35
c-buildHS            130       0.000       0.001     0.79
cdiag                260       0.000       0.006     7.02
cdiag1               260       0.000       0.000     0.32
cdiag2               260       0.000       0.001     1.14
cdiag3               260       0.000       0.004     4.57
c-eigvec             130       0.000       0.004     5.40
cdiag4               130       0.000       0.000     0.19
c-buildD             130       0.000       0.001     1.46
MIXER                  4       0.000       0.000     0.31
PostSCF                1       0.011       0.011    13.64
DHSCF4                 1       0.006       0.006     7.69
dfscf                  1       0.005       0.005     6.09
overfsm                1       0.000       0.000     0.10
writeHSX               1       0.000       0.000     0.05
state_analysis         1       0.000       0.000     0.19
siesta_move            1       0.000       0.000     0.00
Analysis               1       0.000       0.000     0.40
optical                1       0.000       0.000     0.02
  

>> End of run:  25-SEP-2023   9:48:24
Job completed
