Siesta Version  : 5.0.0-alpha-120-g24fa496ce-dirty
Architecture    : ----
Compiler version: GNU-11.4.0
Compiler flags  : -fallow-argument-mismatch;-O3 -march=native
PP flags        : ----
Libraries       : ----
Parallelisations: none
GEMM3M support
NetCDF support
NetCDF-4 support
Lua support

Runtime information:
* Directory : /home/fnpedron/Siesta/siesta-dev/Tests/05.Bands/work/ge_bands_so_fatbands
* Running in serial mode.
>> Start of run:  25-SEP-2023   9:44:25

                           *********************** 
                           *  WELCOME TO SIESTA  * 
                           *********************** 

reinit: Reading from standard input
reinit: Dumping input in INPUT_TMP.14856
************************** Dump of input data file ****************************
%include ../../basejob.fdf
SystemLabel       ge_bands_so_fatbands
Spin spin-orbit
WFS.Write.For.Bands T
Wfs.band.min 1
Wfs.band.max 8
WaveFuncKPointsScale  pi/a
%block WaveFuncKPoints
0.000  0.000  0.000  from 1 to 10   # eigenstates 1-10 of Gamma
2.000  0.000  0.000  1 3 5          # eigenstates 1,3,5 of X
1.500  1.500  1.500                 # all eigenstates of K
%endblock WaveFuncKPoints
COOP.Write T
************************** End of input data file *****************************

reinit: -----------------------------------------------------------------------
reinit: System Name: bulk Ge with spin-orbit. Test bands
reinit: -----------------------------------------------------------------------
reinit: System Label: ge_bands_so_fatbands
reinit: -----------------------------------------------------------------------

initatom: Reading input for the pseudopotentials and atomic orbitals ----------
Species number:   1 Atomic number:   32 Label: Ge


---- Processing specs for species: Ge
Ground state valence configuration:   4s02  4p02
Reading pseudopotential information in formatted form from:
  /home/fnpedron/Siesta/siesta-dev/Tests/Pseudos/Ge.psf

---- Pseudopotential check for Ge

Pseudopotential generated from a fully relativistic atomic calculation
There are spin-orbit semi-local pseudopotentials available

Pseudized shells:
4s( 2.00) rc: 2.25
4p( 2.00) rc: 2.99
4d( 0.00) rc: 2.48
4f( 0.00) rc: 2.48
Valence configuration for ps generation: (assumed as above)
For Ge, standard SIESTA heuristics set lmxkb to 3
 (one more than the basis l, including polarization orbitals).
Use PS.lmax or PS.KBprojectors blocks to override.

<basis_specs>
===============================================================================
Ge                   Z=  32    Mass=  72.630        Charge= 0.17977+309
Lmxo=2 Lmxkb= 3    BasisType=split      Semic=F
L=0  Nsemic=0  Cnfigmx=4
          i=1  nzeta=1  polorb=0  (4s)
            splnorm:   0.15000    
               vcte:    0.0000    
               rinn:    0.0000    
               qcoe:    0.0000    
               qyuk:    0.0000    
               qwid:   0.10000E-01
                rcs:    0.0000    
            lambdas:    1.0000    
L=1  Nsemic=0  Cnfigmx=4
          i=1  nzeta=1  polorb=1  (4p)  (to be polarized perturbatively)
            splnorm:   0.15000    
               vcte:    0.0000    
               rinn:    0.0000    
               qcoe:    0.0000    
               qyuk:    0.0000    
               qwid:   0.10000E-01
                rcs:    0.0000    
            lambdas:    1.0000    
L=2  Nsemic=0  Cnfigmx=4
          i=1  nzeta=0  polorb=0  (4d)  (perturbative polarization orbital) (from 4p)
-------------------------------------------------------------------------------
L=0  Nkbl=1  erefs: 0.17977+309
L=1  Nkbl=1  erefs: 0.17977+309
L=2  Nkbl=1  erefs: 0.17977+309
L=3  Nkbl=1  erefs: 0.17977+309
===============================================================================
</basis_specs>

atom: Called for Ge                    (Z =  32)

read_vps: Pseudopotential generation method:
read_vps: ATM3      Troullier-Martins                       
Valence charge in pseudo generation:    4.00000

read_vps: Pseudopotential includes a core correction:
read_vps: Pseudo-core for xc-correction

xc_check: Exchange-correlation functional:
xc_check: Ceperley-Alder
V l=0 = -2*Zval/r beyond r=  3.2682
V l=1 = -2*Zval/r beyond r=  3.2682
V l=2 = -2*Zval/r beyond r=  3.2682
V l=3 = -2*Zval/r beyond r=  3.2682
All V_l potentials equal beyond r=  2.9204
This should be close to max(r_c) in ps generation
All pots = -2*Zval/r beyond r=  3.2682
Using small-core scheme (local charge) for Vlocal

VLOCAL_FROM_CHLOCAL: 99.0% of the norm of Vloc inside      5.089 Ry
VLOCAL_FROM_CHLOCAL: 99.9% of the norm of Vloc inside     11.599 Ry
atom: Maximum radius for chlocal:    3.47899
atom: Maximum radius for r*vlocal+2*Zval:    3.22760

KBgen: Kleinman-Bylander projectors: 
GHOST: No ghost state for L =  0
   l= 0   rc=  3.435772   el= -0.876405   Ekb=  4.825460   kbcos=  0.226549
GHOST: No ghost state for L =  1
j- l= 1   rc=  3.611931   el= -0.307541   Ekb=  1.242170   kbcos=  0.207358
GHOST: No ghost state for L =  1
j+ l= 1   rc=  3.611931   el= -0.293302   Ekb=  1.217697   kbcos=  0.225505
GHOST: No ghost state for L =  2
j- l= 2   rc=  3.749954   el=  0.002321   Ekb=  2.119424   kbcos=  0.039645
GHOST: No ghost state for L =  2
j+ l= 2   rc=  3.749954   el=  0.002321   Ekb=  2.326137   kbcos=  0.038442
GHOST: No ghost state for L =  3
j- l= 3   rc=  3.893250   el=  0.003413   Ekb= -0.812063   kbcos= -0.016088
GHOST: No ghost state for L =  3
j+ l= 3   rc=  3.893250   el=  0.003413   Ekb= -0.805502   kbcos= -0.016139

KBgen: Total number of Kleinman-Bylander projectors:  31
atom: -------------------------------------------------------------------------

atom: SANKEY-TYPE ORBITALS:

SPLIT: Orbitals with angular momentum L= 0

SPLIT: Basis orbitals for state 4s

SPLIT: PAO cut-off radius determined from an
SPLIT: energy shift=  0.022050 Ry

   izeta = 1
                 lambda =    1.000000
                     rc =    4.755243
                 energy =   -0.853473
                kinetic =    0.593896
    potential(screened) =   -1.447369
       potential(ionic) =   -3.799061

SPLIT: Orbitals with angular momentum L= 1

SPLIT: Basis orbitals for state 4p

SPLIT: PAO cut-off radius determined from an
SPLIT: energy shift=  0.022050 Ry

   izeta = 1
                 lambda =    1.000000
                     rc =    6.260448
                 energy =   -0.277657
                kinetic =    0.837304
    potential(screened) =   -1.114960
       potential(ionic) =   -3.275139

POLgen: Perturbative polarization orbital with L=  2

POLgen: Polarization orbital for state 4p

   izeta = 1
                     rc =    6.260448
                 energy =    0.414818
                kinetic =    1.262038
    potential(screened) =   -0.847220
       potential(ionic) =   -2.864715
atom: Total number of Sankey-type orbitals:  9

atm_pop: Valence configuration (for local Pseudopot. screening):
 4s( 2.00)                                                            
 4p( 2.00)                                                            
 4d( 0.00)                                                            
Vna: chval, zval:    4.00000   4.00000

Vna:  Cut-off radius for the neutral-atom potential:   6.260448
comcore: Pseudo-core radius Rcore=  4.467133

atom: _________________________________________________________________________

prinput: Basis input 

PAO.BasisType split     

%block ChemicalSpeciesLabel
    1   32 Ge                      # Species index, atomic number, species label
%endblock ChemicalSpeciesLabel

%block PAO.Basis                 # Define Basis set
# WARNING: This information might be incomplete!
Ge                    2                    # Species label, number of l-shells
 n=4   0   1                         # n, l, Nzeta 
   4.755   
   1.000   
 n=4   1   1 P   1                   # n, l, Nzeta, Polarization, NzetaPol
   6.260   
   1.000   
%endblock PAO.Basis

prinput: ----------------------------------------------------------------------

Dumping basis to NetCDF file Ge.ion.nc
coor:   Atomic-coordinates input format  =     Fractional

siesta: Atomic coordinates (Bohr) and species
siesta:      0.00000   0.00000   0.00000  1        1
siesta:      2.67396   2.67396   2.67396  1        2

siesta: System type = bulk      

initatomlists: Number of atoms, orbitals, and projectors:      2    18    62

siesta: ******************** Simulation parameters ****************************
siesta:
siesta: The following are some of the parameters of the simulation.
siesta: A complete list of the parameters used, including default values,
siesta: can be found in file out.fdf
siesta:
redata: Spin configuration                          = spin-orbit+offsite
redata: Number of spin components                   = 8
redata: Time-Reversal Symmetry                      = F
redata: Spin spiral                                 = F
redata: Long output                                 =   F
redata: Number of Atomic Species                    =        1
redata: Charge density info will appear in .RHO file
redata: Write Mulliken Pop.                         = NO
redata: Matel table size (NRTAB)                    =     1024
redata: Mesh Cutoff                                 =   200.0000 Ry
redata: Net charge of the system                    =     0.0000 |e|
redata: Min. number of SCF Iter                     =        0
redata: Max. number of SCF Iter                     =       50
redata: SCF convergence failure will abort job
redata: SCF mix quantity                            = Hamiltonian
redata: Mix DM or H after convergence               =   F
redata: Recompute H after scf cycle                 =   F
redata: Mix DM in first SCF step                    =   T
redata: Write Pulay info on disk                    =   F
redata: New DM Occupancy tolerance                  = 0.000000000001
redata: No kicks to SCF
redata: DM Mixing Weight for Kicks                  =     0.5000
redata: Require Harris convergence for SCF          =   F
redata: Harris energy tolerance for SCF             =     0.000100 eV
redata: Require DM convergence for SCF              =   T
redata: DM tolerance for SCF                        =     0.000100
redata: Require EDM convergence for SCF             =   F
redata: EDM tolerance for SCF                       =     0.001000 eV
redata: Require H convergence for SCF               =   T
redata: Hamiltonian tolerance for SCF               =     0.001000 eV
redata: Require (free) Energy convergence for SCF   =   F
redata: (free) Energy tolerance for SCF             =     0.000100 eV
redata: Using DFT-D3 dispersion                     =   F
redata: Using Saved Data (generic)                  =   F
redata: Use continuation files for DM               =   F
redata: Neglect nonoverlap interactions             =   F
redata: Method of Calculation                       = Diagonalization
redata: Electronic Temperature                      =   290.1130 K
redata: Fix the spin of the system                  =   F
redata: Split SR and SO contributions               =   F
redata: Max. number of TDED Iter                    =        1
redata: Number of TDED substeps                     =        3
redata: Dynamics option                             = Single-point calculation
mix.SCF: Pulay mixing                            = Pulay
mix.SCF:    Variant                              = stable
mix.SCF:    History steps                        = 3
mix.SCF:    Linear mixing weight                 =     0.300000
mix.SCF:    Mixing weight                        =     0.300000
mix.SCF:    SVD condition                        = 0.1000E-07
mix.SCF: Spin-component mixing                   all
redata: Save all siesta data in one NC              =   F
redata: ***********************************************************************

%block SCF.Mixers
  Pulay
%endblock SCF.Mixers

%block SCF.Mixer.Pulay
  # Mixing method
  method pulay
  variant stable

  # Mixing options
  weight 0.3000
  weight.linear 0.3000
  history 3
%endblock SCF.Mixer.Pulay

DM_history_depth set to one: no extrapolation allowed by default for geometry relaxation
Size of DM history Fstack: 1
Total number of electrons:     8.000000
Total ionic charge:     8.000000

Time-reversal symmetry not used.

siesta: k-grid: Number of k-points = 64
siesta: k-points from cutoff
siesta: k-cutoff (effective) =     8.004 Ang
siesta: k-point supercell and displacements
siesta: k-grid:     0     4     0      0.500
siesta: k-grid:     0     0     4      0.500
siesta: k-grid:     4     0     0      0.500

diag: Algorithm                                     = D&C
diag: Used triangular part                          = Lower
diag: Absolute tolerance                            =  0.100E-15
diag: Orthogonalization factor                      =  0.100E-05
diag: Memory factor                                 =  1.0000
Using LatticeConstant from fdf file for BandLinesScale:   10.695850 Bohr
Beware any cell changes by the end of the run
Using LatticeConstant from fdf file for BandLinesScale:   10.695850 Bohr
Beware any cell changes by the end of the run
Using LatticeConstant from fdf file for WaveFuncKPointsScale:   10.695850 Bohr
Beware any cell changes by the end of the run

superc: Internal auxiliary supercell:     5 x     5 x     5  =     125
superc: Number of atoms, orbitals, and projectors:    250   2250   7750


ts: **************************************************************
ts: Save H and S matrices                           =    F
ts: Save DM and EDM matrices                        =    F
ts: Only save the overlap matrix S                  =    F
ts: **************************************************************

************************ Begin: TS CHECKS AND WARNINGS ************************
************************ End: TS CHECKS AND WARNINGS **************************


                     ====================================
                        Single-point calculation
                     ====================================

superc: Internal auxiliary supercell:     5 x     5 x     5  =     125
superc: Number of atoms, orbitals, and projectors:    250   2250   7750

outcell: Unit cell vectors (Ang):
        2.830000    2.830000    0.000000
        0.000000    2.830000    2.830000
        2.830000    0.000000    2.830000

outcell: Cell vector modules (Ang)   :    4.002224    4.002224    4.002224
outcell: Cell angles (23,13,12) (deg):     60.0000     60.0000     60.0000
outcell: Cell volume (Ang**3)        :     45.3304
<dSpData1D:S at geom step 0
  <sparsity:sparsity for geom step 0
    nrows_g=18 nrows=18 sparsity=70.7346 nnzs=22918, refcount: 8>
  <dData1D:(new from dSpData1D) n=22918, refcount: 1>
refcount: 1>
new_DM -- step:     1
Initializing Density Matrix...
DM filled with atomic data:
<dSpData2D:DM initialized from atoms
  <sparsity:sparsity for geom step 0
    nrows_g=18 nrows=18 sparsity=70.7346 nnzs=22918, refcount: 9>
  <dData2D:DM n=22918 m=8, refcount: 1>
refcount: 1>
     spin moment: {S} , |S| = {    0.00000    0.00000    4.00000 }     4.00000

InitMesh: MESH = 30 x 30 x 30 = 27000
InitMesh: Mesh cutoff (required, used) =   200.000   232.934 Ry
New grid distribution [1]: sub = 2

stepf: Fermi-Dirac step function

siesta: Program's energy decomposition (eV):
siesta: Ebs     =       -75.952363
siesta: Eions   =       266.526709
siesta: Ena     =        29.499031
siesta: Ekin    =        73.126048
siesta: Enl(+so)=        15.670312
siesta: Eso(nil)=         0.000000
siesta: Edftu   =         0.000000
siesta: DEna    =         5.170047
siesta: DUscf   =         0.302119
siesta: DUext   =         0.000000
siesta: Ex      =      -133.764926
siesta: Ec      =       -20.215682
siesta: Exc     =      -153.980608
siesta: EbV     =         0.000000
siesta: eta*DQ  =         0.000000
siesta: Emadel  =         0.000000
siesta: Emeta   =         0.000000
siesta: Emolmec =         0.000000
siesta: Ekinion =         0.000000
siesta: Eharris =      -297.068567
siesta: Etot    =      -296.739759
siesta: FreeEng =      -296.742225

        iscf     Eharris(eV)        E_KS(eV)     FreeEng(eV)     dDmax    Ef(eV) dHmax(eV)
   scf:    1     -297.068567     -296.739759     -296.742225  0.437810 -3.376489  1.340945
     spin moment: {S} , |S| = {   -0.00022   -0.00022    0.14772 }     0.14772
timer: Routine,Calls,Time,% = IterSCF        1       0.222  20.02
   scf:    2     -296.851246     -296.796611     -296.797947  0.006825 -3.271819  0.914356
     spin moment: {S} , |S| = {    0.00153    0.00153    0.08136 }     0.08139
   scf:    3     -296.867283     -296.830587     -296.830588  0.018937 -3.796719  0.058348
     spin moment: {S} , |S| = {    0.00000    0.00000    0.00002 }     0.00002
   scf:    4     -296.830898     -296.830734     -296.830734  0.000728 -3.780911  0.028418
     spin moment: {S} , |S| = {    0.00000    0.00000    0.00001 }     0.00001
   scf:    5     -296.830825     -296.830772     -296.830773  0.000649 -3.768899  0.001329
     spin moment: {S} , |S| = {    0.00000    0.00000    0.00000 }     0.00000
   scf:    6     -296.830773     -296.830773     -296.830774  0.000027 -3.768660  0.000829
     spin moment: {S} , |S| = {    0.00000    0.00000    0.00000 }     0.00000

SCF Convergence by DM+H criterion
max |DM_out - DM_in|         :     0.0000271440
max |H_out - H_in|      (eV) :     0.0008292499
SCF cycle converged after 6 iterations

Using DM_out to compute the final energy and forces

siesta: E_KS(eV) =             -296.8308

siesta: E_KS - E_eggbox =      -296.8308
     spin moment: {S} , |S| = {    0.00000    0.00000    0.00000 }     0.00000

siesta: Atomic forces (eV/Ang):
----------------------------------------
   Tot    0.000803    0.000803    0.000803
----------------------------------------
   Max    0.023902
   Res    0.023504    sqrt( Sum f_i^2 / 3N )
----------------------------------------
   Max    0.023902    constrained

Stress tensor Voigt[x,y,z,yz,xz,xy] (kbar):      -16.18      -16.18      -16.18        9.05        9.05        9.05
(Free)E + p*V (eV/cell)     -296.3730
Target enthalpy (eV/cell)     -296.8308
Writing WFSX for selected k-points in ge_bands_so_fatbands.selected.WFSX
Writing WFSX for COOP/COHP in ge_bands_so_fatbands.fullBZ.WFSX
Computing bands...
Writing WFSX for bands in ge_bands_so_fatbands.bands.WFSX

siesta: Program's energy decomposition (eV):
siesta: Ebs     =       -75.578882
siesta: Eions   =       266.526709
siesta: Ena     =        29.499031
siesta: Ekin    =        73.689346
siesta: Enl(+so)=        15.734955
siesta: Eso(nil)=         0.000000
siesta: Edftu   =         0.000000
siesta: DEna    =         4.736003
siesta: DUscf   =         0.275988
siesta: DUext   =         0.000000
siesta: Ex      =      -134.005712
siesta: Ec      =       -20.233675
siesta: Exc     =      -154.239387
siesta: EbV     =         0.000000
siesta: eta*DQ  =         0.000000
siesta: Emadel  =         0.000000
siesta: Emeta   =         0.000000
siesta: Emolmec =         0.000000
siesta: Ekinion =         0.000000
siesta: Eharris =      -296.830773
siesta: Etot    =      -296.830773
siesta: FreeEng =      -296.830774

siesta: Final energy (eV):
siesta:  Band Struct. =     -75.578882
siesta:       Kinetic =      73.689346
siesta:       Hartree =      14.008793
siesta:         Edftu =       0.000000
siesta:      Eso(nil) =       0.000000
siesta:    Ext. field =       0.000000
siesta:         Exch. =    -134.005712
siesta:         Corr. =     -20.233675
siesta:     Bulk bias =       0.000000
siesta:   Exch.-corr. =    -154.239387
siesta:  Ion-electron =     -84.405871
siesta:       Ion-ion =    -145.883653
siesta:       Ekinion =       0.000000
siesta: D3 dispersion =       0.000000
siesta:         Total =    -296.830773
siesta:         Fermi =      -3.768660

siesta: Stress tensor (static) (eV/Ang**3):
siesta:    -0.010099    0.005647    0.005647
siesta:     0.005647   -0.010099    0.005647
siesta:     0.005647    0.005647   -0.010099

siesta: Cell volume =         45.330374 Ang**3

siesta: Pressure (static):
siesta:                Solid            Molecule  Units
siesta:           0.00010999          0.00010200  Ry/Bohr**3
siesta:           0.01009877          0.00936521  eV/Ang**3
siesta:          16.18001524         15.00471706  kBar
(Free)E+ p_basis*V_orbitals  =        -295.903661
(Free)Eharris+ p_basis*V_orbitals  =        -295.903661
     spin moment: {S} , |S| = {    0.00000    0.00000    0.00000 }     0.00000

cite: Please see "ge_bands_so_fatbands.bib" for an exhaustive BiBTeX file.
cite: Please clearly indicate Siesta version in published work: 5.0.0-alpha-120-g24fa496ce-dirty
cite: This calculation has made use of the following articles
cite: which are encouraged to be cited in a published work.
        Primary SIESTA paper
          DOI: www.doi.org/10.1088/0953-8984/14/11/302
        Spin-orbit coupling (off-site approximation)
          DOI: www.doi.org/10.1088/0953-8984/24/8/086005


timer: Elapsed wall time (sec) =       3.620
timer: CPU execution times (sec):

Routine            Calls   Time/call    Tot.time        %
siesta                 1       3.613       3.613   100.00
Setup                  1       0.024       0.024     0.66
bands                  3       0.148       0.445    12.32
KSV_init               1       0.000       0.000     0.00
IterGeom               1       2.843       2.843    78.67
geom_init              1       0.862       0.862    23.86
state_init             1       0.037       0.037     1.02
hsparse                1       0.003       0.003     0.07
overlap                1       0.026       0.026     0.73
Setup_H0               1       0.694       0.694    19.20
naefs                  2       0.000       0.000     0.00
MolMec                 2       0.000       0.000     0.00
kinefsm                2       0.014       0.028     0.77
nlefsm                 2       0.413       0.825    22.83
DHSCF_Init             1       0.104       0.104     2.87
DHSCF1                 1       0.009       0.009     0.25
INITMESH               1       0.000       0.000     0.00
DHSCF2                 1       0.095       0.095     2.62
REMESH                 1       0.011       0.011     0.30
REORD                 84       0.000       0.002     0.06
PHION                  1       0.071       0.071     1.97
COMM_BSC             134       0.000       0.002     0.07
POISON                 9       0.000       0.004     0.11
fft                   18       0.000       0.003     0.07
setup_H                7       0.133       0.928    25.68
DHSCF                  8       0.162       1.297    35.90
DHSCF3                 8       0.132       1.058    29.27
rhoofd                 8       0.062       0.498    13.78
XC                     8       0.004       0.035     0.97
GXC-CellXC             8       0.004       0.033     0.93
vmat                   8       0.064       0.515    14.26
IterSCF                6       0.223       1.341    37.11
compute_dm             6       0.089       0.532    14.73
diagon                 6       0.088       0.531    14.69
cdiag                931       0.000       0.116     3.21
cdiag1               931       0.000       0.005     0.15
cdiag2               931       0.000       0.021     0.58
cdiag3               931       0.000       0.082     2.26
cdiag4               547       0.000       0.003     0.08
MIXER                  5       0.001       0.007     0.18
PostSCF                1       0.639       0.639    17.68
DHSCF4                 1       0.240       0.240     6.63
dfscf                  1       0.224       0.224     6.21
overfsm                1       0.002       0.002     0.05
writeHSX               1       0.001       0.001     0.02
state_analysis         1       0.000       0.000     0.01
siesta_move            1       0.000       0.000     0.00
Analysis               1       0.747       0.747    20.67
writewave              2       0.150       0.301     8.32
optical                1       0.000       0.000     0.00
  

>> End of run:  25-SEP-2023   9:44:28
Job completed
