Siesta Version  : 5.0.0-alpha-120-g24fa496ce-dirty
Architecture    : ----
Compiler version: GNU-11.4.0
Compiler flags  : -fallow-argument-mismatch;-O3 -march=native
PP flags        : ----
Libraries       : ----
Parallelisations: none
GEMM3M support
NetCDF support
NetCDF-4 support
Lua support

Runtime information:
* Directory : /home/fnpedron/Siesta/siesta-dev/Tests/06.DensityOfStates/work/pdos_k
* Running in serial mode.
>> Start of run:  25-SEP-2023   9:44:33

                           *********************** 
                           *  WELCOME TO SIESTA  * 
                           *********************** 

reinit: Reading from standard input
reinit: Dumping input in INPUT_TMP.23093
************************** Dump of input data file ****************************
%include ../../basejob.fdf
SystemLabel       pdos_k
PDOS.kgrid.MonkhorstPack [10 10 10]
%block ProjectedDensityOfStates
EF -5.00 5.00 0.200000 1000 eV
%endblock ProjectedDensityOfStates
************************** End of input data file *****************************

reinit: -----------------------------------------------------------------------
reinit: System Name: 
reinit: -----------------------------------------------------------------------
reinit: System Label: pdos_k
reinit: -----------------------------------------------------------------------

initatom: Reading input for the pseudopotentials and atomic orbitals ----------
Species number:   1 Atomic number:   26 Label: Fe_soc


---- Processing specs for species: Fe_soc
Ground state valence configuration:   4s02  3d06
Reading pseudopotential information in PSML from:
  /home/fnpedron/Siesta/siesta-dev/Tests/Pseudos/Fe_soc.psml
PSML file version: 1.1
Using libxc ids:  101 130
GGA--PBE XC_GGA_X_PBE--XC_GGA_C_PBE pb
 Using ATOM defaults for log grid...
PSML uuid: 89456970-44bf-11e8-4d23-a6a6edf19e30
Semicore shell(s) with  8 electrons included in the valence for Fe_soc

---- Pseudopotential check for Fe

Pseudopotential generated from a fully relativistic atomic calculation
There are spin-orbit semi-local pseudopotentials available

Pseudized shells:
3s( 2.00) rc: 1.26
3p( 6.00) rc: 1.21
3d( 6.00) rc: 1.57
Valence configuration for ps generation: 3s:3p:3d:4s: Total charge:  16.000000
Semicore shell(s): 3s 3p
For Fe_soc, standard SIESTA heuristics set lmxkb to 3
 (one more than the basis l, including polarization orbitals).
Use PS.lmax or PS.KBprojectors blocks to override.
Fe_soc pseudopotential only contains V_ls up to l=2 -- lmxkb reset.

<basis_specs>
===============================================================================
Fe_soc               Z=  26    Mass=  55.845        Charge= 0.17977+309
Lmxo=2 Lmxkb= 2    BasisType=split      Semic=T
L=0  Nsemic=1  Cnfigmx=4
          i=1  nzeta=1  polorb=0  (3s)  (semicore shell)
            splnorm:   0.15000    
               vcte:    0.0000    
               rinn:    0.0000    
               qcoe:    0.0000    
               qyuk:    0.0000    
               qwid:   0.10000E-01
                rcs:    0.0000    
            lambdas:    1.0000    
          i=2  nzeta=1  polorb=1  (4s)  (to be polarized perturbatively)
            splnorm:   0.15000    
               vcte:    0.0000    
               rinn:    0.0000    
               qcoe:    0.0000    
               qyuk:    0.0000    
               qwid:   0.10000E-01
                rcs:    0.0000    
            lambdas:    1.0000    
L=1  Nsemic=1  Cnfigmx=4
          i=1  nzeta=1  polorb=0  (3p)  (semicore shell)
            splnorm:   0.15000    
               vcte:    0.0000    
               rinn:    0.0000    
               qcoe:    0.0000    
               qyuk:    0.0000    
               qwid:   0.10000E-01
                rcs:    0.0000    
            lambdas:    1.0000    
          i=2  nzeta=0  polorb=0  (4p)  (perturbative polarization orbital) (from 4s)
L=2  Nsemic=0  Cnfigmx=3
          i=1  nzeta=1  polorb=0  (3d)
            splnorm:   0.15000    
               vcte:    0.0000    
               rinn:    0.0000    
               qcoe:    0.0000    
               qyuk:    0.0000    
               qwid:   0.10000E-01
                rcs:    0.0000    
            lambdas:    1.0000    
-------------------------------------------------------------------------------
L=0  Nkbl=2  erefs: 0.17977+309 0.17977+309
L=1  Nkbl=2  erefs: 0.17977+309 0.17977+309
L=2  Nkbl=1  erefs: 0.17977+309
===============================================================================
</basis_specs>

atom: Called for Fe_soc                (Z =  26)

read_vps: Pseudopotential generation method:
read_vps: ONCVPSP-3.Hamann's oncvpsp                        
Valence charge in pseudo generation:   16.00000

read_vps: Pseudopotential includes a core correction:
read_vps: Pseudo-core for xc-correction

xc_check: Exchange-correlation functional:
xc_check: GGA Perdew, Burke & Ernzerhof 1996
Got Vlocal (oncv-fit) from psml data
Choosing vlocal chloc cutoff:  3.874354
qtot up to nchloc:   16.00026466
atom: Maximum radius for chlocal:    3.87435
atom: Maximum radius for r*vlocal+2*Zval:    3.87435
Reading KB projs from Fe_soc psml data
Using (derived) scalar-relativistic projectors in PSML file

PSML: Kleinman-Bylander projectors: 
   l= 0   rc=  1.289597   Ekb=  2.929588
   l= 0   rc=  1.289597   Ekb= 20.336184
   l= 1   rc=  1.226698   Ekb=  3.212733
   l= 1   rc=  1.226698   Ekb= -0.970660
   l= 1   rc=  1.226698   Ekb=  0.001568
   l= 1   rc=  1.226698   Ekb= -0.000083
   l= 2   rc=  1.594952   Ekb=-11.013454
   l= 2   rc=  1.594952   Ekb= -4.065821

PSML: Total number of  Kleinman-Bylander projectors:  24
atom: -------------------------------------------------------------------------

atom: SANKEY-TYPE ORBITALS:

SPLIT: Orbitals with angular momentum L= 0

SPLIT: Basis orbitals for state 3s

SPLIT: PAO cut-off radius determined from an
SPLIT: energy shift=  0.020000 Ry

   izeta = 1
                 lambda =    1.000000
                     rc =    2.263385
                 energy =   -6.888430
                kinetic =    3.236280
    potential(screened) =  -10.124710
       potential(ionic) =  -37.583787

SPLIT: Basis orbitals for state 4s

SPLIT: PAO cut-off radius determined from an
SPLIT: energy shift=  0.020000 Ry

   izeta = 1
                 lambda =    1.000000
                     rc =    6.000769
                 energy =   -0.429084
                kinetic =    1.231061
    potential(screened) =   -1.660144
       potential(ionic) =  -14.839695

SPLIT: Orbitals with angular momentum L= 1

SPLIT: Basis orbitals for state 3p

SPLIT: PAO cut-off radius determined from an
SPLIT: energy shift=  0.020000 Ry

   izeta = 1
                 lambda =    1.000000
                     rc =    2.501437
                 energy =   -4.392890
                kinetic =    7.886379
    potential(screened) =  -12.279269
       potential(ionic) =  -38.968699

SPLIT: Orbitals with angular momentum L= 2

SPLIT: Basis orbitals for state 3d

SPLIT: PAO cut-off radius determined from an
SPLIT: energy shift=  0.020000 Ry

   izeta = 1
                 lambda =    1.000000
                     rc =    3.731752
                 energy =   -0.532554
                kinetic =   10.408483
    potential(screened) =  -10.941037
       potential(ionic) =  -34.619969

POLgen: Perturbative polarization orbital with L=  1

POLgen: Polarization orbital for state 4s

   izeta = 1
                     rc =    6.000769
                 energy =    0.172058
                kinetic =    1.814170
    potential(screened) =   -1.642112
       potential(ionic) =  -13.394390
atom: Total number of Sankey-type orbitals: 13

atm_pop: Valence configuration (for local Pseudopot. screening):
 3s( 2.00) 4s( 2.00)                                                  
 3p( 6.00) 4p( 0.00)                                                  
 3d( 6.00)                                                            
Vna: chval, zval:   16.00000  16.00000

Vna:  Cut-off radius for the neutral-atom potential:   6.000769
comcore: Pseudo-core radius Rcore=  1.740807

atom: _________________________________________________________________________

prinput: Basis input 

PAO.BasisType split     

%block ChemicalSpeciesLabel
    1   26 Fe_soc                  # Species index, atomic number, species label
%endblock ChemicalSpeciesLabel

%block PAO.Basis                 # Define Basis set
# WARNING: This information might be incomplete!
Fe_soc                4                    # Species label, number of l-shells
 n=3   0   1                         # n, l, Nzeta 
   2.263   
   1.000   
 n=4   0   1 P   1                   # n, l, Nzeta, Polarization, NzetaPol
   6.001   
   1.000   
 n=3   1   1                         # n, l, Nzeta 
   2.501   
   1.000   
 n=3   2   1                         # n, l, Nzeta 
   3.732   
   1.000   
%endblock PAO.Basis

prinput: ----------------------------------------------------------------------

CH_OVERLAP: New q2cut (Ry) =   3100.00
CH_OVERLAP: New q2cut (Ry) =   3844.00
CH_OVERLAP: New q2cut (Ry) =   4766.56
CH_OVERLAP: New q2cut (Ry) =   5910.53
Dumping basis to NetCDF file Fe_soc.ion.nc
coor:   Atomic-coordinates input format  =     Fractional

siesta: Atomic coordinates (Bohr) and species
siesta:      0.00000   0.00000   0.00000  1        1

siesta: System type = bulk      

initatomlists: Number of atoms, orbitals, and projectors:      1    13    24

siesta: ******************** Simulation parameters ****************************
siesta:
siesta: The following are some of the parameters of the simulation.
siesta: A complete list of the parameters used, including default values,
siesta: can be found in file out.fdf
siesta:
redata: Spin configuration                          = none
redata: Number of spin components                   = 1
redata: Time-Reversal Symmetry                      = T
redata: Spin spiral                                 = F
redata: Long output                                 =   F
redata: Number of Atomic Species                    =        1
redata: Charge density info will appear in .RHO file
redata: Write Mulliken Pop.                         = NO
redata: Matel table size (NRTAB)                    =     1024
redata: Mesh Cutoff                                 =   300.0000 Ry
redata: Net charge of the system                    =     0.0000 |e|
redata: Min. number of SCF Iter                     =        0
redata: Max. number of SCF Iter                     =       50
redata: SCF convergence failure will abort job
redata: SCF mix quantity                            = Hamiltonian
redata: Mix DM or H after convergence               =   F
redata: Recompute H after scf cycle                 =   F
redata: Mix DM in first SCF step                    =   T
redata: Write Pulay info on disk                    =   F
redata: New DM Occupancy tolerance                  = 0.000000000001
redata: No kicks to SCF
redata: DM Mixing Weight for Kicks                  =     0.5000
redata: Require Harris convergence for SCF          =   F
redata: Harris energy tolerance for SCF             =     0.000100 eV
redata: Require DM convergence for SCF              =   T
redata: DM tolerance for SCF                        =     0.000100
redata: Require EDM convergence for SCF             =   F
redata: EDM tolerance for SCF                       =     0.001000 eV
redata: Require H convergence for SCF               =   T
redata: Hamiltonian tolerance for SCF               =     0.001000 eV
redata: Require (free) Energy convergence for SCF   =   F
redata: (free) Energy tolerance for SCF             =     0.000100 eV
redata: Using DFT-D3 dispersion                     =   F
redata: Using Saved Data (generic)                  =   F
redata: Use continuation files for DM               =   F
redata: Neglect nonoverlap interactions             =   F
redata: Method of Calculation                       = Diagonalization
redata: Electronic Temperature                      =   116.0452 K
redata: Fix the spin of the system                  =   F
redata: Max. number of TDED Iter                    =        1
redata: Number of TDED substeps                     =        3
redata: Dynamics option                             = Single-point calculation
mix.SCF: Pulay mixing                            = Pulay
mix.SCF:    Variant                              = stable
mix.SCF:    History steps                        = 10
mix.SCF:    Linear mixing weight                 =     0.010000
mix.SCF:    Mixing weight                        =     0.010000
mix.SCF:    SVD condition                        = 0.1000E-07
redata: Save all siesta data in one NC              =   F
redata: ***********************************************************************

%block SCF.Mixers
  Pulay
%endblock SCF.Mixers

%block SCF.Mixer.Pulay
  # Mixing method
  method pulay
  variant stable

  # Mixing options
  weight 0.0100
  weight.linear 0.0100
  history 10
%endblock SCF.Mixer.Pulay

DM_history_depth set to one: no extrapolation allowed by default for geometry relaxation
Size of DM history Fstack: 1
Total number of electrons:    16.000000
Total ionic charge:    16.000000
 Kpoints in:          196 . Kpoints trimmed:          172

siesta: k-grid: Number of k-points = 172
siesta: k-points from Monkhorst-Pack grid
siesta: k-cutoff (effective) =     8.438 Ang
siesta: k-point supercell and displacements
siesta: k-grid:     7     0     0      0.000
siesta: k-grid:     0     7     0      0.000
siesta: k-grid:     0     0     7      0.000
k-point displ. along   1 input, could be:     0.00    0.50
k-point displ. along   2 input, could be:     0.00    0.50
k-point displ. along   3 input, could be:     0.00    0.50
 Kpoints in:          600 . Kpoints trimmed:          560

siesta: PDOS k-grid: Number of k-points = 560
siesta: PDOS k-points from Monkhorst-Pack grid
siesta: PDOS k-cutoff (effective) =    12.054 Ang
siesta: PDOS k-point supercell and displacements
siesta: k-grid:    10     0     0      0.000
siesta: k-grid:     0    10     0      0.000
siesta: k-grid:     0     0    10      0.000

diag: Algorithm                                     = D&C
diag: Used triangular part                          = Lower
diag: Absolute tolerance                            =  0.100E-15
diag: Orthogonalization factor                      =  0.100E-05
diag: Memory factor                                 =  1.0000

superc: Internal auxiliary supercell:     9 x     9 x     9  =     729
superc: Number of atoms, orbitals, and projectors:    729   9477  17496


ts: **************************************************************
ts: Save H and S matrices                           =    F
ts: Save DM and EDM matrices                        =    F
ts: Only save the overlap matrix S                  =    F
ts: **************************************************************

************************ Begin: TS CHECKS AND WARNINGS ************************
************************ End: TS CHECKS AND WARNINGS **************************


                     ====================================
                        Single-point calculation
                     ====================================

superc: Internal auxiliary supercell:     9 x     9 x     9  =     729
superc: Number of atoms, orbitals, and projectors:    729   9477  17496

outcell: Unit cell vectors (Ang):
       -1.391873    1.391873    1.391873
        1.391873   -1.391873    1.391873
        1.391873    1.391873   -1.391873

outcell: Cell vector modules (Ang)   :    2.410795    2.410795    2.410795
outcell: Cell angles (23,13,12) (deg):    109.4712    109.4712    109.4712
outcell: Cell volume (Ang**3)        :     10.7860
<dSpData1D:S at geom step 0
  <sparsity:sparsity for geom step 0
    nrows_g=13 nrows=13 sparsity=59.9349 nnzs=10129, refcount: 7>
  <dData1D:(new from dSpData1D) n=10129, refcount: 1>
refcount: 1>
new_DM -- step:     1
Initializing Density Matrix...
DM filled with atomic data:
<dSpData2D:DM initialized from atoms
  <sparsity:sparsity for geom step 0
    nrows_g=13 nrows=13 sparsity=59.9349 nnzs=10129, refcount: 8>
  <dData2D:DM n=10129 m=1, refcount: 1>
refcount: 1>
No. of atoms with KB's overlaping orbs in proc 0. Max # of overlaps:      27     187

InitMesh: MESH = 24 x 24 x 24 = 13824
InitMesh: Mesh cutoff (required, used) =   300.000   410.861 Ry
New grid distribution [1]: sub = 2

stepf: Fermi-Dirac step function

siesta: Program's energy decomposition (eV):
siesta: Ebs     =      -591.578287
siesta: Eions   =      4922.284511
siesta: Ena     =       577.736768
siesta: Ekin    =      1545.625885
siesta: Enl     =      -182.000364
siesta: Eso     =         0.000000
siesta: Edftu   =         0.000000
siesta: DEna    =        52.705830
siesta: DUscf   =         2.025662
siesta: DUext   =         0.000000
siesta: Ex      =      -452.943095
siesta: Ec      =       -26.566318
siesta: Exc     =      -479.509413
siesta: EbV     =         0.000000
siesta: eta*DQ  =         0.000000
siesta: Emadel  =         0.000000
siesta: Emeta   =         0.000000
siesta: Emolmec =         0.000000
siesta: Ekinion =         0.000000
siesta: Eharris =     -3401.798129
siesta: Etot    =     -3405.700143
siesta: FreeEng =     -3405.701408

        iscf     Eharris(eV)        E_KS(eV)     FreeEng(eV)     dDmax    Ef(eV) dHmax(eV)
   scf:    1    -3401.798129    -3405.700143    -3405.701408  1.646029 -0.541026  6.735104
timer: Routine,Calls,Time,% = IterSCF        1       0.099  12.30
   scf:    2    -3405.759948    -3405.730118    -3405.731382  0.003225 -0.586940  6.606157
   scf:    3    -3406.821702    -3406.492870    -3406.494464  0.146132 -2.919526  0.225765
   scf:    4    -3406.495301    -3406.494947    -3406.496453  0.007619 -2.783855  0.205274
   scf:    5    -3406.494116    -3406.494577    -3406.496425  0.005776 -2.774301  0.162224
   scf:    6    -3406.495338    -3406.495003    -3406.496855  0.001785 -2.805281  0.070468
   scf:    7    -3406.495111    -3406.495061    -3406.496913  0.000503 -2.814346  0.043898
mix: Pulay -- inversion failed, > SVD [rank/size] 3 / 6
   scf:    8    -3406.495113    -3406.495090    -3406.496943  0.000478 -2.822753  0.019189
mix: Pulay -- inversion failed, > SVD [rank/size] 3 / 7
   scf:    9    -3406.495093    -3406.495091    -3406.496944  0.000030 -2.823395  0.017449
mix: Pulay -- inversion failed, > SVD [rank/size] 3 / 8
   scf:   10    -3406.495094    -3406.495093    -3406.496945  0.000030 -2.824033  0.015721
mix: Pulay -- inversion failed, > SVD [rank/size] 3 / 9
   scf:   11    -3406.495095    -3406.495094    -3406.496946  0.000029 -2.824659  0.014027
mix: Pulay -- inversion failed, > SVD [rank/size] 3 / 9
   scf:   12    -3406.495096    -3406.495095    -3406.496947  0.000032 -2.825342  0.012166
mix: Pulay -- inversion failed, > SVD [rank/size] 3 / 9
   scf:   13    -3406.495102    -3406.495099    -3406.496949  0.000212 -2.829857  0.000168
mix: Pulay -- inversion failed, > SVD [rank/size] 3 / 9
   scf:   14    -3406.495099    -3406.495099    -3406.496949  0.000002 -2.829815  0.000162

SCF Convergence by DM+H criterion
max |DM_out - DM_in|         :     0.0000021345
max |H_out - H_in|      (eV) :     0.0001621909
SCF cycle converged after 14 iterations

Using DM_out to compute the final energy and forces
No. of atoms with KB's overlaping orbs in proc 0. Max # of overlaps:      27     187

siesta: E_KS(eV) =            -3406.4951

siesta: E_KS - E_eggbox =     -3406.4951

siesta: Atomic forces (eV/Ang):
----------------------------------------
   Tot    0.000000    0.000000   -0.000000
----------------------------------------
   Max    0.000000
   Res    0.000000    sqrt( Sum f_i^2 / 3N )
----------------------------------------
   Max    0.000000    constrained

Stress tensor Voigt[x,y,z,yz,xz,xy] (kbar):      -68.10      -68.10      -68.10        0.33        0.33        0.33
(Free)E + p*V (eV/cell)    -3406.0385
Target enthalpy (eV/cell)    -3406.4969

siesta: PDOS info
siesta: Shifting energies with respect to Fermi-level
siesta: E1 -- E2, sigma [eV], nhist:   -7.830 --    2.170    0.200 1000

siesta: Program's energy decomposition (eV):
siesta: Ebs     =      -554.829977
siesta: Eions   =      4922.284511
siesta: Ena     =       577.736768
siesta: Ekin    =      1588.698971
siesta: Enl     =      -194.532245
siesta: Eso     =         0.000000
siesta: Edftu   =         0.000000
siesta: DEna    =        28.745354
siesta: DUscf   =         0.565604
siesta: DUext   =         0.000000
siesta: Ex      =      -458.885550
siesta: Ec      =       -26.539489
siesta: Exc     =      -485.425039
siesta: EbV     =         0.000000
siesta: eta*DQ  =         0.000000
siesta: Emadel  =         0.000000
siesta: Emeta   =         0.000000
siesta: Emolmec =         0.000000
siesta: Ekinion =         0.000000
siesta: Eharris =     -3406.495099
siesta: Etot    =     -3406.495099
siesta: FreeEng =     -3406.496949

siesta: Final energy (eV):
siesta:  Band Struct. =    -554.829977
siesta:       Kinetic =    1588.698971
siesta:       Hartree =     826.070711
siesta:         Edftu =       0.000000
siesta:       Eso     =       0.000000
siesta:    Ext. field =       0.000000
siesta:         Exch. =    -458.885550
siesta:         Corr. =     -26.539489
siesta:     Bulk bias =       0.000000
siesta:   Exch.-corr. =    -485.425039
siesta:  Ion-electron =   -3308.085668
siesta:       Ion-ion =   -2027.754074
siesta:       Ekinion =       0.000000
siesta: D3 dispersion =       0.000000
siesta:         Total =   -3406.495099
siesta:         Fermi =      -2.829815

siesta: Stress tensor (static) (eV/Ang**3):
siesta:    -0.042504    0.000203    0.000203
siesta:     0.000203   -0.042504    0.000203
siesta:     0.000203    0.000203   -0.042504

siesta: Cell volume =         10.785960 Ang**3

siesta: Pressure (static):
siesta:                Solid            Molecule  Units
siesta:           0.00046293          0.00046293  Ry/Bohr**3
siesta:           0.04250440          0.04250440  eV/Ang**3
siesta:          68.09954943         68.09954943  kBar
(Free)E+ p_basis*V_orbitals  =       -3406.100711
(Free)Eharris+ p_basis*V_orbitals  =       -3406.100711

cite: Please see "pdos_k.bib" for an exhaustive BiBTeX file.
cite: Please clearly indicate Siesta version in published work: 5.0.0-alpha-120-g24fa496ce-dirty
cite: This calculation has made use of the following articles
cite: which are encouraged to be cited in a published work.
        Primary SIESTA paper
          DOI: www.doi.org/10.1088/0953-8984/14/11/302


timer: Elapsed wall time (sec) =       2.419
timer: CPU execution times (sec):

Routine            Calls   Time/call    Tot.time        %
siesta                 1       2.408       2.408   100.00
Setup                  1       0.039       0.039     1.62
bands                  1       0.000       0.000     0.00
KSV_init               1       0.000       0.000     0.00
IterGeom               1       2.212       2.212    91.89
geom_init              1       0.670       0.670    27.81
state_init             1       0.152       0.152     6.31
hsparse                1       0.002       0.002     0.06
overlap                1       0.050       0.050     2.07
Setup_H0               1       0.479       0.479    19.89
naefs                  2       0.000       0.000     0.01
MolMec                 2       0.000       0.000     0.00
kinefsm                2       0.025       0.050     2.08
nlefsm                 2       0.170       0.340    14.14
DHSCF_Init             1       0.118       0.118     4.89
DHSCF1                 1       0.017       0.017     0.70
INITMESH               1       0.000       0.000     0.00
DHSCF2                 1       0.101       0.101     4.18
REMESH                 1       0.019       0.019     0.77
REORD                 47       0.000       0.001     0.02
PHION                  1       0.070       0.070     2.91
COMM_BSC              67       0.000       0.001     0.02
POISON                17       0.000       0.004     0.16
fft                   34       0.000       0.002     0.10
setup_H               15       0.038       0.573    23.79
DHSCF                 16       0.043       0.692    28.74
DHSCF3                16       0.038       0.610    25.32
rhoofd                16       0.018       0.289    11.99
XC                    16       0.007       0.105     4.34
GXC-CellXC            16       0.007       0.104     4.33
vmat                  16       0.013       0.210     8.74
IterSCF               14       0.099       1.392    57.81
compute_dm            14       0.061       0.852    35.41
diagon                14       0.061       0.852    35.39
c-eigval            2408       0.000       0.263    10.91
c-buildHS           2408       0.000       0.234     9.73
cdiag               5376       0.000       0.089     3.70
cdiag1              5376       0.000       0.004     0.17
cdiag2              5376       0.000       0.013     0.55
cdiag3              5376       0.000       0.056     2.31
c-eigvec            2408       0.000       0.285    11.83
cdiag4              2968       0.000       0.003     0.13
c-buildD            2408       0.000       0.299    12.43
MIXER                 13       0.000       0.003     0.13
PostSCF                1       0.151       0.151     6.26
DHSCF4                 1       0.082       0.082     3.41
dfscf                  1       0.069       0.069     2.87
overfsm                1       0.001       0.001     0.06
state_analysis         1       0.000       0.000     0.01
siesta_move            1       0.000       0.000     0.00
Analysis               1       0.156       0.156     6.48
pdos                   1       0.155       0.155     6.44
optical                1       0.000       0.000     0.00
  

>> End of run:  25-SEP-2023   9:44:35
Job completed
