Siesta Version  : 5.0.0-alpha-120-g24fa496ce-dirty
Architecture    : ----
Compiler version: GNU-11.4.0
Compiler flags  : -fallow-argument-mismatch;-O3 -march=native
PP flags        : ----
Libraries       : ----
Parallelisations: none
GEMM3M support
NetCDF support
NetCDF-4 support
Lua support

Runtime information:
* Directory : /home/fnpedron/Siesta/siesta-dev/Tests/12.Solvers/work/si_omm1
* Running in serial mode.
>> Start of run:  25-SEP-2023   9:47:28

                           *********************** 
                           *  WELCOME TO SIESTA  * 
                           *********************** 

reinit: Reading from standard input
reinit: Dumping input in INPUT_TMP.97993
************************** Dump of input data file ****************************
%include ../../basejob.fdf
SystemLabel     si_omm1
SolutionMethod  OMM
OMM.UseCholesky T
OMM.Use2D       T
OMM.Eigenvalues T
OMM.LongOutput  T
ON.eta          -3.85 eV
************************** End of input data file *****************************

reinit: -----------------------------------------------------------------------
reinit: System Name: Silicon
reinit: -----------------------------------------------------------------------
reinit: System Label: si_omm1
reinit: -----------------------------------------------------------------------

initatom: Reading input for the pseudopotentials and atomic orbitals ----------
Species number:   1 Atomic number:   14 Label: Si


---- Processing specs for species: Si
Ground state valence configuration:   3s02  3p02
Reading pseudopotential information in formatted form from:
  /home/fnpedron/Siesta/siesta-dev/Tests/Pseudos/Si.psf

---- Pseudopotential check for Si

Pseudized shells:
3s( 2.00) rc: 1.89
3p( 2.00) rc: 1.89
3d( 0.00) rc: 1.89
4f( 0.00) rc: 1.89
Valence configuration for ps generation: (assumed as above)
For Si, standard SIESTA heuristics set lmxkb to 3
 (one more than the basis l, including polarization orbitals).
Use PS.lmax or PS.KBprojectors blocks to override.

<basis_specs>
===============================================================================
Si                   Z=  14    Mass=  28.090        Charge= 0.17977+309
Lmxo=2 Lmxkb= 3    BasisType=split      Semic=F
L=0  Nsemic=0  Cnfigmx=3
          i=1  nzeta=1  polorb=0  (3s)
            splnorm:   0.15000    
               vcte:    0.0000    
               rinn:    0.0000    
               qcoe:    0.0000    
               qyuk:    0.0000    
               qwid:   0.10000E-01
                rcs:    0.0000    
            lambdas:    1.0000    
L=1  Nsemic=0  Cnfigmx=3
          i=1  nzeta=1  polorb=1  (3p)  (to be polarized perturbatively)
            splnorm:   0.15000    
               vcte:    0.0000    
               rinn:    0.0000    
               qcoe:    0.0000    
               qyuk:    0.0000    
               qwid:   0.10000E-01
                rcs:    0.0000    
            lambdas:    1.0000    
L=2  Nsemic=0  Cnfigmx=3
          i=1  nzeta=0  polorb=0  (3d)  (perturbative polarization orbital) (from 3p)
-------------------------------------------------------------------------------
L=0  Nkbl=1  erefs: 0.17977+309
L=1  Nkbl=1  erefs: 0.17977+309
L=2  Nkbl=1  erefs: 0.17977+309
L=3  Nkbl=1  erefs: 0.17977+309
===============================================================================
</basis_specs>

atom: Called for Si                    (Z =  14)

read_vps: Pseudopotential generation method:
read_vps: ATM3      Troullier-Martins                       
Valence charge in pseudo generation:    4.00000

xc_check: Exchange-correlation functional:
xc_check: Ceperley-Alder
V l=0 = -2*Zval/r beyond r=  2.5494
V l=1 = -2*Zval/r beyond r=  2.5494
V l=2 = -2*Zval/r beyond r=  2.5494
V l=3 = -2*Zval/r beyond r=  2.5494
All V_l potentials equal beyond r=  1.8652
This should be close to max(r_c) in ps generation
All pots = -2*Zval/r beyond r=  2.5494
Using large-core scheme (fit) for Vlocal

atom: Estimated core radius    2.54944

atom: Including non-local core corrections could be a good idea
Fit of Vlocal with continuous 2nd derivative
Fitting vlocal at       1.9364
Choosing vlocal chloc cutoff:776  2.853027
qtot up to nchloc:    3.99976076
atom: Maximum radius for chlocal:    2.85303
atom: Maximum radius for r*vlocal+2*Zval:    2.85303

KBgen: Kleinman-Bylander projectors: 
GHOST: No ghost state for L =  0
   l= 0   rc=  1.936440   el= -0.796617   Ekb=  4.661340   kbcos=  0.299756
GHOST: No ghost state for L =  1
   l= 1   rc=  1.936440   el= -0.307040   Ekb=  1.494238   kbcos=  0.301471
GHOST: No ghost state for L =  2
   l= 2   rc=  1.936440   el=  0.002313   Ekb= -2.808672   kbcos= -0.054903
GHOST: No ghost state for L =  3
   l= 3   rc=  1.936440   el=  0.003402   Ekb= -0.959059   kbcos= -0.005513

KBgen: Total number of Kleinman-Bylander projectors:  16
atom: -------------------------------------------------------------------------

atom: SANKEY-TYPE ORBITALS:

SPLIT: Orbitals with angular momentum L= 0

SPLIT: Basis orbitals for state 3s

SPLIT: PAO cut-off radius determined from an
SPLIT: energy shift=  0.020000 Ry

   izeta = 1
                 lambda =    1.000000
                     rc =    5.007352
                 energy =   -0.777669
                kinetic =    0.573829
    potential(screened) =   -1.351499
       potential(ionic) =   -3.827441

SPLIT: Orbitals with angular momentum L= 1

SPLIT: Basis orbitals for state 3p

SPLIT: PAO cut-off radius determined from an
SPLIT: energy shift=  0.020000 Ry

   izeta = 1
                 lambda =    1.000000
                     rc =    6.270866
                 energy =   -0.288955
                kinetic =    0.877930
    potential(screened) =   -1.166885
       potential(ionic) =   -3.426998

POLgen: Perturbative polarization orbital with L=  2

POLgen: Polarization orbital for state 3p

   izeta = 1
                     rc =    6.270866
                 energy =    0.431831
                kinetic =    1.297098
    potential(screened) =   -0.865267
       potential(ionic) =   -2.930588
atom: Total number of Sankey-type orbitals:  9

atm_pop: Valence configuration (for local Pseudopot. screening):
 3s( 2.00)                                                            
 3p( 2.00)                                                            
 3d( 0.00)                                                            
Vna: chval, zval:    4.00000   4.00000

Vna:  Cut-off radius for the neutral-atom potential:   6.270866

atom: _________________________________________________________________________

prinput: Basis input 

PAO.BasisType split     

%block ChemicalSpeciesLabel
    1   14 Si                      # Species index, atomic number, species label
%endblock ChemicalSpeciesLabel

%block PAO.Basis                 # Define Basis set
# WARNING: This information might be incomplete!
Si                    2                    # Species label, number of l-shells
 n=3   0   1                         # n, l, Nzeta 
   5.007   
   1.000   
 n=3   1   1 P   1                   # n, l, Nzeta, Polarization, NzetaPol
   6.271   
   1.000   
%endblock PAO.Basis

prinput: ----------------------------------------------------------------------

Dumping basis to NetCDF file Si.ion.nc
coor:   Atomic-coordinates input format  =     Fractional

siesta: Atomic coordinates (Bohr) and species
siesta:      0.00000   0.00000   0.00000  1        1
siesta:      2.56530   2.56530   2.56530  1        2
siesta:      5.13061   5.13061   0.00000  1        3
siesta:      7.69591   7.69591   2.56530  1        4
siesta:      5.13061   0.00000   5.13061  1        5
siesta:      0.00000   5.13061   5.13061  1        6
siesta:      7.69591   2.56530   7.69591  1        7
siesta:      2.56530   7.69591   7.69591  1        8

siesta: System type = bulk      

initatomlists: Number of atoms, orbitals, and projectors:      8    72   128

siesta: ******************** Simulation parameters ****************************
siesta:
siesta: The following are some of the parameters of the simulation.
siesta: A complete list of the parameters used, including default values,
siesta: can be found in file out.fdf
siesta:
redata: Spin configuration                          = none
redata: Number of spin components                   = 1
redata: Time-Reversal Symmetry                      = T
redata: Spin spiral                                 = F
redata: Long output                                 =   F
redata: Number of Atomic Species                    =        1
redata: Charge density info will appear in .RHO file
redata: Write Mulliken Pop.                         = NO
redata: Matel table size (NRTAB)                    =     1024
redata: Mesh Cutoff                                 =   300.0000 Ry
redata: Net charge of the system                    =     0.0000 |e|
redata: Min. number of SCF Iter                     =        0
redata: Max. number of SCF Iter                     =     1000
redata: SCF convergence failure will abort job
redata: SCF mix quantity                            = Hamiltonian
redata: Mix DM or H after convergence               =   F
redata: Recompute H after scf cycle                 =   F
redata: Mix DM in first SCF step                    =   T
redata: Write Pulay info on disk                    =   F
redata: New DM Occupancy tolerance                  = 0.000000000001
redata: No kicks to SCF
redata: DM Mixing Weight for Kicks                  =     0.5000
redata: Require Harris convergence for SCF          =   F
redata: Harris energy tolerance for SCF             =     0.000100 eV
redata: Require DM convergence for SCF              =   T
redata: DM tolerance for SCF                        =     0.000100
redata: Require EDM convergence for SCF             =   F
redata: EDM tolerance for SCF                       =     0.001000 eV
redata: Require H convergence for SCF               =   T
redata: Hamiltonian tolerance for SCF               =     0.001000 eV
redata: Require (free) Energy convergence for SCF   =   F
redata: (free) Energy tolerance for SCF             =     0.000100 eV
redata: Using DFT-D3 dispersion                     =   F
redata: Using Saved Data (generic)                  =   F
redata: Use continuation files for DM               =   F
redata: Neglect nonoverlap interactions             =   F
redata: Method of Calculation                       = Orbital Minimization Method
redata: Fix the spin of the system                  =   F
redata: Max. number of TDED Iter                    =        1
redata: Number of TDED substeps                     =        3
redata: Dynamics option                             = Single-point calculation
mix.SCF: Pulay mixing                            = Pulay
mix.SCF:    Variant                              = stable
mix.SCF:    History steps                        = 2
mix.SCF:    Linear mixing weight                 =     0.250000
mix.SCF:    Mixing weight                        =     0.250000
mix.SCF:    SVD condition                        = 0.1000E-07
redata: Save all siesta data in one NC              =   F
redata: ***********************************************************************

%block SCF.Mixers
  Pulay
%endblock SCF.Mixers

%block SCF.Mixer.Pulay
  # Mixing method
  method pulay
  variant stable

  # Mixing options
  weight 0.2500
  weight.linear 0.2500
  history 2
%endblock SCF.Mixer.Pulay

DM_history_depth set to one: no extrapolation allowed by default for geometry relaxation
Size of DM history Fstack: 1
Total number of electrons:    32.000000
Total ionic charge:    32.000000

siesta: k-grid: Number of k-points = 1
siesta: k-point is Gamma-only

diag: Algorithm                                     = D&C
diag: Used triangular part                          = Lower
diag: Absolute tolerance                            =  0.100E-15
diag: Orthogonalization factor                      =  0.100E-05
diag: Memory factor                                 =  1.0000


ts: **************************************************************
ts: Save H and S matrices                           =    F
ts: Save DM and EDM matrices                        =    F
ts: Only save the overlap matrix S                  =    F
ts: **************************************************************

************************ Begin: TS CHECKS AND WARNINGS ************************
************************ End: TS CHECKS AND WARNINGS **************************


                     ====================================
                        Single-point calculation
                     ====================================

outcell: Unit cell vectors (Ang):
        5.430000    0.000000    0.000000
        0.000000    5.430000    0.000000
        0.000000    0.000000    5.430000

outcell: Cell vector modules (Ang)   :    5.430000    5.430000    5.430000
outcell: Cell angles (23,13,12) (deg):     90.0000     90.0000     90.0000
outcell: Cell volume (Ang**3)        :    160.1030
Gamma-point calculation with interaction between periodic images
Some features might not work optimally:
e.g. DM initialization from atomic data
<dSpData1D:S at geom step 0
  <sparsity:sparsity for geom step 0
    nrows_g=72 nrows=72 sparsity=1.0000 nnzs=5184, refcount: 7>
  <dData1D:(new from dSpData1D) n=5184, refcount: 1>
refcount: 1>
new_DM -- step:     1
Initializing Density Matrix...
DM filled with atomic data:
<dSpData2D:DM initialized from atoms
  <sparsity:sparsity for geom step 0
    nrows_g=72 nrows=72 sparsity=1.0000 nnzs=5184, refcount: 8>
  <dData2D:DM n=5184 m=1, refcount: 1>
refcount: 1>
No. of atoms with KB's overlaping orbs in proc 0. Max # of overlaps:       8     141

InitMesh: MESH = 60 x 60 x 60 = 216000
InitMesh: Mesh cutoff (required, used) =   300.000   337.446 Ry
New grid distribution [1]: sub = 2
+---------------------------------------------+
| OMM (Cholesky factorization)                |
+---------------------------------------------+
|             E_OMM            E_diff         |
|     1     1 -9.8391964E-006  2.2148987E+000 |
|     1     2 -2.5495944E-004  1.8513709E+000 |
|     1     3 -3.3988064E-001  1.9970017E+000 |
|     1     4 -3.4001470E-001  3.9437306E-004 |
|     1     5 -1.8405241E+000  1.3762740E+000 |
|     1     6 -3.5149653E+000  6.2531774E-001 |
|     1     7 -4.5249580E+000  2.5124436E-001 |
|     1     8 -4.8938439E+000  7.8329690E-002 |
|     1     9 -5.2605058E+000  7.2217704E-002 |
|     1    10 -5.5648536E+000  5.6228661E-002 |
|     1    11 -5.8086453E+000  4.2870131E-002 |
|     1    12 -5.9402747E+000  2.2407073E-002 |
|     1    13 -6.0227954E+000  1.3795900E-002 |
|     1    14 -6.0621635E+000  6.5152278E-003 |
|     1    15 -6.0720575E+000  1.6307540E-003 |
|     1    16 -6.0742189E+000  3.5589553E-004 |
|     1    17 -6.0745614E+000  5.6383071E-005 |
|     1    18 -6.0746496E+000  1.4525902E-005 |
|     1    19 -6.0747043E+000  9.0075099E-006 |
|     1    20 -6.0748452E+000  2.3196650E-005 |
|     1    21 -6.0754250E+000  9.5434933E-005 |
|     1    22 -6.0776822E+000  3.7145096E-004 |
|     1    23 -6.0795563E+000  3.0831692E-004 |
|     1    24 -6.0909865E+000  1.8783394E-003 |
|     1    25 -6.1005774E+000  1.5733723E-003 |
|     1    26 -6.1062795E+000  9.3424357E-004 |
|     1    27 -6.1109299E+000  7.6128375E-004 |
|     1    28 -6.1163676E+000  8.8943386E-004 |
|     1    29 -6.1199813E+000  5.9065552E-004 |
|     1    30 -6.1251095E+000  8.3758741E-004 |
|     1    31 -6.1323686E+000  1.1844393E-003 |
|     1    32 -6.1383758E+000  9.7911436E-004 |
|     1    33 -6.1412862E+000  4.7400595E-004 |
|     1    34 -6.1433807E+000  3.4100437E-004 |
|     1    35 -6.1455468E+000  3.5253162E-004 |
|     1    36 -6.1503382E+000  7.7933767E-004 |
|     1    37 -6.1557727E+000  8.8322363E-004 |
|     1    38 -6.1629182E+000  1.1601057E-003 |
|     1    39 -6.1672153E+000  6.9700519E-004 |
|     1    40 -6.1692474E+000  3.2945227E-004 |
|     1    41 -6.1700971E+000  1.3771727E-004 |
|     1    42 -6.1708470E+000  1.2153289E-004 |
|     1    43 -6.1712686E+000  6.8328213E-005 |
|     1    44 -6.1714783E+000  3.3976272E-005 |
|     1    45 -6.1715643E+000  1.3936892E-005 |
|     1    46 -6.1715923E+000  4.5317915E-006 |
|     1    47 -6.1716212E+000  4.6868823E-006 |
|     1    48 -6.1716280E+000  1.0989465E-006 |
|     1    49 -6.1716345E+000  1.0447572E-006 |
|     1    50 -6.1716374E+000  4.7001802E-007 |
|     1    51 -6.1716387E+000  2.1099103E-007 |
|     1    52 -6.1716398E+000  1.8838852E-007 |
|     1    53 -6.1716404E+000  9.3560636E-008 |
|     1    54 -6.1716406E+000  3.6283739E-008 |
|     1    55 -6.1716407E+000  1.4870478E-008 |
|     1    56 -6.1716408E+000  1.6712271E-008 |
|     1    57 -6.1716409E+000  1.0457448E-008 |
|     1    58 -6.1716409E+000  9.9482220E-009 |
|     1    59 -6.1716410E+000  5.5271921E-009 |
|     1    60 -6.1716410E+000  2.4408471E-009 |
|     1    61 -6.1716410E+000  1.3783382E-009 |
|     1    62 -6.1716410E+000  1.7099176E-009 |
|     1    63 -6.1716410E+000  1.3280420E-009 |
|     1    64 -6.1716410E+000  8.5299101E-010 |
+---------------------------------------------+
| minim: icg             =    64              |
| minim: 2*Tr[(2*I-S)*S] =    31.9999999      |
+---------------------------------------------+

siesta: Program's energy decomposition (eV):
siesta: Ebs     =      -287.785497
siesta: Eions   =      1523.196529
siesta: Ena     =       462.006254
siesta: Ekin    =       336.834343
siesta: Enl     =       114.436084
siesta: Eso     =         0.000000
siesta: Edftu   =         0.000000
siesta: DEna    =        20.691642
siesta: DUscf   =         1.693088
siesta: DUext   =         0.000000
siesta: Ex      =      -219.775279
siesta: Ec      =       -40.701128
siesta: Exc     =      -260.476406
siesta: EbV     =         0.000000
siesta: eta*DQ  =         0.000000
siesta: Emadel  =         0.000000
siesta: Emeta   =         0.000000
siesta: Emolmec =         0.000000
siesta: Ekinion =         0.000000
siesta: Eharris =      -838.563736
siesta: Etot    =      -848.011524
siesta: FreeEng =      -848.011524

siesta: iscf =    1
Eharris(eV) =       -838.5637  E_KS(eV) =       -848.0115  dDmax =   1.224776

timer: Routine,Calls,Time,% = IterSCF        1       0.416  26.11
+---------------------------------------------+
| OMM (Cholesky factorization)                |
+---------------------------------------------+
|             E_OMM            E_diff         |
|     1     1 -6.1408382E+000  9.9592577E-007 |
|     1     2 -6.1408384E+000  2.2418456E-008 |
|     1     3 -6.1408384E+000  5.4471802E-009 |
|     1     4 -6.1408384E+000  1.5704912E-009 |
|     1     5 -6.1408384E+000  5.8132019E-011 |
+---------------------------------------------+
| minim: icg             =     5              |
| minim: 2*Tr[(2*I-S)*S] =    32.0000000      |
+---------------------------------------------+

siesta: iscf =    2
Eharris(eV) =       -848.0139  E_KS(eV) =       -848.0127  dDmax =   0.000486

+---------------------------------------------+
| OMM (Cholesky factorization)                |
+---------------------------------------------+
|             E_OMM            E_diff         |
|     1     1 -6.0570812E+000  7.4118261E-006 |
|     1     2 -6.0570822E+000  1.6332698E-007 |
|     1     3 -6.0570825E+000  4.2616322E-008 |
|     1     4 -6.0570825E+000  2.1131678E-009 |
|     1     5 -6.0570825E+000  1.2484771E-011 |
+---------------------------------------------+
| minim: icg             =     5              |
| minim: 2*Tr[(2*I-S)*S] =    32.0000000      |
+---------------------------------------------+

siesta: iscf =    3
Eharris(eV) =       -848.0152  E_KS(eV) =       -848.0140  dDmax =   0.001325

+---------------------------------------------+
| OMM (Cholesky factorization)                |
+---------------------------------------------+
|             E_OMM            E_diff         |
|     1     1 -6.0572154E+000  1.2612694E-009 |
|     1     2 -6.0572154E+000  6.2670145E-011 |
+---------------------------------------------+
| minim: icg             =     2              |
| minim: 2*Tr[(2*I-S)*S] =    32.0000000      |
+---------------------------------------------+

siesta: iscf =    4
Eharris(eV) =       -848.0140  E_KS(eV) =       -848.0140  dDmax =   0.000043

+---------------------------------------------+
| OMM (Cholesky factorization)                |
+---------------------------------------------+
|             E_OMM            E_diff         |
|     1     1 -6.0576184E+000  9.9424549E-009 |
|     1     2 -6.0576184E+000  3.6255328E-010 |
+---------------------------------------------+
| minim: icg             =     2              |
| minim: 2*Tr[(2*I-S)*S] =    32.0000000      |
+---------------------------------------------+

siesta: iscf =    5
Eharris(eV) =       -848.0140  E_KS(eV) =       -848.0140  dDmax =   0.000117

+---------------------------------------------+
| OMM (Cholesky factorization)                |
+---------------------------------------------+
|             E_OMM            E_diff         |
|     1     1 -6.0576395E+000  1.1751045E-010 |
+---------------------------------------------+
| minim: icg             =     1              |
| minim: 2*Tr[(2*I-S)*S] =    32.0000000      |
+---------------------------------------------+

siesta: iscf =    6
Eharris(eV) =       -848.0140  E_KS(eV) =       -848.0140  dDmax =   0.000004


SCF Convergence by DM+H criterion
max |DM_out - DM_in|         :     0.0000041269
max |H_out - H_in|      (eV) :     0.0000692427
SCF cycle converged after 6 iterations

stepf: Fermi-Dirac step function

Using DM_out to compute the final energy and forces
No. of atoms with KB's overlaping orbs in proc 0. Max # of overlaps:       8     141

siesta: E_KS(eV) =             -848.0140

siesta: E_KS - E_eggbox =      -848.0140

siesta: Atomic forces (eV/Ang):
----------------------------------------
   Tot   -0.000000    0.000000    0.000000
----------------------------------------
   Max    0.000035
   Res    0.000016    sqrt( Sum f_i^2 / 3N )
----------------------------------------
   Max    0.000035    constrained

Stress tensor Voigt[x,y,z,yz,xz,xy] (kbar):     -112.24     -112.24     -112.24       -0.00        0.00        0.00
(Free)E + p*V (eV/cell)     -836.7981
Target enthalpy (eV/cell)     -848.0140

siesta: Program's energy decomposition (eV):
siesta: Ebs     =      -288.038434
siesta: Eions   =      1523.196529
siesta: Ena     =       462.006254
siesta: Ekin    =       336.514337
siesta: Enl     =       114.353213
siesta: Eso     =         0.000000
siesta: Edftu   =         0.000000
siesta: DEna    =        21.010956
siesta: DUscf   =         1.662076
siesta: DUext   =         0.000000
siesta: Ex      =      -219.670473
siesta: Ec      =       -40.693836
siesta: Exc     =      -260.364309
siesta: EbV     =         0.000000
siesta: eta*DQ  =         0.000000
siesta: Emadel  =         0.000000
siesta: Emeta   =         0.000000
siesta: Emolmec =         0.000000
siesta: Ekinion =         0.000000
siesta: Eharris =      -848.014028
siesta: Etot    =      -848.014002
siesta: FreeEng =      -848.014030

siesta: Final energy (eV):
siesta:  Band Struct. =    -288.038434
siesta:       Kinetic =     336.514337
siesta:       Hartree =      58.528057
siesta:         Edftu =       0.000000
siesta:       Eso     =       0.000000
siesta:    Ext. field =       0.000000
siesta:         Exch. =    -219.670473
siesta:         Corr. =     -40.693836
siesta:     Bulk bias =       0.000000
siesta:   Exch.-corr. =    -260.364309
siesta:  Ion-electron =    -402.119268
siesta:       Ion-ion =    -580.572819
siesta:       Ekinion =       0.000000
siesta: D3 dispersion =       0.000000
siesta:         Total =    -848.014002
siesta:         Fermi =      -3.865940

siesta: Stress tensor (static) (eV/Ang**3):
siesta:    -0.070054    0.000000    0.000000
siesta:     0.000000   -0.070054   -0.000000
siesta:     0.000000   -0.000000   -0.070054

siesta: Cell volume =        160.103007 Ang**3

siesta: Pressure (static):
siesta:                Solid            Molecule  Units
siesta:           0.00076299          0.00076299  Ry/Bohr**3
siesta:           0.07005418          0.07005442  eV/Ang**3
siesta:         112.23917399        112.23955864  kBar
(Free)E+ p_basis*V_orbitals  =        -844.178636
(Free)Eharris+ p_basis*V_orbitals  =        -844.178662

cite: Please see "si_omm1.bib" for an exhaustive BiBTeX file.
cite: Please clearly indicate Siesta version in published work: 5.0.0-alpha-120-g24fa496ce-dirty
cite: This calculation has made use of the following articles
cite: which are encouraged to be cited in a published work.
        Primary SIESTA paper
          DOI: www.doi.org/10.1088/0953-8984/14/11/302


timer: Elapsed wall time (sec) =       5.546
timer: CPU execution times (sec):

Routine            Calls   Time/call    Tot.time        %
siesta                 1       5.546       5.546   100.00
Setup                  1       0.018       0.018     0.32
bands                  1       0.000       0.000     0.00
KSV_init               1       0.000       0.000     0.00
IterGeom               1       5.527       5.527    99.66
geom_init              1       1.159       1.159    20.90
state_init             1       0.035       0.035     0.63
hsparse                1       0.002       0.002     0.04
overlap                1       0.032       0.032     0.58
Setup_H0               1       0.714       0.714    12.88
naefs                  2       0.000       0.000     0.00
MolMec                 2       0.000       0.000     0.00
kinefsm                2       0.019       0.037     0.67
nlefsm                 2       0.084       0.167     3.02
DHSCF_Init             1       0.544       0.544     9.81
DHSCF1                 1       0.017       0.017     0.30
INITMESH               1       0.000       0.000     0.00
DHSCF2                 1       0.527       0.527     9.50
REMESH                 1       0.028       0.028     0.50
REORD                 24       0.000       0.005     0.09
PHION                  1       0.452       0.452     8.15
COMM_BSC              35       0.000       0.006     0.10
POISON                 9       0.006       0.050     0.91
fft                   18       0.002       0.036     0.65
setup_H                7       0.411       2.880    51.93
DHSCF                  8       0.591       4.730    85.30
DHSCF3                 8       0.411       3.289    59.30
rhoofd                 8       0.229       1.831    33.02
XC                     8       0.016       0.127     2.30
GXC-CellXC             8       0.015       0.123     2.21
vmat                   8       0.158       1.267    22.84
IterSCF                6       0.412       2.474    44.60
compute_dm             6       0.000       0.003     0.05
dmin                   6       0.000       0.003     0.05
m_cg                   6       0.000       0.003     0.05
m_calc_A              85       0.000       0.000     0.01
m_calc_grad           79       0.000       0.000     0.00
m_calc_coeff          79       0.000       0.000     0.00
m_calc_densmat         6       0.000       0.000     0.00
MIXER                  5       0.000       0.000     0.00
PostSCF                1       1.894       1.894    34.15
diagon                 1       0.001       0.001     0.01
r-eigvec               1       0.000       0.000     0.01
r-buildHS              1       0.000       0.000     0.00
rdiag                  1       0.000       0.000     0.01
rdiag1                 1       0.000       0.000     0.00
rdiag2                 1       0.000       0.000     0.00
rdiag3                 1       0.000       0.000     0.01
rdiag4                 1       0.000       0.000     0.00
r-buildD               1       0.000       0.000     0.00
DHSCF4                 1       1.442       1.442    25.99
dfscf                  1       1.391       1.391    25.08
overfsm                1       0.007       0.007     0.13
state_analysis         1       0.000       0.000     0.00
siesta_move            1       0.000       0.000     0.00
Analysis               1       0.000       0.000     0.00
optical                1       0.000       0.000     0.00
  

>> End of run:  25-SEP-2023   9:47:34
Job completed
