Siesta Version  : 5.0.0-alpha-120-g24fa496ce-dirty
Architecture    : ----
Compiler version: GNU-11.4.0
Compiler flags  : -fallow-argument-mismatch;-O3 -march=native
PP flags        : ----
Libraries       : ----
Parallelisations: none
GEMM3M support
NetCDF support
NetCDF-4 support
Lua support

Runtime information:
* Directory : /home/fnpedron/Siesta/siesta-dev/Tests/12.Solvers/work/si_omm2
* Running in serial mode.
>> Start of run:  25-SEP-2023   9:47:34

                           *********************** 
                           *  WELCOME TO SIESTA  * 
                           *********************** 

reinit: Reading from standard input
reinit: Dumping input in INPUT_TMP.03545
************************** Dump of input data file ****************************
%include ../../basejob.fdf
SystemLabel     si_omm2
SolutionMethod  OMM
OMM.UseCholesky F
OMM.Use2D       F
OMM.UseSparse   T
OMM.LongOutput  T
OMM.Precon      4
OMM.PreconFirstStep 8
OMM.Diagon      1
OMM.DiagonFirstStep 2
ON.eta          -3.85 eV
************************** End of input data file *****************************

reinit: -----------------------------------------------------------------------
reinit: System Name: Silicon
reinit: -----------------------------------------------------------------------
reinit: System Label: si_omm2
reinit: -----------------------------------------------------------------------

initatom: Reading input for the pseudopotentials and atomic orbitals ----------
Species number:   1 Atomic number:   14 Label: Si


---- Processing specs for species: Si
Ground state valence configuration:   3s02  3p02
Reading pseudopotential information in formatted form from:
  /home/fnpedron/Siesta/siesta-dev/Tests/Pseudos/Si.psf

---- Pseudopotential check for Si

Pseudized shells:
3s( 2.00) rc: 1.89
3p( 2.00) rc: 1.89
3d( 0.00) rc: 1.89
4f( 0.00) rc: 1.89
Valence configuration for ps generation: (assumed as above)
For Si, standard SIESTA heuristics set lmxkb to 3
 (one more than the basis l, including polarization orbitals).
Use PS.lmax or PS.KBprojectors blocks to override.

<basis_specs>
===============================================================================
Si                   Z=  14    Mass=  28.090        Charge= 0.17977+309
Lmxo=2 Lmxkb= 3    BasisType=split      Semic=F
L=0  Nsemic=0  Cnfigmx=3
          i=1  nzeta=1  polorb=0  (3s)
            splnorm:   0.15000    
               vcte:    0.0000    
               rinn:    0.0000    
               qcoe:    0.0000    
               qyuk:    0.0000    
               qwid:   0.10000E-01
                rcs:    0.0000    
            lambdas:    1.0000    
L=1  Nsemic=0  Cnfigmx=3
          i=1  nzeta=1  polorb=1  (3p)  (to be polarized perturbatively)
            splnorm:   0.15000    
               vcte:    0.0000    
               rinn:    0.0000    
               qcoe:    0.0000    
               qyuk:    0.0000    
               qwid:   0.10000E-01
                rcs:    0.0000    
            lambdas:    1.0000    
L=2  Nsemic=0  Cnfigmx=3
          i=1  nzeta=0  polorb=0  (3d)  (perturbative polarization orbital) (from 3p)
-------------------------------------------------------------------------------
L=0  Nkbl=1  erefs: 0.17977+309
L=1  Nkbl=1  erefs: 0.17977+309
L=2  Nkbl=1  erefs: 0.17977+309
L=3  Nkbl=1  erefs: 0.17977+309
===============================================================================
</basis_specs>

atom: Called for Si                    (Z =  14)

read_vps: Pseudopotential generation method:
read_vps: ATM3      Troullier-Martins                       
Valence charge in pseudo generation:    4.00000

xc_check: Exchange-correlation functional:
xc_check: Ceperley-Alder
V l=0 = -2*Zval/r beyond r=  2.5494
V l=1 = -2*Zval/r beyond r=  2.5494
V l=2 = -2*Zval/r beyond r=  2.5494
V l=3 = -2*Zval/r beyond r=  2.5494
All V_l potentials equal beyond r=  1.8652
This should be close to max(r_c) in ps generation
All pots = -2*Zval/r beyond r=  2.5494
Using large-core scheme (fit) for Vlocal

atom: Estimated core radius    2.54944

atom: Including non-local core corrections could be a good idea
Fit of Vlocal with continuous 2nd derivative
Fitting vlocal at       1.9364
Choosing vlocal chloc cutoff:776  2.853027
qtot up to nchloc:    3.99976076
atom: Maximum radius for chlocal:    2.85303
atom: Maximum radius for r*vlocal+2*Zval:    2.85303

KBgen: Kleinman-Bylander projectors: 
GHOST: No ghost state for L =  0
   l= 0   rc=  1.936440   el= -0.796617   Ekb=  4.661340   kbcos=  0.299756
GHOST: No ghost state for L =  1
   l= 1   rc=  1.936440   el= -0.307040   Ekb=  1.494238   kbcos=  0.301471
GHOST: No ghost state for L =  2
   l= 2   rc=  1.936440   el=  0.002313   Ekb= -2.808672   kbcos= -0.054903
GHOST: No ghost state for L =  3
   l= 3   rc=  1.936440   el=  0.003402   Ekb= -0.959059   kbcos= -0.005513

KBgen: Total number of Kleinman-Bylander projectors:  16
atom: -------------------------------------------------------------------------

atom: SANKEY-TYPE ORBITALS:

SPLIT: Orbitals with angular momentum L= 0

SPLIT: Basis orbitals for state 3s

SPLIT: PAO cut-off radius determined from an
SPLIT: energy shift=  0.020000 Ry

   izeta = 1
                 lambda =    1.000000
                     rc =    5.007352
                 energy =   -0.777669
                kinetic =    0.573829
    potential(screened) =   -1.351499
       potential(ionic) =   -3.827441

SPLIT: Orbitals with angular momentum L= 1

SPLIT: Basis orbitals for state 3p

SPLIT: PAO cut-off radius determined from an
SPLIT: energy shift=  0.020000 Ry

   izeta = 1
                 lambda =    1.000000
                     rc =    6.270866
                 energy =   -0.288955
                kinetic =    0.877930
    potential(screened) =   -1.166885
       potential(ionic) =   -3.426998

POLgen: Perturbative polarization orbital with L=  2

POLgen: Polarization orbital for state 3p

   izeta = 1
                     rc =    6.270866
                 energy =    0.431831
                kinetic =    1.297098
    potential(screened) =   -0.865267
       potential(ionic) =   -2.930588
atom: Total number of Sankey-type orbitals:  9

atm_pop: Valence configuration (for local Pseudopot. screening):
 3s( 2.00)                                                            
 3p( 2.00)                                                            
 3d( 0.00)                                                            
Vna: chval, zval:    4.00000   4.00000

Vna:  Cut-off radius for the neutral-atom potential:   6.270866

atom: _________________________________________________________________________

prinput: Basis input 

PAO.BasisType split     

%block ChemicalSpeciesLabel
    1   14 Si                      # Species index, atomic number, species label
%endblock ChemicalSpeciesLabel

%block PAO.Basis                 # Define Basis set
# WARNING: This information might be incomplete!
Si                    2                    # Species label, number of l-shells
 n=3   0   1                         # n, l, Nzeta 
   5.007   
   1.000   
 n=3   1   1 P   1                   # n, l, Nzeta, Polarization, NzetaPol
   6.271   
   1.000   
%endblock PAO.Basis

prinput: ----------------------------------------------------------------------

Dumping basis to NetCDF file Si.ion.nc
coor:   Atomic-coordinates input format  =     Fractional

siesta: Atomic coordinates (Bohr) and species
siesta:      0.00000   0.00000   0.00000  1        1
siesta:      2.56530   2.56530   2.56530  1        2
siesta:      5.13061   5.13061   0.00000  1        3
siesta:      7.69591   7.69591   2.56530  1        4
siesta:      5.13061   0.00000   5.13061  1        5
siesta:      0.00000   5.13061   5.13061  1        6
siesta:      7.69591   2.56530   7.69591  1        7
siesta:      2.56530   7.69591   7.69591  1        8

siesta: System type = bulk      

initatomlists: Number of atoms, orbitals, and projectors:      8    72   128

siesta: ******************** Simulation parameters ****************************
siesta:
siesta: The following are some of the parameters of the simulation.
siesta: A complete list of the parameters used, including default values,
siesta: can be found in file out.fdf
siesta:
redata: Spin configuration                          = none
redata: Number of spin components                   = 1
redata: Time-Reversal Symmetry                      = T
redata: Spin spiral                                 = F
redata: Long output                                 =   F
redata: Number of Atomic Species                    =        1
redata: Charge density info will appear in .RHO file
redata: Write Mulliken Pop.                         = NO
redata: Matel table size (NRTAB)                    =     1024
redata: Mesh Cutoff                                 =   300.0000 Ry
redata: Net charge of the system                    =     0.0000 |e|
redata: Min. number of SCF Iter                     =        0
redata: Max. number of SCF Iter                     =     1000
redata: SCF convergence failure will abort job
redata: SCF mix quantity                            = Hamiltonian
redata: Mix DM or H after convergence               =   F
redata: Recompute H after scf cycle                 =   F
redata: Mix DM in first SCF step                    =   T
redata: Write Pulay info on disk                    =   F
redata: New DM Occupancy tolerance                  = 0.000000000001
redata: No kicks to SCF
redata: DM Mixing Weight for Kicks                  =     0.5000
redata: Require Harris convergence for SCF          =   F
redata: Harris energy tolerance for SCF             =     0.000100 eV
redata: Require DM convergence for SCF              =   T
redata: DM tolerance for SCF                        =     0.000100
redata: Require EDM convergence for SCF             =   F
redata: EDM tolerance for SCF                       =     0.001000 eV
redata: Require H convergence for SCF               =   T
redata: Hamiltonian tolerance for SCF               =     0.001000 eV
redata: Require (free) Energy convergence for SCF   =   F
redata: (free) Energy tolerance for SCF             =     0.000100 eV
redata: Using DFT-D3 dispersion                     =   F
redata: Using Saved Data (generic)                  =   F
redata: Use continuation files for DM               =   F
redata: Neglect nonoverlap interactions             =   F
redata: Method of Calculation                       = Orbital Minimization Method
redata: Fix the spin of the system                  =   F
redata: Max. number of TDED Iter                    =        1
redata: Number of TDED substeps                     =        3
redata: Dynamics option                             = Single-point calculation
mix.SCF: Pulay mixing                            = Pulay
mix.SCF:    Variant                              = stable
mix.SCF:    History steps                        = 2
mix.SCF:    Linear mixing weight                 =     0.250000
mix.SCF:    Mixing weight                        =     0.250000
mix.SCF:    SVD condition                        = 0.1000E-07
redata: Save all siesta data in one NC              =   F
redata: ***********************************************************************

%block SCF.Mixers
  Pulay
%endblock SCF.Mixers

%block SCF.Mixer.Pulay
  # Mixing method
  method pulay
  variant stable

  # Mixing options
  weight 0.2500
  weight.linear 0.2500
  history 2
%endblock SCF.Mixer.Pulay

DM_history_depth set to one: no extrapolation allowed by default for geometry relaxation
Size of DM history Fstack: 1
Total number of electrons:    32.000000
Total ionic charge:    32.000000

siesta: k-grid: Number of k-points = 1
siesta: k-point is Gamma-only

diag: Algorithm                                     = D&C
diag: Used triangular part                          = Lower
diag: Absolute tolerance                            =  0.100E-15
diag: Orthogonalization factor                      =  0.100E-05
diag: Memory factor                                 =  1.0000


ts: **************************************************************
ts: Save H and S matrices                           =    F
ts: Save DM and EDM matrices                        =    F
ts: Only save the overlap matrix S                  =    F
ts: **************************************************************

************************ Begin: TS CHECKS AND WARNINGS ************************
************************ End: TS CHECKS AND WARNINGS **************************


                     ====================================
                        Single-point calculation
                     ====================================

outcell: Unit cell vectors (Ang):
        5.430000    0.000000    0.000000
        0.000000    5.430000    0.000000
        0.000000    0.000000    5.430000

outcell: Cell vector modules (Ang)   :    5.430000    5.430000    5.430000
outcell: Cell angles (23,13,12) (deg):     90.0000     90.0000     90.0000
outcell: Cell volume (Ang**3)        :    160.1030
Gamma-point calculation with interaction between periodic images
Some features might not work optimally:
e.g. DM initialization from atomic data
<dSpData1D:S at geom step 0
  <sparsity:sparsity for geom step 0
    nrows_g=72 nrows=72 sparsity=1.0000 nnzs=5184, refcount: 7>
  <dData1D:(new from dSpData1D) n=5184, refcount: 1>
refcount: 1>
new_DM -- step:     1
Initializing Density Matrix...
DM filled with atomic data:
<dSpData2D:DM initialized from atoms
  <sparsity:sparsity for geom step 0
    nrows_g=72 nrows=72 sparsity=1.0000 nnzs=5184, refcount: 8>
  <dData2D:DM n=5184 m=1, refcount: 1>
refcount: 1>
No. of atoms with KB's overlaping orbs in proc 0. Max # of overlaps:       8     141

InitMesh: MESH = 60 x 60 x 60 = 216000
InitMesh: Mesh cutoff (required, used) =   300.000   337.446 Ry
New grid distribution [1]: sub = 2

stepf: Fermi-Dirac step function

siesta: Program's energy decomposition (eV):
siesta: Ebs     =      -287.785550
siesta: Eions   =      1523.196529
siesta: Ena     =       462.006254
siesta: Ekin    =       336.834262
siesta: Enl     =       114.436072
siesta: Eso     =         0.000000
siesta: Edftu   =         0.000000
siesta: DEna    =        20.691721
siesta: DUscf   =         1.693083
siesta: DUext   =         0.000000
siesta: Ex      =      -219.775253
siesta: Ec      =       -40.701126
siesta: Exc     =      -260.476378
siesta: EbV     =         0.000000
siesta: eta*DQ  =         0.000000
siesta: Emadel  =         0.000000
siesta: Emeta   =         0.000000
siesta: Emolmec =         0.000000
siesta: Ekinion =         0.000000
siesta: Eharris =      -838.563719
siesta: Etot    =      -848.011515
siesta: FreeEng =      -848.011525

siesta: iscf =    1
Eharris(eV) =       -838.5637  E_KS(eV) =       -848.0115  dDmax =   1.224775

timer: Routine,Calls,Time,% = IterSCF        1       0.429  26.56

siesta: iscf =    2
Eharris(eV) =       -848.0139  E_KS(eV) =       -848.0127  dDmax =   0.000484

+---------------------------------------------+
| OMM (sparse algebra+preconditioning)        |
+---------------------------------------------+
|             E_OMM            E_diff         |
|     1     1 -6.0570824E+000  7.4656994E-006 |
|     1     2 -6.0570832E+000  1.2984434E-007 |
|     1     3 -6.0570833E+000  2.3419152E-008 |
|     1     4 -6.0570833E+000  1.2228343E-009 |
|     1     5 -6.0570833E+000  4.5629924E-011 |
+---------------------------------------------+
| minim: icg             =     5              |
| minim: 2*Tr[(2*I-S)*S] =    32.0000000      |
+---------------------------------------------+

siesta: iscf =    3
Eharris(eV) =       -848.0152  E_KS(eV) =       -848.0140  dDmax =   0.001323

+---------------------------------------------+
| OMM (sparse algebra+preconditioning)        |
+---------------------------------------------+
|             E_OMM            E_diff         |
|     1     1 -6.0572148E+000  1.2531282E-009 |
|     1     2 -6.0572148E+000  3.7293080E-011 |
+---------------------------------------------+
| minim: icg             =     2              |
| minim: 2*Tr[(2*I-S)*S] =    32.0000000      |
+---------------------------------------------+

siesta: iscf =    4
Eharris(eV) =       -848.0140  E_KS(eV) =       -848.0140  dDmax =   0.000041

+---------------------------------------------+
| OMM (sparse algebra+preconditioning)        |
+---------------------------------------------+
|             E_OMM            E_diff         |
|     1     1 -6.0576153E+000  1.0171204E-008 |
|     1     2 -6.0576153E+000  2.1296977E-010 |
+---------------------------------------------+
| minim: icg             =     2              |
| minim: 2*Tr[(2*I-S)*S] =    32.0000000      |
+---------------------------------------------+

siesta: iscf =    5
Eharris(eV) =       -848.0140  E_KS(eV) =       -848.0140  dDmax =   0.000115

+---------------------------------------------+
| OMM (sparse algebra+preconditioning)        |
+---------------------------------------------+
|             E_OMM            E_diff         |
|     1     1 -6.0576362E+000  4.8516398E-011 |
+---------------------------------------------+
| minim: icg             =     1              |
| minim: 2*Tr[(2*I-S)*S] =    32.0000000      |
+---------------------------------------------+

siesta: iscf =    6
Eharris(eV) =       -848.0140  E_KS(eV) =       -848.0140  dDmax =   0.000008


SCF Convergence by DM+H criterion
max |DM_out - DM_in|         :     0.0000078858
max |H_out - H_in|      (eV) :     0.0000484070
SCF cycle converged after 6 iterations

Using DM_out to compute the final energy and forces
No. of atoms with KB's overlaping orbs in proc 0. Max # of overlaps:       8     141

siesta: E_KS(eV) =             -848.0140

siesta: E_KS - E_eggbox =      -848.0140

siesta: Atomic forces (eV/Ang):
----------------------------------------
   Tot    0.000000    0.000000    0.000000
----------------------------------------
   Max    0.000000
   Res    0.000000    sqrt( Sum f_i^2 / 3N )
----------------------------------------
   Max    0.000000    constrained

Stress tensor Voigt[x,y,z,yz,xz,xy] (kbar):     -112.24     -112.24     -112.24       -0.00        0.00       -0.00
(Free)E + p*V (eV/cell)     -836.7982
Target enthalpy (eV/cell)     -848.0140

siesta: Program's energy decomposition (eV):
siesta: Ebs     =      -288.038354
siesta: Eions   =      1523.196529
siesta: Ena     =       462.006254
siesta: Ekin    =       336.514551
siesta: Enl     =       114.353177
siesta: Eso     =         0.000000
siesta: Edftu   =         0.000000
siesta: DEna    =        21.010797
siesta: DUscf   =         1.662078
siesta: DUext   =         0.000000
siesta: Ex      =      -219.670516
siesta: Ec      =       -40.693839
siesta: Exc     =      -260.364355
siesta: EbV     =         0.000000
siesta: eta*DQ  =         0.000000
siesta: Emadel  =         0.000000
siesta: Emeta   =         0.000000
siesta: Emolmec =         0.000000
siesta: Ekinion =         0.000000
siesta: Eharris =      -848.014028
siesta: Etot    =      -848.014028
siesta: FreeEng =      -848.014028

siesta: Final energy (eV):
siesta:  Band Struct. =    -288.038354
siesta:       Kinetic =     336.514551
siesta:       Hartree =      58.528174
siesta:         Edftu =       0.000000
siesta:       Eso     =       0.000000
siesta:    Ext. field =       0.000000
siesta:         Exch. =    -219.670516
siesta:         Corr. =     -40.693839
siesta:     Bulk bias =       0.000000
siesta:   Exch.-corr. =    -260.364355
siesta:  Ion-electron =    -402.119579
siesta:       Ion-ion =    -580.572819
siesta:       Ekinion =       0.000000
siesta: D3 dispersion =       0.000000
siesta:         Total =    -848.014028
siesta:         Fermi =      -3.931308

siesta: Stress tensor (static) (eV/Ang**3):
siesta:    -0.070054   -0.000000   -0.000000
siesta:    -0.000000   -0.070054    0.000000
siesta:     0.000000   -0.000000   -0.070054

siesta: Cell volume =        160.103007 Ang**3

siesta: Pressure (static):
siesta:                Solid            Molecule  Units
siesta:           0.00076298          0.00076298  Ry/Bohr**3
siesta:           0.07005364          0.07005364  eV/Ang**3
siesta:         112.23831180        112.23831180  kBar
(Free)E+ p_basis*V_orbitals  =        -844.178634
(Free)Eharris+ p_basis*V_orbitals  =        -844.178634

cite: Please see "si_omm2.bib" for an exhaustive BiBTeX file.
cite: Please clearly indicate Siesta version in published work: 5.0.0-alpha-120-g24fa496ce-dirty
cite: This calculation has made use of the following articles
cite: which are encouraged to be cited in a published work.
        Primary SIESTA paper
          DOI: www.doi.org/10.1088/0953-8984/14/11/302


timer: Elapsed wall time (sec) =       5.612
timer: CPU execution times (sec):

Routine            Calls   Time/call    Tot.time        %
siesta                 1       5.611       5.611   100.00
Setup                  1       0.019       0.019     0.33
bands                  1       0.000       0.000     0.00
KSV_init               1       0.000       0.000     0.00
IterGeom               1       5.591       5.591    99.65
geom_init              1       1.166       1.166    20.79
state_init             1       0.035       0.035     0.62
hsparse                1       0.002       0.002     0.04
overlap                1       0.032       0.032     0.57
Setup_H0               1       0.718       0.718    12.79
naefs                  2       0.000       0.000     0.00
MolMec                 2       0.000       0.000     0.00
kinefsm                2       0.018       0.037     0.65
nlefsm                 2       0.083       0.166     2.96
DHSCF_Init             1       0.549       0.549     9.78
DHSCF1                 1       0.017       0.017     0.30
INITMESH               1       0.000       0.000     0.00
DHSCF2                 1       0.532       0.532     9.48
REMESH                 1       0.027       0.027     0.49
REORD                 24       0.000       0.005     0.09
PHION                  1       0.457       0.457     8.14
COMM_BSC              35       0.000       0.005     0.10
POISON                 9       0.006       0.052     0.93
fft                   18       0.002       0.038     0.68
setup_H                7       0.421       2.945    52.48
DHSCF                  8       0.599       4.792    85.42
DHSCF3                 8       0.419       3.355    59.80
rhoofd                 8       0.236       1.886    33.62
XC                     8       0.016       0.127     2.27
GXC-CellXC             8       0.015       0.123     2.19
vmat                   8       0.160       1.276    22.75
IterSCF                6       0.422       2.534    45.17
compute_dm             6       0.000       0.003     0.05
diagon                 2       0.001       0.001     0.03
r-eigvec               2       0.000       0.001     0.02
r-buildHS              2       0.000       0.000     0.00
rdiag                  2       0.000       0.001     0.02
rdiag1                 2       0.000       0.000     0.00
rdiag2                 2       0.000       0.000     0.00
rdiag3                 2       0.000       0.001     0.01
rdiag4                 2       0.000       0.000     0.00
r-buildD               2       0.000       0.000     0.01
MIXER                  5       0.000       0.000     0.00
dmin                   5       0.000       0.001     0.02
m_cg                   5       0.000       0.001     0.02
m_calc_A              25       0.000       0.001     0.01
m_calc_grad           10       0.000       0.000     0.00
m_calc_coeff          10       0.000       0.000     0.00
m_calc_densmat         5       0.000       0.000     0.00
PostSCF                1       1.891       1.891    33.70
DHSCF4                 1       1.437       1.437    25.62
dfscf                  1       1.387       1.387    24.71
overfsm                1       0.007       0.007     0.13
state_analysis         1       0.000       0.000     0.00
siesta_move            1       0.000       0.000     0.00
Analysis               1       0.000       0.000     0.00
optical                1       0.000       0.000     0.00
  

>> End of run:  25-SEP-2023   9:47:39
Job completed
