Siesta Version  : 5.0.0-alpha-120-g24fa496ce-dirty
Architecture    : ----
Compiler version: GNU-11.4.0
Compiler flags  : -fallow-argument-mismatch;-O3 -march=native
PP flags        : ----
Libraries       : ----
Parallelisations: none
GEMM3M support
NetCDF support
NetCDF-4 support
Lua support

Runtime information:
* Directory : /home/fnpedron/Siesta/siesta-dev/Tests/09.MolecularDynamics/work/anneal_pt
* Running in serial mode.
>> Start of run:  25-SEP-2023   9:45:37

                           *********************** 
                           *  WELCOME TO SIESTA  * 
                           *********************** 

reinit: Reading from standard input
reinit: Dumping input in INPUT_TMP.87151
************************** Dump of input data file ****************************
%include ../../basejob.fdf
SystemLabel           anneal_pt
MD.TypeOfRun          anneal
MD.AnnealOption       TemperatureAndPressure
MD.InitialTemperature 100 K
MD.TargetTemperature  600 K
MD.TauRelax           25 fs
MD.TargetPressure     10.0 GPa
************************** End of input data file *****************************

reinit: -----------------------------------------------------------------------
reinit: System Name: Water molecules MD
reinit: -----------------------------------------------------------------------
reinit: System Label: anneal_pt
reinit: -----------------------------------------------------------------------

initatom: Reading input for the pseudopotentials and atomic orbitals ----------
Species number:   1 Atomic number:    8 Label: O
Species number:   2 Atomic number:    1 Label: H


---- Processing specs for species: O
Ground state valence configuration:   2s02  2p04
Reading pseudopotential information in formatted form from:
  /home/fnpedron/Siesta/siesta-dev/Tests/Pseudos/O.psf

---- Processing specs for species: H
Ground state valence configuration:   1s01
Reading pseudopotential information in formatted form from:
  /home/fnpedron/Siesta/siesta-dev/Tests/Pseudos/H.psf

---- Pseudopotential check for O 

Pseudized shells:
2s( 2.00) rc: 1.14
2p( 4.00) rc: 1.14
3d( 0.00) rc: 1.14
4f( 0.00) rc: 1.14
Valence configuration for ps generation: (assumed as above)

---- Pseudopotential check for H 

Pseudized shells:
1s( 1.00) rc: 1.25
2p( 0.00) rc: 1.25
3d( 0.00) rc: 1.25
4f( 0.00) rc: 1.25
Valence configuration for ps generation: (assumed as above)
For O, standard SIESTA heuristics set lmxkb to 2
 (one more than the basis l, including polarization orbitals).
Use PS.lmax or PS.KBprojectors blocks to override.
For H, standard SIESTA heuristics set lmxkb to 1
 (one more than the basis l, including polarization orbitals).
Use PS.lmax or PS.KBprojectors blocks to override.

<basis_specs>
===============================================================================
O                    Z=   8    Mass=  15.999        Charge= 0.17977+309
Lmxo=1 Lmxkb= 2    BasisType=split      Semic=F
L=0  Nsemic=0  Cnfigmx=2
          i=1  nzeta=1  polorb=0  (2s)
            splnorm:   0.15000    
               vcte:    0.0000    
               rinn:    0.0000    
               qcoe:    0.0000    
               qyuk:    0.0000    
               qwid:   0.10000E-01
                rcs:    0.0000    
            lambdas:    1.0000    
L=1  Nsemic=0  Cnfigmx=2
          i=1  nzeta=1  polorb=0  (2p)
            splnorm:   0.15000    
               vcte:    0.0000    
               rinn:    0.0000    
               qcoe:    0.0000    
               qyuk:    0.0000    
               qwid:   0.10000E-01
                rcs:    0.0000    
            lambdas:    1.0000    
-------------------------------------------------------------------------------
L=0  Nkbl=1  erefs: 0.17977+309
L=1  Nkbl=1  erefs: 0.17977+309
L=2  Nkbl=1  erefs: 0.17977+309
===============================================================================
</basis_specs>

atom: Called for O                     (Z =   8)

read_vps: Pseudopotential generation method:
read_vps: ATM3      Troullier-Martins                       
Valence charge in pseudo generation:    6.00000

xc_check: Exchange-correlation functional:
xc_check: Ceperley-Alder
V l=0 = -2*Zval/r beyond r=  1.1278
V l=1 = -2*Zval/r beyond r=  1.1278
V l=2 = -2*Zval/r beyond r=  1.1278
All V_l potentials equal beyond r=  1.1278
This should be close to max(r_c) in ps generation
All pots = -2*Zval/r beyond r=  1.1278
Using small-core scheme (local charge) for Vlocal

VLOCAL_FROM_CHLOCAL: 99.0% of the norm of Vloc inside     34.126 Ry
VLOCAL_FROM_CHLOCAL: 99.9% of the norm of Vloc inside     77.774 Ry
atom: Maximum radius for chlocal:    1.37759
atom: Maximum radius for r*vlocal+2*Zval:    1.24646

KBgen: Kleinman-Bylander projectors: 
GHOST: No ghost state for L =  0
   l= 0   rc=  1.294105   el= -1.742414   Ekb=  9.135903   kbcos=  0.326910
GHOST: No ghost state for L =  1
   l= 1   rc=  1.294105   el= -0.676589   Ekb= -8.124878   kbcos= -0.395047
GHOST: No ghost state for L =  2
   l= 2   rc=  1.448233   el=  0.002386   Ekb= -2.039267   kbcos= -0.003484

KBgen: Total number of Kleinman-Bylander projectors:   9
atom: -------------------------------------------------------------------------

atom: SANKEY-TYPE ORBITALS:

SPLIT: Orbitals with angular momentum L= 0

SPLIT: Basis orbitals for state 2s

SPLIT: PAO cut-off radius determined from an
SPLIT: energy shift=  0.020000 Ry

   izeta = 1
                 lambda =    1.000000
                     rc =    3.305093
                 energy =   -1.723766
                kinetic =    1.614911
    potential(screened) =   -3.338677
       potential(ionic) =  -11.304675

SPLIT: Orbitals with angular momentum L= 1

SPLIT: Basis orbitals for state 2p

SPLIT: PAO cut-off radius determined from an
SPLIT: energy shift=  0.020000 Ry

   izeta = 1
                 lambda =    1.000000
                     rc =    3.937239
                 energy =   -0.658841
                kinetic =    5.005986
    potential(screened) =   -5.664827
       potential(ionic) =  -13.452360
atom: Total number of Sankey-type orbitals:  4

atm_pop: Valence configuration (for local Pseudopot. screening):
 2s( 2.00)                                                            
 2p( 4.00)                                                            
Vna: chval, zval:    6.00000   6.00000

Vna:  Cut-off radius for the neutral-atom potential:   3.937239

atom: _________________________________________________________________________

<basis_specs>
===============================================================================
H                    Z=   1    Mass=  1.0080        Charge= 0.17977+309
Lmxo=0 Lmxkb= 1    BasisType=split      Semic=F
L=0  Nsemic=0  Cnfigmx=1
          i=1  nzeta=1  polorb=0  (1s)
            splnorm:   0.15000    
               vcte:    0.0000    
               rinn:    0.0000    
               qcoe:    0.0000    
               qyuk:    0.0000    
               qwid:   0.10000E-01
                rcs:    0.0000    
            lambdas:    1.0000    
-------------------------------------------------------------------------------
L=0  Nkbl=1  erefs: 0.17977+309
L=1  Nkbl=1  erefs: 0.17977+309
===============================================================================
</basis_specs>

atom: Called for H                     (Z =   1)

read_vps: Pseudopotential generation method:
read_vps: ATM3      Troullier-Martins                       
Valence charge in pseudo generation:    1.00000

xc_check: Exchange-correlation functional:
xc_check: Ceperley-Alder
V l=0 = -2*Zval/r beyond r=  1.2343
V l=1 = -2*Zval/r beyond r=  1.2189
All V_l potentials equal beyond r=  1.2343
This should be close to max(r_c) in ps generation
All pots = -2*Zval/r beyond r=  1.2343
Using small-core scheme (local charge) for Vlocal

VLOCAL_FROM_CHLOCAL: 99.0% of the norm of Vloc inside     28.493 Ry
VLOCAL_FROM_CHLOCAL: 99.9% of the norm of Vloc inside     64.935 Ry
atom: Maximum radius for chlocal:    1.45251
atom: Maximum radius for r*vlocal+2*Zval:    1.31405

KBgen: Kleinman-Bylander projectors: 
GHOST: No ghost state for L =  0
   l= 0   rc=  1.364359   el= -0.467325   Ekb= -2.005361   kbcos= -0.336422
GHOST: No ghost state for L =  1
   l= 1   rc=  1.434438   el=  0.001430   Ekb= -0.501708   kbcos= -0.021697

KBgen: Total number of Kleinman-Bylander projectors:   4
atom: -------------------------------------------------------------------------

atom: SANKEY-TYPE ORBITALS:

SPLIT: Orbitals with angular momentum L= 0

SPLIT: Basis orbitals for state 1s

SPLIT: PAO cut-off radius determined from an
SPLIT: energy shift=  0.020000 Ry

   izeta = 1
                 lambda =    1.000000
                     rc =    4.828263
                 energy =   -0.449375
                kinetic =    0.929372
    potential(screened) =   -1.378747
       potential(ionic) =   -1.915047
atom: Total number of Sankey-type orbitals:  1

atm_pop: Valence configuration (for local Pseudopot. screening):
 1s( 1.00)                                                            
Vna: chval, zval:    1.00000   1.00000

Vna:  Cut-off radius for the neutral-atom potential:   4.828263

atom: _________________________________________________________________________

prinput: Basis input 

PAO.BasisType split     

%block ChemicalSpeciesLabel
    1    8 O                       # Species index, atomic number, species label
    2    1 H                       # Species index, atomic number, species label
%endblock ChemicalSpeciesLabel

%block PAO.Basis                 # Define Basis set
# WARNING: This information might be incomplete!
O                     2                    # Species label, number of l-shells
 n=2   0   1                         # n, l, Nzeta 
   3.305   
   1.000   
 n=2   1   1                         # n, l, Nzeta 
   3.937   
   1.000   
H                     1                    # Species label, number of l-shells
 n=1   0   1                         # n, l, Nzeta 
   4.828   
   1.000   
%endblock PAO.Basis

prinput: ----------------------------------------------------------------------

Dumping basis to NetCDF file O.ion.nc
Dumping basis to NetCDF file H.ion.nc
coor:   Atomic-coordinates input format  =     Cartesian coordinates
coor:                                          (in Angstroms)

siesta: WARNING: XV file not found

siesta: Atomic coordinates (Bohr) and species
siesta:      0.00000   0.00000   0.00000  1        1
siesta:      1.43052   1.10738   0.00000  2        2
siesta:     -1.43052   1.10738   0.00000  2        3
siesta:      0.00000   0.00000   5.66918  1        4
siesta:      1.43052  -1.10738   5.66918  2        5
siesta:     -1.43052  -1.10738   5.66918  2        6

siesta: System type = molecule  

initatomlists: Number of atoms, orbitals, and projectors:      6    12    34

siesta: ******************** Simulation parameters ****************************
siesta:
siesta: The following are some of the parameters of the simulation.
siesta: A complete list of the parameters used, including default values,
siesta: can be found in file out.fdf
siesta:
redata: Spin configuration                          = none
redata: Number of spin components                   = 1
redata: Time-Reversal Symmetry                      = T
redata: Spin spiral                                 = F
redata: Long output                                 =   F
redata: Number of Atomic Species                    =        2
redata: Charge density info will appear in .RHO file
redata: Write Mulliken Pop.                         = NO
redata: Matel table size (NRTAB)                    =     1024
redata: Mesh Cutoff                                 =   100.0000 Ry
redata: Net charge of the system                    =     0.0000 |e|
redata: Min. number of SCF Iter                     =        0
redata: Max. number of SCF Iter                     =     1000
redata: SCF convergence failure will abort job
redata: SCF mix quantity                            = Hamiltonian
redata: Mix DM or H after convergence               =   F
redata: Recompute H after scf cycle                 =   F
redata: Mix DM in first SCF step                    =   T
redata: Write Pulay info on disk                    =   F
redata: New DM Occupancy tolerance                  = 0.000000000001
redata: No kicks to SCF
redata: DM Mixing Weight for Kicks                  =     0.5000
redata: Require Harris convergence for SCF          =   F
redata: Harris energy tolerance for SCF             =     0.000100 eV
redata: Require DM convergence for SCF              =   T
redata: DM tolerance for SCF                        =     0.000100
redata: Require EDM convergence for SCF             =   F
redata: EDM tolerance for SCF                       =     0.001000 eV
redata: Require H convergence for SCF               =   T
redata: Hamiltonian tolerance for SCF               =     0.001000 eV
redata: Require (free) Energy convergence for SCF   =   F
redata: (free) Energy tolerance for SCF             =     0.000100 eV
redata: Using DFT-D3 dispersion                     =   F
redata: Using Saved Data (generic)                  =   F
redata: Use continuation files for DM               =   F
redata: Neglect nonoverlap interactions             =   F
redata: Method of Calculation                       = Diagonalization
redata: Electronic Temperature                      =   299.9863 K
redata: Fix the spin of the system                  =   F
redata: Max. number of TDED Iter                    =        1
redata: Number of TDED substeps                     =        3
redata: Dynamics option                             = Annealing MD run
redata: Initial MD time step                        =        1
redata:   Final MD time step                        =       10
redata: Length of MD time step                      =     1.0000 fs
redata: Initial Temperature of MD run               =   100.0000 K
redata: Annealing Option                            = Temperature and Pressure
redata: Target Temperature                          =   600.0000 Kelvin
redata: Target Pressure                             =     0.0624 eV/Ang**3
redata: Annealing Relaxation Time                   =    25.0000 fs
redata: Approx. Bulk Modulus                        =     0.6241 eV/Ang**3
mix.SCF: Pulay mixing                            = Pulay
mix.SCF:    Variant                              = stable
mix.SCF:    History steps                        = 2
mix.SCF:    Linear mixing weight                 =     0.250000
mix.SCF:    Mixing weight                        =     0.250000
mix.SCF:    SVD condition                        = 0.1000E-07
redata: Save all siesta data in one NC              =   F
redata: ***********************************************************************

%block SCF.Mixers
  Pulay
%endblock SCF.Mixers

%block SCF.Mixer.Pulay
  # Mixing method
  method pulay
  variant stable

  # Mixing options
  weight 0.2500
  weight.linear 0.2500
  history 2
%endblock SCF.Mixer.Pulay

Size of DM history Fstack: 1
Total number of electrons:    16.000000
Total ionic charge:    16.000000

siesta: k-grid: Number of k-points = 1
siesta: k-point is Gamma-only

diag: Algorithm                                     = D&C
diag: Used triangular part                          = Lower
diag: Absolute tolerance                            =  0.100E-15
diag: Orthogonalization factor                      =  0.100E-05
diag: Memory factor                                 =  1.0000


ts: **************************************************************
ts: Save H and S matrices                           =    F
ts: Save DM and EDM matrices                        =    F
ts: Only save the overlap matrix S                  =    F
ts: **************************************************************

************************ Begin: TS CHECKS AND WARNINGS ************************
************************ End: TS CHECKS AND WARNINGS **************************


                     ====================================
                        Begin MD step =      1
                     ====================================

outcoor: Atomic coordinates (Ang):                          
    0.00000000    0.00000000    0.00000000   1       1  O
    0.75700000    0.58600000    0.00000000   2       2  H
   -0.75700000    0.58600000    0.00000000   2       3  H
    0.00000000    0.00000000    3.00000000   1       4  O
    0.75700000   -0.58600000    3.00000000   2       5  H
   -0.75700000   -0.58600000    3.00000000   2       6  H

outcell: Unit cell vectors (Ang):
       10.000000    0.000000    0.000000
        0.000000   10.000000    0.000000
        0.000000    0.000000    8.000000

outcell: Cell vector modules (Ang)   :   10.000000   10.000000    8.000000
outcell: Cell angles (23,13,12) (deg):     90.0000     90.0000     90.0000
outcell: Cell volume (Ang**3)        :    800.0000
<dSpData1D:S at geom step 1
  <sparsity:sparsity for geom step 1
    nrows_g=12 nrows=12 sparsity=1.0000 nnzs=144, refcount: 7>
  <dData1D:(new from dSpData1D) n=144, refcount: 1>
refcount: 1>
new_DM -- step:     1
Initializing Density Matrix...
DM filled with atomic data:
<dSpData2D:DM initialized from atoms
  <sparsity:sparsity for geom step 1
    nrows_g=12 nrows=12 sparsity=1.0000 nnzs=144, refcount: 8>
  <dData2D:DM n=144 m=1, refcount: 1>
refcount: 1>
No. of atoms with KB's overlaping orbs in proc 0. Max # of overlaps:       6       8

InitMesh: MESH = 64 x 64 x 50 = 204800
InitMesh: Mesh cutoff (required, used) =   100.000   107.960 Ry
New grid distribution [1]: sub = 2

stepf: Fermi-Dirac step function

siesta: Program's energy decomposition (eV):
siesta: Ebs     =      -149.182186
siesta: Eions   =      1631.696139
siesta: Ena     =       350.306285
siesta: Ekin    =       763.439382
siesta: Enl     =      -139.521487
siesta: Eso     =         0.000000
siesta: Edftu   =         0.000000
siesta: DEna    =       -37.202318
siesta: DUscf   =         7.292160
siesta: DUext   =         0.000000
siesta: Ex      =      -208.581396
siesta: Ec      =       -25.522210
siesta: Exc     =      -234.103606
siesta: EbV     =         0.000000
siesta: eta*DQ  =         0.000000
siesta: Emadel  =         0.000000
siesta: Emeta   =         0.000000
siesta: Emolmec =         0.000000
siesta: Ekinion =         0.000000
siesta: Eharris =      -913.954507
siesta: Etot    =      -921.485724
siesta: FreeEng =      -921.485724

        iscf     Eharris(eV)        E_KS(eV)     FreeEng(eV)     dDmax    Ef(eV) dHmax(eV)
   scf:    1     -913.954507     -921.485724     -921.485724  0.696843 -2.768744  7.083650
timer: Routine,Calls,Time,% = IterSCF        1       0.015  15.58
   scf:    2     -924.006577     -922.854874     -922.854874  0.124594 -1.916257  3.846899
   scf:    3     -923.591940     -923.365596     -923.365596  0.137143 -0.995745  0.747148
   scf:    4     -923.379689     -923.372877     -923.372877  0.007505 -1.056854  0.545197
   scf:    5     -923.383553     -923.378828     -923.378828  0.017665 -1.167708  0.130181
   scf:    6     -923.379279     -923.379065     -923.379065  0.002570 -1.167513  0.072629
   scf:    7     -923.379177     -923.379129     -923.379129  0.001979 -1.163391  0.015059
   scf:    8     -923.379141     -923.379135     -923.379135  0.000171 -1.161211  0.011715
   scf:    9     -923.379143     -923.379140     -923.379140  0.000284 -1.158211  0.004849
   scf:   10     -923.379141     -923.379140     -923.379140  0.000099 -1.157950  0.002655
   scf:   11     -923.379141     -923.379141     -923.379141  0.000120 -1.157764  0.000845
   scf:   12     -923.379141     -923.379141     -923.379141  0.000008 -1.157811  0.000528

SCF Convergence by DM+H criterion
max |DM_out - DM_in|         :     0.0000084399
max |H_out - H_in|      (eV) :     0.0005284598
SCF cycle converged after 12 iterations

Using DM_out to compute the final energy and forces
No. of atoms with KB's overlaping orbs in proc 0. Max # of overlaps:       6       8

siesta: E_KS(eV) =             -923.3791

siesta: E_KS - E_eggbox =      -923.3791

siesta: Atomic forces (eV/Ang):
     1    0.000000   -7.090293   -0.071262
     2    4.733553    3.441489    0.115369
     3   -4.733553    3.441489    0.115369
     4   -0.000000    7.066132    1.006032
     5    4.732610   -3.439834   -0.110885
     6   -4.732610   -3.439834   -0.110885
----------------------------------------
   Tot   -0.000000   -0.020851    0.943738
----------------------------------------
   Max    7.090293
   Res    3.638007    sqrt( Sum f_i^2 / 3N )
----------------------------------------
   Max    7.090293    constrained

Stress tensor Voigt[x,y,z,yz,xz,xy] (kbar):      -28.72      -16.58        0.45       -0.58        0.03        0.06
(Free)E + p*V (eV/cell)     -915.9144
Target enthalpy (eV/cell)     -873.4471

siesta: Stress tensor (static) (eV/Ang**3):
        -0.017902    0.000000   -0.000000
        -0.000000   -0.010291   -0.000338
         0.000000   -0.000338    0.000363

siesta: Pressure (static):         14.86340167  kBar

siesta: Stress tensor (total) (eV/Ang**3):
        -0.017928    0.000036    0.000020
         0.000036   -0.010346   -0.000360
         0.000020   -0.000360    0.000281

siesta: Pressure (total):         14.94969223  kBar
 Anneal: Kinetic Energy=    4.7502173451835330E-003
 Anneal: Velocity scale factor =    1.0954451150103319     
 Anneal: Cell scale factor =   0.99597483818691379     

siesta: Temp_ion =     120.000 K

                     ====================================
                        Begin MD step =      2
                     ====================================

outcoor: Atomic coordinates (Ang):                          
    0.00211929   -0.00598654   -0.00098992   1       1  O
    0.77370561    0.60600512   -0.00102828   2       2  H
   -0.77366604    0.59634967   -0.00836736   2       3  H
   -0.00100216    0.00460475    2.98916482   1       4  O
    0.76969204   -0.59022634    2.97409325   2       5  H
   -0.78746267   -0.59029621    3.01167585   2       6  H

outcell: Unit cell vectors (Ang):
        9.971451    0.000000    0.000000
        0.000000    9.966581    0.000000
        0.000000    0.000000    7.967799

outcell: Cell vector modules (Ang)   :    9.971451    9.966581    7.967799
outcell: Cell angles (23,13,12) (deg):     90.0000     90.0000     90.0000
outcell: Cell volume (Ang**3)        :    791.8500
Gamma-point calculation with multiply-connected orbital pairs
Folding of H and S implicitly performed
<dSpData1D:S at geom step 2
  <sparsity:sparsity for geom step 2
    nrows_g=12 nrows=12 sparsity=1.0000 nnzs=144, refcount: 7>
  <dData1D:(new from dSpData1D) n=144, refcount: 1>
refcount: 1>
new_DM -- step:     2
Re-using DM from previous geometries...
Number of DMs in history: 1
 DM extrapolation coefficients: 
1   1.00000
New DM after history re-use:
<dSpData2D:SpM extrapolated using coords
  <sparsity:sparsity for geom step 2
    nrows_g=12 nrows=12 sparsity=1.0000 nnzs=144, refcount: 9>
  <dData2D:(temp array for extrapolation) n=144 m=1, refcount: 1>
refcount: 1>
No. of atoms with KB's overlaping orbs in proc 0. Max # of overlaps:       6       8

InitMesh: MESH = 60 x 60 x 48 = 172800
InitMesh: Mesh cutoff (required, used) =   100.000   100.066 Ry
New grid distribution [1]: sub = 2

        iscf     Eharris(eV)        E_KS(eV)     FreeEng(eV)     dDmax    Ef(eV) dHmax(eV)
   scf:    1     -924.377248     -923.915969     -923.915969  0.061365 -1.333534  0.543590
   scf:    2     -923.874137     -923.911941     -923.911941  0.042958 -1.616393  0.671765
   scf:    3     -923.938161     -923.929954     -923.929954  0.023261 -1.460928  0.036243
   scf:    4     -923.929996     -923.929976     -923.929976  0.000570 -1.458784  0.026660
   scf:    5     -923.930020     -923.929999     -923.929999  0.001463 -1.454185  0.002918
   scf:    6     -923.930000     -923.930000     -923.930000  0.000111 -1.454177  0.001275
   scf:    7     -923.930000     -923.930000     -923.930000  0.000076 -1.454174  0.000433

SCF Convergence by DM+H criterion
max |DM_out - DM_in|         :     0.0000762409
max |H_out - H_in|      (eV) :     0.0004328278
SCF cycle converged after 7 iterations

Using DM_out to compute the final energy and forces
No. of atoms with KB's overlaping orbs in proc 0. Max # of overlaps:       6       8

siesta: E_KS(eV) =             -923.9300

siesta: Atomic forces (eV/Ang):
     1    0.167998   -5.284365    0.010131
     2    3.344735    2.552644    0.112489
     3   -3.506605    2.621134    0.081727
     4   -0.640829    5.549495   -0.005755
     5    3.813188   -2.976564   -0.193879
     6   -3.177316   -2.434134   -0.016541
----------------------------------------
   Tot    0.001170    0.028210   -0.011828
----------------------------------------
   Max    5.549495
   Res    2.743762    sqrt( Sum f_i^2 / 3N )
----------------------------------------
   Max    5.549495    constrained

Stress tensor Voigt[x,y,z,yz,xz,xy] (kbar):      -21.80      -13.50       -0.28       -0.53        0.27        0.97
(Free)E + p*V (eV/cell)     -918.0694
Target enthalpy (eV/cell)     -874.5066

siesta: Stress tensor (static) (eV/Ang**3):
        -0.013573    0.000561    0.000144
         0.000561   -0.008362   -0.000304
         0.000144   -0.000305   -0.000074

siesta: Pressure (static):         11.75399736  kBar

siesta: Stress tensor (total) (eV/Ang**3):
        -0.013604    0.000604    0.000168
         0.000605   -0.008427   -0.000330
         0.000168   -0.000331   -0.000172

siesta: Pressure (total):         11.85785801  kBar
 Anneal: Kinetic Energy=    4.1880984744758494E-002
 Anneal: Velocity scale factor =   0.99359007434530344     
 Anneal: Cell scale factor =   0.99600403485232791     

siesta: Temp_ion =     870.398 K

                     ====================================
                        Begin MD step =      3
                     ====================================

outcoor: Atomic coordinates (Ang):                          
    0.00429877   -0.01501099   -0.00195325   1       1  O
    0.82159831    0.64972393   -0.00096966   2       2  H
   -0.82305465    0.63125188   -0.01578683   2       3  H
   -0.00236813    0.01243289    2.97843631   1       4  O
    0.81808876   -0.62249428    2.94677296   2       5  H
   -0.84726440   -0.61749155    3.02283777   2       6  H

outcell: Unit cell vectors (Ang):
        9.940688    0.000000    0.000000
        0.000000    9.932334    0.000000
        0.000000    0.000000    7.935960

outcell: Cell vector modules (Ang)   :    9.940688    9.932334    7.935960
outcell: Cell angles (23,13,12) (deg):     90.0000     90.0000     90.0000
outcell: Cell volume (Ang**3)        :    783.5509
Gamma-point calculation with multiply-connected orbital pairs
Folding of H and S implicitly performed
<dSpData1D:S at geom step 3
  <sparsity:sparsity for geom step 3
    nrows_g=12 nrows=12 sparsity=1.0000 nnzs=144, refcount: 7>
  <dData1D:(new from dSpData1D) n=144, refcount: 1>
refcount: 1>
new_DM -- step:     3
Re-using DM from previous geometries...
Number of DMs in history: 1
 DM extrapolation coefficients: 
1   1.00000
New DM after history re-use:
<dSpData2D:SpM extrapolated using coords
  <sparsity:sparsity for geom step 3
    nrows_g=12 nrows=12 sparsity=1.0000 nnzs=144, refcount: 9>
  <dData2D:(temp array for extrapolation) n=144 m=1, refcount: 1>
refcount: 1>
Note: For starting DM, Qtot, Tr[D*S] =         16.00000000         15.96261454
No. of atoms with KB's overlaping orbs in proc 0. Max # of overlaps:       6       8

InitMesh: MESH = 60 x 60 x 48 = 172800
InitMesh: Mesh cutoff (required, used) =   100.000   100.687 Ry
New grid distribution [1]: sub = 2

        iscf     Eharris(eV)        E_KS(eV)     FreeEng(eV)     dDmax    Ef(eV) dHmax(eV)
   scf:    1     -925.444666     -924.498520     -924.498520  0.163300 -1.916675  1.633367
   scf:    2     -923.780353     -924.376610     -924.376610  0.151891 -2.804022  2.378995
   scf:    3     -924.764999     -924.648684     -924.648684  0.084074 -2.279595  0.100462
   scf:    4     -924.648984     -924.648844     -924.648844  0.001389 -2.266229  0.075114
   scf:    5     -924.649135     -924.648991     -924.648991  0.002796 -2.251506  0.029822
   scf:    6     -924.649063     -924.649029     -924.649029  0.001568 -2.246365  0.007141
   scf:    7     -924.649042     -924.649039     -924.649039  0.000456 -2.245505  0.002261
   scf:    8     -924.649040     -924.649040     -924.649040  0.000077 -2.245568  0.000849

SCF Convergence by DM+H criterion
max |DM_out - DM_in|         :     0.0000773737
max |H_out - H_in|      (eV) :     0.0008489299
SCF cycle converged after 8 iterations

Using DM_out to compute the final energy and forces
No. of atoms with KB's overlaping orbs in proc 0. Max # of overlaps:       6       8

siesta: E_KS(eV) =             -924.6490

siesta: Atomic forces (eV/Ang):
     1    0.153873   -1.725187    0.050853
     2    0.726923    0.835354    0.100565
     3   -0.870313    0.917474    0.089257
     4   -0.598835    2.158298   -0.045671
     5    1.079137   -1.319610   -0.153539
     6   -0.489460   -0.832472   -0.064630
----------------------------------------
   Tot    0.001326    0.033857   -0.023165
----------------------------------------
   Max    2.158298
   Res    0.904656    sqrt( Sum f_i^2 / 3N )
----------------------------------------
   Max    2.158298    constrained

Stress tensor Voigt[x,y,z,yz,xz,xy] (kbar):       -6.61       -6.40       -0.39       -0.50        0.43        0.90
(Free)E + p*V (eV/cell)     -922.4641
Target enthalpy (eV/cell)     -875.7436

siesta: Stress tensor (static) (eV/Ang**3):
        -0.003346    0.000578    0.000084
         0.000579   -0.003467   -0.000327
         0.000084   -0.000327   -0.000127

siesta: Pressure (static):          3.70593982  kBar

siesta: Stress tensor (total) (eV/Ang**3):
        -0.004126    0.000565    0.000269
         0.000565   -0.003997   -0.000314
         0.000269   -0.000314   -0.000242

siesta: Pressure (total):          4.46774179  kBar
 Anneal: Kinetic Energy=    9.1552145673963872E-002
 Anneal: Velocity scale factor =   0.98613005725876424     
 Anneal: Cell scale factor =   0.99600734618284625     

siesta: Temp_ion =    1874.232 K

                     ====================================
                        Begin MD step =      4
                     ====================================

outcoor: Atomic coordinates (Ang):                          
    0.00649167   -0.02473907   -0.00285203   1       1  O
    0.87411550    0.69953785    0.00003247   2       2  H
   -0.87836393    0.67333412   -0.02210189   2       3  H
   -0.00404042    0.02126373    2.96769501   1       4  O
    0.87440748   -0.66581866    2.91861620   2       5  H
   -0.90903107   -0.65133993    3.03262396   2       6  H

outcell: Unit cell vectors (Ang):
        9.904098    0.000000    0.000000
        0.000000    9.895530    0.000000
        0.000000    0.000000    7.904274

outcell: Cell vector modules (Ang)   :    9.904098    9.895530    7.904274
outcell: Cell angles (23,13,12) (deg):     90.0000     90.0000     90.0000
outcell: Cell volume (Ang**3)        :    774.6686
Gamma-point calculation with multiply-connected orbital pairs
Folding of H and S implicitly performed
<dSpData1D:S at geom step 4
  <sparsity:sparsity for geom step 4
    nrows_g=12 nrows=12 sparsity=1.0000 nnzs=144, refcount: 7>
  <dData1D:(new from dSpData1D) n=144, refcount: 1>
refcount: 1>
new_DM -- step:     4
Re-using DM from previous geometries...
Number of DMs in history: 1
 DM extrapolation coefficients: 
1   1.00000
New DM after history re-use:
<dSpData2D:SpM extrapolated using coords
  <sparsity:sparsity for geom step 4
    nrows_g=12 nrows=12 sparsity=1.0000 nnzs=144, refcount: 9>
  <dData2D:(temp array for extrapolation) n=144 m=1, refcount: 1>
refcount: 1>
Note: For starting DM, Qtot, Tr[D*S] =         16.00000000         15.94432066
No. of atoms with KB's overlaping orbs in proc 0. Max # of overlaps:       6       8

InitMesh: MESH = 60 x 60 x 48 = 172800
InitMesh: Mesh cutoff (required, used) =   100.000   101.432 Ry
New grid distribution [1]: sub = 2

        iscf     Eharris(eV)        E_KS(eV)     FreeEng(eV)     dDmax    Ef(eV) dHmax(eV)
   scf:    1     -925.074713     -924.363233     -924.363233  0.192718 -2.719566  2.106285
   scf:    2     -922.272931     -923.911097     -923.911097  0.235291 -3.846747  3.725267
   scf:    3     -924.931071     -924.643188     -924.643188  0.138966 -3.129898  0.130962
   scf:    4     -924.644001     -924.643668     -924.643668  0.002217 -3.105351  0.099852
   scf:    5     -924.644253     -924.643968     -924.643968  0.002803 -3.090539  0.055101
   scf:    6     -924.644228     -924.644108     -924.644108  0.003220 -3.077033  0.006063
   scf:    7     -924.644114     -924.644112     -924.644112  0.000404 -3.076069  0.002082
   scf:    8     -924.644112     -924.644112     -924.644112  0.000092 -3.075933  0.000716

SCF Convergence by DM+H criterion
max |DM_out - DM_in|         :     0.0000916548
max |H_out - H_in|      (eV) :     0.0007158665
SCF cycle converged after 8 iterations

Using DM_out to compute the final energy and forces
No. of atoms with KB's overlaping orbs in proc 0. Max # of overlaps:       6       8

siesta: E_KS(eV) =             -924.6441

siesta: Atomic forces (eV/Ang):
     1    0.074698    0.985417    0.074453
     2   -1.135922   -0.484772    0.081367
     3    1.079037   -0.400882    0.114283
     4   -0.321106   -0.446130   -0.089282
     5   -1.073226    0.077063   -0.041645
     6    1.380611    0.287876   -0.172145
----------------------------------------
   Tot    0.004092    0.018572   -0.032969
----------------------------------------
   Max    1.380611
   Res    0.638592    sqrt( Sum f_i^2 / 3N )
----------------------------------------
   Max    1.380611    constrained

Stress tensor Voigt[x,y,z,yz,xz,xy] (kbar):        5.76       -0.45       -0.46       -0.55        0.25        0.60
(Free)E + p*V (eV/cell)     -925.4252
Target enthalpy (eV/cell)     -876.2931

siesta: Stress tensor (static) (eV/Ang**3):
         0.005341    0.000333   -0.000110
         0.000333    0.000960   -0.000352
        -0.000110   -0.000352   -0.000172

siesta: Pressure (static):         -3.27331705  kBar

siesta: Stress tensor (total) (eV/Ang**3):
         0.003592    0.000373    0.000153
         0.000373   -0.000282   -0.000344
         0.000153   -0.000345   -0.000285

siesta: Pressure (total):         -1.61549011  kBar
 Anneal: Kinetic Energy=    8.7463703553904454E-002
 Anneal: Velocity scale factor =   0.98642514897598610     
 Anneal: Cell scale factor =   0.99600958703304510     

siesta: Temp_ion =    1791.607 K

                     ====================================
                        Begin MD step =      5
                     ====================================

outcoor: Atomic coordinates (Ang):                          
    0.00864794   -0.03353680   -0.00367497   1       1  O
    0.91352243    0.74279335    0.00176482   2       2  H
   -0.92099755    0.70992482   -0.02711909   2       3  H
   -0.00584186    0.02951618    2.95691465   1       4  O
    0.91807272   -0.70665678    2.89069542   2       5  H
   -0.95504062   -0.68105319    3.04008075   2       6  H

outcell: Unit cell vectors (Ang):
        9.861984    0.000000    0.000000
        0.000000    9.856108    0.000000
        0.000000    0.000000    7.872733

outcell: Cell vector modules (Ang)   :    9.861984    9.856108    7.872733
outcell: Cell angles (23,13,12) (deg):     90.0000     90.0000     90.0000
outcell: Cell volume (Ang**3)        :    765.2358
Gamma-point calculation with multiply-connected orbital pairs
Folding of H and S implicitly performed
<dSpData1D:S at geom step 5
  <sparsity:sparsity for geom step 5
    nrows_g=12 nrows=12 sparsity=1.0000 nnzs=144, refcount: 7>
  <dData1D:(new from dSpData1D) n=144, refcount: 1>
refcount: 1>
new_DM -- step:     5
Re-using DM from previous geometries...
Number of DMs in history: 1
 DM extrapolation coefficients: 
1   1.00000
New DM after history re-use:
<dSpData2D:SpM extrapolated using coords
  <sparsity:sparsity for geom step 5
    nrows_g=12 nrows=12 sparsity=1.0000 nnzs=144, refcount: 9>
  <dData2D:(temp array for extrapolation) n=144 m=1, refcount: 1>
refcount: 1>
Note: For starting DM, Qtot, Tr[D*S] =         16.00000000         15.94536783
No. of atoms with KB's overlaping orbs in proc 0. Max # of overlaps:       6       8

InitMesh: MESH = 60 x 60 x 48 = 172800
InitMesh: Mesh cutoff (required, used) =   100.000   102.300 Ry
New grid distribution [1]: sub = 2

        iscf     Eharris(eV)        E_KS(eV)     FreeEng(eV)     dDmax    Ef(eV) dHmax(eV)
   scf:    1     -924.418404     -923.967419     -923.967419  0.159595 -1.882868  1.886447
   scf:    2     -921.401160     -923.345828     -923.345828  0.239450 -4.429867  3.895816
   scf:    3     -924.520984     -924.210239     -924.210239  0.150896 -0.656896  0.123821
   scf:    4     -924.211183     -924.210810     -924.210810  0.002325 -0.635509  0.093756
   scf:    5     -924.211411     -924.211119     -924.211119  0.002542 -0.624047  0.052318
   scf:    6     -924.211374     -924.211259     -924.211259  0.003076 -0.611974  0.003229
   scf:    7     -924.211261     -924.211260     -924.211260  0.000206 -0.611437  0.001385
   scf:    8     -924.211260     -924.211260     -924.211260  0.000043 -0.611274  0.000766

SCF Convergence by DM+H criterion
max |DM_out - DM_in|         :     0.0000428178
max |H_out - H_in|      (eV) :     0.0007660038
SCF cycle converged after 8 iterations

Using DM_out to compute the final energy and forces
No. of atoms with KB's overlaping orbs in proc 0. Max # of overlaps:       6       8

siesta: E_KS(eV) =             -924.2113

siesta: Atomic forces (eV/Ang):
     1    0.006696    2.545347    0.098578
     2   -2.074806   -1.264473    0.064037
     3    2.088932   -1.173565    0.135212
     4   -0.122336   -1.953839   -0.135803
     5   -2.209340    0.925622    0.061837
     6    2.307644    0.920408   -0.264228
----------------------------------------
   Tot   -0.003211   -0.000500   -0.040368
----------------------------------------
   Max    2.545347
   Res    1.374175    sqrt( Sum f_i^2 / 3N )
----------------------------------------
   Max    2.545347    constrained

Stress tensor Voigt[x,y,z,yz,xz,xy] (kbar):       14.37        4.36       -0.46       -0.61       -0.11        0.31
(Free)E + p*V (eV/cell)     -927.1213
Target enthalpy (eV/cell)     -876.4490

siesta: Stress tensor (static) (eV/Ang**3):
         0.010525    0.000090   -0.000308
         0.000090    0.004068   -0.000364
        -0.000308   -0.000364   -0.000183

siesta: Pressure (static):         -7.69562548  kBar

siesta: Stress tensor (total) (eV/Ang**3):
         0.008971    0.000192   -0.000070
         0.000191    0.002724   -0.000381
        -0.000070   -0.000381   -0.000287

siesta: Pressure (total):         -6.09270470  kBar
 Anneal: Kinetic Energy=    5.0281580102689523E-002
 Anneal: Velocity scale factor =   0.99129882272653214     
 Anneal: Cell scale factor =   0.99600921746023929     

siesta: Temp_ion =    1040.171 K

                     ====================================
                        Begin MD step =      6
                     ====================================

outcoor: Atomic coordinates (Ang):                          
    0.01074772   -0.04058506   -0.00441815   1       1  O
    0.93186578    0.77276982    0.00405851   2       2  H
   -0.94234630    0.73427521   -0.03072955   2       3  H
   -0.00766624    0.03638641    2.94607271   1       4  O
    0.93929034   -0.73749031    2.86381642   2       5  H
   -0.97759512   -0.70110207    3.04459245   2       6  H

outcell: Unit cell vectors (Ang):
        9.816236    0.000000    0.000000
        0.000000    9.814623    0.000000
        0.000000    0.000000    7.841314

outcell: Cell vector modules (Ang)   :    9.816236    9.814623    7.841314
outcell: Cell angles (23,13,12) (deg):     90.0000     90.0000     90.0000
outcell: Cell volume (Ang**3)        :    755.4530
Gamma-point calculation with multiply-connected orbital pairs
Folding of H and S implicitly performed
<dSpData1D:S at geom step 6
  <sparsity:sparsity for geom step 6
    nrows_g=12 nrows=12 sparsity=1.0000 nnzs=144, refcount: 7>
  <dData1D:(new from dSpData1D) n=144, refcount: 1>
refcount: 1>
new_DM -- step:     6
Re-using DM from previous geometries...
Number of DMs in history: 1
 DM extrapolation coefficients: 
1   1.00000
New DM after history re-use:
<dSpData2D:SpM extrapolated using coords
  <sparsity:sparsity for geom step 6
    nrows_g=12 nrows=12 sparsity=1.0000 nnzs=144, refcount: 9>
  <dData2D:(temp array for extrapolation) n=144 m=1, refcount: 1>
refcount: 1>
Note: For starting DM, Qtot, Tr[D*S] =         16.00000000         15.96295983
No. of atoms with KB's overlaping orbs in proc 0. Max # of overlaps:       6       8

InitMesh: MESH = 60 x 60 x 48 = 172800
InitMesh: Mesh cutoff (required, used) =   100.000   103.256 Ry
New grid distribution [1]: sub = 2

        iscf     Eharris(eV)        E_KS(eV)     FreeEng(eV)     dDmax    Ef(eV) dHmax(eV)
   scf:    1     -924.059805     -923.729121     -923.729121  0.100847 -0.921413  1.212029
   scf:    2     -922.364989     -923.380496     -923.380496  0.165804 -1.527746  2.727423
   scf:    3     -923.981326     -923.832256     -923.832256  0.108998 -1.107890  0.085052
   scf:    4     -923.832699     -923.832499     -923.832499  0.001115 -1.095865  0.062492
   scf:    5     -923.832829     -923.832668     -923.832668  0.002088 -1.085883  0.028028
   scf:    6     -923.832747     -923.832712     -923.832712  0.001626 -1.079233  0.002214
   scf:    7     -923.832712     -923.832712     -923.832712  0.000128 -1.078782  0.001046
   scf:    8     -923.832712     -923.832712     -923.832712  0.000030 -1.078645  0.000552

SCF Convergence by DM+H criterion
max |DM_out - DM_in|         :     0.0000302676
max |H_out - H_in|      (eV) :     0.0005520370
SCF cycle converged after 8 iterations

Using DM_out to compute the final energy and forces
No. of atoms with KB's overlaping orbs in proc 0. Max # of overlaps:       6       8

siesta: E_KS(eV) =             -923.8327

siesta: Atomic forces (eV/Ang):
     1   -0.034847    3.329811    0.122329
     2   -2.421700   -1.668982    0.050910
     3    2.483092   -1.570309    0.148893
     4   -0.004734   -2.737524   -0.175988
     5   -2.668886    1.388538    0.135044
     6    2.647047    1.243914   -0.326826
----------------------------------------
   Tot   -0.000029   -0.014551   -0.045638
----------------------------------------
   Max    3.329811
   Res    1.726679    sqrt( Sum f_i^2 / 3N )
----------------------------------------
   Max    3.329811    constrained

Stress tensor Voigt[x,y,z,yz,xz,xy] (kbar):       19.37        8.08       -0.40       -0.65       -0.49        0.02
(Free)E + p*V (eV/cell)     -928.0835
Target enthalpy (eV/cell)     -876.6810

siesta: Stress tensor (static) (eV/Ang**3):
         0.012820   -0.000093   -0.000458
        -0.000093    0.005989   -0.000369
        -0.000457   -0.000369   -0.000164

siesta: Pressure (static):         -9.95731602  kBar

siesta: Stress tensor (total) (eV/Ang**3):
         0.012091    0.000010   -0.000306
         0.000010    0.005040   -0.000406
        -0.000306   -0.000406   -0.000250

siesta: Pressure (total):         -9.01512056  kBar
 Anneal: Kinetic Energy=    1.7441662501410268E-002
 Anneal: Velocity scale factor =    1.0126024553312147     
 Anneal: Cell scale factor =   0.99600681969824689     

siesta: Temp_ion =     376.489 K

                     ====================================
                        Begin MD step =      7
                     ====================================

outcoor: Atomic coordinates (Ang):                          
    0.01285792   -0.04572187   -0.00509994   1       1  O
    0.92704772    0.78708070    0.00688308   2       2  H
   -0.93998716    0.74382237   -0.03296663   2       3  H
   -0.00952111    0.04170266    2.93518017   1       4  O
    0.93500617   -0.75538107    2.83801762   2       5  H
   -0.97487568   -0.70942907    3.04627507   2       6  H

outcell: Unit cell vectors (Ang):
        9.768862    0.000000    0.000000
        0.000000    9.771794    0.000000
        0.000000    0.000000    7.810003

outcell: Cell vector modules (Ang)   :    9.768862    9.771794    7.810003
outcell: Cell angles (23,13,12) (deg):     90.0000     90.0000     90.0000
outcell: Cell volume (Ang**3)        :    745.5375
Gamma-point calculation with multiply-connected orbital pairs
Folding of H and S implicitly performed
<dSpData1D:S at geom step 7
  <sparsity:sparsity for geom step 7
    nrows_g=12 nrows=12 sparsity=1.0000 nnzs=144, refcount: 7>
  <dData1D:(new from dSpData1D) n=144, refcount: 1>
refcount: 1>
new_DM -- step:     7
Re-using DM from previous geometries...
Number of DMs in history: 1
 DM extrapolation coefficients: 
1   1.00000
New DM after history re-use:
<dSpData2D:SpM extrapolated using coords
  <sparsity:sparsity for geom step 7
    nrows_g=12 nrows=12 sparsity=1.0000 nnzs=144, refcount: 9>
  <dData2D:(temp array for extrapolation) n=144 m=1, refcount: 1>
refcount: 1>
No. of atoms with KB's overlaping orbs in proc 0. Max # of overlaps:       6       8

InitMesh: MESH = 60 x 60 x 48 = 172800
InitMesh: Mesh cutoff (required, used) =   100.000   104.197 Ry
New grid distribution [1]: sub = 2

        iscf     Eharris(eV)        E_KS(eV)     FreeEng(eV)     dDmax    Ef(eV) dHmax(eV)
   scf:    1     -923.860563     -923.738365     -923.738365  0.038490 -1.175685  0.409079
   scf:    2     -923.587570     -923.699210     -923.699210  0.057722 -1.374479  0.931517
   scf:    3     -923.764494     -923.748979     -923.748979  0.038982 -1.233986  0.028146
   scf:    4     -923.749048     -923.749015     -923.749015  0.000590 -1.230756  0.019882
   scf:    5     -923.749072     -923.749046     -923.749046  0.001170 -1.225247  0.003206
   scf:    6     -923.749047     -923.749047     -923.749047  0.000188 -1.224472  0.001226
   scf:    7     -923.749047     -923.749047     -923.749047  0.000055 -1.224239  0.000551

SCF Convergence by DM+H criterion
max |DM_out - DM_in|         :     0.0000548284
max |H_out - H_in|      (eV) :     0.0005514964
SCF cycle converged after 7 iterations

Using DM_out to compute the final energy and forces
No. of atoms with KB's overlaping orbs in proc 0. Max # of overlaps:       6       8

siesta: E_KS(eV) =             -923.7490

siesta: Atomic forces (eV/Ang):
     1   -0.061966    3.618710    0.146580
     2   -2.400918   -1.821277    0.043782
     3    2.494820   -1.722177    0.155675
     4    0.080270   -3.063995   -0.213209
     5   -2.727754    1.608115    0.176613
     6    2.613961    1.360918   -0.358816
----------------------------------------
   Tot   -0.001588   -0.019706   -0.049377
----------------------------------------
   Max    3.618710
   Res    1.821622    sqrt( Sum f_i^2 / 3N )
----------------------------------------
   Max    3.618710    constrained

Stress tensor Voigt[x,y,z,yz,xz,xy] (kbar):       20.62       10.36       -0.30       -0.65       -0.77       -0.27
(Free)E + p*V (eV/cell)     -928.5079
Target enthalpy (eV/cell)     -877.2163

siesta: Stress tensor (static) (eV/Ang**3):
         0.012986   -0.000237   -0.000534
        -0.000237    0.006928   -0.000363
        -0.000534   -0.000363   -0.000118

siesta: Pressure (static):        -10.57238310  kBar

siesta: Stress tensor (total) (eV/Ang**3):
         0.012872   -0.000167   -0.000479
        -0.000168    0.006463   -0.000407
        -0.000479   -0.000407   -0.000186

siesta: Pressure (total):        -10.22684135  kBar
 Anneal: Kinetic Energy=    7.3418412255283512E-003
 Anneal: Velocity scale factor =    1.0560688926733621     
 Anneal: Cell scale factor =   0.99600308856188935     

siesta: Temp_ion =     172.376 K

                     ====================================
                        Begin MD step =      8
                     ====================================

outcoor: Atomic coordinates (Ang):                          
    0.01514933   -0.04910773   -0.00576133   1       1  O
    0.89805527    0.78483209    0.01044308   2       2  H
   -0.91276487    0.73730299   -0.03388142   2       3  H
   -0.01151801    0.04563649    2.92427879   1       4  O
    0.90331786   -0.75921173    2.81254263   2       5  H
   -0.94607561   -0.70518692    3.04581745   2       6  H

outcell: Unit cell vectors (Ang):
        9.721604    0.000000    0.000000
        0.000000    9.728360    0.000000
        0.000000    0.000000    7.778787

outcell: Cell vector modules (Ang)   :    9.721604    9.728360    7.778787
outcell: Cell angles (23,13,12) (deg):     90.0000     90.0000     90.0000
outcell: Cell volume (Ang**3)        :    735.6808
Gamma-point calculation with multiply-connected orbital pairs
Folding of H and S implicitly performed
<dSpData1D:S at geom step 8
  <sparsity:sparsity for geom step 8
    nrows_g=12 nrows=12 sparsity=1.0000 nnzs=144, refcount: 7>
  <dData1D:(new from dSpData1D) n=144, refcount: 1>
refcount: 1>
new_DM -- step:     8
Re-using DM from previous geometries...
Number of DMs in history: 1
 DM extrapolation coefficients: 
1   1.00000
New DM after history re-use:
<dSpData2D:SpM extrapolated using coords
  <sparsity:sparsity for geom step 8
    nrows_g=12 nrows=12 sparsity=1.0000 nnzs=144, refcount: 9>
  <dData2D:(temp array for extrapolation) n=144 m=1, refcount: 1>
refcount: 1>
No. of atoms with KB's overlaping orbs in proc 0. Max # of overlaps:       6       8

InitMesh: MESH = 60 x 60 x 48 = 172800
InitMesh: Mesh cutoff (required, used) =   100.000   105.130 Ry
New grid distribution [1]: sub = 2

        iscf     Eharris(eV)        E_KS(eV)     FreeEng(eV)     dDmax    Ef(eV) dHmax(eV)
   scf:    1     -923.677522     -923.998070     -923.998070  0.026210 -1.110251  0.440322
   scf:    2     -923.833211     -923.955934     -923.955934  0.059574 -0.908641  1.008849
   scf:    3     -924.027385     -924.010581     -924.010581  0.040920 -1.050458  0.043075
   scf:    4     -924.010698     -924.010641     -924.010641  0.000741 -1.052607  0.029794
   scf:    5     -924.010733     -924.010693     -924.010693  0.001617 -1.058479  0.002718
   scf:    6     -924.010694     -924.010694     -924.010694  0.000096 -1.058863  0.001504
   scf:    7     -924.010694     -924.010694     -924.010694  0.000070 -1.059039  0.000500

SCF Convergence by DM+H criterion
max |DM_out - DM_in|         :     0.0000698197
max |H_out - H_in|      (eV) :     0.0005000217
SCF cycle converged after 7 iterations

Using DM_out to compute the final energy and forces
No. of atoms with KB's overlaping orbs in proc 0. Max # of overlaps:       6       8

siesta: E_KS(eV) =             -924.0107

siesta: Atomic forces (eV/Ang):
     1   -0.083048    3.451590    0.170716
     2   -2.024121   -1.736125    0.044951
     3    2.141310   -1.653346    0.155343
     4    0.191777   -2.985109   -0.251642
     5   -2.433757    1.625057    0.183262
     6    2.213000    1.275079   -0.350436
----------------------------------------
   Tot    0.005160   -0.022854   -0.047806
----------------------------------------
   Max    3.451590
   Res    1.677633    sqrt( Sum f_i^2 / 3N )
----------------------------------------
   Max    3.451590    constrained

Stress tensor Voigt[x,y,z,yz,xz,xy] (kbar):       17.40       10.68       -0.18       -0.63       -0.89       -0.58
(Free)E + p*V (eV/cell)     -928.2797
Target enthalpy (eV/cell)     -878.0931

siesta: Stress tensor (static) (eV/Ang**3):
         0.010959   -0.000399   -0.000525
        -0.000400    0.006808   -0.000352
        -0.000525   -0.000352   -0.000058

siesta: Pressure (static):         -9.45750432  kBar

siesta: Stress tensor (total) (eV/Ang**3):
         0.010859   -0.000365   -0.000557
        -0.000365    0.006664   -0.000391
        -0.000557   -0.000391   -0.000115

siesta: Pressure (total):         -9.29720575  kBar
 Anneal: Kinetic Energy=    2.2691233916401817E-002
 Anneal: Velocity scale factor =    1.0051079366085998     
 Anneal: Cell scale factor =   0.99599847792229701     

siesta: Temp_ion =     482.581 K

                     ====================================
                        Begin MD step =      9
                     ====================================

outcoor: Atomic coordinates (Ang):                          
    0.01739509   -0.05041635   -0.00632120   1       1  O
    0.84983922    0.76597422    0.01444170   2       2  H
   -0.86520084    0.71496048   -0.03331030   2       3  H
   -0.01340276    0.04777517    2.91326070   1       4  O
    0.84848262   -0.74750387    2.78882534   2       5  H
   -0.89625288   -0.68874670    3.04206195   2       6  H

outcell: Unit cell vectors (Ang):
        9.676240    0.000000    0.000000
        0.000000    9.685150    0.000000
        0.000000    0.000000    7.747660

outcell: Cell vector modules (Ang)   :    9.676240    9.685150    7.747660
outcell: Cell angles (23,13,12) (deg):     90.0000     90.0000     90.0000
outcell: Cell volume (Ang**3)        :    726.0784
Gamma-point calculation with multiply-connected orbital pairs
Folding of H and S implicitly performed
<dSpData1D:S at geom step 9
  <sparsity:sparsity for geom step 9
    nrows_g=12 nrows=12 sparsity=1.0000 nnzs=144, refcount: 7>
  <dData1D:(new from dSpData1D) n=144, refcount: 1>
refcount: 1>
new_DM -- step:     9
Re-using DM from previous geometries...
Number of DMs in history: 1
 DM extrapolation coefficients: 
1   1.00000
New DM after history re-use:
<dSpData2D:SpM extrapolated using coords
  <sparsity:sparsity for geom step 9
    nrows_g=12 nrows=12 sparsity=1.0000 nnzs=144, refcount: 9>
  <dData2D:(temp array for extrapolation) n=144 m=1, refcount: 1>
refcount: 1>
Note: For starting DM, Qtot, Tr[D*S] =         16.00000000         16.03479784
No. of atoms with KB's overlaping orbs in proc 0. Max # of overlaps:       6       8

InitMesh: MESH = 60 x 60 x 48 = 172800
InitMesh: Mesh cutoff (required, used) =   100.000   106.070 Ry
New grid distribution [1]: sub = 2

        iscf     Eharris(eV)        E_KS(eV)     FreeEng(eV)     dDmax    Ef(eV) dHmax(eV)
   scf:    1     -923.458410     -924.385797     -924.385797  0.074511 -3.871009  1.046440
   scf:    2     -923.616819     -924.198752     -924.198752  0.130311 -0.218758  2.142303
   scf:    3     -924.541442     -924.457808     -924.457808  0.087163 -3.703706  0.102341
   scf:    4     -924.458379     -924.458104     -924.458104  0.002024 -3.709914  0.070257
   scf:    5     -924.458537     -924.458344     -924.458344  0.003892 -3.727429  0.011543
   scf:    6     -924.458353     -924.458350     -924.458350  0.000419 -3.731559  0.003679
   scf:    7     -924.458350     -924.458350     -924.458350  0.000104 -3.732461  0.002144
   scf:    8     -924.458350     -924.458350     -924.458350  0.000049 -3.732511  0.001470
   scf:    9     -924.458350     -924.458350     -924.458350  0.000072 -3.732492  0.000431

SCF Convergence by DM+H criterion
max |DM_out - DM_in|         :     0.0000723528
max |H_out - H_in|      (eV) :     0.0004305314
SCF cycle converged after 9 iterations

Using DM_out to compute the final energy and forces
No. of atoms with KB's overlaping orbs in proc 0. Max # of overlaps:       6       8

siesta: E_KS(eV) =             -924.4584

siesta: Atomic forces (eV/Ang):
     1   -0.086514    2.661413    0.191773
     2   -1.196197   -1.315767    0.062989
     3    1.314721   -1.282545    0.142819
     4    0.348199   -2.340561   -0.293303
     5   -1.702570    1.355341    0.114177
     6    1.328973    0.902706   -0.264726
----------------------------------------
   Tot    0.006612   -0.019412   -0.046271
----------------------------------------
   Max    2.661413
   Res    1.219577    sqrt( Sum f_i^2 / 3N )
----------------------------------------
   Max    2.661413    constrained

Stress tensor Voigt[x,y,z,yz,xz,xy] (kbar):        9.35        8.26       -0.05       -0.57       -0.71       -0.89
(Free)E + p*V (eV/cell)     -927.1123
Target enthalpy (eV/cell)     -879.1401

siesta: Stress tensor (static) (eV/Ang**3):
         0.006574   -0.000567   -0.000347
        -0.000567    0.005228   -0.000339
        -0.000347   -0.000339    0.000015

siesta: Pressure (static):         -6.31093289  kBar

siesta: Stress tensor (total) (eV/Ang**3):
         0.005838   -0.000554   -0.000444
        -0.000554    0.005157   -0.000354
        -0.000444   -0.000354   -0.000029

siesta: Pressure (total):         -5.85633893  kBar
 Anneal: Kinetic Energy=    5.0351530278810126E-002
 Anneal: Velocity scale factor =   0.99128293503357090     
 Anneal: Cell scale factor =   0.99599295081198114     

siesta: Temp_ion =    1041.584 K

                     ====================================
                        Begin MD step =     10
                     ====================================

outcoor: Atomic coordinates (Ang):                          
    0.01953450   -0.05010758   -0.00675214   1       1  O
    0.79178845    0.73518904    0.01893316   2       2  H
   -0.80666884    0.68109443   -0.03140088   2       3  H
   -0.01503393    0.04846580    2.90208136   1       4  O
    0.77920219   -0.72330840    2.76653291   2       5  H
   -0.83539416   -0.66421735    3.03562266   2       6  H

outcell: Unit cell vectors (Ang):
        9.634349    0.000000    0.000000
        0.000000    9.643221    0.000000
        0.000000    0.000000    7.716615

outcell: Cell vector modules (Ang)   :    9.634349    9.643221    7.716615
outcell: Cell angles (23,13,12) (deg):     90.0000     90.0000     90.0000
outcell: Cell volume (Ang**3)        :    716.9210
Gamma-point calculation with multiply-connected orbital pairs
Folding of H and S implicitly performed
<dSpData1D:S at geom step 10
  <sparsity:sparsity for geom step 10
    nrows_g=12 nrows=12 sparsity=1.0000 nnzs=144, refcount: 7>
  <dData1D:(new from dSpData1D) n=144, refcount: 1>
refcount: 1>
new_DM -- step:    10
Re-using DM from previous geometries...
Number of DMs in history: 1
 DM extrapolation coefficients: 
1   1.00000
New DM after history re-use:
<dSpData2D:SpM extrapolated using coords
  <sparsity:sparsity for geom step 10
    nrows_g=12 nrows=12 sparsity=1.0000 nnzs=144, refcount: 9>
  <dData2D:(temp array for extrapolation) n=144 m=1, refcount: 1>
refcount: 1>
Note: For starting DM, Qtot, Tr[D*S] =         16.00000000         16.03656975
No. of atoms with KB's overlaping orbs in proc 0. Max # of overlaps:       6       8

InitMesh: MESH = 60 x 60 x 48 = 172800
InitMesh: Mesh cutoff (required, used) =   100.000   106.938 Ry
New grid distribution [1]: sub = 2

        iscf     Eharris(eV)        E_KS(eV)     FreeEng(eV)     dDmax    Ef(eV) dHmax(eV)
   scf:    1     -923.199639     -924.620753     -924.620753  0.105328 -3.402191  1.304952
   scf:    2     -923.784384     -924.438010     -924.438010  0.144068 -2.738222  2.300883
   scf:    3     -924.833741     -924.730636     -924.730636  0.091952 -3.174845  0.130205
   scf:    4     -924.731482     -924.731075     -924.731075  0.002644 -3.182975  0.090167
   scf:    5     -924.731712     -924.731430     -924.731430  0.005287 -3.206254  0.017503
   scf:    6     -924.731449     -924.731441     -924.731441  0.000557 -3.212034  0.006293
   scf:    7     -924.731443     -924.731442     -924.731442  0.000157 -3.213993  0.003336
   scf:    8     -924.731443     -924.731442     -924.731442  0.000075 -3.214025  0.002287
   scf:    9     -924.731443     -924.731443     -924.731443  0.000114 -3.213932  0.000636
   scf:   10     -924.731443     -924.731443     -924.731443  0.000034 -3.213844  0.000182

SCF Convergence by DM+H criterion
max |DM_out - DM_in|         :     0.0000337292
max |H_out - H_in|      (eV) :     0.0001819198
SCF cycle converged after 10 iterations

Using DM_out to compute the final energy and forces
No. of atoms with KB's overlaping orbs in proc 0. Max # of overlaps:       6       8

siesta: E_KS(eV) =             -924.7314

siesta: Atomic forces (eV/Ang):
     1   -0.035873    0.979539    0.202565
     2    0.232418   -0.418574    0.112553
     3   -0.160742   -0.479946    0.109795
     4    0.499536   -0.873861   -0.323331
     5   -0.354885    0.639445   -0.091899
     6   -0.177565    0.138823   -0.049763
----------------------------------------
   Tot    0.002889   -0.014574   -0.040080
----------------------------------------
   Max    0.979539
   Res    0.423361    sqrt( Sum f_i^2 / 3N )
----------------------------------------
   Max    0.979539    constrained

Stress tensor Voigt[x,y,z,yz,xz,xy] (kbar):       -2.93        2.49        0.08       -0.54       -0.11       -0.98
(Free)E + p*V (eV/cell)     -924.6774
Target enthalpy (eV/cell)     -879.9848

siesta: Stress tensor (static) (eV/Ang**3):
        -0.000240   -0.000642    0.000053
        -0.000642    0.001794   -0.000358
         0.000053   -0.000358    0.000082

siesta: Pressure (static):         -0.87359890  kBar

siesta: Stress tensor (total) (eV/Ang**3):
        -0.001831   -0.000613   -0.000071
        -0.000613    0.001555   -0.000337
        -0.000071   -0.000337    0.000050

siesta: Pressure (total):          0.12069038  kBar
 Anneal: Kinetic Energy=    6.4464519919830598E-002
 Anneal: Velocity scale factor =   0.98877952823130433     
 Anneal: Cell scale factor =   0.99598847645908806     

siesta: Temp_ion =    1326.802 K

siesta: Program's energy decomposition (eV):
siesta: Ebs     =      -183.488924
siesta: Eions   =      1631.696139
siesta: Ena     =       349.761405
siesta: Ekin    =       692.773298
siesta: Enl     =      -112.354681
siesta: Eso     =         0.000000
siesta: Edftu   =         0.000000
siesta: DEna    =        -4.956810
siesta: DUscf   =         3.188009
siesta: DUext   =         0.000000
siesta: Ex      =      -196.540060
siesta: Ec      =       -24.906464
siesta: Exc     =      -221.446524
siesta: EbV     =         0.000000
siesta: eta*DQ  =         0.000000
siesta: Emadel  =         0.000000
siesta: Emeta   =         0.000000
siesta: Emolmec =         0.000000
siesta: Ekinion =         0.857512
siesta: Eharris =      -923.873930
siesta: Etot    =      -923.873930
siesta: FreeEng =      -923.873930

siesta: Final energy (eV):
siesta:  Band Struct. =    -183.488924
siesta:       Kinetic =     692.773298
siesta:       Hartree =     925.909239
siesta:         Edftu =       0.000000
siesta:       Eso     =       0.000000
siesta:    Ext. field =       0.000000
siesta:         Exch. =    -196.540060
siesta:         Corr. =     -24.906464
siesta:     Bulk bias =       0.000000
siesta:   Exch.-corr. =    -221.446524
siesta:  Ion-electron =   -2437.953602
siesta:       Ion-ion =     115.986146
siesta:       Ekinion =       0.857512
siesta: D3 dispersion =       0.000000
siesta:         Total =    -923.873930
siesta:         Fermi =      -3.213844

siesta: Atomic forces (eV/Ang):
siesta:      1   -0.035873    0.979539    0.202565
siesta:      2    0.232418   -0.418574    0.112553
siesta:      3   -0.160742   -0.479946    0.109795
siesta:      4    0.499536   -0.873861   -0.323331
siesta:      5   -0.354885    0.639445   -0.091899
siesta:      6   -0.177565    0.138823   -0.049763
siesta: ----------------------------------------
siesta:    Tot    0.002889   -0.014574   -0.040080

siesta: Stress tensor (static) (eV/Ang**3):
siesta:    -0.000240   -0.000642    0.000053
siesta:    -0.000642    0.001794   -0.000358
siesta:     0.000053   -0.000358    0.000082

siesta: Cell volume =        716.920979 Ang**3

siesta: Pressure (static):
siesta:                Solid            Molecule  Units
siesta:          -0.00000594          0.00000617  Ry/Bohr**3
siesta:          -0.00054526          0.00056676  eV/Ang**3
siesta:          -0.87359890          0.90805520  kBar
(Free)E+ p_basis*V_orbitals  =        -924.232055
(Free)Eharris+ p_basis*V_orbitals  =        -924.232055

siesta: Electric dipole (a.u.)  =   -0.049836    0.011613   -0.000000
siesta: Electric dipole (Debye) =   -0.126671    0.029519   -0.000000

cite: Please see "anneal_pt.bib" for an exhaustive BiBTeX file.
cite: Please clearly indicate Siesta version in published work: 5.0.0-alpha-120-g24fa496ce-dirty
cite: This calculation has made use of the following articles
cite: which are encouraged to be cited in a published work.
        Primary SIESTA paper
          DOI: www.doi.org/10.1088/0953-8984/14/11/302


timer: Elapsed wall time (sec) =       1.524
timer: CPU execution times (sec):

Routine            Calls   Time/call    Tot.time        %
siesta                 1       1.524       1.524   100.00
Setup                  1       0.031       0.031     2.04
bands                  1       0.000       0.000     0.00
KSV_init               1       0.000       0.000     0.00
IterGeom              10       0.149       1.493    97.94
geom_init             10       0.027       0.272    17.86
state_init            10       0.000       0.005     0.30
hsparse               10       0.000       0.000     0.02
overlap               10       0.000       0.002     0.15
Setup_H0              10       0.015       0.153    10.04
naefs                 20       0.000       0.001     0.04
MolMec                20       0.000       0.000     0.00
kinefsm               20       0.000       0.002     0.14
nlefsm                20       0.001       0.014     0.91
DHSCF_Init            10       0.014       0.138     9.02
DHSCF1                10       0.002       0.020     1.30
INITMESH              10       0.000       0.000     0.00
DHSCF2                10       0.012       0.118     7.72
REMESH                10       0.000       0.004     0.27
REORD                288       0.000       0.037     2.42
PHION                 10       0.004       0.036     2.37
COMM_BSC             446       0.000       0.046     3.03
POISON               114       0.005       0.543    35.65
fft                  228       0.002       0.427    28.00
setup_H               94       0.012       1.088    71.37
DHSCF                104       0.013       1.314    86.24
DHSCF3               104       0.012       1.197    78.54
rhoofd               104       0.000       0.048     3.16
XC                   104       0.004       0.429    28.13
GXC-CellXC           104       0.004       0.389    25.51
vmat                 104       0.000       0.041     2.69
IterSCF               84       0.012       0.982    64.42
compute_dm            84       0.000       0.004     0.26
diagon                84       0.000       0.004     0.24
r-eigvec              84       0.000       0.003     0.19
r-buildHS             84       0.000       0.000     0.01
rdiag                 84       0.000       0.003     0.18
rdiag1                84       0.000       0.000     0.02
rdiag2                84       0.000       0.000     0.02
rdiag3                84       0.000       0.001     0.09
rdiag4                84       0.000       0.000     0.02
r-buildD              84       0.000       0.000     0.02
MIXER                 74       0.000       0.001     0.04
PostSCF               10       0.023       0.235    15.40
DHSCF4                10       0.012       0.117     7.69
dfscf                 10       0.008       0.081     5.30
overfsm               10       0.000       0.000     0.02
state_analysis        10       0.000       0.001     0.07
siesta_move           10       0.000       0.002     0.12
Analysis               1       0.000       0.000     0.01
optical                1       0.000       0.000     0.00
  

>> End of run:  25-SEP-2023   9:45:39
Job completed
