Siesta Version  : 5.0.0-alpha-120-g24fa496ce-dirty
Architecture    : ----
Compiler version: GNU-11.4.0
Compiler flags  : -fallow-argument-mismatch;-O3 -march=native
PP flags        : ----
Libraries       : ----
Parallelisations: none
GEMM3M support
NetCDF support
NetCDF-4 support
Lua support

Runtime information:
* Directory : /home/fnpedron/Siesta/siesta-dev/Tests/09.MolecularDynamics/work/nose_half_restart
* Running in serial mode.
>> Start of run:  25-SEP-2023   9:46:03

                           *********************** 
                           *  WELCOME TO SIESTA  * 
                           *********************** 

reinit: Reading from standard input
reinit: Dumping input in INPUT_TMP.12964
************************** Dump of input data file ****************************
%include ../../basejob.fdf
SystemLabel           nose
MD.TypeOfRun          Nose
MD.InitialTemperature 100 K
MD.TargetTemperature  600 K
************************** End of input data file *****************************

reinit: -----------------------------------------------------------------------
reinit: System Name: Water molecules MD
reinit: -----------------------------------------------------------------------
reinit: System Label: nose
reinit: -----------------------------------------------------------------------

initatom: Reading input for the pseudopotentials and atomic orbitals ----------
Species number:   1 Atomic number:    8 Label: O
Species number:   2 Atomic number:    1 Label: H


---- Processing specs for species: O
Ground state valence configuration:   2s02  2p04
Reading pseudopotential information in formatted form from:
  /home/fnpedron/Siesta/siesta-dev/Tests/Pseudos/O.psf

---- Processing specs for species: H
Ground state valence configuration:   1s01
Reading pseudopotential information in formatted form from:
  /home/fnpedron/Siesta/siesta-dev/Tests/Pseudos/H.psf

---- Pseudopotential check for O 

Pseudized shells:
2s( 2.00) rc: 1.14
2p( 4.00) rc: 1.14
3d( 0.00) rc: 1.14
4f( 0.00) rc: 1.14
Valence configuration for ps generation: (assumed as above)

---- Pseudopotential check for H 

Pseudized shells:
1s( 1.00) rc: 1.25
2p( 0.00) rc: 1.25
3d( 0.00) rc: 1.25
4f( 0.00) rc: 1.25
Valence configuration for ps generation: (assumed as above)
For O, standard SIESTA heuristics set lmxkb to 2
 (one more than the basis l, including polarization orbitals).
Use PS.lmax or PS.KBprojectors blocks to override.
For H, standard SIESTA heuristics set lmxkb to 1
 (one more than the basis l, including polarization orbitals).
Use PS.lmax or PS.KBprojectors blocks to override.

<basis_specs>
===============================================================================
O                    Z=   8    Mass=  15.999        Charge= 0.17977+309
Lmxo=1 Lmxkb= 2    BasisType=split      Semic=F
L=0  Nsemic=0  Cnfigmx=2
          i=1  nzeta=1  polorb=0  (2s)
            splnorm:   0.15000    
               vcte:    0.0000    
               rinn:    0.0000    
               qcoe:    0.0000    
               qyuk:    0.0000    
               qwid:   0.10000E-01
                rcs:    0.0000    
            lambdas:    1.0000    
L=1  Nsemic=0  Cnfigmx=2
          i=1  nzeta=1  polorb=0  (2p)
            splnorm:   0.15000    
               vcte:    0.0000    
               rinn:    0.0000    
               qcoe:    0.0000    
               qyuk:    0.0000    
               qwid:   0.10000E-01
                rcs:    0.0000    
            lambdas:    1.0000    
-------------------------------------------------------------------------------
L=0  Nkbl=1  erefs: 0.17977+309
L=1  Nkbl=1  erefs: 0.17977+309
L=2  Nkbl=1  erefs: 0.17977+309
===============================================================================
</basis_specs>

atom: Called for O                     (Z =   8)

read_vps: Pseudopotential generation method:
read_vps: ATM3      Troullier-Martins                       
Valence charge in pseudo generation:    6.00000

xc_check: Exchange-correlation functional:
xc_check: Ceperley-Alder
V l=0 = -2*Zval/r beyond r=  1.1278
V l=1 = -2*Zval/r beyond r=  1.1278
V l=2 = -2*Zval/r beyond r=  1.1278
All V_l potentials equal beyond r=  1.1278
This should be close to max(r_c) in ps generation
All pots = -2*Zval/r beyond r=  1.1278
Using small-core scheme (local charge) for Vlocal

VLOCAL_FROM_CHLOCAL: 99.0% of the norm of Vloc inside     34.126 Ry
VLOCAL_FROM_CHLOCAL: 99.9% of the norm of Vloc inside     77.774 Ry
atom: Maximum radius for chlocal:    1.37759
atom: Maximum radius for r*vlocal+2*Zval:    1.24646

KBgen: Kleinman-Bylander projectors: 
GHOST: No ghost state for L =  0
   l= 0   rc=  1.294105   el= -1.742414   Ekb=  9.135903   kbcos=  0.326910
GHOST: No ghost state for L =  1
   l= 1   rc=  1.294105   el= -0.676589   Ekb= -8.124878   kbcos= -0.395047
GHOST: No ghost state for L =  2
   l= 2   rc=  1.448233   el=  0.002386   Ekb= -2.039267   kbcos= -0.003484

KBgen: Total number of Kleinman-Bylander projectors:   9
atom: -------------------------------------------------------------------------

atom: SANKEY-TYPE ORBITALS:

SPLIT: Orbitals with angular momentum L= 0

SPLIT: Basis orbitals for state 2s

SPLIT: PAO cut-off radius determined from an
SPLIT: energy shift=  0.020000 Ry

   izeta = 1
                 lambda =    1.000000
                     rc =    3.305093
                 energy =   -1.723766
                kinetic =    1.614911
    potential(screened) =   -3.338677
       potential(ionic) =  -11.304675

SPLIT: Orbitals with angular momentum L= 1

SPLIT: Basis orbitals for state 2p

SPLIT: PAO cut-off radius determined from an
SPLIT: energy shift=  0.020000 Ry

   izeta = 1
                 lambda =    1.000000
                     rc =    3.937239
                 energy =   -0.658841
                kinetic =    5.005986
    potential(screened) =   -5.664827
       potential(ionic) =  -13.452360
atom: Total number of Sankey-type orbitals:  4

atm_pop: Valence configuration (for local Pseudopot. screening):
 2s( 2.00)                                                            
 2p( 4.00)                                                            
Vna: chval, zval:    6.00000   6.00000

Vna:  Cut-off radius for the neutral-atom potential:   3.937239

atom: _________________________________________________________________________

<basis_specs>
===============================================================================
H                    Z=   1    Mass=  1.0080        Charge= 0.17977+309
Lmxo=0 Lmxkb= 1    BasisType=split      Semic=F
L=0  Nsemic=0  Cnfigmx=1
          i=1  nzeta=1  polorb=0  (1s)
            splnorm:   0.15000    
               vcte:    0.0000    
               rinn:    0.0000    
               qcoe:    0.0000    
               qyuk:    0.0000    
               qwid:   0.10000E-01
                rcs:    0.0000    
            lambdas:    1.0000    
-------------------------------------------------------------------------------
L=0  Nkbl=1  erefs: 0.17977+309
L=1  Nkbl=1  erefs: 0.17977+309
===============================================================================
</basis_specs>

atom: Called for H                     (Z =   1)

read_vps: Pseudopotential generation method:
read_vps: ATM3      Troullier-Martins                       
Valence charge in pseudo generation:    1.00000

xc_check: Exchange-correlation functional:
xc_check: Ceperley-Alder
V l=0 = -2*Zval/r beyond r=  1.2343
V l=1 = -2*Zval/r beyond r=  1.2189
All V_l potentials equal beyond r=  1.2343
This should be close to max(r_c) in ps generation
All pots = -2*Zval/r beyond r=  1.2343
Using small-core scheme (local charge) for Vlocal

VLOCAL_FROM_CHLOCAL: 99.0% of the norm of Vloc inside     28.493 Ry
VLOCAL_FROM_CHLOCAL: 99.9% of the norm of Vloc inside     64.935 Ry
atom: Maximum radius for chlocal:    1.45251
atom: Maximum radius for r*vlocal+2*Zval:    1.31405

KBgen: Kleinman-Bylander projectors: 
GHOST: No ghost state for L =  0
   l= 0   rc=  1.364359   el= -0.467325   Ekb= -2.005361   kbcos= -0.336422
GHOST: No ghost state for L =  1
   l= 1   rc=  1.434438   el=  0.001430   Ekb= -0.501708   kbcos= -0.021697

KBgen: Total number of Kleinman-Bylander projectors:   4
atom: -------------------------------------------------------------------------

atom: SANKEY-TYPE ORBITALS:

SPLIT: Orbitals with angular momentum L= 0

SPLIT: Basis orbitals for state 1s

SPLIT: PAO cut-off radius determined from an
SPLIT: energy shift=  0.020000 Ry

   izeta = 1
                 lambda =    1.000000
                     rc =    4.828263
                 energy =   -0.449375
                kinetic =    0.929372
    potential(screened) =   -1.378747
       potential(ionic) =   -1.915047
atom: Total number of Sankey-type orbitals:  1

atm_pop: Valence configuration (for local Pseudopot. screening):
 1s( 1.00)                                                            
Vna: chval, zval:    1.00000   1.00000

Vna:  Cut-off radius for the neutral-atom potential:   4.828263

atom: _________________________________________________________________________

prinput: Basis input 

PAO.BasisType split     

%block ChemicalSpeciesLabel
    1    8 O                       # Species index, atomic number, species label
    2    1 H                       # Species index, atomic number, species label
%endblock ChemicalSpeciesLabel

%block PAO.Basis                 # Define Basis set
# WARNING: This information might be incomplete!
O                     2                    # Species label, number of l-shells
 n=2   0   1                         # n, l, Nzeta 
   3.305   
   1.000   
 n=2   1   1                         # n, l, Nzeta 
   3.937   
   1.000   
H                     1                    # Species label, number of l-shells
 n=1   0   1                         # n, l, Nzeta 
   4.828   
   1.000   
%endblock PAO.Basis

prinput: ----------------------------------------------------------------------

Dumping basis to NetCDF file O.ion.nc
Dumping basis to NetCDF file H.ion.nc
coor:   Atomic-coordinates input format  =     Cartesian coordinates
coor:                                          (in Angstroms)

ioxv: Reading coordinates and velocities from file
! Info in XV file prevails over previous structure input
WARNING: nose.NOSE_RESTART not found--reading only XV file and moving back 1 time step using Euler

siesta: Atomic coordinates (Bohr) and species
siesta:      0.03211  -0.08628  -0.01186  1        1
siesta:      1.51819   1.39471   0.03501  2        2
siesta:     -1.54048   1.30616  -0.04713  2        3
siesta:     -0.02430   0.08313   5.72570  1        4
siesta:      1.49514  -1.36834   5.46426  2        5
siesta:     -1.59455  -1.27833   5.90392  2        6

siesta: System type = chain     

initatomlists: Number of atoms, orbitals, and projectors:      6    12    34

siesta: ******************** Simulation parameters ****************************
siesta:
siesta: The following are some of the parameters of the simulation.
siesta: A complete list of the parameters used, including default values,
siesta: can be found in file out.fdf
siesta:
redata: Spin configuration                          = none
redata: Number of spin components                   = 1
redata: Time-Reversal Symmetry                      = T
redata: Spin spiral                                 = F
redata: Long output                                 =   F
redata: Number of Atomic Species                    =        2
redata: Charge density info will appear in .RHO file
redata: Write Mulliken Pop.                         = NO
redata: Matel table size (NRTAB)                    =     1024
redata: Mesh Cutoff                                 =   100.0000 Ry
redata: Net charge of the system                    =     0.0000 |e|
redata: Min. number of SCF Iter                     =        0
redata: Max. number of SCF Iter                     =     1000
redata: SCF convergence failure will abort job
redata: SCF mix quantity                            = Hamiltonian
redata: Mix DM or H after convergence               =   F
redata: Recompute H after scf cycle                 =   F
redata: Mix DM in first SCF step                    =   T
redata: Write Pulay info on disk                    =   F
redata: New DM Occupancy tolerance                  = 0.000000000001
redata: No kicks to SCF
redata: DM Mixing Weight for Kicks                  =     0.5000
redata: Require Harris convergence for SCF          =   F
redata: Harris energy tolerance for SCF             =     0.000100 eV
redata: Require DM convergence for SCF              =   T
redata: DM tolerance for SCF                        =     0.000100
redata: Require EDM convergence for SCF             =   F
redata: EDM tolerance for SCF                       =     0.001000 eV
redata: Require H convergence for SCF               =   T
redata: Hamiltonian tolerance for SCF               =     0.001000 eV
redata: Require (free) Energy convergence for SCF   =   F
redata: (free) Energy tolerance for SCF             =     0.000100 eV
redata: Using DFT-D3 dispersion                     =   F
redata: Using Saved Data (generic)                  =   F
redata: Use continuation files for DM               =   F
redata: Neglect nonoverlap interactions             =   F
redata: Method of Calculation                       = Diagonalization
redata: Electronic Temperature                      =   299.9863 K
redata: Fix the spin of the system                  =   F
redata: Max. number of TDED Iter                    =        1
redata: Number of TDED substeps                     =        3
redata: Dynamics option                             = Nose thermostat MD run
redata: Initial MD time step                        =        1
redata:   Final MD time step                        =       10
redata: Length of MD time step                      =     1.0000 fs
redata: Initial Temperature of MD run               =   100.0000 K
redata: Perform a MD quench                         =   F
redata: Nose mass                                   =  1360.5693 eV*fs**2
redata: Target Temperature                          =   600.0000 Kelvin
mix.SCF: Pulay mixing                            = Pulay
mix.SCF:    Variant                              = stable
mix.SCF:    History steps                        = 2
mix.SCF:    Linear mixing weight                 =     0.250000
mix.SCF:    Mixing weight                        =     0.250000
mix.SCF:    SVD condition                        = 0.1000E-07
redata: Save all siesta data in one NC              =   F
redata: ***********************************************************************

%block SCF.Mixers
  Pulay
%endblock SCF.Mixers

%block SCF.Mixer.Pulay
  # Mixing method
  method pulay
  variant stable

  # Mixing options
  weight 0.2500
  weight.linear 0.2500
  history 2
%endblock SCF.Mixer.Pulay

Size of DM history Fstack: 1
Total number of electrons:    16.000000
Total ionic charge:    16.000000

siesta: k-grid: Number of k-points = 1
siesta: k-point is Gamma-only

diag: Algorithm                                     = D&C
diag: Used triangular part                          = Lower
diag: Absolute tolerance                            =  0.100E-15
diag: Orthogonalization factor                      =  0.100E-05
diag: Memory factor                                 =  1.0000


ts: **************************************************************
ts: Save H and S matrices                           =    F
ts: Save DM and EDM matrices                        =    F
ts: Only save the overlap matrix S                  =    F
ts: **************************************************************

************************ Begin: TS CHECKS AND WARNINGS ************************
************************ End: TS CHECKS AND WARNINGS **************************


                     ====================================
                        Begin MD step =      1
                     ====================================

outcoor: Atomic coordinates (Ang):                          
    0.01699180   -0.04565924   -0.00627349   1       1  O
    0.80339213    0.73804815    0.01852666   2       2  H
   -0.81518681    0.69118866   -0.02493929   2       3  H
   -0.01286072    0.04399126    3.02990933   1       4  O
    0.79119334   -0.72409220    2.89156324   2       5  H
   -0.84380040   -0.67646455    3.12422254   2       6  H

outcell: Unit cell vectors (Ang):
       10.000004    0.000000    0.000000
        0.000000   10.000004    0.000000
        0.000000    0.000000    8.000003

outcell: Cell vector modules (Ang)   :   10.000004   10.000004    8.000003
outcell: Cell angles (23,13,12) (deg):     90.0000     90.0000     90.0000
outcell: Cell volume (Ang**3)        :    800.0010
Gamma-point calculation with multiply-connected orbital pairs
Folding of H and S implicitly performed
<dSpData1D:S at geom step 1
  <sparsity:sparsity for geom step 1
    nrows_g=12 nrows=12 sparsity=1.0000 nnzs=144, refcount: 7>
  <dData1D:(new from dSpData1D) n=144, refcount: 1>
refcount: 1>
new_DM -- step:     1
Initializing Density Matrix...
DM filled with atomic data:
<dSpData2D:DM initialized from atoms
  <sparsity:sparsity for geom step 1
    nrows_g=12 nrows=12 sparsity=1.0000 nnzs=144, refcount: 8>
  <dData2D:DM n=144 m=1, refcount: 1>
refcount: 1>
No. of atoms with KB's overlaping orbs in proc 0. Max # of overlaps:       6       8

InitMesh: MESH = 64 x 64 x 50 = 204800
InitMesh: Mesh cutoff (required, used) =   100.000   107.960 Ry
New grid distribution [1]: sub = 2

stepf: Fermi-Dirac step function

siesta: Program's energy decomposition (eV):
siesta: Ebs     =      -135.970204
siesta: Eions   =      1631.696139
siesta: Ena     =       349.816853
siesta: Ekin    =       735.210753
siesta: Enl     =      -126.998956
siesta: Eso     =         0.000000
siesta: Edftu   =         0.000000
siesta: DEna    =       -27.368954
siesta: DUscf   =         6.545168
siesta: DUext   =         0.000000
siesta: Ex      =      -202.970034
siesta: Ec      =       -25.222233
siesta: Exc     =      -228.192267
siesta: EbV     =         0.000000
siesta: eta*DQ  =         0.000000
siesta: Emadel  =         0.000000
siesta: Emeta   =         0.000000
siesta: Emolmec =         0.000000
siesta: Ekinion =         0.000000
siesta: Eharris =      -921.447185
siesta: Etot    =      -922.683542
siesta: FreeEng =      -922.683542

        iscf     Eharris(eV)        E_KS(eV)     FreeEng(eV)     dDmax    Ef(eV) dHmax(eV)
   scf:    1     -921.447185     -922.683542     -922.683542  0.663778 -4.332846  6.594029
timer: Routine,Calls,Time,% = IterSCF        1       0.014  14.53
   scf:    2     -925.556448     -924.333967     -924.333967  0.140796 -3.604187  2.893653
   scf:    3     -924.811215     -924.682664     -924.682664  0.096030 -3.145846  0.764040
   scf:    4     -924.709815     -924.696628     -924.696628  0.011731 -3.201758  0.533660
   scf:    5     -924.717765     -924.708144     -924.708144  0.024984 -3.291321  0.127865
   scf:    6     -924.708485     -924.708330     -924.708330  0.003199 -3.292305  0.071012
   scf:    7     -924.708319     -924.708329     -924.708329  0.001548 -3.289454  0.026037
   scf:    8     -924.708337     -924.708333     -924.708333  0.000141 -3.286836  0.013772
   scf:    9     -924.708349     -924.708341     -924.708341  0.000437 -3.282525  0.008419
   scf:   10     -924.708345     -924.708343     -924.708343  0.000209 -3.281537  0.005273
   scf:   11     -924.708345     -924.708344     -924.708344  0.000231 -3.280654  0.004306
   scf:   12     -924.708344     -924.708344     -924.708344  0.000047 -3.280642  0.003313
   scf:   13     -924.708344     -924.708344     -924.708344  0.000058 -3.280770  0.001230
   scf:   14     -924.708344     -924.708344     -924.708344  0.000006 -3.280899  0.000598

SCF Convergence by DM+H criterion
max |DM_out - DM_in|         :     0.0000060632
max |H_out - H_in|      (eV) :     0.0005978766
SCF cycle converged after 14 iterations

Using DM_out to compute the final energy and forces
No. of atoms with KB's overlaping orbs in proc 0. Max # of overlaps:       6       8

siesta: E_KS(eV) =             -924.7083

siesta: E_KS - E_eggbox =      -924.7083

siesta: Atomic forces (eV/Ang):
     1   -0.029270    1.183451    0.205148
     2   -0.018151   -0.552736    0.082989
     3    0.076683   -0.578971    0.092641
     4    0.378731   -1.031138    0.320710
     5   -0.471628    0.680119   -0.031851
     6    0.072936    0.287882   -0.069444
----------------------------------------
   Tot    0.009301   -0.011394    0.600193
----------------------------------------
   Max    1.183451
   Res    0.482728    sqrt( Sum f_i^2 / 3N )
----------------------------------------
   Max    1.183451    constrained

Stress tensor Voigt[x,y,z,yz,xz,xy] (kbar):       -2.72        2.13       -0.03       -0.31       -0.16       -0.58
(Free)E + p*V (eV/cell)     -924.6063
Target enthalpy (eV/cell)     -924.7083

siesta: Stress tensor (static) (eV/Ang**3):
         0.000678   -0.000433   -0.000020
        -0.000433    0.001985   -0.000249
        -0.000020   -0.000249    0.000052

siesta: Pressure (static):         -1.44976115  kBar

siesta: Stress tensor (total) (eV/Ang**3):
        -0.001697   -0.000362   -0.000098
        -0.000362    0.001331   -0.000192
        -0.000098   -0.000192   -0.000016

siesta: Pressure (total):          0.20440310  kBar

siesta: Temp_ion =    1929.661 K

                     ====================================
                        Begin MD step =      2
                     ====================================

outcoor: Atomic coordinates (Ang):                          
    0.01877288   -0.04362384   -0.00656134   1       1  O
    0.73995754    0.69798126    0.02308086   2       2  H
   -0.75053305    0.64873772   -0.02215671   2       3  H
   -0.01400706    0.04292502    3.03519977   1       4  O
    0.71410558   -0.68845551    2.88406201   2       5  H
   -0.77758548   -0.64477341    3.12800281   2       6  H

outcell: Unit cell vectors (Ang):
       10.000004    0.000000    0.000000
        0.000000   10.000004    0.000000
        0.000000    0.000000    8.000003

outcell: Cell vector modules (Ang)   :   10.000004   10.000004    8.000003
outcell: Cell angles (23,13,12) (deg):     90.0000     90.0000     90.0000
outcell: Cell volume (Ang**3)        :    800.0010
Gamma-point calculation with multiply-connected orbital pairs
Folding of H and S implicitly performed
<dSpData1D:S at geom step 2
  <sparsity:sparsity for geom step 2
    nrows_g=12 nrows=12 sparsity=1.0000 nnzs=144, refcount: 7>
  <dData1D:(new from dSpData1D) n=144, refcount: 1>
refcount: 1>
new_DM -- step:     2
Re-using DM from previous geometries...
Number of DMs in history: 1
 DM extrapolation coefficients: 
1   1.00000
New DM after history re-use:
<dSpData2D:SpM extrapolated using coords
  <sparsity:sparsity for geom step 2
    nrows_g=12 nrows=12 sparsity=1.0000 nnzs=144, refcount: 9>
  <dData2D:(temp array for extrapolation) n=144 m=1, refcount: 1>
refcount: 1>
Note: For starting DM, Qtot, Tr[D*S] =         16.00000000         16.02820899
No. of atoms with KB's overlaping orbs in proc 0. Max # of overlaps:       6       8

InitMesh: MESH = 64 x 64 x 50 = 204800
InitMesh: Mesh cutoff (required, used) =   100.000   107.960 Ry
New grid distribution [1]: sub = 2

        iscf     Eharris(eV)        E_KS(eV)     FreeEng(eV)     dDmax    Ef(eV) dHmax(eV)
   scf:    1     -922.482816     -924.314028     -924.314028  0.129547 -2.798320  1.410583
   scf:    2     -923.665951     -924.198233     -924.198233  0.136581 -2.077445  2.114880
   scf:    3     -924.534810     -924.440632     -924.440632  0.082190 -2.526373  0.139820
   scf:    4     -924.441492     -924.441076     -924.441076  0.002786 -2.536316  0.098136
   scf:    5     -924.441739     -924.441449     -924.441449  0.006128 -2.564977  0.019305
   scf:    6     -924.441468     -924.441460     -924.441460  0.000405 -2.570430  0.008265
   scf:    7     -924.441463     -924.441462     -924.441462  0.000203 -2.573213  0.003654
   scf:    8     -924.441463     -924.441462     -924.441462  0.000079 -2.573182  0.002515
   scf:    9     -924.441463     -924.441463     -924.441463  0.000136 -2.572991  0.000507
   scf:   10     -924.441463     -924.441463     -924.441463  0.000024 -2.572892  0.000218

SCF Convergence by DM+H criterion
max |DM_out - DM_in|         :     0.0000240092
max |H_out - H_in|      (eV) :     0.0002177044
SCF cycle converged after 10 iterations

Using DM_out to compute the final energy and forces
No. of atoms with KB's overlaping orbs in proc 0. Max # of overlaps:       6       8

siesta: E_KS(eV) =             -924.4415

siesta: Atomic forces (eV/Ang):
     1    0.087980   -1.830564    0.194318
     2    2.269315    1.039882    0.174282
     3   -2.329866    0.876225    0.041967
     4    0.463681    1.757348    0.233374
     5    1.818099   -0.781462   -0.465862
     6   -2.298647   -1.069632    0.246916
----------------------------------------
   Tot    0.010562   -0.008204    0.424995
----------------------------------------
   Max    2.329866
   Res    1.287452    sqrt( Sum f_i^2 / 3N )
----------------------------------------
   Max    2.329866    constrained

Stress tensor Voigt[x,y,z,yz,xz,xy] (kbar):      -16.80       -6.43       -0.07       -0.55        0.75       -0.52
(Free)E + p*V (eV/cell)     -920.5626
Target enthalpy (eV/cell)     -924.4415

siesta: Stress tensor (static) (eV/Ang**3):
        -0.008115   -0.000396    0.000549
        -0.000396   -0.003360   -0.000398
         0.000549   -0.000398    0.000024

siesta: Pressure (static):          6.11506029  kBar

siesta: Stress tensor (total) (eV/Ang**3):
        -0.010488   -0.000324    0.000471
        -0.000324   -0.004014   -0.000341
         0.000471   -0.000341   -0.000044

siesta: Pressure (total):          7.76818022  kBar

siesta: Temp_ion =    1506.310 K

                     ====================================
                        Begin MD step =      3
                     ====================================

outcoor: Atomic coordinates (Ang):                          
    0.02060358   -0.04268696   -0.00673246   1       1  O
    0.69817739    0.66785584    0.02928216   2       2  H
   -0.70811073    0.61467836   -0.01898037   2       3  H
   -0.01487407    0.04291186    3.04062088   1       4  O
    0.65441107   -0.66029909    2.87215012   2       5  H
   -0.73330821   -0.62329204    3.13412114   2       6  H

outcell: Unit cell vectors (Ang):
       10.000004    0.000000    0.000000
        0.000000   10.000004    0.000000
        0.000000    0.000000    8.000003

outcell: Cell vector modules (Ang)   :   10.000004   10.000004    8.000003
outcell: Cell angles (23,13,12) (deg):     90.0000     90.0000     90.0000
outcell: Cell volume (Ang**3)        :    800.0010
Gamma-point calculation with multiply-connected orbital pairs
Folding of H and S implicitly performed
<dSpData1D:S at geom step 3
  <sparsity:sparsity for geom step 3
    nrows_g=12 nrows=12 sparsity=1.0000 nnzs=144, refcount: 7>
  <dData1D:(new from dSpData1D) n=144, refcount: 1>
refcount: 1>
new_DM -- step:     3
Re-using DM from previous geometries...
Number of DMs in history: 1
 DM extrapolation coefficients: 
1   1.00000
New DM after history re-use:
<dSpData2D:SpM extrapolated using coords
  <sparsity:sparsity for geom step 3
    nrows_g=12 nrows=12 sparsity=1.0000 nnzs=144, refcount: 9>
  <dData2D:(temp array for extrapolation) n=144 m=1, refcount: 1>
refcount: 1>
No. of atoms with KB's overlaping orbs in proc 0. Max # of overlaps:       6       8

InitMesh: MESH = 64 x 64 x 50 = 204800
InitMesh: Mesh cutoff (required, used) =   100.000   107.960 Ry
New grid distribution [1]: sub = 2

        iscf     Eharris(eV)        E_KS(eV)     FreeEng(eV)     dDmax    Ef(eV) dHmax(eV)
   scf:    1     -922.339037     -923.599128     -923.599128  0.096031 -2.163713  0.913941
   scf:    2     -923.409539     -923.574697     -923.574697  0.082215 -1.691911  1.213711
   scf:    3     -923.684695     -923.651930     -923.651930  0.046495 -1.970480  0.083829
   scf:    4     -923.652201     -923.652068     -923.652068  0.001587 -1.978252  0.059941
   scf:    5     -923.652305     -923.652201     -923.652201  0.004022 -2.000424  0.007839
   scf:    6     -923.652204     -923.652202     -923.652202  0.000123 -2.001889  0.003799
   scf:    7     -923.652203     -923.652203     -923.652203  0.000121 -2.003073  0.001057
   scf:    8     -923.652203     -923.652203     -923.652203  0.000020 -2.003074  0.000747

SCF Convergence by DM+H criterion
max |DM_out - DM_in|         :     0.0000197188
max |H_out - H_in|      (eV) :     0.0007471649
SCF cycle converged after 8 iterations

Using DM_out to compute the final energy and forces
No. of atoms with KB's overlaping orbs in proc 0. Max # of overlaps:       6       8

siesta: E_KS(eV) =             -923.6522

siesta: Atomic forces (eV/Ang):
     1    0.272118   -4.964161    0.139906
     2    4.449873    2.690796    0.298535
     3   -4.696497    2.390350   -0.006319
     4    0.244032    4.752499    0.290892
     5    4.229981   -2.514901   -1.097063
     6   -4.487050   -2.358652    0.611997
----------------------------------------
   Tot    0.012457   -0.004069    0.237949
----------------------------------------
   Max    4.964161
   Res    2.923669    sqrt( Sum f_i^2 / 3N )
----------------------------------------
   Max    4.964161    constrained

Stress tensor Voigt[x,y,z,yz,xz,xy] (kbar):      -27.80      -14.61       -0.24       -1.01        1.80        0.01
(Free)E + p*V (eV/cell)     -916.5525
Target enthalpy (eV/cell)     -923.6522

siesta: Stress tensor (static) (eV/Ang**3):
        -0.015600   -0.000109    0.001215
        -0.000109   -0.008535   -0.000699
         0.001215   -0.000699   -0.000073

siesta: Pressure (static):         12.92826587  kBar

siesta: Stress tensor (total) (eV/Ang**3):
        -0.017354    0.000004    0.001121
         0.000004   -0.009117   -0.000629
         0.001121   -0.000629   -0.000153

siesta: Pressure (total):         14.21870557  kBar

siesta: Temp_ion =     417.441 K

                     ====================================
                        Begin MD step =      4
                     ====================================

outcoor: Atomic coordinates (Ang):                          
    0.02259331   -0.04472114   -0.00681955   1       1  O
    0.69872646    0.66333638    0.03830494   2       2  H
   -0.71036021    0.60338073   -0.01587047   2       3  H
   -0.01559335    0.04574128    3.04620493   1       4  O
    0.63499473   -0.65607481    2.84984769   2       5  H
   -0.73171816   -0.62424588    3.14603691   2       6  H

outcell: Unit cell vectors (Ang):
       10.000004    0.000000    0.000000
        0.000000   10.000004    0.000000
        0.000000    0.000000    8.000003

outcell: Cell vector modules (Ang)   :   10.000004   10.000004    8.000003
outcell: Cell angles (23,13,12) (deg):     90.0000     90.0000     90.0000
outcell: Cell volume (Ang**3)        :    800.0010
Gamma-point calculation with multiply-connected orbital pairs
Folding of H and S implicitly performed
<dSpData1D:S at geom step 4
  <sparsity:sparsity for geom step 4
    nrows_g=12 nrows=12 sparsity=1.0000 nnzs=144, refcount: 7>
  <dData1D:(new from dSpData1D) n=144, refcount: 1>
refcount: 1>
new_DM -- step:     4
Re-using DM from previous geometries...
Number of DMs in history: 1
 DM extrapolation coefficients: 
1   1.00000
New DM after history re-use:
<dSpData2D:SpM extrapolated using coords
  <sparsity:sparsity for geom step 4
    nrows_g=12 nrows=12 sparsity=1.0000 nnzs=144, refcount: 9>
  <dData2D:(temp array for extrapolation) n=144 m=1, refcount: 1>
refcount: 1>
No. of atoms with KB's overlaping orbs in proc 0. Max # of overlaps:       6       8

InitMesh: MESH = 64 x 64 x 50 = 204800
InitMesh: Mesh cutoff (required, used) =   100.000   107.960 Ry
New grid distribution [1]: sub = 2

        iscf     Eharris(eV)        E_KS(eV)     FreeEng(eV)     dDmax    Ef(eV) dHmax(eV)
   scf:    1     -923.518245     -923.587065     -923.587065  0.028876 -1.965680  0.083628
   scf:    2     -923.586806     -923.587221     -923.587221  0.006594 -1.945369  0.078462
   scf:    3     -923.587614     -923.587490     -923.587490  0.003139 -1.958188  0.015601
   scf:    4     -923.587507     -923.587499     -923.587499  0.000466 -1.959899  0.010227
   scf:    5     -923.587514     -923.587507     -923.587507  0.001073 -1.963254  0.002795
   scf:    6     -923.587507     -923.587507     -923.587507  0.000095 -1.963327  0.001386
   scf:    7     -923.587507     -923.587507     -923.587507  0.000068 -1.963366  0.000363

SCF Convergence by DM+H criterion
max |DM_out - DM_in|         :     0.0000682977
max |H_out - H_in|      (eV) :     0.0003629586
SCF cycle converged after 7 iterations

Using DM_out to compute the final energy and forces
No. of atoms with KB's overlaping orbs in proc 0. Max # of overlaps:       6       8

siesta: E_KS(eV) =             -923.5875

siesta: Atomic forces (eV/Ang):
     1    0.342028   -5.157671    0.102775
     2    4.483384    2.799617    0.342442
     3   -4.795089    2.481295   -0.002729
     4   -0.167409    4.989939    0.300723
     5    4.644968   -2.863569   -1.391166
     6   -4.491931   -2.246366    0.703766
----------------------------------------
   Tot    0.015952    0.003246    0.055811
----------------------------------------
   Max    5.157671
   Res    3.040309    sqrt( Sum f_i^2 / 3N )
----------------------------------------
   Max    5.157671    constrained

Stress tensor Voigt[x,y,z,yz,xz,xy] (kbar):      -26.22      -14.48       -0.44       -1.41        2.21        0.49
(Free)E + p*V (eV/cell)     -916.7408
Target enthalpy (eV/cell)     -923.5875

siesta: Stress tensor (static) (eV/Ang**3):
        -0.015973    0.000235    0.001475
         0.000235   -0.008878   -0.000913
         0.001475   -0.000913   -0.000154

siesta: Pressure (static):         13.35442231  kBar

siesta: Stress tensor (total) (eV/Ang**3):
        -0.016364    0.000305    0.001381
         0.000305   -0.009037   -0.000879
         0.001381   -0.000878   -0.000274

siesta: Pressure (total):         13.71203988  kBar

siesta: Temp_ion =     331.839 K

                     ====================================
                        Begin MD step =      5
                     ====================================

outcoor: Atomic coordinates (Ang):                          
    0.02478401   -0.04983685   -0.00684500   1       1  O
    0.74184138    0.68540572    0.05056254   2       2  H
   -0.75813187    0.61566200   -0.01279215   2       3  H
   -0.01641147    0.05155045    3.05195870   1       4  O
    0.65971475   -0.67904597    2.81437766   2       5  H
   -0.77277902   -0.64652579    3.16461278   2       6  H

outcell: Unit cell vectors (Ang):
       10.000004    0.000000    0.000000
        0.000000   10.000004    0.000000
        0.000000    0.000000    8.000003

outcell: Cell vector modules (Ang)   :   10.000004   10.000004    8.000003
outcell: Cell angles (23,13,12) (deg):     90.0000     90.0000     90.0000
outcell: Cell volume (Ang**3)        :    800.0010
Gamma-point calculation with multiply-connected orbital pairs
Folding of H and S implicitly performed
<dSpData1D:S at geom step 5
  <sparsity:sparsity for geom step 5
    nrows_g=12 nrows=12 sparsity=1.0000 nnzs=144, refcount: 7>
  <dData1D:(new from dSpData1D) n=144, refcount: 1>
refcount: 1>
new_DM -- step:     5
Re-using DM from previous geometries...
Number of DMs in history: 1
 DM extrapolation coefficients: 
1   1.00000
New DM after history re-use:
<dSpData2D:SpM extrapolated using coords
  <sparsity:sparsity for geom step 5
    nrows_g=12 nrows=12 sparsity=1.0000 nnzs=144, refcount: 9>
  <dData2D:(temp array for extrapolation) n=144 m=1, refcount: 1>
refcount: 1>
No. of atoms with KB's overlaping orbs in proc 0. Max # of overlaps:       6       8

InitMesh: MESH = 64 x 64 x 50 = 204800
InitMesh: Mesh cutoff (required, used) =   100.000   107.960 Ry
New grid distribution [1]: sub = 2

        iscf     Eharris(eV)        E_KS(eV)     FreeEng(eV)     dDmax    Ef(eV) dHmax(eV)
   scf:    1     -925.140521     -924.317439     -924.317439  0.088770 -2.326500  0.908423
   scf:    2     -924.062190     -924.274895     -924.274895  0.089022 -2.803221  1.344113
   scf:    3     -924.413020     -924.372276     -924.372276  0.050648 -2.517597  0.069269
   scf:    4     -924.372462     -924.372373     -924.372373  0.001156 -2.509104  0.050923
   scf:    5     -924.372574     -924.372479     -924.372479  0.002733 -2.493321  0.009053
   scf:    6     -924.372491     -924.372485     -924.372485  0.000498 -2.491851  0.002554
   scf:    7     -924.372487     -924.372486     -924.372486  0.000188 -2.491459  0.000671
   scf:    8     -924.372486     -924.372486     -924.372486  0.000016 -2.491517  0.000446

SCF Convergence by DM+H criterion
max |DM_out - DM_in|         :     0.0000156029
max |H_out - H_in|      (eV) :     0.0004456530
SCF cycle converged after 8 iterations

Using DM_out to compute the final energy and forces
No. of atoms with KB's overlaping orbs in proc 0. Max # of overlaps:       6       8

siesta: E_KS(eV) =             -924.3725

siesta: Atomic forces (eV/Ang):
     1    0.199183   -2.261078    0.164094
     2    2.300194    1.272625    0.231376
     3   -2.457772    1.083467    0.043914
     4   -0.301184    2.088330   -0.025411
     5    2.633460   -1.347675   -0.945896
     6   -2.353503   -0.825694    0.415855
----------------------------------------
   Tot    0.020378    0.009974   -0.116068
----------------------------------------
   Max    2.633460
   Res    1.487947    sqrt( Sum f_i^2 / 3N )
----------------------------------------
   Max    2.633460    constrained

Stress tensor Voigt[x,y,z,yz,xz,xy] (kbar):      -14.61       -6.57       -0.45       -1.28        1.71        0.42
(Free)E + p*V (eV/cell)     -920.7744
Target enthalpy (eV/cell)     -924.3725

siesta: Stress tensor (static) (eV/Ang**3):
        -0.008910    0.000290    0.001031
         0.000290   -0.003994   -0.000725
         0.001031   -0.000725   -0.000057

siesta: Pressure (static):          6.92170201  kBar

siesta: Stress tensor (total) (eV/Ang**3):
        -0.009116    0.000262    0.001069
         0.000262   -0.004098   -0.000801
         0.001070   -0.000801   -0.000279

siesta: Pressure (total):          7.20598533  kBar

siesta: Temp_ion =    1399.817 K

                     ====================================
                        Begin MD step =      6
                     ====================================

outcoor: Atomic coordinates (Ang):                          
    0.02708930   -0.05629430   -0.00677226   1       1  O
    0.80670299    0.71951052    0.06499121   2       2  H
   -0.82913649    0.63820332   -0.00930333   2       3  H
   -0.01740803    0.05859660    3.05768534   1       4  O
    0.70938336   -0.71476319    2.77000165   2       5  H
   -0.83609690   -0.67659793    3.18709791   2       6  H

outcell: Unit cell vectors (Ang):
       10.000004    0.000000    0.000000
        0.000000   10.000004    0.000000
        0.000000    0.000000    8.000003

outcell: Cell vector modules (Ang)   :   10.000004   10.000004    8.000003
outcell: Cell angles (23,13,12) (deg):     90.0000     90.0000     90.0000
outcell: Cell volume (Ang**3)        :    800.0010
Gamma-point calculation with multiply-connected orbital pairs
Folding of H and S implicitly performed
<dSpData1D:S at geom step 6
  <sparsity:sparsity for geom step 6
    nrows_g=12 nrows=12 sparsity=1.0000 nnzs=144, refcount: 7>
  <dData1D:(new from dSpData1D) n=144, refcount: 1>
refcount: 1>
new_DM -- step:     6
Re-using DM from previous geometries...
Number of DMs in history: 1
 DM extrapolation coefficients: 
1   1.00000
New DM after history re-use:
<dSpData2D:SpM extrapolated using coords
  <sparsity:sparsity for geom step 6
    nrows_g=12 nrows=12 sparsity=1.0000 nnzs=144, refcount: 9>
  <dData2D:(temp array for extrapolation) n=144 m=1, refcount: 1>
refcount: 1>
Note: For starting DM, Qtot, Tr[D*S] =         16.00000000         15.97885584
No. of atoms with KB's overlaping orbs in proc 0. Max # of overlaps:       6       8

InitMesh: MESH = 64 x 64 x 50 = 204800
InitMesh: Mesh cutoff (required, used) =   100.000   107.960 Ry
New grid distribution [1]: sub = 2

        iscf     Eharris(eV)        E_KS(eV)     FreeEng(eV)     dDmax    Ef(eV) dHmax(eV)
   scf:    1     -925.490278     -924.565806     -924.565806  0.134316 -2.980222  1.564011
   scf:    2     -923.385246     -924.317299     -924.317299  0.169525 -3.772795  2.727390
   scf:    3     -924.898106     -924.735320     -924.735320  0.101185 -3.267681  0.115664
   scf:    4     -924.735899     -924.735629     -924.735629  0.001585 -3.249626  0.086629
   scf:    5     -924.736194     -924.735923     -924.735923  0.003269 -3.229460  0.033980
   scf:    6     -924.736039     -924.735986     -924.735986  0.001880 -3.221177  0.005353
   scf:    7     -924.735991     -924.735989     -924.735989  0.000378 -3.220061  0.001403
   scf:    8     -924.735990     -924.735989     -924.735989  0.000053 -3.220039  0.000639

SCF Convergence by DM+H criterion
max |DM_out - DM_in|         :     0.0000527082
max |H_out - H_in|      (eV) :     0.0006388173
SCF cycle converged after 8 iterations

Using DM_out to compute the final energy and forces
No. of atoms with KB's overlaping orbs in proc 0. Max # of overlaps:       6       8

siesta: E_KS(eV) =             -924.7360

siesta: Atomic forces (eV/Ang):
     1    0.020837    0.675721    0.279861
     2   -0.046769   -0.307836    0.063393
     3    0.082412   -0.316520    0.084750
     4   -0.239508   -0.966531   -0.507810
     5    0.269458    0.384129   -0.211437
     6   -0.061173    0.549242    0.024767
----------------------------------------
   Tot    0.025257    0.018205   -0.266477
----------------------------------------
   Max    0.966531
   Res    0.377918    sqrt( Sum f_i^2 / 3N )
----------------------------------------
   Max    0.966531    constrained

Stress tensor Voigt[x,y,z,yz,xz,xy] (kbar):       -2.47        1.60       -0.23       -0.81        0.84        0.20
(Free)E + p*V (eV/cell)     -924.5524
Target enthalpy (eV/cell)     -924.7360

siesta: Stress tensor (static) (eV/Ang**3):
        -0.000155    0.000185    0.000246
         0.000184    0.001500   -0.000290
         0.000246   -0.000289    0.000212

siesta: Pressure (static):         -0.83150734  kBar

siesta: Stress tensor (total) (eV/Ang**3):
        -0.001545    0.000125    0.000522
         0.000125    0.001000   -0.000505
         0.000522   -0.000505   -0.000144

siesta: Pressure (total):          0.36770102  kBar

siesta: Temp_ion =    1944.695 K

                     ====================================
                        Begin MD step =      7
                     ====================================

outcoor: Atomic coordinates (Ang):                          
    0.02939992   -0.06232786   -0.00653244   1       1  O
    0.87092041    0.75058908    0.07997678   2       2  H
   -0.89913974    0.65767173   -0.00502116   2       3  H
   -0.01854469    0.06504319    3.06309071   1       4  O
    0.76145520   -0.74672530    2.72375659   2       5  H
   -0.89979955   -0.70136576    3.20974855   2       6  H

outcell: Unit cell vectors (Ang):
       10.000004    0.000000    0.000000
        0.000000   10.000004    0.000000
        0.000000    0.000000    8.000003

outcell: Cell vector modules (Ang)   :   10.000004   10.000004    8.000003
outcell: Cell angles (23,13,12) (deg):     90.0000     90.0000     90.0000
outcell: Cell volume (Ang**3)        :    800.0010
Gamma-point calculation with multiply-connected orbital pairs
Folding of H and S implicitly performed
<dSpData1D:S at geom step 7
  <sparsity:sparsity for geom step 7
    nrows_g=12 nrows=12 sparsity=1.0000 nnzs=144, refcount: 7>
  <dData1D:(new from dSpData1D) n=144, refcount: 1>
refcount: 1>
new_DM -- step:     7
Re-using DM from previous geometries...
Number of DMs in history: 1
 DM extrapolation coefficients: 
1   1.00000
New DM after history re-use:
<dSpData2D:SpM extrapolated using coords
  <sparsity:sparsity for geom step 7
    nrows_g=12 nrows=12 sparsity=1.0000 nnzs=144, refcount: 9>
  <dData2D:(temp array for extrapolation) n=144 m=1, refcount: 1>
refcount: 1>
Note: For starting DM, Qtot, Tr[D*S] =         16.00000000         15.96111410
No. of atoms with KB's overlaping orbs in proc 0. Max # of overlaps:       6       8

InitMesh: MESH = 64 x 64 x 50 = 204800
InitMesh: Mesh cutoff (required, used) =   100.000   107.960 Ry
New grid distribution [1]: sub = 2

        iscf     Eharris(eV)        E_KS(eV)     FreeEng(eV)     dDmax    Ef(eV) dHmax(eV)
   scf:    1     -924.867393     -924.205007     -924.205007  0.128143 -0.508145  1.680213
   scf:    2     -922.160890     -923.716796     -923.716796  0.204922 -4.462305  3.429607
   scf:    3     -924.657789     -924.409369     -924.409369  0.129542 -3.895337  0.126191
   scf:    4     -924.410244     -924.409857     -924.409857  0.001824 -3.874375  0.094936
   scf:    5     -924.410569     -924.410226     -924.410226  0.002962 -3.857024  0.044405
   scf:    6     -924.410422     -924.410334     -924.410334  0.002453 -3.845370  0.004259
   scf:    7     -924.410337     -924.410336     -924.410336  0.000263 -3.844498  0.001182
   scf:    8     -924.410336     -924.410336     -924.410336  0.000044 -3.844390  0.000662

SCF Convergence by DM+H criterion
max |DM_out - DM_in|         :     0.0000443667
max |H_out - H_in|      (eV) :     0.0006620545
SCF cycle converged after 8 iterations

Using DM_out to compute the final energy and forces
No. of atoms with KB's overlaping orbs in proc 0. Max # of overlaps:       6       8

siesta: E_KS(eV) =             -924.4103

siesta: Atomic forces (eV/Ang):
     1   -0.089747    2.375783    0.381012
     2   -1.557802   -1.250771   -0.071309
     3    1.717339   -1.114715    0.103967
     4   -0.187013   -2.771696   -0.897037
     5   -1.288200    1.437971    0.373802
     6    1.434762    1.344821   -0.272636
----------------------------------------
   Tot    0.029338    0.021393   -0.382201
----------------------------------------
   Max    2.771696
   Res    1.298007    sqrt( Sum f_i^2 / 3N )
----------------------------------------
   Max    2.771696    constrained

Stress tensor Voigt[x,y,z,yz,xz,xy] (kbar):        7.06        7.14        0.15       -0.23       -0.10        0.11
(Free)E + p*V (eV/cell)     -926.7994
Target enthalpy (eV/cell)     -924.4103

siesta: Stress tensor (static) (eV/Ang**3):
         0.006479    0.000110   -0.000473
         0.000110    0.005077    0.000124
        -0.000473    0.000125    0.000522

siesta: Pressure (static):         -6.45055814  kBar

siesta: Stress tensor (total) (eV/Ang**3):
         0.004407    0.000071   -0.000061
         0.000071    0.004458   -0.000144
        -0.000061   -0.000144    0.000093

siesta: Pressure (total):         -4.78455825  kBar

siesta: Temp_ion =    1487.617 K

                     ====================================
                        Begin MD step =      8
                     ====================================

outcoor: Atomic coordinates (Ang):                          
    0.03164734   -0.06691690   -0.00606596   1       1  O
    0.92009843    0.76967733    0.09422397   2       2  H
   -0.95256666    0.66648823    0.00022921   2       3  H
   -0.01978838    0.06980700    3.06793770   1       4  O
    0.80109471   -0.76491815    2.68124817   2       5  H
   -0.94963176   -0.71327752    3.22971977   2       6  H

outcell: Unit cell vectors (Ang):
       10.000004    0.000000    0.000000
        0.000000   10.000004    0.000000
        0.000000    0.000000    8.000003

outcell: Cell vector modules (Ang)   :   10.000004   10.000004    8.000003
outcell: Cell angles (23,13,12) (deg):     90.0000     90.0000     90.0000
outcell: Cell volume (Ang**3)        :    800.0010
Gamma-point calculation with multiply-connected orbital pairs
Folding of H and S implicitly performed
<dSpData1D:S at geom step 8
  <sparsity:sparsity for geom step 8
    nrows_g=12 nrows=12 sparsity=1.0000 nnzs=144, refcount: 7>
  <dData1D:(new from dSpData1D) n=144, refcount: 1>
refcount: 1>
new_DM -- step:     8
Re-using DM from previous geometries...
Number of DMs in history: 1
 DM extrapolation coefficients: 
1   1.00000
New DM after history re-use:
<dSpData2D:SpM extrapolated using coords
  <sparsity:sparsity for geom step 8
    nrows_g=12 nrows=12 sparsity=1.0000 nnzs=144, refcount: 9>
  <dData2D:(temp array for extrapolation) n=144 m=1, refcount: 1>
refcount: 1>
Note: For starting DM, Qtot, Tr[D*S] =         16.00000000         15.96189368
No. of atoms with KB's overlaping orbs in proc 0. Max # of overlaps:       6       8

InitMesh: MESH = 64 x 64 x 50 = 204800
InitMesh: Mesh cutoff (required, used) =   100.000   107.960 Ry
New grid distribution [1]: sub = 2

        iscf     Eharris(eV)        E_KS(eV)     FreeEng(eV)     dDmax    Ef(eV) dHmax(eV)
   scf:    1     -924.221019     -923.762825     -923.762825  0.088227 -1.118574  1.274301
   scf:    2     -922.177987     -923.358669     -923.358669  0.171051 -4.739983  2.926238
   scf:    3     -924.057476     -923.884084     -923.884084  0.112934 -1.303471  0.101803
   scf:    4     -923.884716     -923.884427     -923.884427  0.001254 -1.290548  0.074988
   scf:    5     -923.884933     -923.884692     -923.884692  0.002419 -1.278972  0.030933
   scf:    6     -923.884790     -923.884747     -923.884747  0.001642 -1.272440  0.002404
   scf:    7     -923.884747     -923.884747     -923.884747  0.000130 -1.272035  0.001031
   scf:    8     -923.884747     -923.884747     -923.884747  0.000028 -1.271958  0.000578

SCF Convergence by DM+H criterion
max |DM_out - DM_in|         :     0.0000278756
max |H_out - H_in|      (eV) :     0.0005781818
SCF cycle converged after 8 iterations

Using DM_out to compute the final energy and forces
No. of atoms with KB's overlaping orbs in proc 0. Max # of overlaps:       6       8

siesta: E_KS(eV) =             -923.8847

siesta: Atomic forces (eV/Ang):
     1   -0.138143    3.101806    0.445028
     2   -2.336702   -1.674778   -0.158214
     3    2.559774   -1.446360    0.109766
     4   -0.165550   -3.545957   -1.142758
     5   -2.102231    1.906139    0.734450
     6    2.219626    1.677106   -0.456230
----------------------------------------
   Tot    0.036774    0.017955   -0.467957
----------------------------------------
   Max    3.545957
   Res    1.783126    sqrt( Sum f_i^2 / 3N )
----------------------------------------
   Max    3.545957    constrained

Stress tensor Voigt[x,y,z,yz,xz,xy] (kbar):       14.20       10.27        0.65        0.34       -0.99        0.10
(Free)E + p*V (eV/cell)     -928.0660
Target enthalpy (eV/cell)     -923.8847

siesta: Stress tensor (static) (eV/Ang**3):
         0.010492    0.000083   -0.000982
         0.000083    0.006766    0.000416
        -0.000982    0.000416    0.000808

siesta: Pressure (static):         -9.64820461  kBar

siesta: Stress tensor (total) (eV/Ang**3):
         0.008866    0.000065   -0.000617
         0.000064    0.006408    0.000209
        -0.000617    0.000210    0.000406

siesta: Pressure (total):         -8.37377860  kBar

siesta: Temp_ion =     706.482 K

                     ====================================
                        Begin MD step =      9
                     ====================================

outcoor: Atomic coordinates (Ang):                          
    0.03380186   -0.06963190   -0.00533581   1       1  O
    0.94689495    0.77279876    0.10690534   2       2  H
   -0.98147751    0.66155096    0.00649603   2       3  H
   -0.02112521    0.07243066    3.07207969   1       4  O
    0.82061981   -0.76495477    2.64589938   2       5  H
   -0.97818945   -0.70923353    3.24527324   2       6  H

outcell: Unit cell vectors (Ang):
       10.000004    0.000000    0.000000
        0.000000   10.000004    0.000000
        0.000000    0.000000    8.000003

outcell: Cell vector modules (Ang)   :   10.000004   10.000004    8.000003
outcell: Cell angles (23,13,12) (deg):     90.0000     90.0000     90.0000
outcell: Cell volume (Ang**3)        :    800.0010
Gamma-point calculation with multiply-connected orbital pairs
Folding of H and S implicitly performed
<dSpData1D:S at geom step 9
  <sparsity:sparsity for geom step 9
    nrows_g=12 nrows=12 sparsity=1.0000 nnzs=144, refcount: 7>
  <dData1D:(new from dSpData1D) n=144, refcount: 1>
refcount: 1>
new_DM -- step:     9
Re-using DM from previous geometries...
Number of DMs in history: 1
 DM extrapolation coefficients: 
1   1.00000
New DM after history re-use:
<dSpData2D:SpM extrapolated using coords
  <sparsity:sparsity for geom step 9
    nrows_g=12 nrows=12 sparsity=1.0000 nnzs=144, refcount: 9>
  <dData2D:(temp array for extrapolation) n=144 m=1, refcount: 1>
refcount: 1>
Note: For starting DM, Qtot, Tr[D*S] =         16.00000000         15.98093524
No. of atoms with KB's overlaping orbs in proc 0. Max # of overlaps:       6       8

InitMesh: MESH = 64 x 64 x 50 = 204800
InitMesh: Mesh cutoff (required, used) =   100.000   107.960 Ry
New grid distribution [1]: sub = 2

        iscf     Eharris(eV)        E_KS(eV)     FreeEng(eV)     dDmax    Ef(eV) dHmax(eV)
   scf:    1     -923.811561     -923.550749     -923.550749  0.030402 -1.423836  0.545209
   scf:    2     -923.223604     -923.465062     -923.465062  0.076107 -1.685615  1.298703
   scf:    3     -923.605872     -923.572756     -923.572756  0.052197 -1.499928  0.051220
   scf:    4     -923.572941     -923.572851     -923.572851  0.000978 -1.495787  0.036300
   scf:    5     -923.573011     -923.572938     -923.572938  0.001931 -1.489343  0.005923
   scf:    6     -923.572942     -923.572940     -923.572940  0.000339 -1.488437  0.001510
   scf:    7     -923.572940     -923.572940     -923.572940  0.000046 -1.488340  0.000734

SCF Convergence by DM+H criterion
max |DM_out - DM_in|         :     0.0000459171
max |H_out - H_in|      (eV) :     0.0007336836
SCF cycle converged after 7 iterations

Using DM_out to compute the final energy and forces
No. of atoms with KB's overlaping orbs in proc 0. Max # of overlaps:       6       8

siesta: E_KS(eV) =             -923.5729

siesta: Atomic forces (eV/Ang):
     1   -0.150801    3.244046    0.471501
     2   -2.653175   -1.777198   -0.205091
     3    2.904183   -1.501222    0.109832
     4   -0.145486   -3.688475   -1.270640
     5   -2.460692    2.024015    0.921300
     6    2.542496    1.718874   -0.558229
----------------------------------------
   Tot    0.036525    0.020039   -0.531327
----------------------------------------
   Max    3.688475
   Res    1.939074    sqrt( Sum f_i^2 / 3N )
----------------------------------------
   Max    3.688475    constrained

Stress tensor Voigt[x,y,z,yz,xz,xy] (kbar):       18.61       11.24        1.21        0.77       -1.70        0.10
(Free)E + p*V (eV/cell)     -928.7426
Target enthalpy (eV/cell)     -923.5729

siesta: Stress tensor (static) (eV/Ang**3):
         0.012354    0.000065   -0.001276
         0.000064    0.007102    0.000566
        -0.001275    0.000567    0.001064

siesta: Pressure (static):        -10.95854467  kBar

siesta: Stress tensor (total) (eV/Ang**3):
         0.011615    0.000062   -0.001061
         0.000061    0.007017    0.000478
        -0.001060    0.000479    0.000754

siesta: Pressure (total):        -10.35330879  kBar

siesta: Temp_ion =     235.732 K

                     ====================================
                        Begin MD step =     10
                     ====================================

outcoor: Atomic coordinates (Ang):                          
    0.03585662   -0.07039677   -0.00432727   1       1  O
    0.94841452    0.75905537    0.11758511   2       2  H
   -0.98272194    0.64240182    0.01377608   2       3  H
   -0.02254294    0.07283909    3.07544401   1       4  O
    0.81672570   -0.74580021    2.61944493   2       5  H
   -0.98251171   -0.68890994    3.25546387   2       6  H

outcell: Unit cell vectors (Ang):
       10.000004    0.000000    0.000000
        0.000000   10.000004    0.000000
        0.000000    0.000000    8.000003

outcell: Cell vector modules (Ang)   :   10.000004   10.000004    8.000003
outcell: Cell angles (23,13,12) (deg):     90.0000     90.0000     90.0000
outcell: Cell volume (Ang**3)        :    800.0010
Gamma-point calculation with multiply-connected orbital pairs
Folding of H and S implicitly performed
<dSpData1D:S at geom step 10
  <sparsity:sparsity for geom step 10
    nrows_g=12 nrows=12 sparsity=1.0000 nnzs=144, refcount: 7>
  <dData1D:(new from dSpData1D) n=144, refcount: 1>
refcount: 1>
new_DM -- step:    10
Re-using DM from previous geometries...
Number of DMs in history: 1
 DM extrapolation coefficients: 
1   1.00000
New DM after history re-use:
<dSpData2D:SpM extrapolated using coords
  <sparsity:sparsity for geom step 10
    nrows_g=12 nrows=12 sparsity=1.0000 nnzs=144, refcount: 9>
  <dData2D:(temp array for extrapolation) n=144 m=1, refcount: 1>
refcount: 1>
No. of atoms with KB's overlaping orbs in proc 0. Max # of overlaps:       6      10

InitMesh: MESH = 64 x 64 x 50 = 204800
InitMesh: Mesh cutoff (required, used) =   100.000   107.960 Ry
New grid distribution [1]: sub = 2

        iscf     Eharris(eV)        E_KS(eV)     FreeEng(eV)     dDmax    Ef(eV) dHmax(eV)
   scf:    1     -923.505052     -923.638176     -923.638176  0.038285 -1.409941  0.339872
   scf:    2     -923.535740     -923.611505     -923.611505  0.047279 -1.262699  0.753083
   scf:    3     -923.655332     -923.645272     -923.645272  0.032305 -1.368938  0.022730
   scf:    4     -923.645369     -923.645322     -923.645322  0.001018 -1.371183  0.015657
   scf:    5     -923.645396     -923.645364     -923.645364  0.002193 -1.376706  0.002300
   scf:    6     -923.645364     -923.645364     -923.645364  0.000070 -1.377097  0.001051
   scf:    7     -923.645364     -923.645364     -923.645364  0.000058 -1.377369  0.000395

SCF Convergence by DM+H criterion
max |DM_out - DM_in|         :     0.0000576855
max |H_out - H_in|      (eV) :     0.0003945517
SCF cycle converged after 7 iterations

Using DM_out to compute the final energy and forces
No. of atoms with KB's overlaping orbs in proc 0. Max # of overlaps:       6      10

siesta: E_KS(eV) =             -923.6454

siesta: Atomic forces (eV/Ang):
     1   -0.140729    2.975649    0.460571
     2   -2.644395   -1.648715   -0.217081
     3    2.897010   -1.365760    0.109924
     4   -0.084072   -3.398256   -1.311349
     5   -2.515547    1.906106    0.984086
     6    2.531230    1.546631   -0.598949
----------------------------------------
   Tot    0.043498    0.015655   -0.572798
----------------------------------------
   Max    3.398256
   Res    1.863049    sqrt( Sum f_i^2 / 3N )
----------------------------------------
   Max    3.398256    constrained

Stress tensor Voigt[x,y,z,yz,xz,xy] (kbar):       19.66       10.17        1.66        1.01       -2.12        0.04
(Free)E + p*V (eV/cell)     -928.8851
Target enthalpy (eV/cell)     -923.6454

siesta: Stress tensor (static) (eV/Ang**3):
         0.012380    0.000011   -0.001381
         0.000011    0.006413    0.000601
        -0.001381    0.000602    0.001234

siesta: Pressure (static):        -10.69570058  kBar

siesta: Stress tensor (total) (eV/Ang**3):
         0.012268    0.000026   -0.001323
         0.000026    0.006348    0.000629
        -0.001323    0.000630    0.001033

siesta: Pressure (total):        -10.49375162  kBar

siesta: Temp_ion =     342.149 K

siesta: Program's energy decomposition (eV):
siesta: Ebs     =      -174.729951
siesta: Eions   =      1631.696139
siesta: Ena     =       351.167782
siesta: Ekin    =       677.829050
siesta: Enl     =      -106.280867
siesta: Eso     =         0.000000
siesta: Edftu   =         0.000000
siesta: DEna    =        -0.310967
siesta: DUscf   =         2.864105
siesta: DUext   =         0.000000
siesta: Ex      =      -192.545516
siesta: Ec      =       -24.672811
siesta: Exc     =      -217.218328
siesta: EbV     =         0.000000
siesta: eta*DQ  =         0.000000
siesta: Emadel  =         0.000000
siesta: Emeta   =         0.000000
siesta: Emolmec =         0.000000
siesta: Ekinion =         0.221131
siesta: Eharris =      -923.424233
siesta: Etot    =      -923.424233
siesta: FreeEng =      -923.424233

siesta: Final energy (eV):
siesta:  Band Struct. =    -174.729951
siesta:       Kinetic =     677.829050
siesta:       Hartree =     900.286726
siesta:         Edftu =       0.000000
siesta:       Eso     =       0.000000
siesta:    Ext. field =       0.000000
siesta:         Exch. =    -192.545516
siesta:         Corr. =     -24.672811
siesta:     Bulk bias =       0.000000
siesta:   Exch.-corr. =    -217.218328
siesta:  Ion-electron =   -2368.577317
siesta:       Ion-ion =      84.034504
siesta:       Ekinion =       0.221131
siesta: D3 dispersion =       0.000000
siesta:         Total =    -923.424233
siesta:         Fermi =      -1.377369

siesta: Atomic forces (eV/Ang):
siesta:      1   -0.140729    2.975649    0.460571
siesta:      2   -2.644395   -1.648715   -0.217081
siesta:      3    2.897010   -1.365760    0.109924
siesta:      4   -0.084072   -3.398256   -1.311349
siesta:      5   -2.515547    1.906106    0.984086
siesta:      6    2.531230    1.546631   -0.598949
siesta: ----------------------------------------
siesta:    Tot    0.043498    0.015655   -0.572798

siesta: Stress tensor (static) (eV/Ang**3):
siesta:     0.012380    0.000011   -0.001381
siesta:     0.000011    0.006413    0.000601
siesta:    -0.001381    0.000602    0.001234

siesta: Cell volume =        800.000957 Ang**3

siesta: Pressure (static):
siesta:                Solid            Molecule  Units
siesta:          -0.00007271          0.00000687  Ry/Bohr**3
siesta:          -0.00667573          0.00063073  eV/Ang**3
siesta:         -10.69570058          1.01053812  kBar
(Free)E+ p_basis*V_orbitals  =        -923.145977
(Free)Eharris+ p_basis*V_orbitals  =        -923.145977

siesta: Electric dipole (a.u.)  =   -0.100076    0.011635    0.000000
siesta: Electric dipole (Debye) =   -0.254369    0.029573    0.000000

cite: Please see "nose.bib" for an exhaustive BiBTeX file.
cite: Please clearly indicate Siesta version in published work: 5.0.0-alpha-120-g24fa496ce-dirty
cite: This calculation has made use of the following articles
cite: which are encouraged to be cited in a published work.
        Primary SIESTA paper
          DOI: www.doi.org/10.1088/0953-8984/14/11/302


timer: Elapsed wall time (sec) =       1.850
timer: CPU execution times (sec):

Routine            Calls   Time/call    Tot.time        %
siesta                 1       1.850       1.850   100.00
Setup                  1       0.032       0.032     1.71
bands                  1       0.000       0.000     0.00
KSV_init               1       0.000       0.000     0.00
IterGeom              10       0.182       1.818    98.27
geom_init             10       0.033       0.332    17.94
state_init            10       0.001       0.005     0.28
hsparse               10       0.000       0.000     0.02
overlap               10       0.000       0.003     0.15
Setup_H0              10       0.018       0.182     9.85
naefs                 20       0.000       0.001     0.03
MolMec                20       0.000       0.000     0.00
kinefsm               20       0.000       0.002     0.12
nlefsm                20       0.001       0.014     0.77
DHSCF_Init            10       0.017       0.166     8.99
DHSCF1                10       0.002       0.023     1.26
INITMESH              10       0.000       0.000     0.00
DHSCF2                10       0.014       0.143     7.73
REMESH                10       0.000       0.005     0.25
REORD                290       0.000       0.043     2.31
PHION                 10       0.004       0.040     2.16
COMM_BSC             450       0.000       0.053     2.86
POISON               115       0.006       0.733    39.64
fft                  230       0.002       0.556    30.05
setup_H               95       0.014       1.345    72.73
DHSCF                105       0.015       1.601    86.55
DHSCF3               105       0.014       1.472    79.56
rhoofd               105       0.001       0.053     2.84
XC                   105       0.005       0.483    26.12
GXC-CellXC           105       0.004       0.428    23.15
vmat                 105       0.000       0.044     2.39
IterSCF               85       0.014       1.210    65.42
compute_dm            85       0.000       0.004     0.23
diagon                85       0.000       0.004     0.21
r-eigvec              85       0.000       0.003     0.17
r-buildHS             85       0.000       0.000     0.00
rdiag                 85       0.000       0.003     0.16
rdiag1                85       0.000       0.000     0.02
rdiag2                85       0.000       0.000     0.02
rdiag3                85       0.000       0.002     0.08
rdiag4                85       0.000       0.000     0.01
r-buildD              85       0.000       0.000     0.02
MIXER                 75       0.000       0.001     0.03
PostSCF               10       0.027       0.272    14.71
DHSCF4                10       0.013       0.129     6.98
dfscf                 10       0.009       0.089     4.79
overfsm               10       0.000       0.000     0.02
state_analysis        10       0.000       0.001     0.06
siesta_move           10       0.000       0.002     0.09
Analysis               1       0.000       0.000     0.01
optical                1       0.000       0.000     0.00
  

>> End of run:  25-SEP-2023   9:46:05
Job completed
