Siesta Version  : 5.0.0-alpha-120-g24fa496ce-dirty
Architecture    : ----
Compiler version: GNU-11.4.0
Compiler flags  : -fallow-argument-mismatch;-O3 -march=native
PP flags        : ----
Libraries       : ----
Parallelisations: none
GEMM3M support
NetCDF support
NetCDF-4 support
Lua support

Runtime information:
* Directory : /home/fnpedron/Siesta/siesta-dev/Tests/09.MolecularDynamics/work/nose_restart
* Running in serial mode.
>> Start of run:  25-SEP-2023   9:45:51

                           *********************** 
                           *  WELCOME TO SIESTA  * 
                           *********************** 

reinit: Reading from standard input
reinit: Dumping input in INPUT_TMP.01264
************************** Dump of input data file ****************************
%include ../../basejob.fdf
SystemLabel           nose
MD.TypeOfRun          Nose
MD.InitialTemperature 100 K
MD.TargetTemperature  600 K
************************** End of input data file *****************************

reinit: -----------------------------------------------------------------------
reinit: System Name: Water molecules MD
reinit: -----------------------------------------------------------------------
reinit: System Label: nose
reinit: -----------------------------------------------------------------------

initatom: Reading input for the pseudopotentials and atomic orbitals ----------
Species number:   1 Atomic number:    8 Label: O
Species number:   2 Atomic number:    1 Label: H


---- Processing specs for species: O
Ground state valence configuration:   2s02  2p04
Reading pseudopotential information in formatted form from:
  /home/fnpedron/Siesta/siesta-dev/Tests/Pseudos/O.psf

---- Processing specs for species: H
Ground state valence configuration:   1s01
Reading pseudopotential information in formatted form from:
  /home/fnpedron/Siesta/siesta-dev/Tests/Pseudos/H.psf

---- Pseudopotential check for O 

Pseudized shells:
2s( 2.00) rc: 1.14
2p( 4.00) rc: 1.14
3d( 0.00) rc: 1.14
4f( 0.00) rc: 1.14
Valence configuration for ps generation: (assumed as above)

---- Pseudopotential check for H 

Pseudized shells:
1s( 1.00) rc: 1.25
2p( 0.00) rc: 1.25
3d( 0.00) rc: 1.25
4f( 0.00) rc: 1.25
Valence configuration for ps generation: (assumed as above)
For O, standard SIESTA heuristics set lmxkb to 2
 (one more than the basis l, including polarization orbitals).
Use PS.lmax or PS.KBprojectors blocks to override.
For H, standard SIESTA heuristics set lmxkb to 1
 (one more than the basis l, including polarization orbitals).
Use PS.lmax or PS.KBprojectors blocks to override.

<basis_specs>
===============================================================================
O                    Z=   8    Mass=  15.999        Charge= 0.17977+309
Lmxo=1 Lmxkb= 2    BasisType=split      Semic=F
L=0  Nsemic=0  Cnfigmx=2
          i=1  nzeta=1  polorb=0  (2s)
            splnorm:   0.15000    
               vcte:    0.0000    
               rinn:    0.0000    
               qcoe:    0.0000    
               qyuk:    0.0000    
               qwid:   0.10000E-01
                rcs:    0.0000    
            lambdas:    1.0000    
L=1  Nsemic=0  Cnfigmx=2
          i=1  nzeta=1  polorb=0  (2p)
            splnorm:   0.15000    
               vcte:    0.0000    
               rinn:    0.0000    
               qcoe:    0.0000    
               qyuk:    0.0000    
               qwid:   0.10000E-01
                rcs:    0.0000    
            lambdas:    1.0000    
-------------------------------------------------------------------------------
L=0  Nkbl=1  erefs: 0.17977+309
L=1  Nkbl=1  erefs: 0.17977+309
L=2  Nkbl=1  erefs: 0.17977+309
===============================================================================
</basis_specs>

atom: Called for O                     (Z =   8)

read_vps: Pseudopotential generation method:
read_vps: ATM3      Troullier-Martins                       
Valence charge in pseudo generation:    6.00000

xc_check: Exchange-correlation functional:
xc_check: Ceperley-Alder
V l=0 = -2*Zval/r beyond r=  1.1278
V l=1 = -2*Zval/r beyond r=  1.1278
V l=2 = -2*Zval/r beyond r=  1.1278
All V_l potentials equal beyond r=  1.1278
This should be close to max(r_c) in ps generation
All pots = -2*Zval/r beyond r=  1.1278
Using small-core scheme (local charge) for Vlocal

VLOCAL_FROM_CHLOCAL: 99.0% of the norm of Vloc inside     34.126 Ry
VLOCAL_FROM_CHLOCAL: 99.9% of the norm of Vloc inside     77.774 Ry
atom: Maximum radius for chlocal:    1.37759
atom: Maximum radius for r*vlocal+2*Zval:    1.24646

KBgen: Kleinman-Bylander projectors: 
GHOST: No ghost state for L =  0
   l= 0   rc=  1.294105   el= -1.742414   Ekb=  9.135903   kbcos=  0.326910
GHOST: No ghost state for L =  1
   l= 1   rc=  1.294105   el= -0.676589   Ekb= -8.124878   kbcos= -0.395047
GHOST: No ghost state for L =  2
   l= 2   rc=  1.448233   el=  0.002386   Ekb= -2.039267   kbcos= -0.003484

KBgen: Total number of Kleinman-Bylander projectors:   9
atom: -------------------------------------------------------------------------

atom: SANKEY-TYPE ORBITALS:

SPLIT: Orbitals with angular momentum L= 0

SPLIT: Basis orbitals for state 2s

SPLIT: PAO cut-off radius determined from an
SPLIT: energy shift=  0.020000 Ry

   izeta = 1
                 lambda =    1.000000
                     rc =    3.305093
                 energy =   -1.723766
                kinetic =    1.614911
    potential(screened) =   -3.338677
       potential(ionic) =  -11.304675

SPLIT: Orbitals with angular momentum L= 1

SPLIT: Basis orbitals for state 2p

SPLIT: PAO cut-off radius determined from an
SPLIT: energy shift=  0.020000 Ry

   izeta = 1
                 lambda =    1.000000
                     rc =    3.937239
                 energy =   -0.658841
                kinetic =    5.005986
    potential(screened) =   -5.664827
       potential(ionic) =  -13.452360
atom: Total number of Sankey-type orbitals:  4

atm_pop: Valence configuration (for local Pseudopot. screening):
 2s( 2.00)                                                            
 2p( 4.00)                                                            
Vna: chval, zval:    6.00000   6.00000

Vna:  Cut-off radius for the neutral-atom potential:   3.937239

atom: _________________________________________________________________________

<basis_specs>
===============================================================================
H                    Z=   1    Mass=  1.0080        Charge= 0.17977+309
Lmxo=0 Lmxkb= 1    BasisType=split      Semic=F
L=0  Nsemic=0  Cnfigmx=1
          i=1  nzeta=1  polorb=0  (1s)
            splnorm:   0.15000    
               vcte:    0.0000    
               rinn:    0.0000    
               qcoe:    0.0000    
               qyuk:    0.0000    
               qwid:   0.10000E-01
                rcs:    0.0000    
            lambdas:    1.0000    
-------------------------------------------------------------------------------
L=0  Nkbl=1  erefs: 0.17977+309
L=1  Nkbl=1  erefs: 0.17977+309
===============================================================================
</basis_specs>

atom: Called for H                     (Z =   1)

read_vps: Pseudopotential generation method:
read_vps: ATM3      Troullier-Martins                       
Valence charge in pseudo generation:    1.00000

xc_check: Exchange-correlation functional:
xc_check: Ceperley-Alder
V l=0 = -2*Zval/r beyond r=  1.2343
V l=1 = -2*Zval/r beyond r=  1.2189
All V_l potentials equal beyond r=  1.2343
This should be close to max(r_c) in ps generation
All pots = -2*Zval/r beyond r=  1.2343
Using small-core scheme (local charge) for Vlocal

VLOCAL_FROM_CHLOCAL: 99.0% of the norm of Vloc inside     28.493 Ry
VLOCAL_FROM_CHLOCAL: 99.9% of the norm of Vloc inside     64.935 Ry
atom: Maximum radius for chlocal:    1.45251
atom: Maximum radius for r*vlocal+2*Zval:    1.31405

KBgen: Kleinman-Bylander projectors: 
GHOST: No ghost state for L =  0
   l= 0   rc=  1.364359   el= -0.467325   Ekb= -2.005361   kbcos= -0.336422
GHOST: No ghost state for L =  1
   l= 1   rc=  1.434438   el=  0.001430   Ekb= -0.501708   kbcos= -0.021697

KBgen: Total number of Kleinman-Bylander projectors:   4
atom: -------------------------------------------------------------------------

atom: SANKEY-TYPE ORBITALS:

SPLIT: Orbitals with angular momentum L= 0

SPLIT: Basis orbitals for state 1s

SPLIT: PAO cut-off radius determined from an
SPLIT: energy shift=  0.020000 Ry

   izeta = 1
                 lambda =    1.000000
                     rc =    4.828263
                 energy =   -0.449375
                kinetic =    0.929372
    potential(screened) =   -1.378747
       potential(ionic) =   -1.915047
atom: Total number of Sankey-type orbitals:  1

atm_pop: Valence configuration (for local Pseudopot. screening):
 1s( 1.00)                                                            
Vna: chval, zval:    1.00000   1.00000

Vna:  Cut-off radius for the neutral-atom potential:   4.828263

atom: _________________________________________________________________________

prinput: Basis input 

PAO.BasisType split     

%block ChemicalSpeciesLabel
    1    8 O                       # Species index, atomic number, species label
    2    1 H                       # Species index, atomic number, species label
%endblock ChemicalSpeciesLabel

%block PAO.Basis                 # Define Basis set
# WARNING: This information might be incomplete!
O                     2                    # Species label, number of l-shells
 n=2   0   1                         # n, l, Nzeta 
   3.305   
   1.000   
 n=2   1   1                         # n, l, Nzeta 
   3.937   
   1.000   
H                     1                    # Species label, number of l-shells
 n=1   0   1                         # n, l, Nzeta 
   4.828   
   1.000   
%endblock PAO.Basis

prinput: ----------------------------------------------------------------------

Dumping basis to NetCDF file O.ion.nc
Dumping basis to NetCDF file H.ion.nc
coor:   Atomic-coordinates input format  =     Cartesian coordinates
coor:                                          (in Angstroms)

ioxv: Reading coordinates and velocities from file
! Info in XV file prevails over previous structure input

siesta: Atomic coordinates (Bohr) and species
siesta:      0.03549  -0.08310  -0.01252  1        1
siesta:      1.39840   1.32391   0.04288  2        2
siesta:     -1.41891   1.23109  -0.04270  2        3
siesta:     -0.02669   0.08170   5.73552  1        4
siesta:      1.35361  -1.30706   5.45036  2        5
siesta:     -1.47000  -1.22099   5.91170  2        6

siesta: System type = chain     

initatomlists: Number of atoms, orbitals, and projectors:      6    12    34

siesta: ******************** Simulation parameters ****************************
siesta:
siesta: The following are some of the parameters of the simulation.
siesta: A complete list of the parameters used, including default values,
siesta: can be found in file out.fdf
siesta:
redata: Spin configuration                          = none
redata: Number of spin components                   = 1
redata: Time-Reversal Symmetry                      = T
redata: Spin spiral                                 = F
redata: Long output                                 =   F
redata: Number of Atomic Species                    =        2
redata: Charge density info will appear in .RHO file
redata: Write Mulliken Pop.                         = NO
redata: Matel table size (NRTAB)                    =     1024
redata: Mesh Cutoff                                 =   100.0000 Ry
redata: Net charge of the system                    =     0.0000 |e|
redata: Min. number of SCF Iter                     =        0
redata: Max. number of SCF Iter                     =     1000
redata: SCF convergence failure will abort job
redata: SCF mix quantity                            = Hamiltonian
redata: Mix DM or H after convergence               =   F
redata: Recompute H after scf cycle                 =   F
redata: Mix DM in first SCF step                    =   T
redata: Write Pulay info on disk                    =   F
redata: New DM Occupancy tolerance                  = 0.000000000001
redata: No kicks to SCF
redata: DM Mixing Weight for Kicks                  =     0.5000
redata: Require Harris convergence for SCF          =   F
redata: Harris energy tolerance for SCF             =     0.000100 eV
redata: Require DM convergence for SCF              =   T
redata: DM tolerance for SCF                        =     0.000100
redata: Require EDM convergence for SCF             =   F
redata: EDM tolerance for SCF                       =     0.001000 eV
redata: Require H convergence for SCF               =   T
redata: Hamiltonian tolerance for SCF               =     0.001000 eV
redata: Require (free) Energy convergence for SCF   =   F
redata: (free) Energy tolerance for SCF             =     0.000100 eV
redata: Using DFT-D3 dispersion                     =   F
redata: Using Saved Data (generic)                  =   F
redata: Use continuation files for DM               =   F
redata: Neglect nonoverlap interactions             =   F
redata: Method of Calculation                       = Diagonalization
redata: Electronic Temperature                      =   299.9863 K
redata: Fix the spin of the system                  =   F
redata: Max. number of TDED Iter                    =        1
redata: Number of TDED substeps                     =        3
redata: Dynamics option                             = Nose thermostat MD run
redata: Initial MD time step                        =        1
redata:   Final MD time step                        =       10
redata: Length of MD time step                      =     1.0000 fs
redata: Initial Temperature of MD run               =   100.0000 K
redata: Perform a MD quench                         =   F
redata: Nose mass                                   =  1360.5693 eV*fs**2
redata: Target Temperature                          =   600.0000 Kelvin
mix.SCF: Pulay mixing                            = Pulay
mix.SCF:    Variant                              = stable
mix.SCF:    History steps                        = 2
mix.SCF:    Linear mixing weight                 =     0.250000
mix.SCF:    Mixing weight                        =     0.250000
mix.SCF:    SVD condition                        = 0.1000E-07
redata: Save all siesta data in one NC              =   F
redata: ***********************************************************************

%block SCF.Mixers
  Pulay
%endblock SCF.Mixers

%block SCF.Mixer.Pulay
  # Mixing method
  method pulay
  variant stable

  # Mixing options
  weight 0.2500
  weight.linear 0.2500
  history 2
%endblock SCF.Mixer.Pulay

Size of DM history Fstack: 1
Total number of electrons:    16.000000
Total ionic charge:    16.000000

siesta: k-grid: Number of k-points = 1
siesta: k-point is Gamma-only

diag: Algorithm                                     = D&C
diag: Used triangular part                          = Lower
diag: Absolute tolerance                            =  0.100E-15
diag: Orthogonalization factor                      =  0.100E-05
diag: Memory factor                                 =  1.0000


ts: **************************************************************
ts: Save H and S matrices                           =    F
ts: Save DM and EDM matrices                        =    F
ts: Only save the overlap matrix S                  =    F
ts: **************************************************************

************************ Begin: TS CHECKS AND WARNINGS ************************
************************ End: TS CHECKS AND WARNINGS **************************


                     ====================================
                        Begin MD step =      1
                     ====================================

outcoor: Atomic coordinates (Ang):                          
    0.01878278   -0.04397706   -0.00662297   1       1  O
    0.74000376    0.70058394    0.02268917   2       2  H
   -0.75085679    0.65146362   -0.02259542   2       3  H
   -0.01412123    0.04323322    3.03510705   1       4  O
    0.71629923   -0.69166663    2.88420871   2       5  H
   -0.77789042   -0.64612213    3.12833537   2       6  H

outcell: Unit cell vectors (Ang):
       10.000004    0.000000    0.000000
        0.000000   10.000004    0.000000
        0.000000    0.000000    8.000003

outcell: Cell vector modules (Ang)   :   10.000004   10.000004    8.000003
outcell: Cell angles (23,13,12) (deg):     90.0000     90.0000     90.0000
outcell: Cell volume (Ang**3)        :    800.0010
Gamma-point calculation with multiply-connected orbital pairs
Folding of H and S implicitly performed
<dSpData1D:S at geom step 1
  <sparsity:sparsity for geom step 1
    nrows_g=12 nrows=12 sparsity=1.0000 nnzs=144, refcount: 7>
  <dData1D:(new from dSpData1D) n=144, refcount: 1>
refcount: 1>
new_DM -- step:     1
Initializing Density Matrix...
DM filled with atomic data:
<dSpData2D:DM initialized from atoms
  <sparsity:sparsity for geom step 1
    nrows_g=12 nrows=12 sparsity=1.0000 nnzs=144, refcount: 8>
  <dData2D:DM n=144 m=1, refcount: 1>
refcount: 1>
No. of atoms with KB's overlaping orbs in proc 0. Max # of overlaps:       6       8

InitMesh: MESH = 64 x 64 x 50 = 204800
InitMesh: Mesh cutoff (required, used) =   100.000   107.960 Ry
New grid distribution [1]: sub = 2

stepf: Fermi-Dirac step function

siesta: Program's energy decomposition (eV):
siesta: Ebs     =      -143.618342
siesta: Eions   =      1631.696139
siesta: Ena     =       349.545472
siesta: Ekin    =       745.762506
siesta: Enl     =      -131.316344
siesta: Eso     =         0.000000
siesta: Edftu   =         0.000000
siesta: DEna    =       -30.914106
siesta: DUscf   =         6.876157
siesta: DUext   =         0.000000
siesta: Ex      =      -205.329297
siesta: Ec      =       -25.352054
siesta: Exc     =      -230.681351
siesta: EbV     =         0.000000
siesta: eta*DQ  =         0.000000
siesta: Emadel  =         0.000000
siesta: Emeta   =         0.000000
siesta: Emolmec =         0.000000
siesta: Ekinion =         0.000000
siesta: Eharris =      -918.154138
siesta: Etot    =      -922.423805
siesta: FreeEng =      -922.423805

        iscf     Eharris(eV)        E_KS(eV)     FreeEng(eV)     dDmax    Ef(eV) dHmax(eV)
   scf:    1     -918.154138     -922.423805     -922.423805  0.663639 -3.739128  6.681296
timer: Routine,Calls,Time,% = IterSCF        1       0.015  15.91
   scf:    2     -925.236774     -923.995636     -923.995636  0.134191 -3.010773  3.223460
   scf:    3     -924.610819     -924.435109     -924.435109  0.114513 -2.435696  0.746821
   scf:    4     -924.457147     -924.446452     -924.446452  0.010643 -2.500958  0.535271
   scf:    5     -924.464398     -924.456199     -924.456199  0.023771 -2.611875  0.131895
   scf:    6     -924.456734     -924.456485     -924.456485  0.003650 -2.614884  0.073291
   scf:    7     -924.456527     -924.456517     -924.456517  0.002130 -2.613061  0.022399
   scf:    8     -924.456525     -924.456521     -924.456521  0.000136 -2.610684  0.012612
   scf:    9     -924.456532     -924.456527     -924.456527  0.000411 -2.606675  0.006505
   scf:   10     -924.456529     -924.456528     -924.456528  0.000184 -2.605854  0.003828
   scf:   11     -924.456529     -924.456528     -924.456528  0.000191 -2.605141  0.002754
   scf:   12     -924.456528     -924.456528     -924.456528  0.000027 -2.605128  0.002122
   scf:   13     -924.456528     -924.456528     -924.456528  0.000034 -2.605184  0.000797

SCF Convergence by DM+H criterion
max |DM_out - DM_in|         :     0.0000344595
max |H_out - H_in|      (eV) :     0.0007967227
SCF cycle converged after 13 iterations

Using DM_out to compute the final energy and forces
No. of atoms with KB's overlaping orbs in proc 0. Max # of overlaps:       6       8

siesta: E_KS(eV) =             -924.4565

siesta: E_KS - E_eggbox =      -924.4565

siesta: Atomic forces (eV/Ang):
     1    0.077969   -1.707717    0.198213
     2    2.218869    0.978141    0.171546
     3   -2.268802    0.812380    0.042386
     4    0.548798    1.621919    0.215061
     5    1.696951   -0.668781   -0.439696
     6   -2.262719   -1.044993    0.242861
----------------------------------------
   Tot    0.011066   -0.009050    0.430370
----------------------------------------
   Max    2.268802
   Res    1.234901    sqrt( Sum f_i^2 / 3N )
----------------------------------------
   Max    2.268802    constrained

Stress tensor Voigt[x,y,z,yz,xz,xy] (kbar):      -16.42       -6.07       -0.07       -0.51        0.72       -0.65
(Free)E + p*V (eV/cell)     -920.7029
Target enthalpy (eV/cell)     -924.4565

siesta: Stress tensor (static) (eV/Ang**3):
        -0.007873   -0.000478    0.000525
        -0.000478   -0.003133   -0.000378
         0.000525   -0.000378    0.000028

siesta: Pressure (static):          5.86336870  kBar

siesta: Stress tensor (total) (eV/Ang**3):
        -0.010248   -0.000406    0.000447
        -0.000406   -0.003787   -0.000321
         0.000447   -0.000321   -0.000041

siesta: Pressure (total):          7.51753295  kBar
 MD restart: Read old positions and Nose variables from NOSE_RESTART

siesta: Temp_ion =    1531.777 K

                     ====================================
                        Begin MD step =      2
                     ====================================

outcoor: Atomic coordinates (Ang):                          
    0.02059872   -0.04294381   -0.00679031   1       1  O
    0.69779363    0.66977939    0.02884144   2       2  H
   -0.70787066    0.61670422   -0.01942231   2       3  H
   -0.01491345    0.04311193    3.04049579   1       4  O
    0.65529298   -0.66216631    2.87264837   2       5  H
   -0.73338255   -0.62442631    3.13438816   2       6  H

outcell: Unit cell vectors (Ang):
       10.000004    0.000000    0.000000
        0.000000   10.000004    0.000000
        0.000000    0.000000    8.000003

outcell: Cell vector modules (Ang)   :   10.000004   10.000004    8.000003
outcell: Cell angles (23,13,12) (deg):     90.0000     90.0000     90.0000
outcell: Cell volume (Ang**3)        :    800.0010
Gamma-point calculation with multiply-connected orbital pairs
Folding of H and S implicitly performed
<dSpData1D:S at geom step 2
  <sparsity:sparsity for geom step 2
    nrows_g=12 nrows=12 sparsity=1.0000 nnzs=144, refcount: 7>
  <dData1D:(new from dSpData1D) n=144, refcount: 1>
refcount: 1>
new_DM -- step:     2
Re-using DM from previous geometries...
Number of DMs in history: 1
 DM extrapolation coefficients: 
1   1.00000
New DM after history re-use:
<dSpData2D:SpM extrapolated using coords
  <sparsity:sparsity for geom step 2
    nrows_g=12 nrows=12 sparsity=1.0000 nnzs=144, refcount: 9>
  <dData2D:(temp array for extrapolation) n=144 m=1, refcount: 1>
refcount: 1>
No. of atoms with KB's overlaping orbs in proc 0. Max # of overlaps:       6       8

InitMesh: MESH = 64 x 64 x 50 = 204800
InitMesh: Mesh cutoff (required, used) =   100.000   107.960 Ry
New grid distribution [1]: sub = 2

        iscf     Eharris(eV)        E_KS(eV)     FreeEng(eV)     dDmax    Ef(eV) dHmax(eV)
   scf:    1     -922.328159     -923.616430     -923.616430  0.097916 -2.189062  0.934743
   scf:    2     -923.414612     -923.590024     -923.590024  0.084362 -1.706914  1.246015
   scf:    3     -923.706626     -923.671970     -923.671970  0.047821 -1.992234  0.085740
   scf:    4     -923.672260     -923.672118     -923.672118  0.001632 -2.000186  0.061253
   scf:    5     -923.672369     -923.672259     -923.672259  0.004112 -2.022839  0.008235
   scf:    6     -923.672262     -923.672260     -923.672260  0.000132 -2.024419  0.003971
   scf:    7     -923.672261     -923.672261     -923.672261  0.000131 -2.025680  0.001119
   scf:    8     -923.672261     -923.672261     -923.672261  0.000023 -2.025680  0.000792

SCF Convergence by DM+H criterion
max |DM_out - DM_in|         :     0.0000228043
max |H_out - H_in|      (eV) :     0.0007916941
SCF cycle converged after 8 iterations

Using DM_out to compute the final energy and forces
No. of atoms with KB's overlaping orbs in proc 0. Max # of overlaps:       6       8

siesta: E_KS(eV) =             -923.6723

siesta: Atomic forces (eV/Ang):
     1    0.265166   -4.869565    0.146207
     2    4.412799    2.642143    0.294958
     3   -4.652744    2.342654   -0.007412
     4    0.285530    4.649808    0.276124
     5    4.152723   -2.439311   -1.073866
     6   -4.451172   -2.329983    0.608142
----------------------------------------
   Tot    0.012301   -0.004253    0.244153
----------------------------------------
   Max    4.869565
   Res    2.879234    sqrt( Sum f_i^2 / 3N )
----------------------------------------
   Max    4.869565    constrained

Stress tensor Voigt[x,y,z,yz,xz,xy] (kbar):      -27.58      -14.39       -0.24       -0.98        1.77       -0.04
(Free)E + p*V (eV/cell)     -916.6475
Target enthalpy (eV/cell)     -923.6723

siesta: Stress tensor (static) (eV/Ang**3):
        -0.015433   -0.000145    0.001196
        -0.000145   -0.008385   -0.000680
         0.001196   -0.000680   -0.000068

siesta: Pressure (static):         12.75637315  kBar

siesta: Stress tensor (total) (eV/Ang**3):
        -0.017211   -0.000023    0.001102
        -0.000022   -0.008984   -0.000609
         0.001102   -0.000609   -0.000147

siesta: Pressure (total):         14.06863070  kBar

siesta: Temp_ion =     442.023 K

                     ====================================
                        Begin MD step =      3
                     ====================================

outcoor: Atomic coordinates (Ang):                          
    0.02256468   -0.04482414   -0.00686953   1       1  O
    0.69761623    0.66416724    0.03776191   2       2  H
   -0.70919580    0.60431594   -0.01633410   2       3  H
   -0.01553146    0.04576876    3.04602465   1       4  O
    0.63394024   -0.65592930    2.85095983   2       5  H
   -0.73128183   -0.62492129    3.14617893   2       6  H

outcell: Unit cell vectors (Ang):
       10.000004    0.000000    0.000000
        0.000000   10.000004    0.000000
        0.000000    0.000000    8.000003

outcell: Cell vector modules (Ang)   :   10.000004   10.000004    8.000003
outcell: Cell angles (23,13,12) (deg):     90.0000     90.0000     90.0000
outcell: Cell volume (Ang**3)        :    800.0010
Gamma-point calculation with multiply-connected orbital pairs
Folding of H and S implicitly performed
<dSpData1D:S at geom step 3
  <sparsity:sparsity for geom step 3
    nrows_g=12 nrows=12 sparsity=1.0000 nnzs=144, refcount: 7>
  <dData1D:(new from dSpData1D) n=144, refcount: 1>
refcount: 1>
new_DM -- step:     3
Re-using DM from previous geometries...
Number of DMs in history: 1
 DM extrapolation coefficients: 
1   1.00000
New DM after history re-use:
<dSpData2D:SpM extrapolated using coords
  <sparsity:sparsity for geom step 3
    nrows_g=12 nrows=12 sparsity=1.0000 nnzs=144, refcount: 9>
  <dData2D:(temp array for extrapolation) n=144 m=1, refcount: 1>
refcount: 1>
No. of atoms with KB's overlaping orbs in proc 0. Max # of overlaps:       6       8

InitMesh: MESH = 64 x 64 x 50 = 204800
InitMesh: Mesh cutoff (required, used) =   100.000   107.960 Ry
New grid distribution [1]: sub = 2

        iscf     Eharris(eV)        E_KS(eV)     FreeEng(eV)     dDmax    Ef(eV) dHmax(eV)
   scf:    1     -923.468528     -923.573909     -923.573909  0.028387 -1.974016  0.120860
   scf:    2     -923.572618     -923.573975     -923.573975  0.010631 -1.934973  0.118562
   scf:    3     -923.575014     -923.574693     -923.574693  0.005383 -1.958423  0.016049
   scf:    4     -923.574717     -923.574706     -923.574706  0.000515 -1.960248  0.011097
   scf:    5     -923.574726     -923.574717     -923.574717  0.001229 -1.964163  0.002268
   scf:    6     -923.574717     -923.574717     -923.574717  0.000057 -1.964211  0.001195
   scf:    7     -923.574717     -923.574717     -923.574717  0.000055 -1.964280  0.000365

SCF Convergence by DM+H criterion
max |DM_out - DM_in|         :     0.0000551216
max |H_out - H_in|      (eV) :     0.0003645859
SCF cycle converged after 7 iterations

Using DM_out to compute the final energy and forces
No. of atoms with KB's overlaping orbs in proc 0. Max # of overlaps:       6       8

siesta: E_KS(eV) =             -923.5747

siesta: Atomic forces (eV/Ang):
     1    0.346787   -5.166092    0.107901
     2    4.506888    2.801762    0.341700
     3   -4.823798    2.486802   -0.005449
     4   -0.228843    5.022551    0.316538
     5    4.705539   -2.911232   -1.402748
     6   -4.490989   -2.231136    0.705395
----------------------------------------
   Tot    0.015583    0.002656    0.063339
----------------------------------------
   Max    5.166092
   Res    3.056509    sqrt( Sum f_i^2 / 3N )
----------------------------------------
   Max    5.166092    constrained

Stress tensor Voigt[x,y,z,yz,xz,xy] (kbar):      -26.38      -14.58       -0.44       -1.41        2.22        0.59
(Free)E + p*V (eV/cell)     -916.6861
Target enthalpy (eV/cell)     -923.5747

siesta: Stress tensor (static) (eV/Ang**3):
        -0.016046    0.000287    0.001482
         0.000288   -0.008921   -0.000919
         0.001482   -0.000918   -0.000156

siesta: Pressure (static):         13.41719153  kBar

siesta: Stress tensor (total) (eV/Ang**3):
        -0.016462    0.000368    0.001386
         0.000369   -0.009097   -0.000879
         0.001386   -0.000879   -0.000273

siesta: Pressure (total):         13.79586774  kBar

siesta: Temp_ion =     311.466 K

                     ====================================
                        Begin MD step =      4
                     ====================================

outcoor: Atomic coordinates (Ang):                          
    0.02472919   -0.04978249   -0.00688395   1       1  O
    0.74017451    0.68514642    0.04988322   2       2  H
   -0.75625500    0.61556228   -0.01331112   2       3  H
   -0.01628347    0.05141443    3.05171832   1       4  O
    0.65729988   -0.67732438    2.81606558   2       5  H
   -0.77177448   -0.64657002    3.16460654   2       6  H

outcell: Unit cell vectors (Ang):
       10.000004    0.000000    0.000000
        0.000000   10.000004    0.000000
        0.000000    0.000000    8.000003

outcell: Cell vector modules (Ang)   :   10.000004   10.000004    8.000003
outcell: Cell angles (23,13,12) (deg):     90.0000     90.0000     90.0000
outcell: Cell volume (Ang**3)        :    800.0010
Gamma-point calculation with multiply-connected orbital pairs
Folding of H and S implicitly performed
<dSpData1D:S at geom step 4
  <sparsity:sparsity for geom step 4
    nrows_g=12 nrows=12 sparsity=1.0000 nnzs=144, refcount: 7>
  <dData1D:(new from dSpData1D) n=144, refcount: 1>
refcount: 1>
new_DM -- step:     4
Re-using DM from previous geometries...
Number of DMs in history: 1
 DM extrapolation coefficients: 
1   1.00000
New DM after history re-use:
<dSpData2D:SpM extrapolated using coords
  <sparsity:sparsity for geom step 4
    nrows_g=12 nrows=12 sparsity=1.0000 nnzs=144, refcount: 9>
  <dData2D:(temp array for extrapolation) n=144 m=1, refcount: 1>
refcount: 1>
No. of atoms with KB's overlaping orbs in proc 0. Max # of overlaps:       6       8

InitMesh: MESH = 64 x 64 x 50 = 204800
InitMesh: Mesh cutoff (required, used) =   100.000   107.960 Ry
New grid distribution [1]: sub = 2

        iscf     Eharris(eV)        E_KS(eV)     FreeEng(eV)     dDmax    Ef(eV) dHmax(eV)
   scf:    1     -925.106223     -924.299508     -924.299508  0.084769 -2.317621  0.872960
   scf:    2     -924.068196     -924.261254     -924.261254  0.085593 -2.772502  1.276813
   scf:    3     -924.386755     -924.349713     -924.349713  0.048602 -2.499945  0.066744
   scf:    4     -924.349883     -924.349800     -924.349800  0.001120 -2.491614  0.049020
   scf:    5     -924.349988     -924.349899     -924.349899  0.002669 -2.475709  0.008145
   scf:    6     -924.349909     -924.349904     -924.349904  0.000448 -2.474348  0.002460
   scf:    7     -924.349905     -924.349905     -924.349905  0.000173 -2.473959  0.000629
   scf:    8     -924.349905     -924.349905     -924.349905  0.000014 -2.474007  0.000425

SCF Convergence by DM+H criterion
max |DM_out - DM_in|         :     0.0000142673
max |H_out - H_in|      (eV) :     0.0004247508
SCF cycle converged after 8 iterations

Using DM_out to compute the final energy and forces
No. of atoms with KB's overlaping orbs in proc 0. Max # of overlaps:       6       8

siesta: E_KS(eV) =             -924.3499

siesta: Atomic forces (eV/Ang):
     1    0.209258   -2.332513    0.164933
     2    2.361307    1.308091    0.234415
     3   -2.529354    1.119862    0.041606
     4   -0.400514    2.201059    0.014135
     5    2.764177   -1.458180   -0.985831
     6   -2.384793   -0.829604    0.422667
----------------------------------------
   Tot    0.020081    0.008715   -0.108075
----------------------------------------
   Max    2.764177
   Res    1.542097    sqrt( Sum f_i^2 / 3N )
----------------------------------------
   Max    2.764177    constrained

Stress tensor Voigt[x,y,z,yz,xz,xy] (kbar):      -14.97       -6.80       -0.45       -1.31        1.75        0.56
(Free)E + p*V (eV/cell)     -920.6498
Target enthalpy (eV/cell)     -924.3499

siesta: Stress tensor (static) (eV/Ang**3):
        -0.009153    0.000380    0.001063
         0.000380   -0.004156   -0.000754
         0.001063   -0.000754   -0.000067

siesta: Pressure (static):          7.14350565  kBar

siesta: Stress tensor (total) (eV/Ang**3):
        -0.009346    0.000351    0.001094
         0.000351   -0.004247   -0.000819
         0.001094   -0.000819   -0.000283

siesta: Pressure (total):          7.41033511  kBar

siesta: Temp_ion =    1360.181 K

                     ====================================
                        Begin MD step =      5
                     ====================================

outcoor: Atomic coordinates (Ang):                          
    0.02700869   -0.05611125   -0.00679978   1       1  O
    0.80492396    0.71843082    0.06417105   2       2  H
   -0.82707784    0.63737417   -0.00990763   2       3  H
   -0.01727125    0.05834883    3.05739414   1       4  O
    0.70675900   -0.71244575    2.77198575   2       5  H
   -0.83469051   -0.67598429    3.18695637   2       6  H

outcell: Unit cell vectors (Ang):
       10.000004    0.000000    0.000000
        0.000000   10.000004    0.000000
        0.000000    0.000000    8.000003

outcell: Cell vector modules (Ang)   :   10.000004   10.000004    8.000003
outcell: Cell angles (23,13,12) (deg):     90.0000     90.0000     90.0000
outcell: Cell volume (Ang**3)        :    800.0010
Gamma-point calculation with multiply-connected orbital pairs
Folding of H and S implicitly performed
<dSpData1D:S at geom step 5
  <sparsity:sparsity for geom step 5
    nrows_g=12 nrows=12 sparsity=1.0000 nnzs=144, refcount: 7>
  <dData1D:(new from dSpData1D) n=144, refcount: 1>
refcount: 1>
new_DM -- step:     5
Re-using DM from previous geometries...
Number of DMs in history: 1
 DM extrapolation coefficients: 
1   1.00000
New DM after history re-use:
<dSpData2D:SpM extrapolated using coords
  <sparsity:sparsity for geom step 5
    nrows_g=12 nrows=12 sparsity=1.0000 nnzs=144, refcount: 9>
  <dData2D:(temp array for extrapolation) n=144 m=1, refcount: 1>
refcount: 1>
Note: For starting DM, Qtot, Tr[D*S] =         16.00000000         15.98026563
No. of atoms with KB's overlaping orbs in proc 0. Max # of overlaps:       6       8

InitMesh: MESH = 64 x 64 x 50 = 204800
InitMesh: Mesh cutoff (required, used) =   100.000   107.960 Ry
New grid distribution [1]: sub = 2

        iscf     Eharris(eV)        E_KS(eV)     FreeEng(eV)     dDmax    Ef(eV) dHmax(eV)
   scf:    1     -925.504990     -924.573570     -924.573570  0.132060 -2.961005  1.533305
   scf:    2     -923.456069     -924.339631     -924.339631  0.165387 -3.737579  2.657892
   scf:    3     -924.890781     -924.736092     -924.736092  0.098552 -3.243177  0.114032
   scf:    4     -924.736650     -924.736389     -924.736389  0.001577 -3.225422  0.085291
   scf:    5     -924.736938     -924.736675     -924.736675  0.003272 -3.204993  0.032622
   scf:    6     -924.736782     -924.736733     -924.736733  0.001801 -3.197025  0.005230
   scf:    7     -924.736738     -924.736736     -924.736736  0.000373 -3.195916  0.001365
   scf:    8     -924.736737     -924.736736     -924.736736  0.000052 -3.195900  0.000632

SCF Convergence by DM+H criterion
max |DM_out - DM_in|         :     0.0000521082
max |H_out - H_in|      (eV) :     0.0006319606
SCF cycle converged after 8 iterations

Using DM_out to compute the final energy and forces
No. of atoms with KB's overlaping orbs in proc 0. Max # of overlaps:       6       8

siesta: E_KS(eV) =             -924.7367

siesta: Atomic forces (eV/Ang):
     1    0.028220    0.606242    0.277256
     2    0.007551   -0.271080    0.067989
     3    0.020822   -0.282219    0.084112
     4   -0.302811   -0.868541   -0.471391
     5    0.370331    0.298879   -0.248668
     6   -0.098099    0.534500    0.031822
----------------------------------------
   Tot    0.026014    0.017782   -0.258879
----------------------------------------
   Max    0.868541
   Res    0.354606    sqrt( Sum f_i^2 / 3N )
----------------------------------------
   Max    0.868541    constrained

Stress tensor Voigt[x,y,z,yz,xz,xy] (kbar):       -2.83        1.39       -0.24       -0.84        0.88        0.29
(Free)E + p*V (eV/cell)     -924.4560
Target enthalpy (eV/cell)     -924.7367

siesta: Stress tensor (static) (eV/Ang**3):
        -0.000403    0.000248    0.000281
         0.000248    0.001335   -0.000322
         0.000282   -0.000321    0.000197

siesta: Pressure (static):         -0.60309858  kBar

siesta: Stress tensor (total) (eV/Ang**3):
        -0.001767    0.000184    0.000549
         0.000184    0.000866   -0.000527
         0.000549   -0.000527   -0.000152

siesta: Pressure (total):          0.56215410  kBar

siesta: Temp_ion =    1928.186 K

                     ====================================
                        Begin MD step =      6
                     ====================================

outcoor: Atomic coordinates (Ang):                          
    0.02929227   -0.06204259   -0.00655054   1       1  O
    0.86938203    0.74895979    0.07902309   2       2  H
   -0.89730639    0.65638939   -0.00572614   2       3  H
   -0.01843428    0.06472579    3.06275669   1       4  O
    0.75945029   -0.74453797    2.72579653   2       5  H
   -0.89818351   -0.70016857    3.20948249   2       6  H

outcell: Unit cell vectors (Ang):
       10.000004    0.000000    0.000000
        0.000000   10.000004    0.000000
        0.000000    0.000000    8.000003

outcell: Cell vector modules (Ang)   :   10.000004   10.000004    8.000003
outcell: Cell angles (23,13,12) (deg):     90.0000     90.0000     90.0000
outcell: Cell volume (Ang**3)        :    800.0010
Gamma-point calculation with multiply-connected orbital pairs
Folding of H and S implicitly performed
<dSpData1D:S at geom step 6
  <sparsity:sparsity for geom step 6
    nrows_g=12 nrows=12 sparsity=1.0000 nnzs=144, refcount: 7>
  <dData1D:(new from dSpData1D) n=144, refcount: 1>
refcount: 1>
new_DM -- step:     6
Re-using DM from previous geometries...
Number of DMs in history: 1
 DM extrapolation coefficients: 
1   1.00000
New DM after history re-use:
<dSpData2D:SpM extrapolated using coords
  <sparsity:sparsity for geom step 6
    nrows_g=12 nrows=12 sparsity=1.0000 nnzs=144, refcount: 9>
  <dData2D:(temp array for extrapolation) n=144 m=1, refcount: 1>
refcount: 1>
Note: For starting DM, Qtot, Tr[D*S] =         16.00000000         15.96210699
No. of atoms with KB's overlaping orbs in proc 0. Max # of overlaps:       6       8

InitMesh: MESH = 64 x 64 x 50 = 204800
InitMesh: Mesh cutoff (required, used) =   100.000   107.960 Ry
New grid distribution [1]: sub = 2

        iscf     Eharris(eV)        E_KS(eV)     FreeEng(eV)     dDmax    Ef(eV) dHmax(eV)
   scf:    1     -924.905679     -924.230604     -924.230604  0.126680 -0.477978  1.665789
   scf:    2     -922.258240     -923.761283     -923.761283  0.202287 -4.430775  3.378793
   scf:    3     -924.671079     -924.430429     -924.430429  0.127616 -3.870702  0.125505
   scf:    4     -924.431284     -924.430904     -924.430904  0.001802 -3.849987  0.094442
   scf:    5     -924.431608     -924.431269     -924.431269  0.002979 -3.832450  0.043614
   scf:    6     -924.431458     -924.431373     -924.431373  0.002407 -3.821042  0.004329
   scf:    7     -924.431376     -924.431375     -924.431375  0.000267 -3.820154  0.001248
   scf:    8     -924.431375     -924.431375     -924.431375  0.000048 -3.820049  0.000695

SCF Convergence by DM+H criterion
max |DM_out - DM_in|         :     0.0000475167
max |H_out - H_in|      (eV) :     0.0006954635
SCF cycle converged after 8 iterations

Using DM_out to compute the final energy and forces
No. of atoms with KB's overlaping orbs in proc 0. Max # of overlaps:       6       8

siesta: E_KS(eV) =             -924.4314

siesta: Atomic forces (eV/Ang):
     1   -0.085529    2.321009    0.376270
     2   -1.523647   -1.220953   -0.066698
     3    1.678418   -1.088251    0.104909
     4   -0.209581   -2.706137   -0.872456
     5   -1.233878    1.389425    0.349241
     6    1.403942    1.325174   -0.267419
----------------------------------------
   Tot    0.029725    0.020266   -0.376153
----------------------------------------
   Max    2.706137
   Res    1.266379    sqrt( Sum f_i^2 / 3N )
----------------------------------------
   Max    2.706137    constrained

Stress tensor Voigt[x,y,z,yz,xz,xy] (kbar):        6.78        6.96        0.14       -0.26       -0.06        0.16
(Free)E + p*V (eV/cell)     -926.7407
Target enthalpy (eV/cell)     -924.4314

siesta: Stress tensor (static) (eV/Ang**3):
         0.006301    0.000136   -0.000447
         0.000136    0.004943    0.000099
        -0.000447    0.000099    0.000509

siesta: Pressure (static):         -6.27678772  kBar

siesta: Stress tensor (total) (eV/Ang**3):
         0.004231    0.000102   -0.000037
         0.000102    0.004345   -0.000166
        -0.000037   -0.000165    0.000084

siesta: Pressure (total):         -4.62493099  kBar

siesta: Temp_ion =    1492.741 K

                     ====================================
                        Begin MD step =      7
                     ====================================

outcoor: Atomic coordinates (Ang):                          
    0.03150962   -0.06654943   -0.00607843   1       1  O
    0.91898014    0.76772149    0.09314458   2       2  H
   -0.95117067    0.66497083   -0.00057884   2       3  H
   -0.01971464    0.06944547    3.06756294   1       4  O
    0.80010443   -0.76325686    2.68322244   2       5  H
   -0.94795674   -0.71164068    3.22932589   2       6  H

outcell: Unit cell vectors (Ang):
       10.000004    0.000000    0.000000
        0.000000   10.000004    0.000000
        0.000000    0.000000    8.000003

outcell: Cell vector modules (Ang)   :   10.000004   10.000004    8.000003
outcell: Cell angles (23,13,12) (deg):     90.0000     90.0000     90.0000
outcell: Cell volume (Ang**3)        :    800.0010
Gamma-point calculation with multiply-connected orbital pairs
Folding of H and S implicitly performed
<dSpData1D:S at geom step 7
  <sparsity:sparsity for geom step 7
    nrows_g=12 nrows=12 sparsity=1.0000 nnzs=144, refcount: 7>
  <dData1D:(new from dSpData1D) n=144, refcount: 1>
refcount: 1>
new_DM -- step:     7
Re-using DM from previous geometries...
Number of DMs in history: 1
 DM extrapolation coefficients: 
1   1.00000
New DM after history re-use:
<dSpData2D:SpM extrapolated using coords
  <sparsity:sparsity for geom step 7
    nrows_g=12 nrows=12 sparsity=1.0000 nnzs=144, refcount: 9>
  <dData2D:(temp array for extrapolation) n=144 m=1, refcount: 1>
refcount: 1>
Note: For starting DM, Qtot, Tr[D*S] =         16.00000000         15.96222928
No. of atoms with KB's overlaping orbs in proc 0. Max # of overlaps:       6       8

InitMesh: MESH = 64 x 64 x 50 = 204800
InitMesh: Mesh cutoff (required, used) =   100.000   107.960 Ry
New grid distribution [1]: sub = 2

        iscf     Eharris(eV)        E_KS(eV)     FreeEng(eV)     dDmax    Ef(eV) dHmax(eV)
   scf:    1     -924.257345     -923.791348     -923.791348  0.087828 -1.089650  1.274258
   scf:    2     -922.236312     -923.395845     -923.395845  0.169399 -4.715139  2.910026
   scf:    3     -924.082663     -923.911832     -923.911832  0.111703 -1.274576  0.102138
   scf:    4     -923.912467     -923.912179     -923.912179  0.001282 -1.261703  0.075240
   scf:    5     -923.912691     -923.912449     -923.912449  0.002440 -1.250041  0.030835
   scf:    6     -923.912547     -923.912503     -923.912503  0.001635 -1.243587  0.002560
   scf:    7     -923.912504     -923.912504     -923.912504  0.000134 -1.243174  0.001116
   scf:    8     -923.912504     -923.912504     -923.912504  0.000032 -1.243094  0.000615

SCF Convergence by DM+H criterion
max |DM_out - DM_in|         :     0.0000317761
max |H_out - H_in|      (eV) :     0.0006148251
SCF cycle converged after 8 iterations

Using DM_out to compute the final energy and forces
No. of atoms with KB's overlaping orbs in proc 0. Max # of overlaps:       6       8

siesta: E_KS(eV) =             -923.9125

siesta: Atomic forces (eV/Ang):
     1   -0.135748    3.056241    0.438914
     2   -2.316902   -1.648831   -0.153594
     3    2.537496   -1.424534    0.111665
     4   -0.163666   -3.499765   -1.126858
     5   -2.078977    1.880594    0.719788
     6    2.194263    1.654664   -0.452410
----------------------------------------
   Tot    0.036467    0.018369   -0.462494
----------------------------------------
   Max    3.499765
   Res    1.761026    sqrt( Sum f_i^2 / 3N )
----------------------------------------
   Max    3.499765    constrained

Stress tensor Voigt[x,y,z,yz,xz,xy] (kbar):       13.99       10.10        0.63        0.30       -0.95        0.11
(Free)E + p*V (eV/cell)     -928.0259
Target enthalpy (eV/cell)     -923.9125

siesta: Stress tensor (static) (eV/Ang**3):
         0.010374    0.000081   -0.000963
         0.000081    0.006652    0.000396
        -0.000963    0.000397    0.000794

siesta: Pressure (static):         -9.51680185  kBar

siesta: Stress tensor (total) (eV/Ang**3):
         0.008730    0.000071   -0.000595
         0.000070    0.006302    0.000189
        -0.000595    0.000189    0.000394

siesta: Pressure (total):         -8.23798689  kBar

siesta: Temp_ion =     716.660 K

                     ====================================
                        Begin MD step =      8
                     ====================================

outcoor: Atomic coordinates (Ang):                          
    0.03363016   -0.06920080   -0.00534783   1       1  O
    0.94628555    0.77073642    0.10571098   2       2  H
   -0.98062301    0.66000197    0.00558913   2       3  H
   -0.02108352    0.07204357    3.07166265   1       4  O
    0.82078258   -0.76403467    2.64776769   2       5  H
   -0.97659731   -0.70736275    3.24474387   2       6  H

outcell: Unit cell vectors (Ang):
       10.000004    0.000000    0.000000
        0.000000   10.000004    0.000000
        0.000000    0.000000    8.000003

outcell: Cell vector modules (Ang)   :   10.000004   10.000004    8.000003
outcell: Cell angles (23,13,12) (deg):     90.0000     90.0000     90.0000
outcell: Cell volume (Ang**3)        :    800.0010
Gamma-point calculation with multiply-connected orbital pairs
Folding of H and S implicitly performed
<dSpData1D:S at geom step 8
  <sparsity:sparsity for geom step 8
    nrows_g=12 nrows=12 sparsity=1.0000 nnzs=144, refcount: 7>
  <dData1D:(new from dSpData1D) n=144, refcount: 1>
refcount: 1>
new_DM -- step:     8
Re-using DM from previous geometries...
Number of DMs in history: 1
 DM extrapolation coefficients: 
1   1.00000
New DM after history re-use:
<dSpData2D:SpM extrapolated using coords
  <sparsity:sparsity for geom step 8
    nrows_g=12 nrows=12 sparsity=1.0000 nnzs=144, refcount: 9>
  <dData2D:(temp array for extrapolation) n=144 m=1, refcount: 1>
refcount: 1>
Note: For starting DM, Qtot, Tr[D*S] =         16.00000000         15.98070713
No. of atoms with KB's overlaping orbs in proc 0. Max # of overlaps:       6       8

InitMesh: MESH = 64 x 64 x 50 = 204800
InitMesh: Mesh cutoff (required, used) =   100.000   107.960 Ry
New grid distribution [1]: sub = 2

        iscf     Eharris(eV)        E_KS(eV)     FreeEng(eV)     dDmax    Ef(eV) dHmax(eV)
   scf:    1     -923.840382     -923.574313     -923.574313  0.031048 -1.397889  0.549725
   scf:    2     -923.241299     -923.487274     -923.487274  0.076483 -1.663485  1.320092
   scf:    3     -923.630822     -923.596973     -923.596973  0.052362 -1.475380  0.052266
   scf:    4     -923.597164     -923.597071     -923.597071  0.000965 -1.471204  0.037072
   scf:    5     -923.597234     -923.597160     -923.597160  0.001902 -1.464751  0.006185
   scf:    6     -923.597165     -923.597163     -923.597163  0.000339 -1.463837  0.001683
   scf:    7     -923.597163     -923.597163     -923.597163  0.000052 -1.463734  0.000815

SCF Convergence by DM+H criterion
max |DM_out - DM_in|         :     0.0000523589
max |H_out - H_in|      (eV) :     0.0008154824
SCF cycle converged after 7 iterations

Using DM_out to compute the final energy and forces
No. of atoms with KB's overlaping orbs in proc 0. Max # of overlaps:       6       8

siesta: E_KS(eV) =             -923.5972

siesta: Atomic forces (eV/Ang):
     1   -0.149172    3.202554    0.464430
     2   -2.642110   -1.753269   -0.200455
     3    2.891501   -1.481326    0.112280
     4   -0.127759   -3.653453   -1.262123
     5   -2.454838    2.010865    0.913799
     6    2.520402    1.694346   -0.555164
----------------------------------------
   Tot    0.038024    0.019717   -0.527233
----------------------------------------
   Max    3.653453
   Res    1.922818    sqrt( Sum f_i^2 / 3N )
----------------------------------------
   Max    3.653453    constrained

Stress tensor Voigt[x,y,z,yz,xz,xy] (kbar):       18.47       11.08        1.18        0.74       -1.67        0.07
(Free)E + p*V (eV/cell)     -928.7122
Target enthalpy (eV/cell)     -923.5972

siesta: Stress tensor (static) (eV/Ang**3):
         0.012282    0.000045   -0.001265
         0.000044    0.007003    0.000553
        -0.001264    0.000554    0.001047

siesta: Pressure (static):        -10.85794830  kBar

siesta: Stress tensor (total) (eV/Ang**3):
         0.011525    0.000047   -0.001045
         0.000046    0.006918    0.000462
        -0.001045    0.000463    0.000738

siesta: Pressure (total):        -10.24399339  kBar

siesta: Temp_ion =     238.409 K

                     ====================================
                        Begin MD step =      9
                     ====================================

outcoor: Atomic coordinates (Ang):                          
    0.03564684   -0.06992285   -0.00434527   1       1  O
    0.94837949    0.75712730    0.11629098   2       2  H
   -0.98248716    0.64104028    0.01277709   2       3  H
   -0.02251902    0.07244370    3.07498058   1       4  O
    0.81806915   -0.74576478    2.62121502   2       5  H
   -0.98116957   -0.68706991    3.25479648   2       6  H

outcell: Unit cell vectors (Ang):
       10.000004    0.000000    0.000000
        0.000000   10.000004    0.000000
        0.000000    0.000000    8.000003

outcell: Cell vector modules (Ang)   :   10.000004   10.000004    8.000003
outcell: Cell angles (23,13,12) (deg):     90.0000     90.0000     90.0000
outcell: Cell volume (Ang**3)        :    800.0010
Gamma-point calculation with multiply-connected orbital pairs
Folding of H and S implicitly performed
<dSpData1D:S at geom step 9
  <sparsity:sparsity for geom step 9
    nrows_g=12 nrows=12 sparsity=1.0000 nnzs=144, refcount: 7>
  <dData1D:(new from dSpData1D) n=144, refcount: 1>
refcount: 1>
new_DM -- step:     9
Re-using DM from previous geometries...
Number of DMs in history: 1
 DM extrapolation coefficients: 
1   1.00000
New DM after history re-use:
<dSpData2D:SpM extrapolated using coords
  <sparsity:sparsity for geom step 9
    nrows_g=12 nrows=12 sparsity=1.0000 nnzs=144, refcount: 9>
  <dData2D:(temp array for extrapolation) n=144 m=1, refcount: 1>
refcount: 1>
No. of atoms with KB's overlaping orbs in proc 0. Max # of overlaps:       6      10

InitMesh: MESH = 64 x 64 x 50 = 204800
InitMesh: Mesh cutoff (required, used) =   100.000   107.960 Ry
New grid distribution [1]: sub = 2

        iscf     Eharris(eV)        E_KS(eV)     FreeEng(eV)     dDmax    Ef(eV) dHmax(eV)
   scf:    1     -923.529527     -923.653191     -923.653191  0.036860 -1.388907  0.321857
   scf:    2     -923.562094     -923.629544     -923.629544  0.044494 -1.249794  0.705818
   scf:    3     -923.668601     -923.659618     -923.659618  0.030333 -1.350105  0.021600
   scf:    4     -923.659712     -923.659667     -923.659667  0.001006 -1.352330  0.014881
   scf:    5     -923.659732     -923.659701     -923.659701  0.002140 -1.357700  0.002327
   scf:    6     -923.659702     -923.659702     -923.659702  0.000074 -1.358105  0.001108
   scf:    7     -923.659702     -923.659702     -923.659702  0.000067 -1.358422  0.000391

SCF Convergence by DM+H criterion
max |DM_out - DM_in|         :     0.0000672355
max |H_out - H_in|      (eV) :     0.0003914995
SCF cycle converged after 7 iterations

Using DM_out to compute the final energy and forces
No. of atoms with KB's overlaping orbs in proc 0. Max # of overlaps:       6      10

siesta: E_KS(eV) =             -923.6597

siesta: Atomic forces (eV/Ang):
     1   -0.139748    2.937267    0.453044
     2   -2.639098   -1.626230   -0.212451
     3    2.890875   -1.347318    0.112694
     4   -0.053720   -3.371151   -1.309430
     5   -2.523583    1.903680    0.980167
     6    2.508735    1.520123   -0.595582
----------------------------------------
   Tot    0.043461    0.016371   -0.571558
----------------------------------------
   Max    3.371151
   Res    1.851225    sqrt( Sum f_i^2 / 3N )
----------------------------------------
   Max    3.371151    constrained

Stress tensor Voigt[x,y,z,yz,xz,xy] (kbar):       19.59       10.04        1.64        0.99       -2.10       -0.02
(Free)E + p*V (eV/cell)     -928.8643
Target enthalpy (eV/cell)     -923.6597

siesta: Stress tensor (static) (eV/Ang**3):
         0.012346   -0.000024   -0.001375
        -0.000025    0.006331    0.000594
        -0.001375    0.000594    0.001223

siesta: Pressure (static):        -10.62758926  kBar

siesta: Stress tensor (total) (eV/Ang**3):
         0.012226   -0.000011   -0.001312
        -0.000011    0.006268    0.000618
        -0.001312    0.000619    0.001023

siesta: Pressure (total):        -10.42334715  kBar

siesta: Temp_ion =     328.543 K

                     ====================================
                        Begin MD step =     10
                     ====================================

outcoor: Atomic coordinates (Ang):                          
    0.03756658   -0.06888733   -0.00307910   1       1  O
    0.92546419    0.72820737    0.12478778   2       2  H
   -0.95695901    0.60944535    0.02098411   2       3  H
   -0.02397693    0.07082951    3.07749487   1       4  O
    0.79147284   -0.70958763    2.60412394   2       5  H
   -0.96195064   -0.65251611    3.25914076   2       6  H

outcell: Unit cell vectors (Ang):
       10.000004    0.000000    0.000000
        0.000000   10.000004    0.000000
        0.000000    0.000000    8.000003

outcell: Cell vector modules (Ang)   :   10.000004   10.000004    8.000003
outcell: Cell angles (23,13,12) (deg):     90.0000     90.0000     90.0000
outcell: Cell volume (Ang**3)        :    800.0010
Gamma-point calculation with multiply-connected orbital pairs
Folding of H and S implicitly performed
<dSpData1D:S at geom step 10
  <sparsity:sparsity for geom step 10
    nrows_g=12 nrows=12 sparsity=1.0000 nnzs=144, refcount: 7>
  <dData1D:(new from dSpData1D) n=144, refcount: 1>
refcount: 1>
new_DM -- step:    10
Re-using DM from previous geometries...
Number of DMs in history: 1
 DM extrapolation coefficients: 
1   1.00000
New DM after history re-use:
<dSpData2D:SpM extrapolated using coords
  <sparsity:sparsity for geom step 10
    nrows_g=12 nrows=12 sparsity=1.0000 nnzs=144, refcount: 9>
  <dData2D:(temp array for extrapolation) n=144 m=1, refcount: 1>
refcount: 1>
Note: For starting DM, Qtot, Tr[D*S] =         16.00000000         16.03689799
No. of atoms with KB's overlaping orbs in proc 0. Max # of overlaps:       6      10

InitMesh: MESH = 64 x 64 x 50 = 204800
InitMesh: Mesh cutoff (required, used) =   100.000   107.960 Ry
New grid distribution [1]: sub = 2

        iscf     Eharris(eV)        E_KS(eV)     FreeEng(eV)     dDmax    Ef(eV) dHmax(eV)
   scf:    1     -923.250033     -923.992377     -923.992377  0.093430 -4.101927  1.059224
   scf:    2     -923.053342     -923.754772     -923.754772  0.138784 -0.534595  2.275772
   scf:    3     -924.162774     -924.066906     -924.066906  0.094675 -0.895900  0.093737
   scf:    4     -924.067500     -924.067219     -924.067219  0.002019 -0.901029  0.064259
   scf:    5     -924.067646     -924.067452     -924.067452  0.003351 -0.915087  0.014472
   scf:    6     -924.067472     -924.067463     -924.067463  0.000795 -0.920562  0.003829
   scf:    7     -924.067464     -924.067464     -924.067464  0.000103 -0.921359  0.001382
   scf:    8     -924.067464     -924.067464     -924.067464  0.000042 -0.921499  0.000984

SCF Convergence by DM+H criterion
max |DM_out - DM_in|         :     0.0000416076
max |H_out - H_in|      (eV) :     0.0009843341
SCF cycle converged after 8 iterations

Using DM_out to compute the final energy and forces
No. of atoms with KB's overlaping orbs in proc 0. Max # of overlaps:       6      10

siesta: E_KS(eV) =             -924.0675

siesta: Atomic forces (eV/Ang):
     1   -0.102124    2.244757    0.389394
     2   -2.283202   -1.251955   -0.179537
     3    2.502194   -1.013754    0.117083
     4    0.097172   -2.647615   -1.266929
     5   -2.299321    1.570766    0.898234
     6    2.133129    1.117005   -0.562252
----------------------------------------
   Tot    0.047848    0.019204   -0.604007
----------------------------------------
   Max    2.647615
   Res    1.538677    sqrt( Sum f_i^2 / 3N )
----------------------------------------
   Max    2.647615    constrained

Stress tensor Voigt[x,y,z,yz,xz,xy] (kbar):       16.66        7.02        1.89        0.95       -2.07       -0.18
(Free)E + p*V (eV/cell)     -928.3237
Target enthalpy (eV/cell)     -924.0675

siesta: Stress tensor (static) (eV/Ang**3):
         0.010479   -0.000148   -0.001251
        -0.000148    0.004721    0.000486
        -0.001251    0.000487    0.001287

siesta: Pressure (static):         -8.80550759  kBar

siesta: Stress tensor (total) (eV/Ang**3):
         0.010399   -0.000114   -0.001295
        -0.000114    0.004383    0.000593
        -0.001295    0.000594    0.001178

siesta: Pressure (total):         -8.52404829  kBar

siesta: Temp_ion =     928.054 K

siesta: Program's energy decomposition (eV):
siesta: Ebs     =      -176.363390
siesta: Eions   =      1631.696139
siesta: Ena     =       350.749900
siesta: Ekin    =       682.179070
siesta: Enl     =      -108.188159
siesta: Eso     =         0.000000
siesta: Edftu   =         0.000000
siesta: DEna    =        -1.743296
siesta: DUscf   =         2.983860
siesta: DUext   =         0.000000
siesta: Ex      =      -193.617123
siesta: Ec      =       -24.735576
siesta: Exc     =      -218.352699
siesta: EbV     =         0.000000
siesta: eta*DQ  =         0.000000
siesta: Emadel  =         0.000000
siesta: Emeta   =         0.000000
siesta: Emolmec =         0.000000
siesta: Ekinion =         0.599801
siesta: Eharris =      -923.467662
siesta: Etot    =      -923.467662
siesta: FreeEng =      -923.467662

siesta: Final energy (eV):
siesta:  Band Struct. =    -176.363390
siesta:       Kinetic =     682.179070
siesta:       Hartree =     909.388923
siesta:         Edftu =       0.000000
siesta:       Eso     =       0.000000
siesta:    Ext. field =       0.000000
siesta:         Exch. =    -193.617123
siesta:         Corr. =     -24.735576
siesta:     Bulk bias =       0.000000
siesta:   Exch.-corr. =    -218.352699
siesta:  Ion-electron =   -2391.270283
siesta:       Ion-ion =      93.987526
siesta:       Ekinion =       0.599801
siesta: D3 dispersion =       0.000000
siesta:         Total =    -923.467662
siesta:         Fermi =      -0.921499

siesta: Atomic forces (eV/Ang):
siesta:      1   -0.102124    2.244757    0.389394
siesta:      2   -2.283202   -1.251955   -0.179537
siesta:      3    2.502194   -1.013754    0.117083
siesta:      4    0.097172   -2.647615   -1.266929
siesta:      5   -2.299321    1.570766    0.898234
siesta:      6    2.133129    1.117005   -0.562252
siesta: ----------------------------------------
siesta:    Tot    0.047848    0.019204   -0.604007

siesta: Stress tensor (static) (eV/Ang**3):
siesta:     0.010479   -0.000148   -0.001251
siesta:    -0.000148    0.004721    0.000486
siesta:    -0.001251    0.000487    0.001287

siesta: Cell volume =        800.000957 Ang**3

siesta: Pressure (static):
siesta:                Solid            Molecule  Units
siesta:          -0.00005986          0.00000639  Ry/Bohr**3
siesta:          -0.00549597          0.00058657  eV/Ang**3
siesta:          -8.80550759          0.93979290  kBar
(Free)E+ p_basis*V_orbitals  =        -923.568076
(Free)Eharris+ p_basis*V_orbitals  =        -923.568076

siesta: Electric dipole (a.u.)  =   -0.112138    0.017636   -0.000000
siesta: Electric dipole (Debye) =   -0.285026    0.044825   -0.000000

cite: Please see "nose.bib" for an exhaustive BiBTeX file.
cite: Please clearly indicate Siesta version in published work: 5.0.0-alpha-120-g24fa496ce-dirty
cite: This calculation has made use of the following articles
cite: which are encouraged to be cited in a published work.
        Primary SIESTA paper
          DOI: www.doi.org/10.1088/0953-8984/14/11/302


timer: Elapsed wall time (sec) =       1.912
timer: CPU execution times (sec):

Routine            Calls   Time/call    Tot.time        %
siesta                 1       1.905       1.905   100.00
Setup                  1       0.031       0.031     1.65
bands                  1       0.000       0.000     0.00
KSV_init               1       0.000       0.000     0.00
IterGeom              10       0.187       1.873    98.33
geom_init             10       0.035       0.347    18.24
state_init            10       0.000       0.005     0.24
hsparse               10       0.000       0.000     0.02
overlap               10       0.000       0.002     0.12
Setup_H0              10       0.019       0.190    10.00
naefs                 20       0.000       0.001     0.03
MolMec                20       0.000       0.000     0.00
kinefsm               20       0.000       0.002     0.12
nlefsm                20       0.001       0.014     0.74
DHSCF_Init            10       0.017       0.175     9.17
DHSCF1                10       0.002       0.023     1.22
INITMESH              10       0.000       0.000     0.00
DHSCF2                10       0.015       0.151     7.95
REMESH                10       0.000       0.005     0.25
REORD                284       0.000       0.043     2.24
PHION                 10       0.004       0.040     2.11
COMM_BSC             438       0.000       0.053     2.79
POISON               112       0.007       0.802    42.09
fft                  224       0.003       0.657    34.47
setup_H               92       0.015       1.382    72.56
DHSCF                102       0.016       1.651    86.69
DHSCF3               102       0.015       1.521    79.86
rhoofd               102       0.001       0.051     2.70
XC                   102       0.005       0.479    25.15
GXC-CellXC           102       0.004       0.422    22.13
vmat                 102       0.000       0.044     2.29
IterSCF               82       0.015       1.239    65.05
compute_dm            82       0.000       0.004     0.22
diagon                82       0.000       0.004     0.21
r-eigvec              82       0.000       0.003     0.17
r-buildHS             82       0.000       0.000     0.00
rdiag                 82       0.000       0.003     0.16
rdiag1                82       0.000       0.000     0.02
rdiag2                82       0.000       0.000     0.02
rdiag3                82       0.000       0.002     0.08
rdiag4                82       0.000       0.000     0.02
r-buildD              82       0.000       0.000     0.02
MIXER                 72       0.000       0.000     0.03
PostSCF               10       0.028       0.283    14.84
DHSCF4                10       0.013       0.130     6.82
dfscf                 10       0.009       0.089     4.66
overfsm               10       0.000       0.000     0.02
state_analysis        10       0.000       0.001     0.06
siesta_move           10       0.000       0.002     0.09
Analysis               1       0.000       0.000     0.01
optical                1       0.000       0.000     0.00
  

>> End of run:  25-SEP-2023   9:45:53
Job completed
