Siesta Version  : 5.0.0-alpha-120-g24fa496ce-dirty
Architecture    : ----
Compiler version: GNU-11.4.0
Compiler flags  : -fallow-argument-mismatch;-O3 -march=native
PP flags        : ----
Libraries       : ----
Parallelisations: none
GEMM3M support
NetCDF support
NetCDF-4 support
Lua support

Runtime information:
* Directory : /home/fnpedron/Siesta/siesta-dev/Tests/09.MolecularDynamics/work/verlet_restart
* Running in serial mode.
>> Start of run:  25-SEP-2023   9:45:46

                           *********************** 
                           *  WELCOME TO SIESTA  * 
                           *********************** 

reinit: Reading from standard input
reinit: Dumping input in INPUT_TMP.95813
************************** Dump of input data file ****************************
%include ../../basejob.fdf
SystemLabel           verlet
MD.TypeOfRun          verlet
MD.InitialTemperature 600 K
************************** End of input data file *****************************

reinit: -----------------------------------------------------------------------
reinit: System Name: Water molecules MD
reinit: -----------------------------------------------------------------------
reinit: System Label: verlet
reinit: -----------------------------------------------------------------------

initatom: Reading input for the pseudopotentials and atomic orbitals ----------
Species number:   1 Atomic number:    8 Label: O
Species number:   2 Atomic number:    1 Label: H


---- Processing specs for species: O
Ground state valence configuration:   2s02  2p04
Reading pseudopotential information in formatted form from:
  /home/fnpedron/Siesta/siesta-dev/Tests/Pseudos/O.psf

---- Processing specs for species: H
Ground state valence configuration:   1s01
Reading pseudopotential information in formatted form from:
  /home/fnpedron/Siesta/siesta-dev/Tests/Pseudos/H.psf

---- Pseudopotential check for O 

Pseudized shells:
2s( 2.00) rc: 1.14
2p( 4.00) rc: 1.14
3d( 0.00) rc: 1.14
4f( 0.00) rc: 1.14
Valence configuration for ps generation: (assumed as above)

---- Pseudopotential check for H 

Pseudized shells:
1s( 1.00) rc: 1.25
2p( 0.00) rc: 1.25
3d( 0.00) rc: 1.25
4f( 0.00) rc: 1.25
Valence configuration for ps generation: (assumed as above)
For O, standard SIESTA heuristics set lmxkb to 2
 (one more than the basis l, including polarization orbitals).
Use PS.lmax or PS.KBprojectors blocks to override.
For H, standard SIESTA heuristics set lmxkb to 1
 (one more than the basis l, including polarization orbitals).
Use PS.lmax or PS.KBprojectors blocks to override.

<basis_specs>
===============================================================================
O                    Z=   8    Mass=  15.999        Charge= 0.17977+309
Lmxo=1 Lmxkb= 2    BasisType=split      Semic=F
L=0  Nsemic=0  Cnfigmx=2
          i=1  nzeta=1  polorb=0  (2s)
            splnorm:   0.15000    
               vcte:    0.0000    
               rinn:    0.0000    
               qcoe:    0.0000    
               qyuk:    0.0000    
               qwid:   0.10000E-01
                rcs:    0.0000    
            lambdas:    1.0000    
L=1  Nsemic=0  Cnfigmx=2
          i=1  nzeta=1  polorb=0  (2p)
            splnorm:   0.15000    
               vcte:    0.0000    
               rinn:    0.0000    
               qcoe:    0.0000    
               qyuk:    0.0000    
               qwid:   0.10000E-01
                rcs:    0.0000    
            lambdas:    1.0000    
-------------------------------------------------------------------------------
L=0  Nkbl=1  erefs: 0.17977+309
L=1  Nkbl=1  erefs: 0.17977+309
L=2  Nkbl=1  erefs: 0.17977+309
===============================================================================
</basis_specs>

atom: Called for O                     (Z =   8)

read_vps: Pseudopotential generation method:
read_vps: ATM3      Troullier-Martins                       
Valence charge in pseudo generation:    6.00000

xc_check: Exchange-correlation functional:
xc_check: Ceperley-Alder
V l=0 = -2*Zval/r beyond r=  1.1278
V l=1 = -2*Zval/r beyond r=  1.1278
V l=2 = -2*Zval/r beyond r=  1.1278
All V_l potentials equal beyond r=  1.1278
This should be close to max(r_c) in ps generation
All pots = -2*Zval/r beyond r=  1.1278
Using small-core scheme (local charge) for Vlocal

VLOCAL_FROM_CHLOCAL: 99.0% of the norm of Vloc inside     34.126 Ry
VLOCAL_FROM_CHLOCAL: 99.9% of the norm of Vloc inside     77.774 Ry
atom: Maximum radius for chlocal:    1.37759
atom: Maximum radius for r*vlocal+2*Zval:    1.24646

KBgen: Kleinman-Bylander projectors: 
GHOST: No ghost state for L =  0
   l= 0   rc=  1.294105   el= -1.742414   Ekb=  9.135903   kbcos=  0.326910
GHOST: No ghost state for L =  1
   l= 1   rc=  1.294105   el= -0.676589   Ekb= -8.124878   kbcos= -0.395047
GHOST: No ghost state for L =  2
   l= 2   rc=  1.448233   el=  0.002386   Ekb= -2.039267   kbcos= -0.003484

KBgen: Total number of Kleinman-Bylander projectors:   9
atom: -------------------------------------------------------------------------

atom: SANKEY-TYPE ORBITALS:

SPLIT: Orbitals with angular momentum L= 0

SPLIT: Basis orbitals for state 2s

SPLIT: PAO cut-off radius determined from an
SPLIT: energy shift=  0.020000 Ry

   izeta = 1
                 lambda =    1.000000
                     rc =    3.305093
                 energy =   -1.723766
                kinetic =    1.614911
    potential(screened) =   -3.338677
       potential(ionic) =  -11.304675

SPLIT: Orbitals with angular momentum L= 1

SPLIT: Basis orbitals for state 2p

SPLIT: PAO cut-off radius determined from an
SPLIT: energy shift=  0.020000 Ry

   izeta = 1
                 lambda =    1.000000
                     rc =    3.937239
                 energy =   -0.658841
                kinetic =    5.005986
    potential(screened) =   -5.664827
       potential(ionic) =  -13.452360
atom: Total number of Sankey-type orbitals:  4

atm_pop: Valence configuration (for local Pseudopot. screening):
 2s( 2.00)                                                            
 2p( 4.00)                                                            
Vna: chval, zval:    6.00000   6.00000

Vna:  Cut-off radius for the neutral-atom potential:   3.937239

atom: _________________________________________________________________________

<basis_specs>
===============================================================================
H                    Z=   1    Mass=  1.0080        Charge= 0.17977+309
Lmxo=0 Lmxkb= 1    BasisType=split      Semic=F
L=0  Nsemic=0  Cnfigmx=1
          i=1  nzeta=1  polorb=0  (1s)
            splnorm:   0.15000    
               vcte:    0.0000    
               rinn:    0.0000    
               qcoe:    0.0000    
               qyuk:    0.0000    
               qwid:   0.10000E-01
                rcs:    0.0000    
            lambdas:    1.0000    
-------------------------------------------------------------------------------
L=0  Nkbl=1  erefs: 0.17977+309
L=1  Nkbl=1  erefs: 0.17977+309
===============================================================================
</basis_specs>

atom: Called for H                     (Z =   1)

read_vps: Pseudopotential generation method:
read_vps: ATM3      Troullier-Martins                       
Valence charge in pseudo generation:    1.00000

xc_check: Exchange-correlation functional:
xc_check: Ceperley-Alder
V l=0 = -2*Zval/r beyond r=  1.2343
V l=1 = -2*Zval/r beyond r=  1.2189
All V_l potentials equal beyond r=  1.2343
This should be close to max(r_c) in ps generation
All pots = -2*Zval/r beyond r=  1.2343
Using small-core scheme (local charge) for Vlocal

VLOCAL_FROM_CHLOCAL: 99.0% of the norm of Vloc inside     28.493 Ry
VLOCAL_FROM_CHLOCAL: 99.9% of the norm of Vloc inside     64.935 Ry
atom: Maximum radius for chlocal:    1.45251
atom: Maximum radius for r*vlocal+2*Zval:    1.31405

KBgen: Kleinman-Bylander projectors: 
GHOST: No ghost state for L =  0
   l= 0   rc=  1.364359   el= -0.467325   Ekb= -2.005361   kbcos= -0.336422
GHOST: No ghost state for L =  1
   l= 1   rc=  1.434438   el=  0.001430   Ekb= -0.501708   kbcos= -0.021697

KBgen: Total number of Kleinman-Bylander projectors:   4
atom: -------------------------------------------------------------------------

atom: SANKEY-TYPE ORBITALS:

SPLIT: Orbitals with angular momentum L= 0

SPLIT: Basis orbitals for state 1s

SPLIT: PAO cut-off radius determined from an
SPLIT: energy shift=  0.020000 Ry

   izeta = 1
                 lambda =    1.000000
                     rc =    4.828263
                 energy =   -0.449375
                kinetic =    0.929372
    potential(screened) =   -1.378747
       potential(ionic) =   -1.915047
atom: Total number of Sankey-type orbitals:  1

atm_pop: Valence configuration (for local Pseudopot. screening):
 1s( 1.00)                                                            
Vna: chval, zval:    1.00000   1.00000

Vna:  Cut-off radius for the neutral-atom potential:   4.828263

atom: _________________________________________________________________________

prinput: Basis input 

PAO.BasisType split     

%block ChemicalSpeciesLabel
    1    8 O                       # Species index, atomic number, species label
    2    1 H                       # Species index, atomic number, species label
%endblock ChemicalSpeciesLabel

%block PAO.Basis                 # Define Basis set
# WARNING: This information might be incomplete!
O                     2                    # Species label, number of l-shells
 n=2   0   1                         # n, l, Nzeta 
   3.305   
   1.000   
 n=2   1   1                         # n, l, Nzeta 
   3.937   
   1.000   
H                     1                    # Species label, number of l-shells
 n=1   0   1                         # n, l, Nzeta 
   4.828   
   1.000   
%endblock PAO.Basis

prinput: ----------------------------------------------------------------------

Dumping basis to NetCDF file O.ion.nc
Dumping basis to NetCDF file H.ion.nc
coor:   Atomic-coordinates input format  =     Cartesian coordinates
coor:                                          (in Angstroms)

ioxv: Reading coordinates and velocities from file
! Info in XV file prevails over previous structure input

siesta: Atomic coordinates (Bohr) and species
siesta:      0.08716  -0.16032  -0.03009  1        1
siesta:      1.37481   1.32379   0.00660  2        2
siesta:     -1.42178   1.09439  -0.20767  2        3
siesta:     -0.06821   0.15512   5.75437  1        4
siesta:      1.24984  -1.28858   5.23638  2        5
siesta:     -1.49572  -1.05314   6.33382  2        6

siesta: System type = chain     

initatomlists: Number of atoms, orbitals, and projectors:      6    12    34

siesta: ******************** Simulation parameters ****************************
siesta:
siesta: The following are some of the parameters of the simulation.
siesta: A complete list of the parameters used, including default values,
siesta: can be found in file out.fdf
siesta:
redata: Spin configuration                          = none
redata: Number of spin components                   = 1
redata: Time-Reversal Symmetry                      = T
redata: Spin spiral                                 = F
redata: Long output                                 =   F
redata: Number of Atomic Species                    =        2
redata: Charge density info will appear in .RHO file
redata: Write Mulliken Pop.                         = NO
redata: Matel table size (NRTAB)                    =     1024
redata: Mesh Cutoff                                 =   100.0000 Ry
redata: Net charge of the system                    =     0.0000 |e|
redata: Min. number of SCF Iter                     =        0
redata: Max. number of SCF Iter                     =     1000
redata: SCF convergence failure will abort job
redata: SCF mix quantity                            = Hamiltonian
redata: Mix DM or H after convergence               =   F
redata: Recompute H after scf cycle                 =   F
redata: Mix DM in first SCF step                    =   T
redata: Write Pulay info on disk                    =   F
redata: New DM Occupancy tolerance                  = 0.000000000001
redata: No kicks to SCF
redata: DM Mixing Weight for Kicks                  =     0.5000
redata: Require Harris convergence for SCF          =   F
redata: Harris energy tolerance for SCF             =     0.000100 eV
redata: Require DM convergence for SCF              =   T
redata: DM tolerance for SCF                        =     0.000100
redata: Require EDM convergence for SCF             =   F
redata: EDM tolerance for SCF                       =     0.001000 eV
redata: Require H convergence for SCF               =   T
redata: Hamiltonian tolerance for SCF               =     0.001000 eV
redata: Require (free) Energy convergence for SCF   =   F
redata: (free) Energy tolerance for SCF             =     0.000100 eV
redata: Using DFT-D3 dispersion                     =   F
redata: Using Saved Data (generic)                  =   F
redata: Use continuation files for DM               =   F
redata: Neglect nonoverlap interactions             =   F
redata: Method of Calculation                       = Diagonalization
redata: Electronic Temperature                      =   299.9863 K
redata: Fix the spin of the system                  =   F
redata: Max. number of TDED Iter                    =        1
redata: Number of TDED substeps                     =        3
redata: Dynamics option                             = Verlet MD run
redata: Initial MD time step                        =        1
redata:   Final MD time step                        =       10
redata: Length of MD time step                      =     1.0000 fs
redata: Initial Temperature of MD run               =   600.0000 K
redata: Perform a MD quench                         =   F
mix.SCF: Pulay mixing                            = Pulay
mix.SCF:    Variant                              = stable
mix.SCF:    History steps                        = 2
mix.SCF:    Linear mixing weight                 =     0.250000
mix.SCF:    Mixing weight                        =     0.250000
mix.SCF:    SVD condition                        = 0.1000E-07
redata: Save all siesta data in one NC              =   F
redata: ***********************************************************************

%block SCF.Mixers
  Pulay
%endblock SCF.Mixers

%block SCF.Mixer.Pulay
  # Mixing method
  method pulay
  variant stable

  # Mixing options
  weight 0.2500
  weight.linear 0.2500
  history 2
%endblock SCF.Mixer.Pulay

Size of DM history Fstack: 1
Total number of electrons:    16.000000
Total ionic charge:    16.000000

siesta: k-grid: Number of k-points = 1
siesta: k-point is Gamma-only

diag: Algorithm                                     = D&C
diag: Used triangular part                          = Lower
diag: Absolute tolerance                            =  0.100E-15
diag: Orthogonalization factor                      =  0.100E-05
diag: Memory factor                                 =  1.0000


ts: **************************************************************
ts: Save H and S matrices                           =    F
ts: Save DM and EDM matrices                        =    F
ts: Only save the overlap matrix S                  =    F
ts: **************************************************************

************************ Begin: TS CHECKS AND WARNINGS ************************
************************ End: TS CHECKS AND WARNINGS **************************


                     ====================================
                        Begin MD step =      1
                     ====================================

outcoor: Atomic coordinates (Ang):                          
    0.04612341   -0.08483842   -0.01592075   1       1  O
    0.72751626    0.70052201    0.00349433   2       2  H
   -0.75237429    0.57912571   -0.10989547   2       3  H
   -0.03609372    0.08208829    3.04507887   1       4  O
    0.66138907   -0.68188533    2.77097116   2       5  H
   -0.79150180   -0.55729639    3.35171087   2       6  H

outcell: Unit cell vectors (Ang):
       10.000004    0.000000    0.000000
        0.000000   10.000004    0.000000
        0.000000    0.000000    8.000003

outcell: Cell vector modules (Ang)   :   10.000004   10.000004    8.000003
outcell: Cell angles (23,13,12) (deg):     90.0000     90.0000     90.0000
outcell: Cell volume (Ang**3)        :    800.0010
Gamma-point calculation with multiply-connected orbital pairs
Folding of H and S implicitly performed
<dSpData1D:S at geom step 1
  <sparsity:sparsity for geom step 1
    nrows_g=12 nrows=12 sparsity=1.0000 nnzs=144, refcount: 7>
  <dData1D:(new from dSpData1D) n=144, refcount: 1>
refcount: 1>
new_DM -- step:     1
Initializing Density Matrix...
DM filled with atomic data:
<dSpData2D:DM initialized from atoms
  <sparsity:sparsity for geom step 1
    nrows_g=12 nrows=12 sparsity=1.0000 nnzs=144, refcount: 8>
  <dData2D:DM n=144 m=1, refcount: 1>
refcount: 1>
No. of atoms with KB's overlaping orbs in proc 0. Max # of overlaps:       6       8

InitMesh: MESH = 64 x 64 x 50 = 204800
InitMesh: Mesh cutoff (required, used) =   100.000   107.960 Ry
New grid distribution [1]: sub = 2

stepf: Fermi-Dirac step function

siesta: Program's energy decomposition (eV):
siesta: Ebs     =      -142.970936
siesta: Eions   =      1631.696139
siesta: Ena     =       349.563133
siesta: Ekin    =       744.467632
siesta: Enl     =      -130.851215
siesta: Eso     =         0.000000
siesta: Edftu   =         0.000000
siesta: DEna    =       -30.456032
siesta: DUscf   =         6.805331
siesta: DUext   =         0.000000
siesta: Ex      =      -205.006086
siesta: Ec      =       -25.334764
siesta: Exc     =      -230.340850
siesta: EbV     =         0.000000
siesta: eta*DQ  =         0.000000
siesta: Emadel  =         0.000000
siesta: Emeta   =         0.000000
siesta: Emolmec =         0.000000
siesta: Ekinion =         0.000000
siesta: Eharris =      -918.709864
siesta: Etot    =      -922.508140
siesta: FreeEng =      -922.508140

        iscf     Eharris(eV)        E_KS(eV)     FreeEng(eV)     dDmax    Ef(eV) dHmax(eV)
   scf:    1     -918.709864     -922.508140     -922.508140  0.656834 -3.791880  6.569918
timer: Routine,Calls,Time,% = IterSCF        1       0.015  15.10
   scf:    2     -925.292249     -924.067400     -924.067400  0.133315 -3.079672  3.130800
   scf:    3     -924.661712     -924.493285     -924.493285  0.112033 -2.528992  0.754520
   scf:    4     -924.515723     -924.504830     -924.504830  0.010822 -2.594794  0.539419
   scf:    5     -924.523005     -924.514716     -924.514716  0.024100 -2.705859  0.124896
   scf:    6     -924.515202     -924.514977     -924.514977  0.003537 -2.708378  0.069613
   scf:    7     -924.515009     -924.515002     -924.515002  0.002041 -2.706280  0.021745
   scf:    8     -924.515011     -924.515007     -924.515007  0.000155 -2.703918  0.012253
   scf:    9     -924.515018     -924.515013     -924.515013  0.000442 -2.699899  0.006482
   scf:   10     -924.515015     -924.515014     -924.515014  0.000185 -2.699092  0.003861
   scf:   11     -924.515015     -924.515015     -924.515015  0.000189 -2.698392  0.002724
   scf:   12     -924.515015     -924.515015     -924.515015  0.000028 -2.698382  0.002098
   scf:   13     -924.515015     -924.515015     -924.515015  0.000037 -2.698445  0.000773

SCF Convergence by DM+H criterion
max |DM_out - DM_in|         :     0.0000367501
max |H_out - H_in|      (eV) :     0.0007734746
SCF cycle converged after 13 iterations

Using DM_out to compute the final energy and forces
No. of atoms with KB's overlaping orbs in proc 0. Max # of overlaps:       6       8

siesta: E_KS(eV) =             -924.5150

siesta: E_KS - E_eggbox =      -924.5150

siesta: Atomic forces (eV/Ang):
     1    0.103480   -1.671589    0.581399
     2    2.149190    1.015255    0.215069
     3   -2.188977    0.555518   -0.093149
     4    1.194290    1.336889   -0.537873
     5    0.653074   -0.192127   -0.456414
     6   -1.850724   -1.070868    0.688306
----------------------------------------
   Tot    0.060333   -0.026921    0.397339
----------------------------------------
   Max    2.188977
   Res    1.134514    sqrt( Sum f_i^2 / 3N )
----------------------------------------
   Max    2.188977    constrained

Stress tensor Voigt[x,y,z,yz,xz,xy] (kbar):      -14.65       -5.24       -0.40       -0.08        1.01       -1.48
(Free)E + p*V (eV/cell)     -921.1382
Target enthalpy (eV/cell)     -924.5150

siesta: Stress tensor (static) (eV/Ang**3):
        -0.006343   -0.001135    0.000774
        -0.001135   -0.002381    0.000025
         0.000774    0.000025   -0.000142

siesta: Pressure (static):          4.73477571  kBar

siesta: Stress tensor (total) (eV/Ang**3):
        -0.009144   -0.000925    0.000629
        -0.000925   -0.003269   -0.000047
         0.000629   -0.000047   -0.000250

siesta: Pressure (total):          6.76278834  kBar
 MD restart: Read old forces from VERLET_RESTART

siesta: Temp_ion =    2139.521 K

                     ====================================
                        Begin MD step =      2
                     ====================================

outcoor: Atomic coordinates (Ang):                          
    0.05053778   -0.08721500   -0.01650051   1       1  O
    0.68818683    0.66184999    0.00867065   2       2  H
   -0.70945554    0.52963108   -0.11231781   2       3  H
   -0.03845429    0.08642860    3.05042595   1       4  O
    0.57089812   -0.64638400    2.75986854   2       5  H
   -0.73528145   -0.53772677    3.37212199   2       6  H

outcell: Unit cell vectors (Ang):
       10.000004    0.000000    0.000000
        0.000000   10.000004    0.000000
        0.000000    0.000000    8.000003

outcell: Cell vector modules (Ang)   :   10.000004   10.000004    8.000003
outcell: Cell angles (23,13,12) (deg):     90.0000     90.0000     90.0000
outcell: Cell volume (Ang**3)        :    800.0010
Gamma-point calculation with multiply-connected orbital pairs
Folding of H and S implicitly performed
<dSpData1D:S at geom step 2
  <sparsity:sparsity for geom step 2
    nrows_g=12 nrows=12 sparsity=1.0000 nnzs=144, refcount: 7>
  <dData1D:(new from dSpData1D) n=144, refcount: 1>
refcount: 1>
new_DM -- step:     2
Re-using DM from previous geometries...
Number of DMs in history: 1
 DM extrapolation coefficients: 
1   1.00000
New DM after history re-use:
<dSpData2D:SpM extrapolated using coords
  <sparsity:sparsity for geom step 2
    nrows_g=12 nrows=12 sparsity=1.0000 nnzs=144, refcount: 9>
  <dData2D:(temp array for extrapolation) n=144 m=1, refcount: 1>
refcount: 1>
No. of atoms with KB's overlaping orbs in proc 0. Max # of overlaps:       6       8

InitMesh: MESH = 64 x 64 x 50 = 204800
InitMesh: Mesh cutoff (required, used) =   100.000   107.960 Ry
New grid distribution [1]: sub = 2

        iscf     Eharris(eV)        E_KS(eV)     FreeEng(eV)     dDmax    Ef(eV) dHmax(eV)
   scf:    1     -922.277803     -923.696841     -923.696841  0.111562 -2.242688  1.025330
   scf:    2     -923.453400     -923.665168     -923.665168  0.094275 -1.721908  1.381533
   scf:    3     -923.805883     -923.764187     -923.764187  0.053595 -2.033242  0.095630
   scf:    4     -923.764623     -923.764410     -923.764410  0.001884 -2.043346  0.068256
   scf:    5     -923.764780     -923.764618     -923.764618  0.004678 -2.071161  0.010447
   scf:    6     -923.764623     -923.764620     -923.764620  0.000171 -2.073259  0.005070
   scf:    7     -923.764622     -923.764622     -923.764622  0.000186 -2.074984  0.001195
   scf:    8     -923.764622     -923.764622     -923.764622  0.000040 -2.074999  0.000856

SCF Convergence by DM+H criterion
max |DM_out - DM_in|         :     0.0000403837
max |H_out - H_in|      (eV) :     0.0008560033
SCF cycle converged after 8 iterations

Using DM_out to compute the final energy and forces
No. of atoms with KB's overlaping orbs in proc 0. Max # of overlaps:       6       8

siesta: E_KS(eV) =             -923.7646

siesta: Atomic forces (eV/Ang):
     1    0.544293   -5.087819    0.786032
     2    4.238942    2.893525    0.351622
     3   -4.723964    2.066105   -0.406086
     4    0.678219    4.485536   -0.430717
     5    3.184780   -2.288762   -1.734962
     6   -3.840451   -2.080546    1.719270
----------------------------------------
   Tot    0.081818   -0.011961    0.285159
----------------------------------------
   Max    5.087819
   Res    2.800841    sqrt( Sum f_i^2 / 3N )
----------------------------------------
   Max    5.087819    constrained

Stress tensor Voigt[x,y,z,yz,xz,xy] (kbar):      -25.78      -14.07       -1.66       -0.42        3.16       -0.06
(Free)E + p*V (eV/cell)     -916.8557
Target enthalpy (eV/cell)     -923.7646

siesta: Stress tensor (static) (eV/Ang**3):
        -0.013645   -0.000393    0.002149
        -0.000392   -0.007886   -0.000213
         0.002149   -0.000213   -0.000920

siesta: Pressure (static):         11.99042022  kBar

siesta: Stress tensor (total) (eV/Ang**3):
        -0.016091   -0.000036    0.001973
        -0.000036   -0.008781   -0.000264
         0.001973   -0.000264   -0.001036

siesta: Pressure (total):         13.83662315  kBar

siesta: Temp_ion =    1099.970 K

                     ====================================
                        Begin MD step =      3
                     ====================================

outcoor: Atomic coordinates (Ang):                          
    0.05528039   -0.09265989   -0.01660625   1       1  O
    0.68943237    0.65087467    0.01721268   2       2  H
   -0.71175438    0.49991312   -0.11862718   2       3  H
   -0.04040585    0.09347401    3.05551327   1       4  O
    0.51089175   -0.63279062    2.73215894   2       5  H
   -0.71582173   -0.53807204    3.40898989   2       6  H

outcell: Unit cell vectors (Ang):
       10.000004    0.000000    0.000000
        0.000000   10.000004    0.000000
        0.000000    0.000000    8.000003

outcell: Cell vector modules (Ang)   :   10.000004   10.000004    8.000003
outcell: Cell angles (23,13,12) (deg):     90.0000     90.0000     90.0000
outcell: Cell volume (Ang**3)        :    800.0010
Gamma-point calculation with multiply-connected orbital pairs
Folding of H and S implicitly performed
<dSpData1D:S at geom step 3
  <sparsity:sparsity for geom step 3
    nrows_g=12 nrows=12 sparsity=1.0000 nnzs=144, refcount: 7>
  <dData1D:(new from dSpData1D) n=144, refcount: 1>
refcount: 1>
new_DM -- step:     3
Re-using DM from previous geometries...
Number of DMs in history: 1
 DM extrapolation coefficients: 
1   1.00000
New DM after history re-use:
<dSpData2D:SpM extrapolated using coords
  <sparsity:sparsity for geom step 3
    nrows_g=12 nrows=12 sparsity=1.0000 nnzs=144, refcount: 9>
  <dData2D:(temp array for extrapolation) n=144 m=1, refcount: 1>
refcount: 1>
No. of atoms with KB's overlaping orbs in proc 0. Max # of overlaps:       6      11

InitMesh: MESH = 64 x 64 x 50 = 204800
InitMesh: Mesh cutoff (required, used) =   100.000   107.960 Ry
New grid distribution [1]: sub = 2

        iscf     Eharris(eV)        E_KS(eV)     FreeEng(eV)     dDmax    Ef(eV) dHmax(eV)
   scf:    1     -923.291055     -923.541977     -923.541977  0.076084 -1.933836  0.332562
   scf:    2     -923.536411     -923.542338     -923.542338  0.025937 -1.840384  0.274155
   scf:    3     -923.546961     -923.545493     -923.545493  0.012956 -1.896245  0.035857
   scf:    4     -923.545592     -923.545544     -923.545544  0.000767 -1.898659  0.025098
   scf:    5     -923.545622     -923.545587     -923.545587  0.001792 -1.902869  0.005709
   scf:    6     -923.545588     -923.545588     -923.545588  0.000123 -1.902587  0.003049
   scf:    7     -923.545588     -923.545588     -923.545588  0.000154 -1.902203  0.000743
   scf:    8     -923.545588     -923.545588     -923.545588  0.000025 -1.902175  0.000407

SCF Convergence by DM+H criterion
max |DM_out - DM_in|         :     0.0000253032
max |H_out - H_in|      (eV) :     0.0004065843
SCF cycle converged after 8 iterations

Using DM_out to compute the final energy and forces
No. of atoms with KB's overlaping orbs in proc 0. Max # of overlaps:       6      11

siesta: E_KS(eV) =             -923.5456

siesta: Atomic forces (eV/Ang):
     1    0.787659   -5.670314    0.847943
     2    4.321335    3.172608    0.398485
     3   -5.050788    2.318166   -0.495720
     4   -0.395787    5.592366    0.177036
     5    4.329431   -3.547293   -2.735219
     6   -3.884854   -1.862121    2.023360
----------------------------------------
   Tot    0.106997    0.003412    0.215884
----------------------------------------
   Max    5.670314
   Res    3.218393    sqrt( Sum f_i^2 / 3N )
----------------------------------------
   Max    5.670314    constrained

Stress tensor Voigt[x,y,z,yz,xz,xy] (kbar):      -25.02      -15.56       -2.77       -1.40        4.03        1.45
(Free)E + p*V (eV/cell)     -916.3310
Target enthalpy (eV/cell)     -923.5456

siesta: Stress tensor (static) (eV/Ang**3):
        -0.014538    0.000605    0.002793
         0.000605   -0.009234   -0.000835
         0.002793   -0.000834   -0.001505

siesta: Pressure (static):         13.49960847  kBar

siesta: Stress tensor (total) (eV/Ang**3):
        -0.015619    0.000904    0.002516
         0.000905   -0.009709   -0.000873
         0.002516   -0.000873   -0.001726

siesta: Pressure (total):         14.44877740  kBar

siesta: Temp_ion =     816.943 K

                     ====================================
                        Begin MD step =      4
                     ====================================

outcoor: Atomic coordinates (Ang):                          
    0.06049801   -0.10152439   -0.01620061   1       1  O
    0.73204155    0.67026743    0.02956898   2       2  H
   -0.76239915    0.49238455   -0.12968157   2       3  H
   -0.04259609    0.10389201    3.06070736   1       4  O
    0.49232652   -0.65315177    2.67826794   2       5  H
   -0.73354768   -0.55624145    3.46522531   2       6  H

outcell: Unit cell vectors (Ang):
       10.000004    0.000000    0.000000
        0.000000   10.000004    0.000000
        0.000000    0.000000    8.000003

outcell: Cell vector modules (Ang)   :   10.000004   10.000004    8.000003
outcell: Cell angles (23,13,12) (deg):     90.0000     90.0000     90.0000
outcell: Cell volume (Ang**3)        :    800.0010
Gamma-point calculation with multiply-connected orbital pairs
Folding of H and S implicitly performed
<dSpData1D:S at geom step 4
  <sparsity:sparsity for geom step 4
    nrows_g=12 nrows=12 sparsity=1.0000 nnzs=144, refcount: 7>
  <dData1D:(new from dSpData1D) n=144, refcount: 1>
refcount: 1>
new_DM -- step:     4
Re-using DM from previous geometries...
Number of DMs in history: 1
 DM extrapolation coefficients: 
1   1.00000
New DM after history re-use:
<dSpData2D:SpM extrapolated using coords
  <sparsity:sparsity for geom step 4
    nrows_g=12 nrows=12 sparsity=1.0000 nnzs=144, refcount: 9>
  <dData2D:(temp array for extrapolation) n=144 m=1, refcount: 1>
refcount: 1>
No. of atoms with KB's overlaping orbs in proc 0. Max # of overlaps:       6      11

InitMesh: MESH = 64 x 64 x 50 = 204800
InitMesh: Mesh cutoff (required, used) =   100.000   107.960 Ry
New grid distribution [1]: sub = 2

        iscf     Eharris(eV)        E_KS(eV)     FreeEng(eV)     dDmax    Ef(eV) dHmax(eV)
   scf:    1     -925.005293     -924.252147     -924.252147  0.083919 -2.215551  0.884173
   scf:    2     -924.061483     -924.222191     -924.222191  0.082965 -2.610650  1.166023
   scf:    3     -924.327692     -924.296248     -924.296248  0.046378 -2.367986  0.072647
   scf:    4     -924.296457     -924.296354     -924.296354  0.001133 -2.356477  0.048248
   scf:    5     -924.296580     -924.296474     -924.296474  0.002769 -2.332665  0.008433
   scf:    6     -924.296482     -924.296478     -924.296478  0.000362 -2.330831  0.003790
   scf:    7     -924.296479     -924.296479     -924.296479  0.000161 -2.330011  0.000984
   scf:    8     -924.296479     -924.296479     -924.296479  0.000020 -2.330000  0.000766

SCF Convergence by DM+H criterion
max |DM_out - DM_in|         :     0.0000198383
max |H_out - H_in|      (eV) :     0.0007660404
SCF cycle converged after 8 iterations

Using DM_out to compute the final energy and forces
No. of atoms with KB's overlaping orbs in proc 0. Max # of overlaps:       6      11

siesta: E_KS(eV) =             -924.2965

siesta: Atomic forces (eV/Ang):
     1    0.496189   -2.934408    0.720842
     2    2.211628    1.586632    0.267808
     3   -2.645456    1.112564   -0.227916
     4   -0.717876    3.042993    0.409591
     5    2.837612   -2.239872   -2.221809
     6   -2.042660   -0.564336    1.223616
----------------------------------------
   Tot    0.139437    0.003574    0.172131
----------------------------------------
   Max    3.042993
   Res    1.811717    sqrt( Sum f_i^2 / 3N )
----------------------------------------
   Max    3.042993    constrained

Stress tensor Voigt[x,y,z,yz,xz,xy] (kbar):      -13.87       -8.32       -2.67       -1.91        2.90        1.39
(Free)E + p*V (eV/cell)     -920.1581
Target enthalpy (eV/cell)     -924.2965

siesta: Stress tensor (static) (eV/Ang**3):
        -0.008244    0.000847    0.002064
         0.000847   -0.004866   -0.001116
         0.002064   -0.001115   -0.001089

siesta: Pressure (static):          7.58302398  kBar

siesta: Stress tensor (total) (eV/Ang**3):
        -0.008660    0.000865    0.001810
         0.000865   -0.005190   -0.001195
         0.001810   -0.001195   -0.001669

siesta: Pressure (total):          8.28796745  kBar

siesta: Temp_ion =    1831.263 K

                     ====================================
                        Begin MD step =      5
                     ====================================

outcoor: Atomic coordinates (Ang):                          
    0.06601488   -0.11215854   -0.01536026   1       1  O
    0.79582034    0.70484735    0.04448873   2       2  H
   -0.83836611    0.49550540   -0.14291756   2       3  H
   -0.04521927    0.11614515    3.06614846   1       4  O
    0.50092278   -0.69495289    2.60310988   2       5  H
   -0.77082588   -0.57981268    3.53317313   2       6  H

outcell: Unit cell vectors (Ang):
       10.000004    0.000000    0.000000
        0.000000   10.000004    0.000000
        0.000000    0.000000    8.000003

outcell: Cell vector modules (Ang)   :   10.000004   10.000004    8.000003
outcell: Cell angles (23,13,12) (deg):     90.0000     90.0000     90.0000
outcell: Cell volume (Ang**3)        :    800.0010
Gamma-point calculation with multiply-connected orbital pairs
Folding of H and S implicitly performed
<dSpData1D:S at geom step 5
  <sparsity:sparsity for geom step 5
    nrows_g=12 nrows=12 sparsity=1.0000 nnzs=144, refcount: 7>
  <dData1D:(new from dSpData1D) n=144, refcount: 1>
refcount: 1>
new_DM -- step:     5
Re-using DM from previous geometries...
Number of DMs in history: 1
 DM extrapolation coefficients: 
1   1.00000
New DM after history re-use:
<dSpData2D:SpM extrapolated using coords
  <sparsity:sparsity for geom step 5
    nrows_g=12 nrows=12 sparsity=1.0000 nnzs=144, refcount: 9>
  <dData2D:(temp array for extrapolation) n=144 m=1, refcount: 1>
refcount: 1>
Note: For starting DM, Qtot, Tr[D*S] =         16.00000000         15.97858402
No. of atoms with KB's overlaping orbs in proc 0. Max # of overlaps:       6      11

InitMesh: MESH = 64 x 64 x 50 = 204800
InitMesh: Mesh cutoff (required, used) =   100.000   107.960 Ry
New grid distribution [1]: sub = 2

        iscf     Eharris(eV)        E_KS(eV)     FreeEng(eV)     dDmax    Ef(eV) dHmax(eV)
   scf:    1     -925.542647     -924.591738     -924.591738  0.141429 -2.854633  1.533665
   scf:    2     -923.514520     -924.370624     -924.370624  0.167376 -3.636811  2.647421
   scf:    3     -924.907240     -924.755448     -924.755448  0.098914 -3.138662  0.118402
   scf:    4     -924.756085     -924.755785     -924.755785  0.001671 -3.118155  0.088459
   scf:    5     -924.756405     -924.756108     -924.756108  0.003479 -3.093364  0.032993
   scf:    6     -924.756224     -924.756171     -924.756171  0.001836 -3.084125  0.005597
   scf:    7     -924.756177     -924.756175     -924.756175  0.000413 -3.082659  0.001906
   scf:    8     -924.756175     -924.756175     -924.756175  0.000068 -3.082623  0.000889

SCF Convergence by DM+H criterion
max |DM_out - DM_in|         :     0.0000684316
max |H_out - H_in|      (eV) :     0.0008885795
SCF cycle converged after 8 iterations

Using DM_out to compute the final energy and forces
No. of atoms with KB's overlaping orbs in proc 0. Max # of overlaps:       6      11

siesta: E_KS(eV) =             -924.7562

siesta: Atomic forces (eV/Ang):
     1    0.059273    0.008002    0.573376
     2   -0.091158   -0.151216    0.066837
     3    0.106715   -0.128370    0.123130
     4   -0.450449   -0.396950    0.094050
     5    0.616563    0.013380   -0.810384
     6   -0.074591    0.645606    0.073795
----------------------------------------
   Tot    0.166353   -0.009548    0.120803
----------------------------------------
   Max    0.810384
   Res    0.353176    sqrt( Sum f_i^2 / 3N )
----------------------------------------
   Max    0.810384    constrained

Stress tensor Voigt[x,y,z,yz,xz,xy] (kbar):       -2.17        0.15       -1.39       -1.75        1.07        0.74
(Free)E + p*V (eV/cell)     -924.1890
Target enthalpy (eV/cell)     -924.7562

siesta: Stress tensor (static) (eV/Ang**3):
        -0.000285    0.000598    0.000659
         0.000597    0.000835   -0.000836
         0.000660   -0.000836    0.000282

siesta: Pressure (static):         -0.44433633  kBar

siesta: Stress tensor (total) (eV/Ang**3):
        -0.001352    0.000462    0.000665
         0.000461    0.000093   -0.001092
         0.000665   -0.001092   -0.000868

siesta: Pressure (total):          1.13586910  kBar

siesta: Temp_ion =    2513.802 K

                     ====================================
                        Begin MD step =      6
                     ====================================

outcoor: Atomic coordinates (Ang):                          
    0.07156749   -0.12278787   -0.01417412   1       1  O
    0.85872656    0.73797985    0.06004824   2       2  H
   -0.91331160    0.49739750   -0.15497495   2       3  H
   -0.04811409    0.12815890    3.07164628   1       4  O
    0.51542076   -0.73662593    2.52019485   2       5  H
   -0.80881806   -0.59720418    3.60182731   2       6  H

outcell: Unit cell vectors (Ang):
       10.000004    0.000000    0.000000
        0.000000   10.000004    0.000000
        0.000000    0.000000    8.000003

outcell: Cell vector modules (Ang)   :   10.000004   10.000004    8.000003
outcell: Cell angles (23,13,12) (deg):     90.0000     90.0000     90.0000
outcell: Cell volume (Ang**3)        :    800.0010
Gamma-point calculation with multiply-connected orbital pairs
Folding of H and S implicitly performed
<dSpData1D:S at geom step 6
  <sparsity:sparsity for geom step 6
    nrows_g=12 nrows=12 sparsity=1.0000 nnzs=144, refcount: 7>
  <dData1D:(new from dSpData1D) n=144, refcount: 1>
refcount: 1>
new_DM -- step:     6
Re-using DM from previous geometries...
Number of DMs in history: 1
 DM extrapolation coefficients: 
1   1.00000
New DM after history re-use:
<dSpData2D:SpM extrapolated using coords
  <sparsity:sparsity for geom step 6
    nrows_g=12 nrows=12 sparsity=1.0000 nnzs=144, refcount: 9>
  <dData2D:(temp array for extrapolation) n=144 m=1, refcount: 1>
refcount: 1>
Note: For starting DM, Qtot, Tr[D*S] =         16.00000000         15.95948628
No. of atoms with KB's overlaping orbs in proc 0. Max # of overlaps:       6      11

InitMesh: MESH = 64 x 64 x 50 = 204800
InitMesh: Mesh cutoff (required, used) =   100.000   107.960 Ry
New grid distribution [1]: sub = 2

        iscf     Eharris(eV)        E_KS(eV)     FreeEng(eV)     dDmax    Ef(eV) dHmax(eV)
   scf:    1     -924.955961     -924.256587     -924.256587  0.137163 -0.415257  1.718620
   scf:    2     -922.198332     -923.771257     -923.771257  0.213529 -4.418835  3.501350
   scf:    3     -924.726341     -924.471903     -924.471903  0.133675 -3.837305  0.137778
   scf:    4     -924.472958     -924.472487     -924.472487  0.002315 -3.813337  0.103726
   scf:    5     -924.473338     -924.472929     -924.472929  0.003236 -3.792692  0.047973
   scf:    6     -924.473160     -924.473056     -924.473056  0.002625 -3.779302  0.005277
   scf:    7     -924.473060     -924.473058     -924.473058  0.000316 -3.778160  0.002126
   scf:    8     -924.473059     -924.473059     -924.473059  0.000079 -3.777999  0.001086
   scf:    9     -924.473059     -924.473059     -924.473059  0.000034 -3.777894  0.000620

SCF Convergence by DM+H criterion
max |DM_out - DM_in|         :     0.0000342785
max |H_out - H_in|      (eV) :     0.0006204148
SCF cycle converged after 9 iterations

Using DM_out to compute the final energy and forces
No. of atoms with KB's overlaping orbs in proc 0. Max # of overlaps:       6      11

siesta: E_KS(eV) =             -924.4731

siesta: Atomic forces (eV/Ang):
     1   -0.224883    1.746111    0.491755
     2   -1.569743   -1.222124   -0.094984
     3    1.883434   -0.810068    0.369876
     4   -0.242296   -2.611996   -0.253636
     5   -0.842002    1.536520    0.411745
     6    1.180372    1.331045   -0.822531
----------------------------------------
   Tot    0.184882   -0.030512    0.102225
----------------------------------------
   Max    2.611996
   Res    1.194311    sqrt( Sum f_i^2 / 3N )
----------------------------------------
   Max    2.611996    constrained

Stress tensor Voigt[x,y,z,yz,xz,xy] (kbar):        6.47        6.09        0.38       -1.31       -0.56        0.51
(Free)E + p*V (eV/cell)     -926.6274
Target enthalpy (eV/cell)     -924.4731

siesta: Stress tensor (static) (eV/Ang**3):
         0.005586    0.000422   -0.000575
         0.000421    0.004775   -0.000392
        -0.000575   -0.000392    0.001780

siesta: Pressure (static):         -6.48361880  kBar

siesta: Stress tensor (total) (eV/Ang**3):
         0.004037    0.000320   -0.000352
         0.000320    0.003802   -0.000818
        -0.000351   -0.000818    0.000239

siesta: Pressure (total):         -4.31444788  kBar

siesta: Temp_ion =    2135.775 K

                     ====================================
                        Begin MD step =      7
                     ====================================

outcoor: Atomic coordinates (Ang):                          
    0.07698448   -0.13236416   -0.01269142   1       1  O
    0.90660726    0.75941422    0.07469856   2       2  H
   -0.97022893    0.49153567   -0.16349191   2       3  H
   -0.05115504    0.13859743    3.07699114   1       4  O
    0.52185913   -0.76359147    2.44122103   2       5  H
   -0.83551177   -0.60185498    3.66260825   2       6  H

outcell: Unit cell vectors (Ang):
       10.000004    0.000000    0.000000
        0.000000   10.000004    0.000000
        0.000000    0.000000    8.000003

outcell: Cell vector modules (Ang)   :   10.000004   10.000004    8.000003
outcell: Cell angles (23,13,12) (deg):     90.0000     90.0000     90.0000
outcell: Cell volume (Ang**3)        :    800.0010
Gamma-point calculation with multiply-connected orbital pairs
Folding of H and S implicitly performed
<dSpData1D:S at geom step 7
  <sparsity:sparsity for geom step 7
    nrows_g=12 nrows=12 sparsity=1.0000 nnzs=144, refcount: 7>
  <dData1D:(new from dSpData1D) n=144, refcount: 1>
refcount: 1>
new_DM -- step:     7
Re-using DM from previous geometries...
Number of DMs in history: 1
 DM extrapolation coefficients: 
1   1.00000
New DM after history re-use:
<dSpData2D:SpM extrapolated using coords
  <sparsity:sparsity for geom step 7
    nrows_g=12 nrows=12 sparsity=1.0000 nnzs=144, refcount: 9>
  <dData2D:(temp array for extrapolation) n=144 m=1, refcount: 1>
refcount: 1>
Note: For starting DM, Qtot, Tr[D*S] =         16.00000000         15.95836534
No. of atoms with KB's overlaping orbs in proc 0. Max # of overlaps:       6      11

InitMesh: MESH = 64 x 64 x 50 = 204800
InitMesh: Mesh cutoff (required, used) =   100.000   107.960 Ry
New grid distribution [1]: sub = 2

        iscf     Eharris(eV)        E_KS(eV)     FreeEng(eV)     dDmax    Ef(eV) dHmax(eV)
   scf:    1     -924.260857     -923.778034     -923.778034  0.093190 -1.092293  1.389846
   scf:    2     -922.004335     -923.328818     -923.328818  0.182969 -4.770408  3.096324
   scf:    3     -924.115092     -923.918364     -923.918364  0.120796 -1.280947  0.120913
   scf:    4     -923.919264     -923.918855     -923.918855  0.001871 -1.263090  0.088911
   scf:    5     -923.919556     -923.919222     -923.919222  0.002801 -1.245845  0.036789
   scf:    6     -923.919363     -923.919301     -923.919301  0.001929 -1.235667  0.004366
   scf:    7     -923.919308     -923.919307     -923.919307  0.000171 -1.234877  0.001947
   scf:    8     -923.919307     -923.919307     -923.919307  0.000066 -1.234656  0.000880

SCF Convergence by DM+H criterion
max |DM_out - DM_in|         :     0.0000659028
max |H_out - H_in|      (eV) :     0.0008795456
SCF cycle converged after 8 iterations

Using DM_out to compute the final energy and forces
No. of atoms with KB's overlaping orbs in proc 0. Max # of overlaps:       6      11

siesta: E_KS(eV) =             -923.9193

siesta: Atomic forces (eV/Ang):
     1   -0.362036    2.506567    0.459143
     2   -2.317814   -1.729375   -0.197190
     3    2.785763   -1.074849    0.508518
     4   -0.162042   -3.603938   -0.462139
     5   -1.554444    2.261007    1.141233
     6    1.805104    1.602544   -1.377827
----------------------------------------
   Tot    0.194531   -0.038045    0.071737
----------------------------------------
   Max    3.603938
   Res    1.731811    sqrt( Sum f_i^2 / 3N )
----------------------------------------
   Max    3.603938    constrained

Stress tensor Voigt[x,y,z,yz,xz,xy] (kbar):       12.42        9.57        2.60       -0.75       -1.86        0.54
(Free)E + p*V (eV/cell)     -928.0105
Target enthalpy (eV/cell)     -923.9193

siesta: Stress tensor (static) (eV/Ang**3):
         0.008949    0.000368   -0.001368
         0.000367    0.006712   -0.000044
        -0.001367   -0.000044    0.003132

siesta: Pressure (static):        -10.03648182  kBar

siesta: Stress tensor (total) (eV/Ang**3):
         0.007750    0.000338   -0.001163
         0.000337    0.005971   -0.000469
        -0.001163   -0.000468    0.001621

siesta: Pressure (total):         -8.19351186  kBar

siesta: Temp_ion =    1325.698 K

                     ====================================
                        Begin MD step =      8
                     ====================================

outcoor: Atomic coordinates (Ang):                          
    0.08218313   -0.14042882   -0.01093182   1       1  O
    0.93230195    0.76429509    0.08746139   2       2  H
   -1.00048106    0.47538542   -0.16714136   2       3  H
   -0.05429372    0.14686254    3.08205730   1       4  O
    0.51341844   -0.76891475    2.37317105   2       5  H
   -0.84492711   -0.59116630    3.71020069   2       6  H

outcell: Unit cell vectors (Ang):
       10.000004    0.000000    0.000000
        0.000000   10.000004    0.000000
        0.000000    0.000000    8.000003

outcell: Cell vector modules (Ang)   :   10.000004   10.000004    8.000003
outcell: Cell angles (23,13,12) (deg):     90.0000     90.0000     90.0000
outcell: Cell volume (Ang**3)        :    800.0010
Gamma-point calculation with multiply-connected orbital pairs
Folding of H and S implicitly performed
<dSpData1D:S at geom step 8
  <sparsity:sparsity for geom step 8
    nrows_g=12 nrows=12 sparsity=1.0000 nnzs=144, refcount: 7>
  <dData1D:(new from dSpData1D) n=144, refcount: 1>
refcount: 1>
new_DM -- step:     8
Re-using DM from previous geometries...
Number of DMs in history: 1
 DM extrapolation coefficients: 
1   1.00000
New DM after history re-use:
<dSpData2D:SpM extrapolated using coords
  <sparsity:sparsity for geom step 8
    nrows_g=12 nrows=12 sparsity=1.0000 nnzs=144, refcount: 9>
  <dData2D:(temp array for extrapolation) n=144 m=1, refcount: 1>
refcount: 1>
Note: For starting DM, Qtot, Tr[D*S] =         16.00000000         15.97645022
No. of atoms with KB's overlaping orbs in proc 0. Max # of overlaps:       6      12

InitMesh: MESH = 64 x 64 x 50 = 204800
InitMesh: Mesh cutoff (required, used) =   100.000   107.960 Ry
New grid distribution [1]: sub = 2

        iscf     Eharris(eV)        E_KS(eV)     FreeEng(eV)     dDmax    Ef(eV) dHmax(eV)
   scf:    1     -923.816833     -923.516756     -923.516756  0.075287 -1.449467  0.743678
   scf:    2     -923.034298     -923.391210     -923.391210  0.096543 -1.724886  1.641630
   scf:    3     -923.599967     -923.550495     -923.550495  0.065938 -1.522858  0.075388
   scf:    4     -923.550913     -923.550711     -923.550711  0.001329 -1.513256  0.052941
   scf:    5     -923.551057     -923.550900     -923.550900  0.002759 -1.497045  0.008536
   scf:    6     -923.550911     -923.550906     -923.550906  0.000617 -1.494288  0.003301
   scf:    7     -923.550907     -923.550907     -923.550907  0.000127 -1.493800  0.001378
   scf:    8     -923.550907     -923.550907     -923.550907  0.000063 -1.493597  0.000856

SCF Convergence by DM+H criterion
max |DM_out - DM_in|         :     0.0000630792
max |H_out - H_in|      (eV) :     0.0008560736
SCF cycle converged after 8 iterations

Using DM_out to compute the final energy and forces
No. of atoms with KB's overlaping orbs in proc 0. Max # of overlaps:       6      12

siesta: E_KS(eV) =             -923.5509

siesta: Atomic forces (eV/Ang):
     1   -0.411477    2.687015    0.448776
     2   -2.616815   -1.886685   -0.253446
     3    3.150545   -1.108277    0.576154
     4   -0.121589   -3.850702   -0.580651
     5   -1.840724    2.507266    1.532965
     6    2.031261    1.609021   -1.676180
----------------------------------------
   Tot    0.191202   -0.042362    0.047619
----------------------------------------
   Max    3.850702
   Res    1.918875    sqrt( Sum f_i^2 / 3N )
----------------------------------------
   Max    3.850702    constrained

Stress tensor Voigt[x,y,z,yz,xz,xy] (kbar):       15.77       10.90        4.79       -0.12       -2.80        0.61
(Free)E + p*V (eV/cell)     -928.7865
Target enthalpy (eV/cell)     -923.5509

siesta: Stress tensor (static) (eV/Ang**3):
         0.010388    0.000348   -0.001783
         0.000348    0.007220    0.000202
        -0.001783    0.000202    0.004167

siesta: Pressure (static):        -11.62940459  kBar

siesta: Stress tensor (total) (eV/Ang**3):
         0.009842    0.000384   -0.001750
         0.000384    0.006804   -0.000078
        -0.001750   -0.000078    0.002987

siesta: Pressure (total):        -10.48545374  kBar

siesta: Temp_ion =     775.051 K

                     ====================================
                        Begin MD step =      9
                     ====================================

outcoor: Atomic coordinates (Ang):                          
    0.08713364   -0.14687302   -0.00890158   1       1  O
    0.93294860    0.75111668    0.09779825   2       2  H
   -1.00057631    0.44862680   -0.16527590   2       3  H
   -0.05750571    0.15280539    3.08677329   1       4  O
    0.48735841   -0.75023858    2.31979454   2       5  H
   -0.83489930   -0.56507614    3.74174881   2       6  H

outcell: Unit cell vectors (Ang):
       10.000004    0.000000    0.000000
        0.000000   10.000004    0.000000
        0.000000    0.000000    8.000003

outcell: Cell vector modules (Ang)   :   10.000004   10.000004    8.000003
outcell: Cell angles (23,13,12) (deg):     90.0000     90.0000     90.0000
outcell: Cell volume (Ang**3)        :    800.0010
Gamma-point calculation with multiply-connected orbital pairs
Folding of H and S implicitly performed
<dSpData1D:S at geom step 9
  <sparsity:sparsity for geom step 9
    nrows_g=12 nrows=12 sparsity=1.0000 nnzs=144, refcount: 7>
  <dData1D:(new from dSpData1D) n=144, refcount: 1>
refcount: 1>
new_DM -- step:     9
Re-using DM from previous geometries...
Number of DMs in history: 1
 DM extrapolation coefficients: 
1   1.00000
New DM after history re-use:
<dSpData2D:SpM extrapolated using coords
  <sparsity:sparsity for geom step 9
    nrows_g=12 nrows=12 sparsity=1.0000 nnzs=144, refcount: 9>
  <dData2D:(temp array for extrapolation) n=144 m=1, refcount: 1>
refcount: 1>
No. of atoms with KB's overlaping orbs in proc 0. Max # of overlaps:       6      12

InitMesh: MESH = 64 x 64 x 50 = 204800
InitMesh: Mesh cutoff (required, used) =   100.000   107.960 Ry
New grid distribution [1]: sub = 2

        iscf     Eharris(eV)        E_KS(eV)     FreeEng(eV)     dDmax    Ef(eV) dHmax(eV)
   scf:    1     -923.512777     -923.566737     -923.566737  0.058452 -2.969179  0.348864
   scf:    2     -923.523245     -923.555955     -923.555955  0.039637 -2.830164  0.628980
   scf:    3     -923.575130     -923.570774     -923.570774  0.026847 -2.923791  0.042969
   scf:    4     -923.570988     -923.570885     -923.570885  0.001539 -2.921658  0.026004
   scf:    5     -923.571014     -923.570959     -923.570959  0.002955 -2.917868  0.005239
   scf:    6     -923.570962     -923.570960     -923.570960  0.000177 -2.917784  0.002823
   scf:    7     -923.570962     -923.570961     -923.570961  0.000199 -2.917659  0.000518
   scf:    8     -923.570961     -923.570961     -923.570961  0.000023 -2.917662  0.000279

SCF Convergence by DM+H criterion
max |DM_out - DM_in|         :     0.0000234688
max |H_out - H_in|      (eV) :     0.0002792481
SCF cycle converged after 8 iterations

Using DM_out to compute the final energy and forces
No. of atoms with KB's overlaping orbs in proc 0. Max # of overlaps:       6      12

siesta: E_KS(eV) =             -923.5710

siesta: Atomic forces (eV/Ang):
     1   -0.405610    2.466309    0.455718
     2   -2.603798   -1.791897   -0.274183
     3    3.151339   -0.993854    0.591067
     4   -0.030256   -3.629355   -0.693213
     5   -1.908650    2.489935    1.712420
     6    1.984407    1.415232   -1.773853
----------------------------------------
   Tot    0.187431   -0.043629    0.017955
----------------------------------------
   Max    3.629355
   Res    1.875349    sqrt( Sum f_i^2 / 3N )
----------------------------------------
   Max    3.629355    constrained

Stress tensor Voigt[x,y,z,yz,xz,xy] (kbar):       16.24       10.18        6.65        0.50       -3.29        0.58
(Free)E + p*V (eV/cell)     -929.0757
Target enthalpy (eV/cell)     -923.5710

siesta: Stress tensor (static) (eV/Ang**3):
         0.010304    0.000261   -0.001909
         0.000261    0.006679    0.000393
        -0.001909    0.000393    0.004913

siesta: Pressure (static):        -11.69318401  kBar

siesta: Stress tensor (total) (eV/Ang**3):
         0.010138    0.000363   -0.002056
         0.000363    0.006353    0.000311
        -0.002056    0.000311    0.004152

siesta: Pressure (total):        -11.02438935  kBar

siesta: Temp_ion =     805.284 K

                     ====================================
                        Begin MD step =     10
                     ====================================

outcoor: Atomic coordinates (Ang):                          
    0.09183953   -0.15182986   -0.00659650   1       1  O
    0.90867180    0.72078632    0.10551063   2       2  H
   -0.97050707    0.41235505   -0.15775276   2       3  H
   -0.06073596    0.15655949    3.09107122   1       4  O
    0.44302886   -0.70772886    2.28280925   2       5  H
   -0.80587684   -0.52543943    3.75631769   2       6  H

outcell: Unit cell vectors (Ang):
       10.000004    0.000000    0.000000
        0.000000   10.000004    0.000000
        0.000000    0.000000    8.000003

outcell: Cell vector modules (Ang)   :   10.000004   10.000004    8.000003
outcell: Cell angles (23,13,12) (deg):     90.0000     90.0000     90.0000
outcell: Cell volume (Ang**3)        :    800.0010
Gamma-point calculation with multiply-connected orbital pairs
Folding of H and S implicitly performed
<dSpData1D:S at geom step 10
  <sparsity:sparsity for geom step 10
    nrows_g=12 nrows=12 sparsity=1.0000 nnzs=144, refcount: 7>
  <dData1D:(new from dSpData1D) n=144, refcount: 1>
refcount: 1>
new_DM -- step:    10
Re-using DM from previous geometries...
Number of DMs in history: 1
 DM extrapolation coefficients: 
1   1.00000
New DM after history re-use:
<dSpData2D:SpM extrapolated using coords
  <sparsity:sparsity for geom step 10
    nrows_g=12 nrows=12 sparsity=1.0000 nnzs=144, refcount: 9>
  <dData2D:(temp array for extrapolation) n=144 m=1, refcount: 1>
refcount: 1>
Note: For starting DM, Qtot, Tr[D*S] =         16.00000000         16.03508849
No. of atoms with KB's overlaping orbs in proc 0. Max # of overlaps:       6      12

InitMesh: MESH = 64 x 64 x 50 = 204800
InitMesh: Mesh cutoff (required, used) =   100.000   107.960 Ry
New grid distribution [1]: sub = 2

        iscf     Eharris(eV)        E_KS(eV)     FreeEng(eV)     dDmax    Ef(eV) dHmax(eV)
   scf:    1     -923.265848     -923.906269     -923.906269  0.090597 -2.740647  1.082139
   scf:    2     -923.067427     -923.691830     -923.691830  0.140287 -2.201123  2.320338
   scf:    3     -924.054096     -923.969925     -923.969925  0.097073 -2.579761  0.094568
   scf:    4     -923.970555     -923.970254     -923.970254  0.002001 -2.581305  0.064792
   scf:    5     -923.970708     -923.970503     -923.970503  0.003450 -2.588502  0.015894
   scf:    6     -923.970519     -923.970513     -923.970513  0.000720 -2.591343  0.003896
   scf:    7     -923.970514     -923.970514     -923.970514  0.000173 -2.591861  0.002050
   scf:    8     -923.970514     -923.970514     -923.970514  0.000093 -2.591941  0.001223
   scf:    9     -923.970514     -923.970514     -923.970514  0.000069 -2.591935  0.000688

SCF Convergence by DM+H criterion
max |DM_out - DM_in|         :     0.0000685446
max |H_out - H_in|      (eV) :     0.0006876869
SCF cycle converged after 9 iterations

Using DM_out to compute the final energy and forces
No. of atoms with KB's overlaping orbs in proc 0. Max # of overlaps:       6      12

siesta: E_KS(eV) =             -923.9705

siesta: Atomic forces (eV/Ang):
     1   -0.353169    1.836285    0.481815
     2   -2.257892   -1.421262   -0.252523
     3    2.758662   -0.731740    0.545789
     4    0.188819   -3.003123   -0.884903
     5   -1.831638    2.271948    1.762023
     6    1.669713    1.005123   -1.643990
----------------------------------------
   Tot    0.174495   -0.042768    0.008210
----------------------------------------
   Max    3.003123
   Res    1.621281    sqrt( Sum f_i^2 / 3N )
----------------------------------------
   Max    3.003123    constrained

Stress tensor Voigt[x,y,z,yz,xz,xy] (kbar):       13.45        7.41        7.71        1.14       -3.27        0.32
(Free)E + p*V (eV/cell)     -928.7263
Target enthalpy (eV/cell)     -923.9705

siesta: Stress tensor (static) (eV/Ang**3):
         0.008726    0.000023   -0.001790
         0.000023    0.005198    0.000606
        -0.001790    0.000606    0.005212

siesta: Pressure (static):        -10.21945408  kBar

siesta: Stress tensor (total) (eV/Ang**3):
         0.008397    0.000197   -0.002043
         0.000197    0.004627    0.000712
        -0.002044    0.000713    0.004810

siesta: Pressure (total):         -9.52457077  kBar

siesta: Temp_ion =    1403.819 K

siesta: Program's energy decomposition (eV):
siesta: Ebs     =      -176.303940
siesta: Eions   =      1631.696139
siesta: Ena     =       350.961669
siesta: Ekin    =       680.871094
siesta: Enl     =      -107.786073
siesta: Eso     =         0.000000
siesta: Edftu   =         0.000000
siesta: DEna    =        -1.313921
siesta: DUscf   =         2.884797
siesta: DUext   =         0.000000
siesta: Ex      =      -193.178786
siesta: Ec      =       -24.713155
siesta: Exc     =      -217.891941
siesta: EbV     =         0.000000
siesta: eta*DQ  =         0.000000
siesta: Emadel  =         0.000000
siesta: Emeta   =         0.000000
siesta: Emolmec =         0.000000
siesta: Ekinion =         0.907288
siesta: Eharris =      -923.063226
siesta: Etot    =      -923.063226
siesta: FreeEng =      -923.063226

siesta: Final energy (eV):
siesta:  Band Struct. =    -176.303940
siesta:       Kinetic =     680.871094
siesta:       Hartree =     906.991219
siesta:         Edftu =       0.000000
siesta:       Eso     =       0.000000
siesta:    Ext. field =       0.000000
siesta:         Exch. =    -193.178786
siesta:         Corr. =     -24.713155
siesta:     Bulk bias =       0.000000
siesta:   Exch.-corr. =    -217.891941
siesta:  Ion-electron =   -2385.715169
siesta:       Ion-ion =      91.774283
siesta:       Ekinion =       0.907288
siesta: D3 dispersion =       0.000000
siesta:         Total =    -923.063226
siesta:         Fermi =      -2.591935

siesta: Atomic forces (eV/Ang):
siesta:      1   -0.353169    1.836285    0.481815
siesta:      2   -2.257892   -1.421262   -0.252523
siesta:      3    2.758662   -0.731740    0.545789
siesta:      4    0.188819   -3.003123   -0.884903
siesta:      5   -1.831638    2.271948    1.762023
siesta:      6    1.669713    1.005123   -1.643990
siesta: ----------------------------------------
siesta:    Tot    0.174495   -0.042768    0.008210

siesta: Stress tensor (static) (eV/Ang**3):
siesta:     0.008726    0.000023   -0.001790
siesta:     0.000023    0.005198    0.000606
siesta:    -0.001790    0.000606    0.005212

siesta: Cell volume =        800.000957 Ang**3

siesta: Pressure (static):
siesta:                Solid            Molecule  Units
siesta:          -0.00006947          0.00000381  Ry/Bohr**3
siesta:          -0.00637848          0.00034942  eV/Ang**3
siesta:         -10.21945408          0.55983202  kBar
(Free)E+ p_basis*V_orbitals  =        -923.471127
(Free)Eharris+ p_basis*V_orbitals  =        -923.471127

siesta: Electric dipole (a.u.)  =   -0.217142    0.071540   -0.000000
siesta: Electric dipole (Debye) =   -0.551920    0.181836   -0.000000

cite: Please see "verlet.bib" for an exhaustive BiBTeX file.
cite: Please clearly indicate Siesta version in published work: 5.0.0-alpha-120-g24fa496ce-dirty
cite: This calculation has made use of the following articles
cite: which are encouraged to be cited in a published work.
        Primary SIESTA paper
          DOI: www.doi.org/10.1088/0953-8984/14/11/302


timer: Elapsed wall time (sec) =       2.002
timer: CPU execution times (sec):

Routine            Calls   Time/call    Tot.time        %
siesta                 1       2.002       2.002   100.00
Setup                  1       0.031       0.031     1.55
bands                  1       0.000       0.000     0.00
KSV_init               1       0.000       0.000     0.00
IterGeom              10       0.197       1.971    98.43
geom_init             10       0.035       0.355    17.72
state_init            10       0.000       0.005     0.23
hsparse               10       0.000       0.000     0.02
overlap               10       0.000       0.002     0.12
Setup_H0              10       0.020       0.197     9.86
naefs                 20       0.000       0.001     0.03
MolMec                20       0.000       0.000     0.00
kinefsm               20       0.000       0.002     0.11
nlefsm                20       0.001       0.014     0.71
DHSCF_Init            10       0.018       0.182     9.07
DHSCF1                10       0.002       0.023     1.17
INITMESH              10       0.000       0.000     0.00
DHSCF2                10       0.016       0.158     7.90
REMESH                10       0.001       0.008     0.41
REORD                294       0.000       0.044     2.20
PHION                 10       0.004       0.042     2.12
COMM_BSC             458       0.000       0.055     2.77
POISON               117       0.007       0.864    43.15
fft                  234       0.003       0.712    35.56
setup_H               97       0.015       1.473    73.55
DHSCF                107       0.016       1.741    86.95
DHSCF3               107       0.015       1.611    80.47
rhoofd               107       0.001       0.054     2.68
XC                   107       0.005       0.489    24.45
GXC-CellXC           107       0.004       0.430    21.47
vmat                 107       0.000       0.046     2.28
IterSCF               87       0.015       1.330    66.41
compute_dm            87       0.000       0.004     0.22
diagon                87       0.000       0.004     0.20
r-eigvec              87       0.000       0.003     0.16
r-buildHS             87       0.000       0.000     0.00
rdiag                 87       0.000       0.003     0.15
rdiag1                87       0.000       0.000     0.02
rdiag2                87       0.000       0.000     0.02
rdiag3                87       0.000       0.002     0.08
rdiag4                87       0.000       0.000     0.01
r-buildD              87       0.000       0.000     0.02
MIXER                 77       0.000       0.001     0.03
PostSCF               10       0.028       0.282    14.11
DHSCF4                10       0.013       0.130     6.48
dfscf                 10       0.009       0.089     4.44
overfsm               10       0.000       0.000     0.02
state_analysis        10       0.000       0.001     0.06
siesta_move           10       0.000       0.002     0.08
Analysis               1       0.000       0.000     0.01
optical                1       0.000       0.000     0.00
  

>> End of run:  25-SEP-2023   9:45:48
Job completed
