Siesta Version  : 5.0.0-alpha-120-g24fa496ce-dirty
Architecture    : ----
Compiler version: GNU-11.4.0
Compiler flags  : -fallow-argument-mismatch;-O3 -march=native
PP flags        : ----
Libraries       : ----
Parallelisations: none
GEMM3M support
NetCDF support
NetCDF-4 support
Lua support

Runtime information:
* Directory : /home/fnpedron/Siesta/siesta-dev/Tests/08.GeometryOptimization/work/cg_vc_constantvol
* Running in serial mode.
>> Start of run:  25-SEP-2023   9:45:22

                           *********************** 
                           *  WELCOME TO SIESTA  * 
                           *********************** 

reinit: Reading from standard input
reinit: Dumping input in INPUT_TMP.72293
************************** Dump of input data file ****************************
%include ../../basejob.fdf
SystemLabel      cg_vc_constantvol
MD.TypeOfRun      cg
MD.VariableCell   T
MD.ConstantVolume T
************************** End of input data file *****************************

reinit: -----------------------------------------------------------------------
reinit: System Name: MgCO3
reinit: -----------------------------------------------------------------------
reinit: System Label: cg_vc_constantvol
reinit: -----------------------------------------------------------------------

initatom: Reading input for the pseudopotentials and atomic orbitals ----------
Species number:   1 Atomic number:   12 Label: Mg
Species number:   2 Atomic number:    6 Label: C
Species number:   3 Atomic number:    8 Label: O


---- Processing specs for species: Mg
Ground state valence configuration:   3s02
Reading pseudopotential information in formatted form from:
  /home/fnpedron/Siesta/siesta-dev/Tests/Pseudos/Mg.psf

---- Processing specs for species: C
Ground state valence configuration:   2s02  2p02
Reading pseudopotential information in formatted form from:
  /home/fnpedron/Siesta/siesta-dev/Tests/Pseudos/C.psf

---- Processing specs for species: O
Ground state valence configuration:   2s02  2p04
Reading pseudopotential information in formatted form from:
  /home/fnpedron/Siesta/siesta-dev/Tests/Pseudos/O.psf

---- Pseudopotential check for Mg

Pseudized shells:
3s( 2.00) rc: 2.59
3p( 0.00) rc: 2.59
3d( 0.00) rc: 2.59
4f( 0.00) rc: 2.59
Valence configuration for ps generation: (assumed as above)

---- Pseudopotential check for C 

Pseudized shells:
2s( 2.00) rc: 1.49
2p( 2.00) rc: 1.52
3d( 0.00) rc: 1.58
Valence configuration for ps generation: (assumed as above)

---- Pseudopotential check for O 

Pseudized shells:
2s( 2.00) rc: 1.14
2p( 4.00) rc: 1.14
3d( 0.00) rc: 1.14
4f( 0.00) rc: 1.14
Valence configuration for ps generation: (assumed as above)
For Mg, standard SIESTA heuristics set lmxkb to 1
 (one more than the basis l, including polarization orbitals).
Use PS.lmax or PS.KBprojectors blocks to override.
For C, standard SIESTA heuristics set lmxkb to 2
 (one more than the basis l, including polarization orbitals).
Use PS.lmax or PS.KBprojectors blocks to override.
For O, standard SIESTA heuristics set lmxkb to 2
 (one more than the basis l, including polarization orbitals).
Use PS.lmax or PS.KBprojectors blocks to override.

<basis_specs>
===============================================================================
Mg                   Z=  12    Mass=  24.305        Charge= 0.17977+309
Lmxo=0 Lmxkb= 1    BasisType=split      Semic=F
L=0  Nsemic=0  Cnfigmx=3
          i=1  nzeta=1  polorb=0  (3s)
            splnorm:   0.15000    
               vcte:    0.0000    
               rinn:    0.0000    
               qcoe:    0.0000    
               qyuk:    0.0000    
               qwid:   0.10000E-01
                rcs:    0.0000    
            lambdas:    1.0000    
-------------------------------------------------------------------------------
L=0  Nkbl=1  erefs: 0.17977+309
L=1  Nkbl=1  erefs: 0.17977+309
===============================================================================
</basis_specs>

atom: Called for Mg                    (Z =  12)

read_vps: Pseudopotential generation method:
read_vps: ATM3      Troullier-Martins                       
Valence charge in pseudo generation:    2.00000

xc_check: Exchange-correlation functional:
xc_check: Ceperley-Alder
V l=0 = -2*Zval/r beyond r=  3.5878
V l=1 = -2*Zval/r beyond r=  3.5878
All V_l potentials equal beyond r=  2.5600
This should be close to max(r_c) in ps generation
All pots = -2*Zval/r beyond r=  3.5878
Using large-core scheme (fit) for Vlocal

atom: Estimated core radius    3.58779

atom: Including non-local core corrections could be a good idea
Fit of Vlocal with continuous 2nd derivative
Fitting vlocal at       2.6578
Choosing vlocal chloc cutoff:789  3.915882
qtot up to nchloc:    1.99998584
atom: Maximum radius for chlocal:    3.91588
atom: Maximum radius for r*vlocal+2*Zval:    3.91588

KBgen: Kleinman-Bylander projectors: 
GHOST: No ghost state for L =  0
   l= 0   rc=  2.657845   el= -0.351328   Ekb=  2.184400   kbcos=  0.257081
GHOST: No ghost state for L =  1
   l= 1   rc=  2.657845   el= -0.101748   Ekb=  0.525536   kbcos=  0.270508

KBgen: Total number of Kleinman-Bylander projectors:   4
atom: -------------------------------------------------------------------------

atom: SANKEY-TYPE ORBITALS:

SPLIT: Orbitals with angular momentum L= 0

SPLIT: Basis orbitals for state 3s

SPLIT: PAO cut-off radius determined from an
SPLIT: energy shift=  0.020000 Ry

   izeta = 1
                 lambda =    1.000000
                     rc =    6.619780
                 energy =   -0.332103
                kinetic =    0.289627
    potential(screened) =   -0.621729
       potential(ionic) =   -1.387191
atom: Total number of Sankey-type orbitals:  1

atm_pop: Valence configuration (for local Pseudopot. screening):
 3s( 2.00)                                                            
Vna: chval, zval:    2.00000   2.00000

Vna:  Cut-off radius for the neutral-atom potential:   6.619780

atom: _________________________________________________________________________

<basis_specs>
===============================================================================
C                    Z=   6    Mass=  12.011        Charge= 0.17977+309
Lmxo=1 Lmxkb= 2    BasisType=split      Semic=F
L=0  Nsemic=0  Cnfigmx=2
          i=1  nzeta=1  polorb=0  (2s)
            splnorm:   0.15000    
               vcte:    0.0000    
               rinn:    0.0000    
               qcoe:    0.0000    
               qyuk:    0.0000    
               qwid:   0.10000E-01
                rcs:    0.0000    
            lambdas:    1.0000    
L=1  Nsemic=0  Cnfigmx=2
          i=1  nzeta=1  polorb=0  (2p)
            splnorm:   0.15000    
               vcte:    0.0000    
               rinn:    0.0000    
               qcoe:    0.0000    
               qyuk:    0.0000    
               qwid:   0.10000E-01
                rcs:    0.0000    
            lambdas:    1.0000    
-------------------------------------------------------------------------------
L=0  Nkbl=1  erefs: 0.17977+309
L=1  Nkbl=1  erefs: 0.17977+309
L=2  Nkbl=1  erefs: 0.17977+309
===============================================================================
</basis_specs>

atom: Called for C                     (Z =   6)

read_vps: Pseudopotential generation method:
read_vps: ATM3      Troullier-Martins                       
Valence charge in pseudo generation:    4.00000

xc_check: Exchange-correlation functional:
xc_check: Ceperley-Alder
V l=0 = -2*Zval/r beyond r=  1.4666
V l=1 = -2*Zval/r beyond r=  1.5038
V l=2 = -2*Zval/r beyond r=  1.5612
All V_l potentials equal beyond r=  1.5612
This should be close to max(r_c) in ps generation
All pots = -2*Zval/r beyond r=  1.5612
Using small-core scheme (local charge) for Vlocal

VLOCAL_FROM_CHLOCAL: 99.0% of the norm of Vloc inside     17.809 Ry
VLOCAL_FROM_CHLOCAL: 99.9% of the norm of Vloc inside     40.586 Ry
atom: Maximum radius for chlocal:    1.88329
atom: Maximum radius for r*vlocal+2*Zval:    1.72547

KBgen: Kleinman-Bylander projectors: 
GHOST: No ghost state for L =  0
   l= 0   rc=  1.747182   el= -1.001947   Ekb=  5.181700   kbcos=  0.300603
GHOST: No ghost state for L =  1
   l= 1   rc=  1.747182   el= -0.398598   Ekb= -4.328763   kbcos= -0.367074
GHOST: No ghost state for L =  2
   l= 2   rc=  1.955272   el=  0.002326   Ekb= -1.016175   kbcos= -0.009979

KBgen: Total number of Kleinman-Bylander projectors:   9
atom: -------------------------------------------------------------------------

atom: SANKEY-TYPE ORBITALS:

SPLIT: Orbitals with angular momentum L= 0

SPLIT: Basis orbitals for state 2s

SPLIT: PAO cut-off radius determined from an
SPLIT: energy shift=  0.020000 Ry

   izeta = 1
                 lambda =    1.000000
                     rc =    4.191849
                 energy =   -0.983897
                kinetic =    0.886956
    potential(screened) =   -1.870853
       potential(ionic) =   -5.479661

SPLIT: Orbitals with angular momentum L= 1

SPLIT: Basis orbitals for state 2p

SPLIT: PAO cut-off radius determined from an
SPLIT: energy shift=  0.020000 Ry

   izeta = 1
                 lambda =    1.000000
                     rc =    4.870301
                 energy =   -0.379093
                kinetic =    2.545357
    potential(screened) =   -2.924450
       potential(ionic) =   -6.433151
atom: Total number of Sankey-type orbitals:  4

atm_pop: Valence configuration (for local Pseudopot. screening):
 2s( 2.00)                                                            
 2p( 2.00)                                                            
Vna: chval, zval:    4.00000   4.00000

Vna:  Cut-off radius for the neutral-atom potential:   4.870301

atom: _________________________________________________________________________

<basis_specs>
===============================================================================
O                    Z=   8    Mass=  15.999        Charge= 0.17977+309
Lmxo=1 Lmxkb= 2    BasisType=split      Semic=F
L=0  Nsemic=0  Cnfigmx=2
          i=1  nzeta=1  polorb=0  (2s)
            splnorm:   0.15000    
               vcte:    0.0000    
               rinn:    0.0000    
               qcoe:    0.0000    
               qyuk:    0.0000    
               qwid:   0.10000E-01
                rcs:    0.0000    
            lambdas:    1.0000    
L=1  Nsemic=0  Cnfigmx=2
          i=1  nzeta=1  polorb=0  (2p)
            splnorm:   0.15000    
               vcte:    0.0000    
               rinn:    0.0000    
               qcoe:    0.0000    
               qyuk:    0.0000    
               qwid:   0.10000E-01
                rcs:    0.0000    
            lambdas:    1.0000    
-------------------------------------------------------------------------------
L=0  Nkbl=1  erefs: 0.17977+309
L=1  Nkbl=1  erefs: 0.17977+309
L=2  Nkbl=1  erefs: 0.17977+309
===============================================================================
</basis_specs>

atom: Called for O                     (Z =   8)

read_vps: Pseudopotential generation method:
read_vps: ATM3      Troullier-Martins                       
Valence charge in pseudo generation:    6.00000

xc_check: Exchange-correlation functional:
xc_check: Ceperley-Alder
V l=0 = -2*Zval/r beyond r=  1.1278
V l=1 = -2*Zval/r beyond r=  1.1278
V l=2 = -2*Zval/r beyond r=  1.1278
All V_l potentials equal beyond r=  1.1278
This should be close to max(r_c) in ps generation
All pots = -2*Zval/r beyond r=  1.1278
Using small-core scheme (local charge) for Vlocal

VLOCAL_FROM_CHLOCAL: 99.0% of the norm of Vloc inside     34.126 Ry
VLOCAL_FROM_CHLOCAL: 99.9% of the norm of Vloc inside     77.774 Ry
atom: Maximum radius for chlocal:    1.37759
atom: Maximum radius for r*vlocal+2*Zval:    1.24646

KBgen: Kleinman-Bylander projectors: 
GHOST: No ghost state for L =  0
   l= 0   rc=  1.294105   el= -1.742414   Ekb=  9.135903   kbcos=  0.326910
GHOST: No ghost state for L =  1
   l= 1   rc=  1.294105   el= -0.676589   Ekb= -8.124878   kbcos= -0.395047
GHOST: No ghost state for L =  2
   l= 2   rc=  1.448233   el=  0.002386   Ekb= -2.039267   kbcos= -0.003484

KBgen: Total number of Kleinman-Bylander projectors:   9
atom: -------------------------------------------------------------------------

atom: SANKEY-TYPE ORBITALS:

SPLIT: Orbitals with angular momentum L= 0

SPLIT: Basis orbitals for state 2s

SPLIT: PAO cut-off radius determined from an
SPLIT: energy shift=  0.020000 Ry

   izeta = 1
                 lambda =    1.000000
                     rc =    3.305093
                 energy =   -1.723766
                kinetic =    1.614911
    potential(screened) =   -3.338677
       potential(ionic) =  -11.304675

SPLIT: Orbitals with angular momentum L= 1

SPLIT: Basis orbitals for state 2p

SPLIT: PAO cut-off radius determined from an
SPLIT: energy shift=  0.020000 Ry

   izeta = 1
                 lambda =    1.000000
                     rc =    3.937239
                 energy =   -0.658841
                kinetic =    5.005986
    potential(screened) =   -5.664827
       potential(ionic) =  -13.452360
atom: Total number of Sankey-type orbitals:  4

atm_pop: Valence configuration (for local Pseudopot. screening):
 2s( 2.00)                                                            
 2p( 4.00)                                                            
Vna: chval, zval:    6.00000   6.00000

Vna:  Cut-off radius for the neutral-atom potential:   3.937239

atom: _________________________________________________________________________

prinput: Basis input 

PAO.BasisType split     

%block ChemicalSpeciesLabel
    1   12 Mg                      # Species index, atomic number, species label
    2    6 C                       # Species index, atomic number, species label
    3    8 O                       # Species index, atomic number, species label
%endblock ChemicalSpeciesLabel

%block PAO.Basis                 # Define Basis set
# WARNING: This information might be incomplete!
Mg                    1                    # Species label, number of l-shells
 n=3   0   1                         # n, l, Nzeta 
   6.620   
   1.000   
C                     2                    # Species label, number of l-shells
 n=2   0   1                         # n, l, Nzeta 
   4.192   
   1.000   
 n=2   1   1                         # n, l, Nzeta 
   4.870   
   1.000   
O                     2                    # Species label, number of l-shells
 n=2   0   1                         # n, l, Nzeta 
   3.305   
   1.000   
 n=2   1   1                         # n, l, Nzeta 
   3.937   
   1.000   
%endblock PAO.Basis

prinput: ----------------------------------------------------------------------

Dumping basis to NetCDF file Mg.ion.nc
Dumping basis to NetCDF file C.ion.nc
Dumping basis to NetCDF file O.ion.nc
coor:   Atomic-coordinates input format  =     Fractional

siesta: Atomic coordinates (Bohr) and species
siesta:      0.00000   0.00000   0.00000  1        1
siesta:     12.51929   5.59740   3.66414  1        2
siesta:      6.25965   2.79870   1.83207  2        3
siesta:     -6.25965  -2.79870  -1.83207  2        4
siesta:      7.25136   0.58061   1.83207  3        5
siesta:      6.25965   4.12944  -0.20079  3        6
siesta:      5.26793   3.68605   3.86493  3        7
siesta:     -7.25136  -0.58061  -1.83207  3        8
siesta:     -6.25965  -4.12944   0.20079  3        9
siesta:     -5.26793  -3.68605  -3.86493  3       10

siesta: System type = bulk      

initatomlists: Number of atoms, orbitals, and projectors:     10    34    80

siesta: ******************** Simulation parameters ****************************
siesta:
siesta: The following are some of the parameters of the simulation.
siesta: A complete list of the parameters used, including default values,
siesta: can be found in file out.fdf
siesta:
redata: Spin configuration                          = none
redata: Number of spin components                   = 1
redata: Time-Reversal Symmetry                      = T
redata: Spin spiral                                 = F
redata: Long output                                 =   F
redata: Number of Atomic Species                    =        3
redata: Charge density info will appear in .RHO file
redata: Write Mulliken Pop.                         = NO
redata: Matel table size (NRTAB)                    =     1024
redata: Mesh Cutoff                                 =    50.0000 Ry
redata: Net charge of the system                    =     0.0000 |e|
redata: Min. number of SCF Iter                     =        0
redata: Max. number of SCF Iter                     =     1000
redata: SCF convergence failure will abort job
redata: SCF mix quantity                            = Hamiltonian
redata: Mix DM or H after convergence               =   F
redata: Recompute H after scf cycle                 =   F
redata: Mix DM in first SCF step                    =   T
redata: Write Pulay info on disk                    =   F
redata: New DM Occupancy tolerance                  = 0.000000000001
redata: No kicks to SCF
redata: DM Mixing Weight for Kicks                  =     0.5000
redata: Require Harris convergence for SCF          =   F
redata: Harris energy tolerance for SCF             =     0.000100 eV
redata: Require DM convergence for SCF              =   T
redata: DM tolerance for SCF                        =     0.000100
redata: Require EDM convergence for SCF             =   F
redata: EDM tolerance for SCF                       =     0.001000 eV
redata: Require H convergence for SCF               =   T
redata: Hamiltonian tolerance for SCF               =     0.001000 eV
redata: Require (free) Energy convergence for SCF   =   F
redata: (free) Energy tolerance for SCF             =     0.000100 eV
redata: Using DFT-D3 dispersion                     =   F
redata: Using Saved Data (generic)                  =   F
redata: Use continuation files for DM               =   F
redata: Neglect nonoverlap interactions             =   F
redata: Method of Calculation                       = Diagonalization
redata: Electronic Temperature                      =   299.9863 K
redata: Fix the spin of the system                  =   F
redata: Max. number of TDED Iter                    =        1
redata: Number of TDED substeps                     =        3
redata: Dynamics option                             = CG coord. optimization
redata: Variable cell                               =   T
redata: Use continuation files for CG               =   F
redata: Max atomic displ per move                   =     0.1000 Ang
redata: Maximum number of optimization moves        =        5
redata: Force tolerance                             =     0.0400 eV/Ang
redata: Stress tolerance                            =     2.0000 GPa
mix.SCF: Pulay mixing                            = Pulay
mix.SCF:    Variant                              = stable
mix.SCF:    History steps                        = 2
mix.SCF:    Linear mixing weight                 =     0.250000
mix.SCF:    Mixing weight                        =     0.250000
mix.SCF:    SVD condition                        = 0.1000E-07
redata: Save all siesta data in one NC              =   F
redata: ***********************************************************************

%block SCF.Mixers
  Pulay
%endblock SCF.Mixers

%block SCF.Mixer.Pulay
  # Mixing method
  method pulay
  variant stable

  # Mixing options
  weight 0.2500
  weight.linear 0.2500
  history 2
%endblock SCF.Mixer.Pulay

DM_history_depth set to one: no extrapolation allowed by default for geometry relaxation
Size of DM history Fstack: 1
Total number of electrons:    48.000000
Total ionic charge:    48.000000
 Kpoints in:           12 . Kpoints trimmed:           12

siesta: k-grid: Number of k-points = 12
siesta: k-points from cutoff
siesta: k-cutoff (effective) =     5.678 Ang
siesta: k-point supercell and displacements
siesta: k-grid:    -3     0     3      0.500
siesta: k-grid:     0    -3     3      0.000
siesta: k-grid:     0     0     2      0.000

diag: Algorithm                                     = D&C
diag: Used triangular part                          = Lower
diag: Absolute tolerance                            =  0.100E-15
diag: Orthogonalization factor                      =  0.100E-05
diag: Memory factor                                 =  1.0000

superc: Internal auxiliary supercell:     5 x     5 x     5  =     125
superc: Number of atoms, orbitals, and projectors:   1250   4250  10000


ts: **************************************************************
ts: Save H and S matrices                           =    F
ts: Save DM and EDM matrices                        =    F
ts: Only save the overlap matrix S                  =    F
ts: **************************************************************

************************ Begin: TS CHECKS AND WARNINGS ************************
************************ End: TS CHECKS AND WARNINGS **************************


                     ====================================
                        Begin CG opt. move =      0
                     ====================================

outcoor: Atomic coordinates (fractional):                   
    0.00000000    0.00000000    0.00000000   1       1  Mg
    0.50000000    0.50000000    0.50000000   1       2  Mg
    0.25000000    0.25000000    0.25000000   2       3  C
   -0.25000000   -0.25000000   -0.25000000   2       4  C
    0.52740000   -0.02740000    0.25000000   3       5  O
    0.25000000    0.52740000   -0.02740000   3       6  O
   -0.02740000    0.25000000    0.52740000   3       7  O
   -0.52740000    0.02740000   -0.25000000   3       8  O
   -0.25000000   -0.52740000    0.02740000   3       9  O
    0.02740000   -0.25000000   -0.52740000   3      10  O

superc: Internal auxiliary supercell:     5 x     5 x     5  =     125
superc: Number of atoms, orbitals, and projectors:   1250   4250  10000

outcell: Unit cell vectors (Ang):
        5.677830    0.000000    0.000000
        3.786009    4.231299    0.000000
        3.786009    1.692731    3.877957

outcell: Cell vector modules (Ang)   :    5.677830    5.677830    5.677830
outcell: Cell angles (23,13,12) (deg):     48.1790     48.1790     48.1790
outcell: Cell volume (Ang**3)        :     93.1663
<dSpData1D:S at geom step 0
  <sparsity:sparsity for geom step 0
    nrows_g=34 nrows=34 sparsity=8.3131 nnzs=9610, refcount: 7>
  <dData1D:(new from dSpData1D) n=9610, refcount: 1>
refcount: 1>
new_DM -- step:     1
Initializing Density Matrix...
DM filled with atomic data:
<dSpData2D:DM initialized from atoms
  <sparsity:sparsity for geom step 0
    nrows_g=34 nrows=34 sparsity=8.3131 nnzs=9610, refcount: 8>
  <dData2D:DM n=9610 m=1, refcount: 1>
refcount: 1>
No. of atoms with KB's overlaping orbs in proc 0. Max # of overlaps:      96      85

InitMesh: MESH = 24 x 24 x 24 = 13824
InitMesh: Mesh cutoff (required, used) =    50.000    63.482 Ry
New grid distribution [1]: sub = 2

stepf: Fermi-Dirac step function

siesta: Program's energy decomposition (eV):
siesta: Ebs     =      -559.296151
siesta: Eions   =      5228.633019
siesta: Ena     =      1092.430864
siesta: Ekin    =      2368.203523
siesta: Enl     =      -393.819428
siesta: Eso     =         0.000000
siesta: Edftu   =         0.000000
siesta: DEna    =       -89.189424
siesta: DUscf   =        20.521663
siesta: DUext   =         0.000000
siesta: Ex      =      -641.764976
siesta: Ec      =       -77.869784
siesta: Exc     =      -719.634760
siesta: EbV     =         0.000000
siesta: eta*DQ  =         0.000000
siesta: Emadel  =         0.000000
siesta: Emeta   =         0.000000
siesta: Emolmec =         0.000000
siesta: Ekinion =         0.000000
siesta: Eharris =     -2906.782055
siesta: Etot    =     -2950.120580
siesta: FreeEng =     -2950.120580

        iscf     Eharris(eV)        E_KS(eV)     FreeEng(eV)     dDmax    Ef(eV) dHmax(eV)
   scf:    1    -2906.782055    -2950.120580    -2950.120580  1.750345 -2.715871  4.570959
timer: Routine,Calls,Time,% = IterSCF        1       0.015   5.68
   scf:    2    -2960.895878    -2956.138118    -2956.138118  0.178394 -2.906863  2.257585
   scf:    3    -2958.251997    -2957.701482    -2957.701482  0.174381 -2.951986  0.581420
   scf:    4    -2957.758130    -2957.731079    -2957.731079  0.009051 -2.870242  0.352528
   scf:    5    -2957.766414    -2957.751575    -2957.751575  0.019071 -2.725564  0.051678
   scf:    6    -2957.752456    -2957.752039    -2957.752039  0.002064 -2.722958  0.024709
   scf:    7    -2957.752302    -2957.752195    -2957.752195  0.001708 -2.724716  0.011447
   scf:    8    -2957.752199    -2957.752197    -2957.752197  0.000138 -2.727524  0.007527
   scf:    9    -2957.752199    -2957.752198    -2957.752198  0.000193 -2.733571  0.001800
   scf:   10    -2957.752199    -2957.752199    -2957.752199  0.000047 -2.734283  0.000885

SCF Convergence by DM+H criterion
max |DM_out - DM_in|         :     0.0000466735
max |H_out - H_in|      (eV) :     0.0008854363
SCF cycle converged after 10 iterations

Using DM_out to compute the final energy and forces
No. of atoms with KB's overlaping orbs in proc 0. Max # of overlaps:      96      85

siesta: E_KS(eV) =            -2957.7522

siesta: E_KS - E_eggbox =     -2957.7522

siesta: Atomic forces (eV/Ang):
     1    0.000000   -0.000000    0.000000
     2   -0.000000    0.000000    0.000000
     3    0.001177    0.000289   -0.003342
     4   -0.001177   -0.000289    0.003342
     5    3.372472   -7.544317   -0.001012
     6   -0.000013    4.524806   -6.912563
     7   -3.373730    3.020142    6.917306
     8   -3.372472    7.544317    0.001012
     9    0.000013   -4.524806    6.912563
    10    3.373730   -3.020142   -6.917306
----------------------------------------
   Tot    0.000000    0.000000   -0.000000
----------------------------------------
   Max    7.544317
   Res    3.695945    sqrt( Sum f_i^2 / 3N )
----------------------------------------
   Max    7.544317    constrained

Stress tensor Voigt[x,y,z,yz,xz,xy] (kbar):      123.83     -223.45     -272.98       56.74      126.91      194.02
(Free)E + p*V (eV/cell)    -2950.5301
Target enthalpy (eV/cell)    -2899.6023

siesta: Stress tensor (static) (eV/Ang**3):
         0.077288    0.121096    0.079209
         0.121096   -0.139464    0.035417
         0.079209    0.035417   -0.170378

siesta: Pressure (static):        124.19801530  kBar

siesta: Stress tensor (total) (eV/Ang**3):
         0.077288    0.121096    0.079209
         0.121096   -0.139464    0.035417
         0.079209    0.035417   -0.170378

siesta: Pressure (total):        124.19801530  kBar

cgvc: No target stress found, assuming hydrostatic MD.TargetPressure.
***Target stress set to zero for constant-volume calculation

cgvc: Target stress (kBar)
cgvc:         0.000       0.000       0.000
cgvc:         0.000       0.000       0.000
cgvc:         0.000       0.000       0.000
Volume before coercion:      93.1630

                     ====================================
                        Begin CG opt. move =      1
                     ====================================

outcoor: Atomic coordinates (fractional):                   
    0.00000000   -0.00000000   -0.00000000   1       1  Mg
    0.50000000    0.50000000    0.50000000   1       2  Mg
    0.25000166    0.25000141    0.24999802   2       3  C
   -0.25000166   -0.25000141   -0.24999802   2       4  C
    0.53214200   -0.03214341    0.24999846   3       5  O
    0.24999998    0.53214136   -0.03214177   3       6  O
   -0.03214377    0.25000152    0.53214596   3       7  O
   -0.53214200    0.03214341   -0.24999846   3       8  O
   -0.24999998   -0.53214136    0.03214177   3       9  O
    0.03214377   -0.25000152   -0.53214596   3      10  O
 Kpoints in:           12 . Kpoints trimmed:           12

siesta: k-grid: Number of k-points = 12
siesta: k-points from cutoff
siesta: k-cutoff (effective) =     5.652 Ang
siesta: k-point supercell and displacements
siesta: k-grid:     3     0    -3      0.500
siesta: k-grid:     0     3    -3      0.000
siesta: k-grid:     2     0     0      0.000

superc: Internal auxiliary supercell:     5 x     5 x     5  =     125
superc: Number of atoms, orbitals, and projectors:   1250   4250  10000

outcell: Unit cell vectors (Ang):
        5.651747   -0.020457   -0.013381
        3.753372    4.225507   -0.013381
        3.753379    1.678144    3.878011

outcell: Cell vector modules (Ang)   :    5.651800    5.651804    5.651813
outcell: Cell angles (23,13,12) (deg):     48.5935     48.5935     48.5937
outcell: Cell volume (Ang**3)        :     93.1663
<dSpData1D:S at geom step 1
  <sparsity:sparsity for geom step 1
    nrows_g=34 nrows=34 sparsity=8.3754 nnzs=9682, refcount: 7>
  <dData1D:(new from dSpData1D) n=9682, refcount: 1>
refcount: 1>
new_DM -- step:     2
Re-using DM from previous geometries...
Number of DMs in history: 1
 DM extrapolation coefficients: 
1   1.00000
New DM after history re-use:
<dSpData2D:SpM extrapolated using coords
  <sparsity:sparsity for geom step 1
    nrows_g=34 nrows=34 sparsity=8.3754 nnzs=9682, refcount: 9>
  <dData2D:(temp array for extrapolation) n=9682 m=1, refcount: 1>
refcount: 1>
No. of atoms with KB's overlaping orbs in proc 0. Max # of overlaps:     102      85

InitMesh: MESH = 24 x 24 x 24 = 13824
InitMesh: Mesh cutoff (required, used) =    50.000    64.367 Ry
New grid distribution [1]: sub = 2

        iscf     Eharris(eV)        E_KS(eV)     FreeEng(eV)     dDmax    Ef(eV) dHmax(eV)
   scf:    1    -2960.728893    -2958.843448    -2958.843448  0.061828 -3.277326  0.465764
   scf:    2    -2958.660186    -2958.811135    -2958.811135  0.059298 -3.091243  0.574997
   scf:    3    -2958.910095    -2958.879627    -2958.879627  0.033782 -3.187663  0.025792
   scf:    4    -2958.879839    -2958.879736    -2958.879736  0.000409 -3.182185  0.016933
   scf:    5    -2958.879887    -2958.879823    -2958.879823  0.000861 -3.171118  0.001505
   scf:    6    -2958.879824    -2958.879823    -2958.879823  0.000039 -3.171185  0.000997

SCF Convergence by DM+H criterion
max |DM_out - DM_in|         :     0.0000392953
max |H_out - H_in|      (eV) :     0.0009967575
SCF cycle converged after 6 iterations

Using DM_out to compute the final energy and forces
No. of atoms with KB's overlaping orbs in proc 0. Max # of overlaps:     102      85

siesta: E_KS(eV) =            -2958.8798

siesta: Atomic forces (eV/Ang):
     1    0.000000   -0.000000    0.000000
     2   -0.000000    0.000000    0.000000
     3   -0.000449    0.002794   -0.002931
     4    0.000449   -0.002794    0.002931
     5    2.480608   -5.546434   -0.000400
     6    0.000036    3.323407   -5.076765
     7   -2.480336    2.218906    5.082330
     8   -2.480608    5.546434    0.000400
     9   -0.000036   -3.323407    5.076765
    10    2.480336   -2.218906   -5.082330
----------------------------------------
   Tot   -0.000000   -0.000000   -0.000000
----------------------------------------
   Max    5.546434
   Res    2.715887    sqrt( Sum f_i^2 / 3N )
----------------------------------------
   Max    5.546434    constrained

Stress tensor Voigt[x,y,z,yz,xz,xy] (kbar):      135.43     -115.44     -151.26       41.06       91.71      140.11
(Free)E + p*V (eV/cell)    -2956.3352
Target enthalpy (eV/cell)    -2900.7300

siesta: Stress tensor (static) (eV/Ang**3):
         0.084527    0.087449    0.057239
         0.087449   -0.072054    0.025631
         0.057239    0.025631   -0.094410

siesta: Pressure (static):         43.75973441  kBar

siesta: Stress tensor (total) (eV/Ang**3):
         0.084527    0.087449    0.057239
         0.087449   -0.072054    0.025631
         0.057239    0.025631   -0.094410

siesta: Pressure (total):         43.75973441  kBar
Volume before coercion:      93.1437

                     ====================================
                        Begin CG opt. move =      2
                     ====================================

outcoor: Atomic coordinates (fractional):                   
    0.00000000   -0.00000000   -0.00000000   1       1  Mg
    0.50000000    0.50000000    0.50000000   1       2  Mg
    0.25000430    0.25000366    0.24999484   2       3  C
   -0.25000430   -0.25000366   -0.24999484   2       4  C
    0.53972919   -0.03973288    0.24999600   3       5  O
    0.24999995    0.53972754   -0.03972859   3       6  O
   -0.03973379    0.25000396    0.53973950   3       7  O
   -0.53972919    0.03973288   -0.24999600   3       8  O
   -0.24999995   -0.53972754    0.03972859   3       9  O
    0.03973379   -0.25000396   -0.53973950   3      10  O
 Kpoints in:           12 . Kpoints trimmed:           12

siesta: k-grid: Number of k-points = 12
siesta: k-points from cutoff
siesta: k-cutoff (effective) =     5.611 Ang
siesta: k-point supercell and displacements
siesta: k-grid:     3     0    -3      0.500
siesta: k-grid:     0     3    -3      0.000
siesta: k-grid:     2     0     0      0.000

superc: Internal auxiliary supercell:     5 x     5 x     5  =     125
superc: Number of atoms, orbitals, and projectors:   1250   4250  10000

outcell: Unit cell vectors (Ang):
        5.610293   -0.053191   -0.034792
        3.701336    4.216451   -0.034793
        3.701355    1.654887    3.878292

outcell: Cell vector modules (Ang)   :    5.610653    5.610665    5.610689
outcell: Cell angles (23,13,12) (deg):     49.2642     49.2642     49.2645
outcell: Cell volume (Ang**3)        :     93.1663
<dSpData1D:S at geom step 2
  <sparsity:sparsity for geom step 2
    nrows_g=34 nrows=34 sparsity=8.4896 nnzs=9814, refcount: 7>
  <dData1D:(new from dSpData1D) n=9814, refcount: 1>
refcount: 1>
new_DM -- step:     3
Re-using DM from previous geometries...
Number of DMs in history: 1
 DM extrapolation coefficients: 
1   1.00000
New DM after history re-use:
<dSpData2D:SpM extrapolated using coords
  <sparsity:sparsity for geom step 2
    nrows_g=34 nrows=34 sparsity=8.4896 nnzs=9814, refcount: 9>
  <dData2D:(temp array for extrapolation) n=9814 m=1, refcount: 1>
refcount: 1>
No. of atoms with KB's overlaping orbs in proc 0. Max # of overlaps:     102      85

InitMesh: MESH = 24 x 24 x 24 = 13824
InitMesh: Mesh cutoff (required, used) =    50.000    65.814 Ry
New grid distribution [1]: sub = 2

        iscf     Eharris(eV)        E_KS(eV)     FreeEng(eV)     dDmax    Ef(eV) dHmax(eV)
   scf:    1    -2962.484133    -2959.908024    -2959.908024  0.104117 -3.913627  0.831252
   scf:    2    -2959.113317    -2959.741815    -2959.741815  0.113157 -3.644654  1.156495
   scf:    3    -2960.140707    -2960.024751    -2960.024751  0.067806 -3.792759  0.045195
   scf:    4    -2960.025461    -2960.025118    -2960.025118  0.000785 -3.783509  0.031711
   scf:    5    -2960.025605    -2960.025399    -2960.025399  0.001538 -3.764867  0.002833
   scf:    6    -2960.025403    -2960.025401    -2960.025401  0.000102 -3.764815  0.001786
   scf:    7    -2960.025402    -2960.025401    -2960.025401  0.000077 -3.765050  0.000752

SCF Convergence by DM+H criterion
max |DM_out - DM_in|         :     0.0000765230
max |H_out - H_in|      (eV) :     0.0007522177
SCF cycle converged after 7 iterations

Using DM_out to compute the final energy and forces
No. of atoms with KB's overlaping orbs in proc 0. Max # of overlaps:     102      85

siesta: E_KS(eV) =            -2960.0254

siesta: Atomic forces (eV/Ang):
     1    0.000000   -0.000000   -0.000000
     2   -0.000000    0.000000   -0.000000
     3   -0.000976    0.002220   -0.000687
     4    0.000976   -0.002220    0.000687
     5    1.095597   -2.445624   -0.000037
     6    0.000179    1.463666   -2.235597
     7   -1.095021    0.977594    2.239441
     8   -1.095597    2.445624    0.000037
     9   -0.000179   -1.463666    2.235597
    10    1.095021   -0.977594   -2.239441
----------------------------------------
   Tot   -0.000000   -0.000000   -0.000000
----------------------------------------
   Max    2.445624
   Res    1.196982    sqrt( Sum f_i^2 / 3N )
----------------------------------------
   Max    2.445624    constrained

Stress tensor Voigt[x,y,z,yz,xz,xy] (kbar):      146.21       29.48       12.85       19.12       42.64       65.16
(Free)E + p*V (eV/cell)    -2963.6799
Target enthalpy (eV/cell)    -2901.8755

siesta: Stress tensor (static) (eV/Ang**3):
         0.091258    0.040672    0.026613
         0.040672    0.018398    0.011932
         0.026613    0.011932    0.008021

siesta: Pressure (static):        -62.84603425  kBar

siesta: Stress tensor (total) (eV/Ang**3):
         0.091258    0.040672    0.026613
         0.040672    0.018398    0.011932
         0.026613    0.011932    0.008021

siesta: Pressure (total):        -62.84603425  kBar
Volume before coercion:      93.0766

                     ====================================
                        Begin CG opt. move =      3
                     ====================================

outcoor: Atomic coordinates (fractional):                   
    0.00000000   -0.00000000   -0.00000000   1       1  Mg
    0.50000000    0.50000000    0.50000000   1       2  Mg
    0.25000854    0.25000726    0.24998976   2       3  C
   -0.25000854   -0.25000726   -0.24998976   2       4  C
    0.55186870   -0.05187601    0.24999206   3       5  O
    0.24999991    0.55186542   -0.05186751   3       6  O
   -0.05187783    0.25000786    0.55188916   3       7  O
   -0.55186870    0.05187601   -0.24999206   3       8  O
   -0.24999991   -0.55186542    0.05186751   3       9  O
    0.05187783   -0.25000786   -0.55188916   3      10  O
 Kpoints in:           12 . Kpoints trimmed:           12

siesta: k-grid: Number of k-points = 12
siesta: k-points from cutoff
siesta: k-cutoff (effective) =     5.546 Ang
siesta: k-point supercell and displacements
siesta: k-grid:     3     0    -3      0.500
siesta: k-grid:     0     3    -3      0.000
siesta: k-grid:     2     0     0      0.000

superc: Internal auxiliary supercell:     5 x     5 x     5  =     125
superc: Number of atoms, orbitals, and projectors:   1250   4250  10000

outcell: Unit cell vectors (Ang):
        5.544674   -0.105588   -0.069065
        3.618532    4.202504   -0.069067
        3.618569    1.617879    3.879245

outcell: Cell vector modules (Ang)   :    5.546109    5.546132    5.546180
outcell: Cell angles (23,13,12) (deg):     50.3563     50.3563     50.3570
outcell: Cell volume (Ang**3)        :     93.1663
<dSpData1D:S at geom step 3
  <sparsity:sparsity for geom step 3
    nrows_g=34 nrows=34 sparsity=8.5969 nnzs=9938, refcount: 7>
  <dData1D:(new from dSpData1D) n=9938, refcount: 1>
refcount: 1>
new_DM -- step:     4
Re-using DM from previous geometries...
Number of DMs in history: 1
 DM extrapolation coefficients: 
1   1.00000
New DM after history re-use:
<dSpData2D:SpM extrapolated using coords
  <sparsity:sparsity for geom step 3
    nrows_g=34 nrows=34 sparsity=8.5969 nnzs=9938, refcount: 9>
  <dData2D:(temp array for extrapolation) n=9938 m=1, refcount: 1>
refcount: 1>
Note: For starting DM, Qtot, Tr[D*S] =         48.00000000         47.91464257
No. of atoms with KB's overlaping orbs in proc 0. Max # of overlaps:     102      87

InitMesh: MESH = 24 x 24 x 24 = 13824
InitMesh: Mesh cutoff (required, used) =    50.000    68.216 Ry
New grid distribution [1]: sub = 2

        iscf     Eharris(eV)        E_KS(eV)     FreeEng(eV)     dDmax    Ef(eV) dHmax(eV)
   scf:    1    -2962.590730    -2959.820640    -2959.820640  0.185596 -4.458395  1.618369
   scf:    2    -2955.111501    -2958.687122    -2958.687122  0.245601 -4.246143  2.706849
   scf:    3    -2960.867096    -2960.282243    -2960.282243  0.156303 -4.378622  0.087181
   scf:    4    -2960.285158    -2960.283787    -2960.283787  0.002257 -4.365555  0.063373
   scf:    5    -2960.285572    -2960.284799    -2960.284799  0.002552 -4.342040  0.013874
   scf:    6    -2960.284868    -2960.284838    -2960.284838  0.000470 -4.339569  0.003722
   scf:    7    -2960.284843    -2960.284841    -2960.284841  0.000175 -4.339645  0.002158
   scf:    8    -2960.284842    -2960.284841    -2960.284841  0.000036 -4.340104  0.001379
   scf:    9    -2960.284842    -2960.284842    -2960.284842  0.000056 -4.340941  0.000518

SCF Convergence by DM+H criterion
max |DM_out - DM_in|         :     0.0000558817
max |H_out - H_in|      (eV) :     0.0005183992
SCF cycle converged after 9 iterations

Using DM_out to compute the final energy and forces
No. of atoms with KB's overlaping orbs in proc 0. Max # of overlaps:     102      87

siesta: E_KS(eV) =            -2960.2848

siesta: Atomic forces (eV/Ang):
     1   -0.000000   -0.000000    0.000000
     2    0.000000   -0.000000   -0.000000
     3   -0.001419    0.001419    0.001240
     4    0.001419   -0.001419   -0.001240
     5   -0.641924    1.445579    0.000688
     6    0.000477   -0.870810    1.330789
     7    0.642176   -0.579935   -1.326692
     8    0.641924   -1.445579   -0.000688
     9   -0.000477    0.870810   -1.330789
    10   -0.642176    0.579935    1.326692
----------------------------------------
   Tot   -0.000000   -0.000000   -0.000000
----------------------------------------
   Max    1.445579
   Res    0.708986    sqrt( Sum f_i^2 / 3N )
----------------------------------------
   Max    1.445579    constrained

Stress tensor Voigt[x,y,z,yz,xz,xy] (kbar):      145.57      196.36      203.69       -8.32      -18.59      -28.38
(Free)E + p*V (eV/cell)    -2970.8606
Target enthalpy (eV/cell)    -2902.1350

siesta: Stress tensor (static) (eV/Ang**3):
         0.090856   -0.017716   -0.011603
        -0.017716    0.122555   -0.005190
        -0.011603   -0.005190    0.127132

siesta: Pressure (static):       -181.87064280  kBar

siesta: Stress tensor (total) (eV/Ang**3):
         0.090856   -0.017716   -0.011603
        -0.017716    0.122555   -0.005190
        -0.011603   -0.005190    0.127132

siesta: Pressure (total):       -181.87064280  kBar
Volume before coercion:      93.1063

                     ====================================
                        Begin CG opt. move =      4
                     ====================================

outcoor: Atomic coordinates (fractional):                   
    0.00000000   -0.00000000   -0.00000000   1       1  Mg
    0.50000000    0.50000000    0.50000000   1       2  Mg
    0.25000699    0.25000594    0.24999162   2       3  C
   -0.25000699   -0.25000594   -0.24999162   2       4  C
    0.54743142   -0.04743740    0.24999350   3       5  O
    0.24999993    0.54742873   -0.04743044   3       6  O
   -0.04743889    0.25000643    0.54744816   3       7  O
   -0.54743142    0.04743740   -0.24999350   3       8  O
   -0.24999993   -0.54742873    0.04743044   3       9  O
    0.04743889   -0.25000643   -0.54744816   3      10  O
 Kpoints in:           12 . Kpoints trimmed:           12

siesta: k-grid: Number of k-points = 12
siesta: k-points from cutoff
siesta: k-cutoff (effective) =     5.570 Ang
siesta: k-point supercell and displacements
siesta: k-grid:     3     0    -3      0.500
siesta: k-grid:     0     3    -3      0.000
siesta: k-grid:     2     0     0      0.000

superc: Internal auxiliary supercell:     5 x     5 x     5  =     125
superc: Number of atoms, orbitals, and projectors:   1250   4250  10000

outcell: Unit cell vectors (Ang):
        5.568559   -0.086431   -0.056535
        3.648735    4.207524   -0.056536
        3.648766    1.631378    3.878824

outcell: Cell vector modules (Ang)   :    5.569517    5.569536    5.569575
outcell: Cell angles (23,13,12) (deg):     49.9544     49.9544     49.9549
outcell: Cell volume (Ang**3)        :     93.1663
<dSpData1D:S at geom step 4
  <sparsity:sparsity for geom step 4
    nrows_g=34 nrows=34 sparsity=8.4896 nnzs=9814, refcount: 7>
  <dData1D:(new from dSpData1D) n=9814, refcount: 1>
refcount: 1>
new_DM -- step:     5
Re-using DM from previous geometries...
Number of DMs in history: 1
 DM extrapolation coefficients: 
1   1.00000
New DM after history re-use:
<dSpData2D:SpM extrapolated using coords
  <sparsity:sparsity for geom step 4
    nrows_g=34 nrows=34 sparsity=8.4896 nnzs=9814, refcount: 9>
  <dData2D:(temp array for extrapolation) n=9814 m=1, refcount: 1>
refcount: 1>
No. of atoms with KB's overlaping orbs in proc 0. Max # of overlaps:     102      85

InitMesh: MESH = 24 x 24 x 24 = 13824
InitMesh: Mesh cutoff (required, used) =    50.000    67.326 Ry
New grid distribution [1]: sub = 2

        iscf     Eharris(eV)        E_KS(eV)     FreeEng(eV)     dDmax    Ef(eV) dHmax(eV)
   scf:    1    -2958.782026    -2960.329483    -2960.329483  0.066686 -4.117635  0.564542
   scf:    2    -2959.835553    -2960.214939    -2960.214939  0.083745 -4.232649  0.889830
   scf:    3    -2960.446665    -2960.384043    -2960.384043  0.053533 -4.172572  0.035223
   scf:    4    -2960.384386    -2960.384218    -2960.384218  0.000573 -4.179216  0.023625
   scf:    5    -2960.384467    -2960.384348    -2960.384348  0.001135 -4.192001  0.001058
   scf:    6    -2960.384349    -2960.384348    -2960.384348  0.000043 -4.191849  0.000686

SCF Convergence by DM+H criterion
max |DM_out - DM_in|         :     0.0000431266
max |H_out - H_in|      (eV) :     0.0006860654
SCF cycle converged after 6 iterations

Using DM_out to compute the final energy and forces
No. of atoms with KB's overlaping orbs in proc 0. Max # of overlaps:     102      85

siesta: E_KS(eV) =            -2960.3843

siesta: Atomic forces (eV/Ang):
     1    0.000000    0.000000    0.000000
     2    0.000000    0.000000    0.000000
     3   -0.001302    0.001683    0.000739
     4    0.001302   -0.001683   -0.000739
     5   -0.006019    0.021662    0.000404
     6    0.000355   -0.016336    0.025474
     7    0.006543   -0.010102   -0.022062
     8    0.006019   -0.021662   -0.000404
     9   -0.000355    0.016336   -0.025474
    10   -0.006543    0.010102    0.022062
----------------------------------------
   Tot   -0.000000   -0.000000   -0.000000
----------------------------------------
   Max    0.025474
   Res    0.011714    sqrt( Sum f_i^2 / 3N )
----------------------------------------
   Max    0.025474    constrained

Stress tensor Voigt[x,y,z,yz,xz,xy] (kbar):      138.53      112.67      109.04        4.25        9.41       14.41
(Free)E + p*V (eV/cell)    -2967.3669
Target enthalpy (eV/cell)    -2902.2345

siesta: Stress tensor (static) (eV/Ang**3):
         0.086462    0.008996    0.005876
         0.008996    0.070321    0.002651
         0.005876    0.002651    0.068058

siesta: Pressure (static):       -120.07864188  kBar

siesta: Stress tensor (total) (eV/Ang**3):
         0.086462    0.008996    0.005876
         0.008996    0.070321    0.002651
         0.005876    0.002651    0.068058

siesta: Pressure (total):       -120.07864188  kBar

outcoor: Relaxed atomic coordinates (fractional):           
    0.00000000   -0.00000000   -0.00000000   1       1  Mg
    0.50000000    0.50000000    0.50000000   1       2  Mg
    0.25000699    0.25000594    0.24999162   2       3  C
   -0.25000699   -0.25000594   -0.24999162   2       4  C
    0.54743142   -0.04743740    0.24999350   3       5  O
    0.24999993    0.54742873   -0.04743044   3       6  O
   -0.04743889    0.25000643    0.54744816   3       7  O
   -0.54743142    0.04743740   -0.24999350   3       8  O
   -0.24999993   -0.54742873    0.04743044   3       9  O
    0.04743889   -0.25000643   -0.54744816   3      10  O

outcell: Unit cell vectors (Ang):
        5.568559   -0.086431   -0.056535
        3.648735    4.207524   -0.056536
        3.648766    1.631378    3.878824

outcell: Cell vector modules (Ang)   :    5.569517    5.569536    5.569575
outcell: Cell angles (23,13,12) (deg):     49.9544     49.9544     49.9549
outcell: Cell volume (Ang**3)        :     93.1663

siesta: Program's energy decomposition (eV):
siesta: Ebs     =      -599.029131
siesta: Eions   =      5228.633019
siesta: Ena     =      1098.976181
siesta: Ekin    =      2242.959891
siesta: Enl     =      -348.189608
siesta: Eso     =         0.000000
siesta: Edftu   =         0.000000
siesta: DEna    =       -35.377128
siesta: DUscf   =         6.465776
siesta: DUext   =         0.000000
siesta: Ex      =      -619.679525
siesta: Ec      =       -76.906918
siesta: Exc     =      -696.586442
siesta: EbV     =         0.000000
siesta: eta*DQ  =         0.000000
siesta: Emadel  =         0.000000
siesta: Emeta   =         0.000000
siesta: Emolmec =         0.000000
siesta: Ekinion =         0.000000
siesta: Eharris =     -2960.384349
siesta: Etot    =     -2960.384348
siesta: FreeEng =     -2960.384348

siesta: Final energy (eV):
siesta:  Band Struct. =    -599.029131
siesta:       Kinetic =    2242.959891
siesta:       Hartree =     929.819377
siesta:         Edftu =       0.000000
siesta:       Eso     =       0.000000
siesta:    Ext. field =       0.000000
siesta:         Exch. =    -619.679525
siesta:         Corr. =     -76.906918
siesta:     Bulk bias =       0.000000
siesta:   Exch.-corr. =    -696.586442
siesta:  Ion-electron =   -3788.854566
siesta:       Ion-ion =   -1647.722608
siesta:       Ekinion =       0.000000
siesta: D3 dispersion =       0.000000
siesta:         Total =   -2960.384348
siesta:         Fermi =      -4.191849

siesta: Stress tensor (static) (eV/Ang**3):
siesta:     0.086462    0.008996    0.005876
siesta:     0.008996    0.070321    0.002651
siesta:     0.005876    0.002651    0.068058

siesta: Constrained stress tensor (static) (eV/Ang**3):
siesta:     0.086462    0.008996    0.005876
siesta:     0.008996    0.070321    0.002651
siesta:     0.005876    0.002651    0.068058

siesta: Cell volume =         93.166340 Ang**3

siesta: Pressure (static):
siesta:                Solid            Molecule  Units
siesta:          -0.00081628         -0.00080773  Ry/Bohr**3
siesta:          -0.07494719         -0.07416234  eV/Ang**3
siesta:        -120.07864188       -118.82116231  kBar
(Free)E+ p_basis*V_orbitals  =       -2959.190037
(Free)Eharris+ p_basis*V_orbitals  =       -2959.190037

cite: Please see "cg_vc_constantvol.bib" for an exhaustive BiBTeX file.
cite: Please clearly indicate Siesta version in published work: 5.0.0-alpha-120-g24fa496ce-dirty
cite: This calculation has made use of the following articles
cite: which are encouraged to be cited in a published work.
        Primary SIESTA paper
          DOI: www.doi.org/10.1088/0953-8984/14/11/302


timer: Elapsed wall time (sec) =       1.290
timer: CPU execution times (sec):

Routine            Calls   Time/call    Tot.time        %
siesta                 1       1.290       1.290   100.00
Setup                  1       0.055       0.055     4.27
bands                  1       0.000       0.000     0.00
KSV_init               1       0.000       0.000     0.00
IterGeom               5       0.247       1.234    95.67
geom_init              5       0.102       0.508    39.39
state_init             5       0.042       0.208    16.16
hsparse                5       0.004       0.018     1.38
overlap                5       0.002       0.012     0.92
Setup_H0               5       0.053       0.267    20.73
naefs                 10       0.000       0.003     0.23
MolMec                10       0.000       0.000     0.00
kinefsm               10       0.002       0.016     1.22
nlefsm                10       0.015       0.146    11.30
DHSCF_Init             5       0.028       0.142    11.03
DHSCF1                 5       0.003       0.016     1.21
INITMESH               5       0.000       0.000     0.00
DHSCF2                 5       0.025       0.127     9.82
REMESH                 5       0.004       0.022     1.74
REORD                136       0.000       0.002     0.12
PHION                  5       0.015       0.075     5.81
COMM_BSC             207       0.000       0.002     0.12
POISON                53       0.000       0.011     0.85
fft                  106       0.000       0.007     0.57
setup_H               43       0.006       0.259    20.04
DHSCF                 48       0.008       0.405    31.41
DHSCF3                48       0.006       0.286    22.19
rhoofd                48       0.003       0.122     9.50
XC                    48       0.001       0.050     3.87
GXC-CellXC            48       0.001       0.049     3.81
vmat                  48       0.002       0.098     7.62
IterSCF               38       0.014       0.532    41.22
compute_dm            38       0.008       0.300    23.22
diagon                38       0.008       0.299    23.16
c-eigval             456       0.000       0.078     6.07
c-buildHS            456       0.000       0.047     3.67
cdiag                912       0.000       0.093     7.20
cdiag1               912       0.000       0.004     0.33
cdiag2               912       0.000       0.017     1.34
cdiag3               912       0.000       0.065     5.05
c-eigvec             456       0.000       0.110     8.51
cdiag4               456       0.000       0.003     0.22
c-buildD             456       0.000       0.110     8.50
MIXER                 33       0.000       0.001     0.11
PostSCF                5       0.039       0.193    14.95
DHSCF4                 5       0.024       0.119     9.22
dfscf                  5       0.017       0.086     6.65
overfsm                5       0.001       0.004     0.28
state_analysis         5       0.000       0.001     0.05
siesta_move            5       0.000       0.000     0.02
Analysis               1       0.001       0.001     0.04
optical                1       0.000       0.000     0.00
  

>> End of run:  25-SEP-2023   9:45:24
Job completed
