Siesta Version  : 5.0.0-alpha-120-g24fa496ce-dirty
Architecture    : ----
Compiler version: GNU-11.4.0
Compiler flags  : -fallow-argument-mismatch;-O3 -march=native
PP flags        : ----
Libraries       : ----
Parallelisations: none
GEMM3M support
NetCDF support
NetCDF-4 support
Lua support

Runtime information:
* Directory : /home/fnpedron/Siesta/siesta-dev/Tests/08.GeometryOptimization/work/fire_vc
* Running in serial mode.
>> Start of run:  25-SEP-2023   9:45:28

                           *********************** 
                           *  WELCOME TO SIESTA  * 
                           *********************** 

reinit: Reading from standard input
reinit: Dumping input in INPUT_TMP.77909
************************** Dump of input data file ****************************
%include ../../basejob.fdf
SystemLabel      fire_vc
MD.TypeOfRun     fire
MD.FIRE.TimeStep 0.3 fs
MD.FIRE.Mass     1.0
MD.FIRE.Nmin       5
MD.VariableCell    T
************************** End of input data file *****************************

reinit: -----------------------------------------------------------------------
reinit: System Name: MgCO3
reinit: -----------------------------------------------------------------------
reinit: System Label: fire_vc
reinit: -----------------------------------------------------------------------

initatom: Reading input for the pseudopotentials and atomic orbitals ----------
Species number:   1 Atomic number:   12 Label: Mg
Species number:   2 Atomic number:    6 Label: C
Species number:   3 Atomic number:    8 Label: O


---- Processing specs for species: Mg
Ground state valence configuration:   3s02
Reading pseudopotential information in formatted form from:
  /home/fnpedron/Siesta/siesta-dev/Tests/Pseudos/Mg.psf

---- Processing specs for species: C
Ground state valence configuration:   2s02  2p02
Reading pseudopotential information in formatted form from:
  /home/fnpedron/Siesta/siesta-dev/Tests/Pseudos/C.psf

---- Processing specs for species: O
Ground state valence configuration:   2s02  2p04
Reading pseudopotential information in formatted form from:
  /home/fnpedron/Siesta/siesta-dev/Tests/Pseudos/O.psf

---- Pseudopotential check for Mg

Pseudized shells:
3s( 2.00) rc: 2.59
3p( 0.00) rc: 2.59
3d( 0.00) rc: 2.59
4f( 0.00) rc: 2.59
Valence configuration for ps generation: (assumed as above)

---- Pseudopotential check for C 

Pseudized shells:
2s( 2.00) rc: 1.49
2p( 2.00) rc: 1.52
3d( 0.00) rc: 1.58
Valence configuration for ps generation: (assumed as above)

---- Pseudopotential check for O 

Pseudized shells:
2s( 2.00) rc: 1.14
2p( 4.00) rc: 1.14
3d( 0.00) rc: 1.14
4f( 0.00) rc: 1.14
Valence configuration for ps generation: (assumed as above)
For Mg, standard SIESTA heuristics set lmxkb to 1
 (one more than the basis l, including polarization orbitals).
Use PS.lmax or PS.KBprojectors blocks to override.
For C, standard SIESTA heuristics set lmxkb to 2
 (one more than the basis l, including polarization orbitals).
Use PS.lmax or PS.KBprojectors blocks to override.
For O, standard SIESTA heuristics set lmxkb to 2
 (one more than the basis l, including polarization orbitals).
Use PS.lmax or PS.KBprojectors blocks to override.

<basis_specs>
===============================================================================
Mg                   Z=  12    Mass=  24.305        Charge= 0.17977+309
Lmxo=0 Lmxkb= 1    BasisType=split      Semic=F
L=0  Nsemic=0  Cnfigmx=3
          i=1  nzeta=1  polorb=0  (3s)
            splnorm:   0.15000    
               vcte:    0.0000    
               rinn:    0.0000    
               qcoe:    0.0000    
               qyuk:    0.0000    
               qwid:   0.10000E-01
                rcs:    0.0000    
            lambdas:    1.0000    
-------------------------------------------------------------------------------
L=0  Nkbl=1  erefs: 0.17977+309
L=1  Nkbl=1  erefs: 0.17977+309
===============================================================================
</basis_specs>

atom: Called for Mg                    (Z =  12)

read_vps: Pseudopotential generation method:
read_vps: ATM3      Troullier-Martins                       
Valence charge in pseudo generation:    2.00000

xc_check: Exchange-correlation functional:
xc_check: Ceperley-Alder
V l=0 = -2*Zval/r beyond r=  3.5878
V l=1 = -2*Zval/r beyond r=  3.5878
All V_l potentials equal beyond r=  2.5600
This should be close to max(r_c) in ps generation
All pots = -2*Zval/r beyond r=  3.5878
Using large-core scheme (fit) for Vlocal

atom: Estimated core radius    3.58779

atom: Including non-local core corrections could be a good idea
Fit of Vlocal with continuous 2nd derivative
Fitting vlocal at       2.6578
Choosing vlocal chloc cutoff:789  3.915882
qtot up to nchloc:    1.99998584
atom: Maximum radius for chlocal:    3.91588
atom: Maximum radius for r*vlocal+2*Zval:    3.91588

KBgen: Kleinman-Bylander projectors: 
GHOST: No ghost state for L =  0
   l= 0   rc=  2.657845   el= -0.351328   Ekb=  2.184400   kbcos=  0.257081
GHOST: No ghost state for L =  1
   l= 1   rc=  2.657845   el= -0.101748   Ekb=  0.525536   kbcos=  0.270508

KBgen: Total number of Kleinman-Bylander projectors:   4
atom: -------------------------------------------------------------------------

atom: SANKEY-TYPE ORBITALS:

SPLIT: Orbitals with angular momentum L= 0

SPLIT: Basis orbitals for state 3s

SPLIT: PAO cut-off radius determined from an
SPLIT: energy shift=  0.020000 Ry

   izeta = 1
                 lambda =    1.000000
                     rc =    6.619780
                 energy =   -0.332103
                kinetic =    0.289627
    potential(screened) =   -0.621729
       potential(ionic) =   -1.387191
atom: Total number of Sankey-type orbitals:  1

atm_pop: Valence configuration (for local Pseudopot. screening):
 3s( 2.00)                                                            
Vna: chval, zval:    2.00000   2.00000

Vna:  Cut-off radius for the neutral-atom potential:   6.619780

atom: _________________________________________________________________________

<basis_specs>
===============================================================================
C                    Z=   6    Mass=  12.011        Charge= 0.17977+309
Lmxo=1 Lmxkb= 2    BasisType=split      Semic=F
L=0  Nsemic=0  Cnfigmx=2
          i=1  nzeta=1  polorb=0  (2s)
            splnorm:   0.15000    
               vcte:    0.0000    
               rinn:    0.0000    
               qcoe:    0.0000    
               qyuk:    0.0000    
               qwid:   0.10000E-01
                rcs:    0.0000    
            lambdas:    1.0000    
L=1  Nsemic=0  Cnfigmx=2
          i=1  nzeta=1  polorb=0  (2p)
            splnorm:   0.15000    
               vcte:    0.0000    
               rinn:    0.0000    
               qcoe:    0.0000    
               qyuk:    0.0000    
               qwid:   0.10000E-01
                rcs:    0.0000    
            lambdas:    1.0000    
-------------------------------------------------------------------------------
L=0  Nkbl=1  erefs: 0.17977+309
L=1  Nkbl=1  erefs: 0.17977+309
L=2  Nkbl=1  erefs: 0.17977+309
===============================================================================
</basis_specs>

atom: Called for C                     (Z =   6)

read_vps: Pseudopotential generation method:
read_vps: ATM3      Troullier-Martins                       
Valence charge in pseudo generation:    4.00000

xc_check: Exchange-correlation functional:
xc_check: Ceperley-Alder
V l=0 = -2*Zval/r beyond r=  1.4666
V l=1 = -2*Zval/r beyond r=  1.5038
V l=2 = -2*Zval/r beyond r=  1.5612
All V_l potentials equal beyond r=  1.5612
This should be close to max(r_c) in ps generation
All pots = -2*Zval/r beyond r=  1.5612
Using small-core scheme (local charge) for Vlocal

VLOCAL_FROM_CHLOCAL: 99.0% of the norm of Vloc inside     17.809 Ry
VLOCAL_FROM_CHLOCAL: 99.9% of the norm of Vloc inside     40.586 Ry
atom: Maximum radius for chlocal:    1.88329
atom: Maximum radius for r*vlocal+2*Zval:    1.72547

KBgen: Kleinman-Bylander projectors: 
GHOST: No ghost state for L =  0
   l= 0   rc=  1.747182   el= -1.001947   Ekb=  5.181700   kbcos=  0.300603
GHOST: No ghost state for L =  1
   l= 1   rc=  1.747182   el= -0.398598   Ekb= -4.328763   kbcos= -0.367074
GHOST: No ghost state for L =  2
   l= 2   rc=  1.955272   el=  0.002326   Ekb= -1.016175   kbcos= -0.009979

KBgen: Total number of Kleinman-Bylander projectors:   9
atom: -------------------------------------------------------------------------

atom: SANKEY-TYPE ORBITALS:

SPLIT: Orbitals with angular momentum L= 0

SPLIT: Basis orbitals for state 2s

SPLIT: PAO cut-off radius determined from an
SPLIT: energy shift=  0.020000 Ry

   izeta = 1
                 lambda =    1.000000
                     rc =    4.191849
                 energy =   -0.983897
                kinetic =    0.886956
    potential(screened) =   -1.870853
       potential(ionic) =   -5.479661

SPLIT: Orbitals with angular momentum L= 1

SPLIT: Basis orbitals for state 2p

SPLIT: PAO cut-off radius determined from an
SPLIT: energy shift=  0.020000 Ry

   izeta = 1
                 lambda =    1.000000
                     rc =    4.870301
                 energy =   -0.379093
                kinetic =    2.545357
    potential(screened) =   -2.924450
       potential(ionic) =   -6.433151
atom: Total number of Sankey-type orbitals:  4

atm_pop: Valence configuration (for local Pseudopot. screening):
 2s( 2.00)                                                            
 2p( 2.00)                                                            
Vna: chval, zval:    4.00000   4.00000

Vna:  Cut-off radius for the neutral-atom potential:   4.870301

atom: _________________________________________________________________________

<basis_specs>
===============================================================================
O                    Z=   8    Mass=  15.999        Charge= 0.17977+309
Lmxo=1 Lmxkb= 2    BasisType=split      Semic=F
L=0  Nsemic=0  Cnfigmx=2
          i=1  nzeta=1  polorb=0  (2s)
            splnorm:   0.15000    
               vcte:    0.0000    
               rinn:    0.0000    
               qcoe:    0.0000    
               qyuk:    0.0000    
               qwid:   0.10000E-01
                rcs:    0.0000    
            lambdas:    1.0000    
L=1  Nsemic=0  Cnfigmx=2
          i=1  nzeta=1  polorb=0  (2p)
            splnorm:   0.15000    
               vcte:    0.0000    
               rinn:    0.0000    
               qcoe:    0.0000    
               qyuk:    0.0000    
               qwid:   0.10000E-01
                rcs:    0.0000    
            lambdas:    1.0000    
-------------------------------------------------------------------------------
L=0  Nkbl=1  erefs: 0.17977+309
L=1  Nkbl=1  erefs: 0.17977+309
L=2  Nkbl=1  erefs: 0.17977+309
===============================================================================
</basis_specs>

atom: Called for O                     (Z =   8)

read_vps: Pseudopotential generation method:
read_vps: ATM3      Troullier-Martins                       
Valence charge in pseudo generation:    6.00000

xc_check: Exchange-correlation functional:
xc_check: Ceperley-Alder
V l=0 = -2*Zval/r beyond r=  1.1278
V l=1 = -2*Zval/r beyond r=  1.1278
V l=2 = -2*Zval/r beyond r=  1.1278
All V_l potentials equal beyond r=  1.1278
This should be close to max(r_c) in ps generation
All pots = -2*Zval/r beyond r=  1.1278
Using small-core scheme (local charge) for Vlocal

VLOCAL_FROM_CHLOCAL: 99.0% of the norm of Vloc inside     34.126 Ry
VLOCAL_FROM_CHLOCAL: 99.9% of the norm of Vloc inside     77.774 Ry
atom: Maximum radius for chlocal:    1.37759
atom: Maximum radius for r*vlocal+2*Zval:    1.24646

KBgen: Kleinman-Bylander projectors: 
GHOST: No ghost state for L =  0
   l= 0   rc=  1.294105   el= -1.742414   Ekb=  9.135903   kbcos=  0.326910
GHOST: No ghost state for L =  1
   l= 1   rc=  1.294105   el= -0.676589   Ekb= -8.124878   kbcos= -0.395047
GHOST: No ghost state for L =  2
   l= 2   rc=  1.448233   el=  0.002386   Ekb= -2.039267   kbcos= -0.003484

KBgen: Total number of Kleinman-Bylander projectors:   9
atom: -------------------------------------------------------------------------

atom: SANKEY-TYPE ORBITALS:

SPLIT: Orbitals with angular momentum L= 0

SPLIT: Basis orbitals for state 2s

SPLIT: PAO cut-off radius determined from an
SPLIT: energy shift=  0.020000 Ry

   izeta = 1
                 lambda =    1.000000
                     rc =    3.305093
                 energy =   -1.723766
                kinetic =    1.614911
    potential(screened) =   -3.338677
       potential(ionic) =  -11.304675

SPLIT: Orbitals with angular momentum L= 1

SPLIT: Basis orbitals for state 2p

SPLIT: PAO cut-off radius determined from an
SPLIT: energy shift=  0.020000 Ry

   izeta = 1
                 lambda =    1.000000
                     rc =    3.937239
                 energy =   -0.658841
                kinetic =    5.005986
    potential(screened) =   -5.664827
       potential(ionic) =  -13.452360
atom: Total number of Sankey-type orbitals:  4

atm_pop: Valence configuration (for local Pseudopot. screening):
 2s( 2.00)                                                            
 2p( 4.00)                                                            
Vna: chval, zval:    6.00000   6.00000

Vna:  Cut-off radius for the neutral-atom potential:   3.937239

atom: _________________________________________________________________________

prinput: Basis input 

PAO.BasisType split     

%block ChemicalSpeciesLabel
    1   12 Mg                      # Species index, atomic number, species label
    2    6 C                       # Species index, atomic number, species label
    3    8 O                       # Species index, atomic number, species label
%endblock ChemicalSpeciesLabel

%block PAO.Basis                 # Define Basis set
# WARNING: This information might be incomplete!
Mg                    1                    # Species label, number of l-shells
 n=3   0   1                         # n, l, Nzeta 
   6.620   
   1.000   
C                     2                    # Species label, number of l-shells
 n=2   0   1                         # n, l, Nzeta 
   4.192   
   1.000   
 n=2   1   1                         # n, l, Nzeta 
   4.870   
   1.000   
O                     2                    # Species label, number of l-shells
 n=2   0   1                         # n, l, Nzeta 
   3.305   
   1.000   
 n=2   1   1                         # n, l, Nzeta 
   3.937   
   1.000   
%endblock PAO.Basis

prinput: ----------------------------------------------------------------------

Dumping basis to NetCDF file Mg.ion.nc
Dumping basis to NetCDF file C.ion.nc
Dumping basis to NetCDF file O.ion.nc
coor:   Atomic-coordinates input format  =     Fractional

siesta: Atomic coordinates (Bohr) and species
siesta:      0.00000   0.00000   0.00000  1        1
siesta:     12.51929   5.59740   3.66414  1        2
siesta:      6.25965   2.79870   1.83207  2        3
siesta:     -6.25965  -2.79870  -1.83207  2        4
siesta:      7.25136   0.58061   1.83207  3        5
siesta:      6.25965   4.12944  -0.20079  3        6
siesta:      5.26793   3.68605   3.86493  3        7
siesta:     -7.25136  -0.58061  -1.83207  3        8
siesta:     -6.25965  -4.12944   0.20079  3        9
siesta:     -5.26793  -3.68605  -3.86493  3       10

siesta: System type = bulk      

initatomlists: Number of atoms, orbitals, and projectors:     10    34    80

siesta: ******************** Simulation parameters ****************************
siesta:
siesta: The following are some of the parameters of the simulation.
siesta: A complete list of the parameters used, including default values,
siesta: can be found in file out.fdf
siesta:
redata: Spin configuration                          = none
redata: Number of spin components                   = 1
redata: Time-Reversal Symmetry                      = T
redata: Spin spiral                                 = F
redata: Long output                                 =   F
redata: Number of Atomic Species                    =        3
redata: Charge density info will appear in .RHO file
redata: Write Mulliken Pop.                         = NO
redata: Matel table size (NRTAB)                    =     1024
redata: Mesh Cutoff                                 =    50.0000 Ry
redata: Net charge of the system                    =     0.0000 |e|
redata: Min. number of SCF Iter                     =        0
redata: Max. number of SCF Iter                     =     1000
redata: SCF convergence failure will abort job
redata: SCF mix quantity                            = Hamiltonian
redata: Mix DM or H after convergence               =   F
redata: Recompute H after scf cycle                 =   F
redata: Mix DM in first SCF step                    =   T
redata: Write Pulay info on disk                    =   F
redata: New DM Occupancy tolerance                  = 0.000000000001
redata: No kicks to SCF
redata: DM Mixing Weight for Kicks                  =     0.5000
redata: Require Harris convergence for SCF          =   F
redata: Harris energy tolerance for SCF             =     0.000100 eV
redata: Require DM convergence for SCF              =   T
redata: DM tolerance for SCF                        =     0.000100
redata: Require EDM convergence for SCF             =   F
redata: EDM tolerance for SCF                       =     0.001000 eV
redata: Require H convergence for SCF               =   T
redata: Hamiltonian tolerance for SCF               =     0.001000 eV
redata: Require (free) Energy convergence for SCF   =   F
redata: (free) Energy tolerance for SCF             =     0.000100 eV
redata: Using DFT-D3 dispersion                     =   F
redata: Using Saved Data (generic)                  =   F
redata: Use continuation files for DM               =   F
redata: Neglect nonoverlap interactions             =   F
redata: Method of Calculation                       = Diagonalization
redata: Electronic Temperature                      =   299.9863 K
redata: Fix the spin of the system                  =   F
redata: Max. number of TDED Iter                    =        1
redata: Number of TDED substeps                     =        3
redata: Dynamics option                             = FIRE coord. optimization
redata: Variable cell                               =   T
redata: Use continuation files for CG               =   F
redata: Max atomic displ per move                   =     0.1000 Ang
redata: Maximum number of optimization moves        =        5
redata: Force tolerance                             =     0.0400 eV/Ang
redata: Stress tolerance                            =     2.0000 GPa
mix.SCF: Pulay mixing                            = Pulay
mix.SCF:    Variant                              = stable
mix.SCF:    History steps                        = 2
mix.SCF:    Linear mixing weight                 =     0.250000
mix.SCF:    Mixing weight                        =     0.250000
mix.SCF:    SVD condition                        = 0.1000E-07
redata: Save all siesta data in one NC              =   F
redata: ***********************************************************************

%block SCF.Mixers
  Pulay
%endblock SCF.Mixers

%block SCF.Mixer.Pulay
  # Mixing method
  method pulay
  variant stable

  # Mixing options
  weight 0.2500
  weight.linear 0.2500
  history 2
%endblock SCF.Mixer.Pulay

DM_history_depth set to one: no extrapolation allowed by default for geometry relaxation
Size of DM history Fstack: 1
Total number of electrons:    48.000000
Total ionic charge:    48.000000
 Kpoints in:           12 . Kpoints trimmed:           12

siesta: k-grid: Number of k-points = 12
siesta: k-points from cutoff
siesta: k-cutoff (effective) =     5.678 Ang
siesta: k-point supercell and displacements
siesta: k-grid:    -3     0     3      0.500
siesta: k-grid:     0    -3     3      0.000
siesta: k-grid:     0     0     2      0.000

diag: Algorithm                                     = D&C
diag: Used triangular part                          = Lower
diag: Absolute tolerance                            =  0.100E-15
diag: Orthogonalization factor                      =  0.100E-05
diag: Memory factor                                 =  1.0000

superc: Internal auxiliary supercell:     5 x     5 x     5  =     125
superc: Number of atoms, orbitals, and projectors:   1250   4250  10000


ts: **************************************************************
ts: Save H and S matrices                           =    F
ts: Save DM and EDM matrices                        =    F
ts: Only save the overlap matrix S                  =    F
ts: **************************************************************

************************ Begin: TS CHECKS AND WARNINGS ************************
************************ End: TS CHECKS AND WARNINGS **************************


                     ====================================
                        Begin FIRE opt. move =      0
                     ====================================

outcoor: Atomic coordinates (fractional):                   
    0.00000000    0.00000000    0.00000000   1       1  Mg
    0.50000000    0.50000000    0.50000000   1       2  Mg
    0.25000000    0.25000000    0.25000000   2       3  C
   -0.25000000   -0.25000000   -0.25000000   2       4  C
    0.52740000   -0.02740000    0.25000000   3       5  O
    0.25000000    0.52740000   -0.02740000   3       6  O
   -0.02740000    0.25000000    0.52740000   3       7  O
   -0.52740000    0.02740000   -0.25000000   3       8  O
   -0.25000000   -0.52740000    0.02740000   3       9  O
    0.02740000   -0.25000000   -0.52740000   3      10  O

superc: Internal auxiliary supercell:     5 x     5 x     5  =     125
superc: Number of atoms, orbitals, and projectors:   1250   4250  10000

outcell: Unit cell vectors (Ang):
        5.677830    0.000000    0.000000
        3.786009    4.231299    0.000000
        3.786009    1.692731    3.877957

outcell: Cell vector modules (Ang)   :    5.677830    5.677830    5.677830
outcell: Cell angles (23,13,12) (deg):     48.1790     48.1790     48.1790
outcell: Cell volume (Ang**3)        :     93.1663
<dSpData1D:S at geom step 0
  <sparsity:sparsity for geom step 0
    nrows_g=34 nrows=34 sparsity=8.3131 nnzs=9610, refcount: 7>
  <dData1D:(new from dSpData1D) n=9610, refcount: 1>
refcount: 1>
new_DM -- step:     1
Initializing Density Matrix...
DM filled with atomic data:
<dSpData2D:DM initialized from atoms
  <sparsity:sparsity for geom step 0
    nrows_g=34 nrows=34 sparsity=8.3131 nnzs=9610, refcount: 8>
  <dData2D:DM n=9610 m=1, refcount: 1>
refcount: 1>
No. of atoms with KB's overlaping orbs in proc 0. Max # of overlaps:      96      85

InitMesh: MESH = 24 x 24 x 24 = 13824
InitMesh: Mesh cutoff (required, used) =    50.000    63.482 Ry
New grid distribution [1]: sub = 2

stepf: Fermi-Dirac step function

siesta: Program's energy decomposition (eV):
siesta: Ebs     =      -559.296151
siesta: Eions   =      5228.633019
siesta: Ena     =      1092.430864
siesta: Ekin    =      2368.203523
siesta: Enl     =      -393.819428
siesta: Eso     =         0.000000
siesta: Edftu   =         0.000000
siesta: DEna    =       -89.189424
siesta: DUscf   =        20.521663
siesta: DUext   =         0.000000
siesta: Ex      =      -641.764976
siesta: Ec      =       -77.869784
siesta: Exc     =      -719.634760
siesta: EbV     =         0.000000
siesta: eta*DQ  =         0.000000
siesta: Emadel  =         0.000000
siesta: Emeta   =         0.000000
siesta: Emolmec =         0.000000
siesta: Ekinion =         0.000000
siesta: Eharris =     -2906.782055
siesta: Etot    =     -2950.120580
siesta: FreeEng =     -2950.120580

        iscf     Eharris(eV)        E_KS(eV)     FreeEng(eV)     dDmax    Ef(eV) dHmax(eV)
   scf:    1    -2906.782055    -2950.120580    -2950.120580  1.750345 -2.715871  4.570959
timer: Routine,Calls,Time,% = IterSCF        1       0.015   5.88
   scf:    2    -2960.895878    -2956.138118    -2956.138118  0.178394 -2.906863  2.257585
   scf:    3    -2958.251997    -2957.701482    -2957.701482  0.174381 -2.951986  0.581420
   scf:    4    -2957.758130    -2957.731079    -2957.731079  0.009051 -2.870242  0.352528
   scf:    5    -2957.766414    -2957.751575    -2957.751575  0.019071 -2.725564  0.051678
   scf:    6    -2957.752456    -2957.752039    -2957.752039  0.002064 -2.722958  0.024709
   scf:    7    -2957.752302    -2957.752195    -2957.752195  0.001708 -2.724716  0.011447
   scf:    8    -2957.752199    -2957.752197    -2957.752197  0.000138 -2.727524  0.007527
   scf:    9    -2957.752199    -2957.752198    -2957.752198  0.000193 -2.733571  0.001800
   scf:   10    -2957.752199    -2957.752199    -2957.752199  0.000047 -2.734283  0.000885

SCF Convergence by DM+H criterion
max |DM_out - DM_in|         :     0.0000466735
max |H_out - H_in|      (eV) :     0.0008854363
SCF cycle converged after 10 iterations

Using DM_out to compute the final energy and forces
No. of atoms with KB's overlaping orbs in proc 0. Max # of overlaps:      96      85

siesta: E_KS(eV) =            -2957.7522

siesta: E_KS - E_eggbox =     -2957.7522

siesta: Atomic forces (eV/Ang):
     1    0.000000   -0.000000    0.000000
     2   -0.000000    0.000000    0.000000
     3    0.001177    0.000289   -0.003342
     4   -0.001177   -0.000289    0.003342
     5    3.372472   -7.544317   -0.001012
     6   -0.000013    4.524806   -6.912563
     7   -3.373730    3.020142    6.917306
     8   -3.372472    7.544317    0.001012
     9    0.000013   -4.524806    6.912563
    10    3.373730   -3.020142   -6.917306
----------------------------------------
   Tot    0.000000    0.000000   -0.000000
----------------------------------------
   Max    7.544317
   Res    3.695945    sqrt( Sum f_i^2 / 3N )
----------------------------------------
   Max    7.544317    constrained

Stress tensor Voigt[x,y,z,yz,xz,xy] (kbar):      123.83     -223.45     -272.98       56.74      126.91      194.02
(Free)E + p*V (eV/cell)    -2950.5301
Target enthalpy (eV/cell)    -2899.6023

siesta: Stress tensor (static) (eV/Ang**3):
         0.077288    0.121096    0.079209
         0.121096   -0.139464    0.035417
         0.079209    0.035417   -0.170378

siesta: Pressure (static):        124.19801530  kBar

siesta: Stress tensor (total) (eV/Ang**3):
         0.077288    0.121096    0.079209
         0.121096   -0.139464    0.035417
         0.079209    0.035417   -0.170378

siesta: Pressure (total):        124.19801530  kBar
FIRE: No of elements:     36

Broyden_optim: No target stress found, assuming hydrostatic MD.TargetPressure.

Broyden_optim: Target stress (kBar)
get_target_stress:     -1000.000       0.000       0.000
get_target_stress:         0.000   -1000.000       0.000
get_target_stress:         0.000       0.000   -1000.000

                     ====================================
                        Begin FIRE opt. move =      1
                     ====================================

outcoor: Atomic coordinates (fractional):                   
    0.00000000   -0.00000000   -0.00000000   1       1  Mg
    0.50000000    0.50000000    0.50000000   1       2  Mg
    0.25000019    0.25000016    0.24999977   2       3  C
   -0.25000019   -0.25000016   -0.24999977   2       4  C
    0.52795012   -0.02795029    0.24999982   3       5  O
    0.25000000    0.52795005   -0.02795010   3       6  O
   -0.02795033    0.25000018    0.52795058   3       7  O
   -0.52795012    0.02795029   -0.24999982   3       8  O
   -0.25000000   -0.52795005    0.02795010   3       9  O
    0.02795033   -0.25000018   -0.52795058   3      10  O
 Kpoints in:           12 . Kpoints trimmed:           12

siesta: k-grid: Number of k-points = 12
siesta: k-points from cutoff
siesta: k-cutoff (effective) =     5.664 Ang
siesta: k-point supercell and displacements
siesta: k-grid:     3     0    -3      0.500
siesta: k-grid:     0     3    -3      0.000
siesta: k-grid:     2     0     0      0.000

superc: Internal auxiliary supercell:     5 x     5 x     5  =     125
superc: Number of atoms, orbitals, and projectors:   1250   4250  10000

outcell: Unit cell vectors (Ang):
        5.664084   -0.002373   -0.001552
        3.775075    4.222638   -0.001552
        3.775075    1.687843    3.870641

outcell: Cell vector modules (Ang)   :    5.664084    5.664085    5.664086
outcell: Cell angles (23,13,12) (deg):     48.2270     48.2270     48.2270
outcell: Cell volume (Ang**3)        :     92.6400
<dSpData1D:S at geom step 1
  <sparsity:sparsity for geom step 1
    nrows_g=34 nrows=34 sparsity=8.3754 nnzs=9682, refcount: 7>
  <dData1D:(new from dSpData1D) n=9682, refcount: 1>
refcount: 1>
new_DM -- step:     2
Re-using DM from previous geometries...
Number of DMs in history: 1
 DM extrapolation coefficients: 
1   1.00000
New DM after history re-use:
<dSpData2D:SpM extrapolated using coords
  <sparsity:sparsity for geom step 1
    nrows_g=34 nrows=34 sparsity=8.3754 nnzs=9682, refcount: 9>
  <dData2D:(temp array for extrapolation) n=9682 m=1, refcount: 1>
refcount: 1>
No. of atoms with KB's overlaping orbs in proc 0. Max # of overlaps:     102      85

InitMesh: MESH = 24 x 24 x 24 = 13824
InitMesh: Mesh cutoff (required, used) =    50.000    63.825 Ry
New grid distribution [1]: sub = 2

        iscf     Eharris(eV)        E_KS(eV)     FreeEng(eV)     dDmax    Ef(eV) dHmax(eV)
   scf:    1    -2957.863115    -2957.861626    -2957.861626  0.010438 -2.766431  0.017336
   scf:    2    -2957.861616    -2957.861631    -2957.861631  0.000705 -2.750985  0.008490
   scf:    3    -2957.861648    -2957.861642    -2957.861642  0.000307 -2.755385  0.001876
   scf:    4    -2957.861643    -2957.861643    -2957.861643  0.000036 -2.755036  0.000917

SCF Convergence by DM+H criterion
max |DM_out - DM_in|         :     0.0000362820
max |H_out - H_in|      (eV) :     0.0009169721
SCF cycle converged after 4 iterations

Using DM_out to compute the final energy and forces
No. of atoms with KB's overlaping orbs in proc 0. Max # of overlaps:     102      85

siesta: E_KS(eV) =            -2957.8616

siesta: Atomic forces (eV/Ang):
     1    0.000000   -0.000000    0.000000
     2   -0.000000    0.000000   -0.000000
     3   -0.000059    0.003227   -0.004744
     4    0.000059   -0.003227    0.004744
     5    3.390034   -7.581401   -0.000711
     6    0.000002    4.543654   -6.940951
     7   -3.389995    3.033549    6.947922
     8   -3.390034    7.581401    0.000711
     9   -0.000002   -4.543654    6.940951
    10    3.389995   -3.033549   -6.947922
----------------------------------------
   Tot   -0.000000    0.000000   -0.000000
----------------------------------------
   Max    7.581401
   Res    3.712678    sqrt( Sum f_i^2 / 3N )
----------------------------------------
   Max    7.581401    constrained

Stress tensor Voigt[x,y,z,yz,xz,xy] (kbar):      115.04     -238.74     -289.26       57.88      129.36      197.62
(Free)E + p*V (eV/cell)    -2949.9023
Target enthalpy (eV/cell)    -2900.0403

siesta: Stress tensor (static) (eV/Ang**3):
         0.071800    0.123345    0.080742
         0.123344   -0.149007    0.036129
         0.080742    0.036129   -0.180545

siesta: Pressure (static):        137.65472147  kBar

siesta: Stress tensor (total) (eV/Ang**3):
         0.071800    0.123345    0.080742
         0.123344   -0.149007    0.036129
         0.080742    0.036129   -0.180545

siesta: Pressure (total):        137.65472147  kBar

                     ====================================
                        Begin FIRE opt. move =      2
                     ====================================

outcoor: Atomic coordinates (fractional):                   
    0.00000000   -0.00000000   -0.00000000   1       1  Mg
    0.50000000    0.50000000    0.50000000   1       2  Mg
    0.25000053    0.25000092    0.24999890   2       3  C
   -0.25000053   -0.25000092   -0.24999890   2       4  C
    0.52960433   -0.02960467    0.24999945   3       5  O
    0.24999999    0.52960335   -0.02960348   3       6  O
   -0.02960490    0.25000054    0.52960548   3       7  O
   -0.52960433    0.02960467   -0.24999945   3       8  O
   -0.24999999   -0.52960335    0.02960348   3       9  O
    0.02960490   -0.25000054   -0.52960548   3      10  O
 Kpoints in:           12 . Kpoints trimmed:           12

siesta: k-grid: Number of k-points = 12
siesta: k-points from cutoff
siesta: k-cutoff (effective) =     5.623 Ang
siesta: k-point supercell and displacements
siesta: k-grid:     3     0    -3      0.500
siesta: k-grid:     0     3    -3      0.000
siesta: k-grid:     2     0     0      0.000

superc: Internal auxiliary supercell:     5 x     5 x     5  =     125
superc: Number of atoms, orbitals, and projectors:   1250   4250  10000

outcell: Unit cell vectors (Ang):
        5.623032   -0.009535   -0.006238
        3.742364    4.196823   -0.006239
        3.742366    1.673219    3.848859

outcell: Cell vector modules (Ang)   :    5.623044    5.623046    5.623049
outcell: Cell angles (23,13,12) (deg):     48.3733     48.3733     48.3733
outcell: Cell volume (Ang**3)        :     91.0839
<dSpData1D:S at geom step 2
  <sparsity:sparsity for geom step 2
    nrows_g=34 nrows=34 sparsity=8.3754 nnzs=9682, refcount: 7>
  <dData1D:(new from dSpData1D) n=9682, refcount: 1>
refcount: 1>
new_DM -- step:     3
Re-using DM from previous geometries...
Number of DMs in history: 1
 DM extrapolation coefficients: 
1   1.00000
New DM after history re-use:
<dSpData2D:SpM extrapolated using coords
  <sparsity:sparsity for geom step 2
    nrows_g=34 nrows=34 sparsity=8.3754 nnzs=9682, refcount: 9>
  <dData2D:(temp array for extrapolation) n=9682 m=1, refcount: 1>
refcount: 1>
No. of atoms with KB's overlaping orbs in proc 0. Max # of overlaps:     102      85

InitMesh: MESH = 24 x 24 x 24 = 13824
InitMesh: Mesh cutoff (required, used) =    50.000    64.866 Ry
New grid distribution [1]: sub = 2

        iscf     Eharris(eV)        E_KS(eV)     FreeEng(eV)     dDmax    Ef(eV) dHmax(eV)
   scf:    1    -2958.177650    -2958.176640    -2958.176640  0.007413 -2.862556  0.054589
   scf:    2    -2958.176516    -2958.176693    -2958.176693  0.002683 -2.817565  0.030046
   scf:    3    -2958.176876    -2958.176806    -2958.176806  0.001181 -2.830016  0.004899
   scf:    4    -2958.176814    -2958.176810    -2958.176810  0.000159 -2.829242  0.002759
   scf:    5    -2958.176812    -2958.176812    -2958.176812  0.000153 -2.828073  0.000940
   scf:    6    -2958.176812    -2958.176812    -2958.176812  0.000014 -2.827779  0.000545

SCF Convergence by DM+H criterion
max |DM_out - DM_in|         :     0.0000137946
max |H_out - H_in|      (eV) :     0.0005448843
SCF cycle converged after 6 iterations

Using DM_out to compute the final energy and forces
No. of atoms with KB's overlaping orbs in proc 0. Max # of overlaps:     102      85

siesta: E_KS(eV) =            -2958.1768

siesta: Atomic forces (eV/Ang):
     1    0.000000   -0.000000   -0.000000
     2    0.000000   -0.000000    0.000000
     3   -0.000157    0.002891   -0.003932
     4    0.000157   -0.002891    0.003932
     5    3.283540   -7.342927   -0.000697
     6    0.000004    4.400838   -6.722753
     7   -3.283440    2.938072    6.729198
     8   -3.283540    7.342927    0.000697
     9   -0.000004   -4.400838    6.722753
    10    3.283440   -2.938072   -6.729198
----------------------------------------
   Tot   -0.000000   -0.000000   -0.000000
----------------------------------------
   Max    7.342927
   Res    3.595909    sqrt( Sum f_i^2 / 3N )
----------------------------------------
   Max    7.342927    constrained

Stress tensor Voigt[x,y,z,yz,xz,xy] (kbar):       99.60     -245.34     -294.61       56.45      126.14      192.70
(Free)E + p*V (eV/cell)    -2949.8321
Target enthalpy (eV/cell)    -2901.3267

siesta: Stress tensor (static) (eV/Ang**3):
         0.062164    0.120275    0.078733
         0.120275   -0.153132    0.035234
         0.078734    0.035234   -0.183879

siesta: Pressure (static):        146.78392529  kBar

siesta: Stress tensor (total) (eV/Ang**3):
         0.062164    0.120275    0.078733
         0.120275   -0.153132    0.035234
         0.078734    0.035234   -0.183879

siesta: Pressure (total):        146.78392529  kBar

                     ====================================
                        Begin FIRE opt. move =      3
                     ====================================

outcoor: Atomic coordinates (fractional):                   
    0.00000000   -0.00000000   -0.00000000   1       1  Mg
    0.50000000    0.50000000    0.50000000   1       2  Mg
    0.25000078    0.25000242    0.24999734   2       3  C
   -0.25000078   -0.25000242   -0.24999734   2       4  C
    0.53234356   -0.03234377    0.24999906   3       5  O
    0.24999999    0.53234029   -0.03234048   3       6  O
   -0.03234442    0.25000093    0.53234502   3       7  O
   -0.53234356    0.03234377   -0.24999906   3       8  O
   -0.24999999   -0.53234029    0.03234048   3       9  O
    0.03234442   -0.25000093   -0.53234502   3      10  O
 Kpoints in:           12 . Kpoints trimmed:           12

siesta: k-grid: Number of k-points = 12
siesta: k-points from cutoff
siesta: k-cutoff (effective) =     5.559 Ang
siesta: k-point supercell and displacements
siesta: k-grid:     0     3    -3      0.500
siesta: k-grid:    -3     0     3      0.000
siesta: k-grid:     0     2     0      0.000

superc: Internal auxiliary supercell:     5 x     5 x     5  =     125
superc: Number of atoms, orbitals, and projectors:   1250   4250  10000

outcell: Unit cell vectors (Ang):
        5.562941   -0.021405   -0.014007
        3.693449    4.154246   -0.014009
        3.693452    1.649064    3.812947

outcell: Cell vector modules (Ang)   :    5.563000    5.558734    5.558738
outcell: Cell angles (23,13,12) (deg):     48.5888     48.5806     48.5807
outcell: Cell volume (Ang**3)        :     88.6772
<dSpData1D:S at geom step 3
  <sparsity:sparsity for geom step 3
    nrows_g=34 nrows=34 sparsity=8.8322 nnzs=10210, refcount: 7>
  <dData1D:(new from dSpData1D) n=10210, refcount: 1>
refcount: 1>
new_DM -- step:     4
Re-using DM from previous geometries...
Number of DMs in history: 1
 DM extrapolation coefficients: 
1   1.00000
New DM after history re-use:
<dSpData2D:SpM extrapolated using coords
  <sparsity:sparsity for geom step 3
    nrows_g=34 nrows=34 sparsity=8.8322 nnzs=10210, refcount: 9>
  <dData2D:(temp array for extrapolation) n=10210 m=1, refcount: 1>
refcount: 1>
No. of atoms with KB's overlaping orbs in proc 0. Max # of overlaps:     102      85

InitMesh: MESH = 24 x 24 x 24 = 13824
InitMesh: Mesh cutoff (required, used) =    50.000    66.499 Ry
New grid distribution [1]: sub = 2

        iscf     Eharris(eV)        E_KS(eV)     FreeEng(eV)     dDmax    Ef(eV) dHmax(eV)
   scf:    1    -2958.630881    -2958.634447    -2958.634447  0.023212 -2.998972  0.089781
   scf:    2    -2958.633895    -2958.634536    -2958.634536  0.004780 -2.927813  0.052019
   scf:    3    -2958.635135    -2958.634909    -2958.634909  0.002157 -2.948353  0.009286
   scf:    4    -2958.634932    -2958.634922    -2958.634922  0.000266 -2.946768  0.005146
   scf:    5    -2958.634927    -2958.634926    -2958.634926  0.000268 -2.944340  0.001671
   scf:    6    -2958.634926    -2958.634926    -2958.634926  0.000024 -2.943810  0.000915

SCF Convergence by DM+H criterion
max |DM_out - DM_in|         :     0.0000239796
max |H_out - H_in|      (eV) :     0.0009153349
SCF cycle converged after 6 iterations

Using DM_out to compute the final energy and forces
No. of atoms with KB's overlaping orbs in proc 0. Max # of overlaps:     102      85

siesta: E_KS(eV) =            -2958.6349

siesta: Atomic forces (eV/Ang):
     1    0.000000   -0.000000   -0.000000
     2   -0.000000    0.000000   -0.000000
     3   -0.002499   -0.008837    0.021914
     4    0.002499    0.008837   -0.021914
     5    3.067012   -6.849073    0.005626
     6   -0.000283    4.124837   -6.299340
     7   -3.063385    2.731954    6.270467
     8   -3.067012    6.849073   -0.005626
     9    0.000283   -4.124837    6.299340
    10    3.063385   -2.731954   -6.270467
----------------------------------------
   Tot   -0.000000   -0.000000   -0.000000
----------------------------------------
   Max    6.849073
   Res    3.358368    sqrt( Sum f_i^2 / 3N )
----------------------------------------
   Max    6.849073    constrained

Stress tensor Voigt[x,y,z,yz,xz,xy] (kbar):       72.32     -260.41     -308.50       55.08      121.11      185.01
(Free)E + p*V (eV/cell)    -2949.4732
Target enthalpy (eV/cell)    -2903.2870

siesta: Stress tensor (static) (eV/Ang**3):
         0.045137    0.115476    0.075590
         0.115476   -0.162534    0.034379
         0.075590    0.034379   -0.192550

siesta: Pressure (static):        165.53004820  kBar

siesta: Stress tensor (total) (eV/Ang**3):
         0.045137    0.115476    0.075590
         0.115476   -0.162534    0.034379
         0.075590    0.034379   -0.192550

siesta: Pressure (total):        165.53004820  kBar

                     ====================================
                        Begin FIRE opt. move =      4
                     ====================================

outcoor: Atomic coordinates (fractional):                   
    0.00000000   -0.00000000   -0.00000000   1       1  Mg
    0.50000000    0.50000000    0.50000000   1       2  Mg
    0.25000032    0.25000187    0.24999848   2       3  C
   -0.25000032   -0.25000187   -0.24999848   2       4  C
    0.53610453   -0.03610056    0.25000128   3       5  O
    0.24999991    0.53609933   -0.03609935   3       6  O
   -0.03610468    0.24999878    0.53610097   3       7  O
   -0.53610453    0.03610056   -0.25000128   3       8  O
   -0.24999991   -0.53609933    0.03609935   3       9  O
    0.03610468   -0.24999878   -0.53610097   3      10  O
 Kpoints in:           18 . Kpoints trimmed:           18

siesta: k-grid: Number of k-points = 18
siesta: k-points from cutoff
siesta: k-cutoff (effective) =     5.481 Ang
siesta: k-point supercell and displacements
siesta: k-grid:     0    -3     3      0.500
siesta: k-grid:    -3     0     3      0.000
siesta: k-grid:     0     0     2      0.000

superc: Internal auxiliary supercell:     5 x     5 x     5  =     125
superc: Number of atoms, orbitals, and projectors:   1250   4250  10000

outcell: Unit cell vectors (Ang):
        5.502849   -0.037719   -0.024684
        3.641222    4.098586   -0.024701
        3.641227    1.616996    3.763406

outcell: Cell vector modules (Ang)   :    5.503034    5.482473    5.480551
outcell: Cell angles (23,13,12) (deg):     48.7966     48.7561     48.7740
outcell: Cell volume (Ang**3)        :     85.8426
<dSpData1D:S at geom step 4
  <sparsity:sparsity for geom step 4
    nrows_g=34 nrows=34 sparsity=9.3841 nnzs=10848, refcount: 7>
  <dData1D:(new from dSpData1D) n=10848, refcount: 1>
refcount: 1>
new_DM -- step:     5
Re-using DM from previous geometries...
Number of DMs in history: 1
 DM extrapolation coefficients: 
1   1.00000
New DM after history re-use:
<dSpData2D:SpM extrapolated using coords
  <sparsity:sparsity for geom step 4
    nrows_g=34 nrows=34 sparsity=9.3841 nnzs=10848, refcount: 9>
  <dData2D:(temp array for extrapolation) n=10848 m=1, refcount: 1>
refcount: 1>
No. of atoms with KB's overlaping orbs in proc 0. Max # of overlaps:     114      89

InitMesh: MESH = 24 x 24 x 24 = 13824
InitMesh: Mesh cutoff (required, used) =    50.000    68.392 Ry
New grid distribution [1]: sub = 2

        iscf     Eharris(eV)        E_KS(eV)     FreeEng(eV)     dDmax    Ef(eV) dHmax(eV)
   scf:    1    -2959.178992    -2959.140266    -2959.140266  0.028378 -3.167726  0.133096
   scf:    2    -2959.136643    -2959.139970    -2959.139970  0.009096 -3.077628  0.092760
   scf:    3    -2959.142357    -2959.141503    -2959.141503  0.004530 -3.109285  0.018152
   scf:    4    -2959.141553    -2959.141530    -2959.141530  0.000319 -3.105077  0.010199
   scf:    5    -2959.141550    -2959.141543    -2959.141543  0.000495 -3.098211  0.001533
   scf:    6    -2959.141543    -2959.141543    -2959.141543  0.000023 -3.097667  0.000634

SCF Convergence by DM+H criterion
max |DM_out - DM_in|         :     0.0000227399
max |H_out - H_in|      (eV) :     0.0006339490
SCF cycle converged after 6 iterations

Using DM_out to compute the final energy and forces
No. of atoms with KB's overlaping orbs in proc 0. Max # of overlaps:     114      89

siesta: E_KS(eV) =            -2959.1415

siesta: Atomic forces (eV/Ang):
     1    0.000000   -0.000000   -0.000000
     2   -0.000000    0.000000   -0.000000
     3    0.014097   -0.084701    0.075046
     4   -0.014097    0.084701   -0.075046
     5    2.712969   -5.990960   -0.002459
     6   -0.000878    3.665409   -5.596170
     7   -2.728385    2.411575    5.517346
     8   -2.712969    5.990960    0.002459
     9    0.000878   -3.665409    5.596170
    10    2.728385   -2.411575   -5.517346
----------------------------------------
   Tot    0.000000    0.000000    0.000000
----------------------------------------
   Max    5.990960
   Res    2.963310    sqrt( Sum f_i^2 / 3N )
----------------------------------------
   Max    5.990960    constrained

Stress tensor Voigt[x,y,z,yz,xz,xy] (kbar):       39.47     -272.93     -319.93       52.33      111.57      170.35
(Free)E + p*V (eV/cell)    -2949.2583
Target enthalpy (eV/cell)    -2905.5628

siesta: Stress tensor (static) (eV/Ang**3):
         0.024636    0.106326    0.069637
         0.106325   -0.170350    0.032664
         0.069636    0.032664   -0.199683

siesta: Pressure (static):        184.46232490  kBar

siesta: Stress tensor (total) (eV/Ang**3):
         0.024636    0.106326    0.069637
         0.106325   -0.170350    0.032664
         0.069636    0.032664   -0.199683

siesta: Pressure (total):        184.46232490  kBar

                     ====================================
                        Begin FIRE opt. move =      5
                     ====================================

outcoor: Atomic coordinates (fractional):                   
    0.00000000   -0.00000000   -0.00000000   1       1  Mg
    0.50000000    0.50000000    0.50000000   1       2  Mg
    0.25000391    0.24998375    0.25001192   2       3  C
   -0.25000391   -0.24998375   -0.25001192   2       4  C
    0.54077086   -0.04073452    0.25001473   3       5  O
    0.24999952    0.54076445   -0.04076304   3       6  O
   -0.04077458    0.24998516    0.54073645   3       7  O
   -0.54077086    0.04073452   -0.25001473   3       8  O
   -0.24999952   -0.54076445    0.04076304   3       9  O
    0.04077458   -0.24998516   -0.54073645   3      10  O
 Kpoints in:           18 . Kpoints trimmed:           18

siesta: k-grid: Number of k-points = 18
siesta: k-points from cutoff
siesta: k-cutoff (effective) =     5.398 Ang
siesta: k-point supercell and displacements
siesta: k-grid:     0    -3     3      0.500
siesta: k-grid:    -3     0     3      0.000
siesta: k-grid:     0     0     2      0.000

superc: Internal auxiliary supercell:     5 x     5 x     5  =     125
superc: Number of atoms, orbitals, and projectors:   1250   4250  10000

outcell: Unit cell vectors (Ang):
        5.442758   -0.058029   -0.037979
        3.586017    4.040261   -0.038056
        3.586022    1.581423    3.711703

outcell: Cell vector modules (Ang)   :    5.443200    5.402284    5.397888
outcell: Cell angles (23,13,12) (deg):     49.0615     48.9769     49.0182
outcell: Cell volume (Ang**3)        :     83.0637
<dSpData1D:S at geom step 5
  <sparsity:sparsity for geom step 5
    nrows_g=34 nrows=34 sparsity=9.9360 nnzs=11486, refcount: 7>
  <dData1D:(new from dSpData1D) n=11486, refcount: 1>
refcount: 1>
new_DM -- step:     6
Re-using DM from previous geometries...
Number of DMs in history: 1
 DM extrapolation coefficients: 
1   1.00000
New DM after history re-use:
<dSpData2D:SpM extrapolated using coords
  <sparsity:sparsity for geom step 5
    nrows_g=34 nrows=34 sparsity=9.9360 nnzs=11486, refcount: 9>
  <dData2D:(temp array for extrapolation) n=11486 m=1, refcount: 1>
refcount: 1>
No. of atoms with KB's overlaping orbs in proc 0. Max # of overlaps:     114      93

InitMesh: MESH = 24 x 20 x 20 = 9600
InitMesh: Mesh cutoff (required, used) =    50.000    58.305 Ry
New grid distribution [1]: sub = 2

        iscf     Eharris(eV)        E_KS(eV)     FreeEng(eV)     dDmax    Ef(eV) dHmax(eV)
   scf:    1    -2959.934081    -2959.670564    -2959.670564  0.028923 -3.365530  0.262433
   scf:    2    -2959.621111    -2959.661232    -2959.661232  0.028170 -3.239227  0.329380
   scf:    3    -2959.687018    -2959.679466    -2959.679466  0.016034 -3.301278  0.031445
   scf:    4    -2959.679560    -2959.679515    -2959.679515  0.000400 -3.293529  0.018239
   scf:    5    -2959.679586    -2959.679554    -2959.679554  0.000762 -3.279877  0.003216
   scf:    6    -2959.679556    -2959.679555    -2959.679555  0.000106 -3.278378  0.000619
   scf:    7    -2959.679555    -2959.679555    -2959.679555  0.000035 -3.278202  0.000288

SCF Convergence by DM+H criterion
max |DM_out - DM_in|         :     0.0000351428
max |H_out - H_in|      (eV) :     0.0002876216
SCF cycle converged after 7 iterations

Using DM_out to compute the final energy and forces
No. of atoms with KB's overlaping orbs in proc 0. Max # of overlaps:     114      93

siesta: E_KS(eV) =            -2959.6796

siesta: Atomic forces (eV/Ang):
     1   -0.000000   -0.000000    0.000000
     2   -0.000000   -0.000000   -0.000000
     3    0.034010   -0.138682    0.093728
     4   -0.034010    0.138682   -0.093728
     5    1.869734   -5.806314    0.291431
     6    0.004922    3.684699   -5.633451
     7   -1.922642    2.088987    5.543394
     8   -1.869734    5.806314   -0.291431
     9   -0.004922   -3.684699    5.633451
    10    1.922642   -2.088987   -5.543394
----------------------------------------
   Tot    0.000000    0.000000    0.000000
----------------------------------------
   Max    5.806314
   Res    2.845180    sqrt( Sum f_i^2 / 3N )
----------------------------------------
   Max    5.806314    constrained

Stress tensor Voigt[x,y,z,yz,xz,xy] (kbar):       54.54     -286.48     -334.35       43.22      104.98      157.36
(Free)E + p*V (eV/cell)    -2949.8932
Target enthalpy (eV/cell)    -2907.8353

siesta: Stress tensor (static) (eV/Ang**3):
         0.034041    0.098215    0.065525
         0.098215   -0.178809    0.026976
         0.065525    0.026976   -0.208684

siesta: Pressure (static):        188.76435164  kBar

siesta: Stress tensor (total) (eV/Ang**3):
         0.034041    0.098215    0.065525
         0.098215   -0.178809    0.026976
         0.065525    0.026976   -0.208684

siesta: Pressure (total):        188.76435164  kBar

outcoor: Final (unrelaxed) atomic coordinates (fractional): 
    0.00000000   -0.00000000   -0.00000000   1       1  Mg
    0.50000000    0.50000000    0.50000000   1       2  Mg
    0.25000391    0.24998375    0.25001192   2       3  C
   -0.25000391   -0.24998375   -0.25001192   2       4  C
    0.54077086   -0.04073452    0.25001473   3       5  O
    0.24999952    0.54076445   -0.04076304   3       6  O
   -0.04077458    0.24998516    0.54073645   3       7  O
   -0.54077086    0.04073452   -0.25001473   3       8  O
   -0.24999952   -0.54076445    0.04076304   3       9  O
    0.04077458   -0.24998516   -0.54073645   3      10  O

outcell: Unit cell vectors (Ang):
        5.442758   -0.058029   -0.037979
        3.586017    4.040261   -0.038056
        3.586022    1.581423    3.711703

outcell: Cell vector modules (Ang)   :    5.443200    5.402284    5.397888
outcell: Cell angles (23,13,12) (deg):     49.0615     48.9769     49.0182
outcell: Cell volume (Ang**3)        :     83.0637

siesta: Program's energy decomposition (eV):
siesta: Ebs     =      -635.340571
siesta: Eions   =      5228.633019
siesta: Ena     =      1089.853970
siesta: Ekin    =      2286.662618
siesta: Enl     =      -363.095286
siesta: Eso     =         0.000000
siesta: Edftu   =         0.000000
siesta: DEna    =       -44.690917
siesta: DUscf   =         6.924883
siesta: DUext   =         0.000000
siesta: Ex      =      -629.260871
siesta: Ec      =       -77.440933
siesta: Exc     =      -706.701804
siesta: EbV     =         0.000000
siesta: eta*DQ  =         0.000000
siesta: Emadel  =         0.000000
siesta: Emeta   =         0.000000
siesta: Emolmec =         0.000000
siesta: Ekinion =         0.000000
siesta: Eharris =     -2959.679555
siesta: Etot    =     -2959.679555
siesta: FreeEng =     -2959.679555

siesta: Final energy (eV):
siesta:  Band Struct. =    -635.340571
siesta:       Kinetic =    2286.662618
siesta:       Hartree =     915.871476
siesta:         Edftu =       0.000000
siesta:       Eso     =       0.000000
siesta:    Ext. field =       0.000000
siesta:         Exch. =    -629.260871
siesta:         Corr. =     -77.440933
siesta:     Bulk bias =       0.000000
siesta:   Exch.-corr. =    -706.701804
siesta:  Ion-electron =   -3827.634030
siesta:       Ion-ion =   -1627.877814
siesta:       Ekinion =       0.000000
siesta: D3 dispersion =       0.000000
siesta:         Total =   -2959.679555
siesta:         Fermi =      -3.278202

siesta: Atomic forces (eV/Ang):
siesta:      1   -0.000000   -0.000000    0.000000
siesta:      2   -0.000000   -0.000000   -0.000000
siesta:      3    0.034010   -0.138682    0.093728
siesta:      4   -0.034010    0.138682   -0.093728
siesta:      5    1.869734   -5.806314    0.291431
siesta:      6    0.004922    3.684699   -5.633451
siesta:      7   -1.922642    2.088987    5.543394
siesta:      8   -1.869734    5.806314   -0.291431
siesta:      9   -0.004922   -3.684699    5.633451
siesta:     10    1.922642   -2.088987   -5.543394
siesta: ----------------------------------------
siesta:    Tot    0.000000    0.000000    0.000000

siesta: Stress tensor (static) (eV/Ang**3):
siesta:     0.034041    0.098215    0.065525
siesta:     0.098215   -0.178809    0.026976
siesta:     0.065525    0.026976   -0.208684

siesta: Constrained stress tensor (static) (eV/Ang**3):
siesta:     0.034041    0.098215    0.065525
siesta:     0.098215   -0.178809    0.026976
siesta:     0.065525    0.026976   -0.208684

siesta: Cell volume =         83.063677 Ang**3

siesta: Pressure (static):
siesta:                Solid            Molecule  Units
siesta:           0.00128319         -0.00088183  Ry/Bohr**3
siesta:           0.11781744         -0.08096624  eV/Ang**3
siesta:         188.76435164       -129.72221859  kBar
(Free)E+ p_basis*V_orbitals  =       -2958.485244
(Free)Eharris+ p_basis*V_orbitals  =       -2958.485244

cite: Please see "fire_vc.bib" for an exhaustive BiBTeX file.
cite: Please clearly indicate Siesta version in published work: 5.0.0-alpha-120-g24fa496ce-dirty
cite: This calculation has made use of the following articles
cite: which are encouraged to be cited in a published work.
        Primary SIESTA paper
          DOI: www.doi.org/10.1088/0953-8984/14/11/302


timer: Elapsed wall time (sec) =       1.550
timer: CPU execution times (sec):

Routine            Calls   Time/call    Tot.time        %
siesta                 1       1.550       1.550   100.00
Setup                  1       0.055       0.055     3.56
bands                  1       0.000       0.000     0.00
KSV_init               1       0.000       0.000     0.00
IterGeom               6       0.249       1.493    96.38
geom_init              6       0.105       0.631    40.69
state_init             6       0.046       0.274    17.69
hsparse                6       0.004       0.024     1.52
overlap                6       0.002       0.013     0.83
Setup_H0               6       0.053       0.317    20.46
naefs                 12       0.000       0.003     0.23
MolMec                12       0.000       0.000     0.00
kinefsm               12       0.001       0.017     1.09
nlefsm                12       0.015       0.174    11.25
DHSCF_Init             6       0.030       0.178    11.48
DHSCF1                 6       0.003       0.019     1.25
INITMESH               6       0.000       0.000     0.00
DHSCF2                 6       0.026       0.158    10.22
REMESH                 6       0.005       0.028     1.78
REORD                150       0.000       0.002     0.11
PHION                  6       0.016       0.095     6.12
COMM_BSC             222       0.000       0.002     0.11
POISON                57       0.000       0.011     0.70
fft                  114       0.000       0.007     0.47
setup_H               45       0.006       0.277    17.89
DHSCF                 51       0.009       0.457    29.49
DHSCF3                51       0.006       0.312    20.11
rhoofd                51       0.003       0.136     8.79
XC                    51       0.001       0.051     3.30
GXC-CellXC            51       0.001       0.050     3.25
vmat                  51       0.002       0.109     7.02
IterSCF               39       0.016       0.617    39.85
compute_dm            39       0.010       0.374    24.11
diagon                39       0.010       0.373    24.06
c-eigval             546       0.000       0.098     6.31
c-buildHS            546       0.000       0.061     3.90
cdiag               1092       0.000       0.110     7.12
cdiag1              1092       0.000       0.005     0.33
cdiag2              1092       0.000       0.021     1.34
cdiag3              1092       0.000       0.077     4.99
c-eigvec             546       0.000       0.135     8.69
cdiag4               546       0.000       0.003     0.22
c-buildD             546       0.000       0.139     8.98
MIXER                 33       0.000       0.001     0.09
PostSCF                6       0.041       0.244    15.73
DHSCF4                 6       0.024       0.145     9.37
dfscf                  6       0.017       0.105     6.75
overfsm                6       0.001       0.004     0.29
state_analysis         6       0.000       0.001     0.05
siesta_move            6       0.000       0.000     0.03
Analysis               1       0.001       0.001     0.04
optical                1       0.000       0.000     0.00
  

>> End of run:  25-SEP-2023   9:45:29
Job completed
