Siesta Version  : 5.0.0-alpha-120-g24fa496ce-dirty
Architecture    : ----
Compiler version: GNU-11.4.0
Compiler flags  : -fallow-argument-mismatch;-O3 -march=native
PP flags        : ----
Libraries       : ----
Parallelisations: none
GEMM3M support
NetCDF support
NetCDF-4 support
Lua support

Runtime information:
* Directory : /home/fnpedron/Siesta/siesta-dev/Tests/03.SpinOrbit/work/FePt-offsite
* Running in serial mode.
>> Start of run:  25-SEP-2023   9:43:55

                           *********************** 
                           *  WELCOME TO SIESTA  * 
                           *********************** 

reinit: Reading from standard input
reinit: Dumping input in INPUT_TMP.84585
************************** Dump of input data file ****************************
SystemName              FePt distorted bulk structure -- soc test
SystemLabel             FePt-offsite
NumberOfAtoms           2
NumberOfSpecies         2
%block Chemical_Species_label
        1       26      Fe_fept_SOC
        2       78      Pt_fept_SOC
%endblock Chemical_Species_label
PAO.BasisSize SZP
Spin Spin-Orbit
%block DM.InitSpin
 1  +2.   90.  90.
 2  +1.   90.  90.
%endblock DM.InitSpin
LatticeConstant  1.0 Ang
%block LatticeVectors
    2.793068700    0.000000000    0.000000000
    0.000000000    2.70           0.000000000
    0.000000000    0.000000000    3.792000000
%endblock LatticeVectors
AtomicCoordinatesFormat NotScaledCartesianAng
%block AtomicCoordinatesAndAtomicSpecies
    1.396535500    1.45           0.000000000  1
    0.000000000    0.000000000    1.896000000  2
%endblock AtomicCoordinatesAndAtomicSpecies
%block kgrid_Monkhorst_Pack
   1   0   0    0.0
   0   2   0    0.0
   0   0   2    0.0
%endblock kgrid_Monkhorst_Pack
xc.functional           GGA
xc.authors              PBE
MeshCutoff              50. Ry
DM.Tolerance            1.0E-4
MaxSCFIterations        6
scf-must-converge       F
DM.MixingWeight         0.01
DM.NumberPulay          4
scf-mix-spin            all
MullikenInSCF T
WriteForces   T
************************** End of input data file *****************************

reinit: -----------------------------------------------------------------------
reinit: System Name: FePt distorted bulk structure -- soc test
reinit: -----------------------------------------------------------------------
reinit: System Label: FePt-offsite
reinit: -----------------------------------------------------------------------

initatom: Reading input for the pseudopotentials and atomic orbitals ----------
Species number:   1 Atomic number:   26 Label: Fe_fept_SOC
Species number:   2 Atomic number:   78 Label: Pt_fept_SOC


---- Processing specs for species: Fe_fept_SOC
Ground state valence configuration:   4s02  3d06
Reading pseudopotential information in formatted form from:
  /home/fnpedron/Siesta/siesta-dev/Tests/Pseudos/Fe_fept_SOC.psf

---- Processing specs for species: Pt_fept_SOC
Ground state valence configuration:   6s01  5d09
Reading pseudopotential information in formatted form from:
  /home/fnpedron/Siesta/siesta-dev/Tests/Pseudos/Pt_fept_SOC.psf

---- Pseudopotential check for Fe

Pseudopotential generated from a fully relativistic atomic calculation
There are spin-orbit semi-local pseudopotentials available

Pseudized shells:
4s( 2.00) rc: 2.00
4p( 0.00) rc: 2.47
3d( 6.00) rc: 0.59
4f( 0.00) rc: 2.00
Valence configuration for ps generation: (assumed as above)

---- Pseudopotential check for Pt

Pseudopotential generated from a fully relativistic atomic calculation
There are spin-orbit semi-local pseudopotentials available

Pseudized shells:
6s( 1.00) rc: 2.24
6p( 0.00) rc: 2.73
5d( 9.00) rc: 1.24
5f( 0.00) rc: 2.98
Valence configuration for ps generation: (assumed as above)
For Fe_fept_SOC, standard SIESTA heuristics set lmxkb to 3
 (one more than the basis l, including polarization orbitals).
Use PS.lmax or PS.KBprojectors blocks to override.
For Pt_fept_SOC, standard SIESTA heuristics set lmxkb to 3
 (one more than the basis l, including polarization orbitals).
Use PS.lmax or PS.KBprojectors blocks to override.

<basis_specs>
===============================================================================
Fe_fept_SOC          Z=  26    Mass=  55.845        Charge= 0.17977+309
Lmxo=2 Lmxkb= 3    BasisType=split      Semic=F
L=0  Nsemic=0  Cnfigmx=4
          i=1  nzeta=1  polorb=1  (4s)  (to be polarized perturbatively)
            splnorm:   0.15000    
               vcte:    0.0000    
               rinn:    0.0000    
               qcoe:    0.0000    
               qyuk:    0.0000    
               qwid:   0.10000E-01
                rcs:    0.0000    
            lambdas:    1.0000    
L=1  Nsemic=0  Cnfigmx=4
          i=1  nzeta=0  polorb=0  (4p)  (perturbative polarization orbital) (from 4s)
L=2  Nsemic=0  Cnfigmx=3
          i=1  nzeta=1  polorb=0  (3d)
            splnorm:   0.15000    
               vcte:    0.0000    
               rinn:    0.0000    
               qcoe:    0.0000    
               qyuk:    0.0000    
               qwid:   0.10000E-01
                rcs:    0.0000    
            lambdas:    1.0000    
-------------------------------------------------------------------------------
L=0  Nkbl=1  erefs: 0.17977+309
L=1  Nkbl=1  erefs: 0.17977+309
L=2  Nkbl=1  erefs: 0.17977+309
L=3  Nkbl=1  erefs: 0.17977+309
===============================================================================
</basis_specs>

atom: Called for Fe_fept_SOC           (Z =  26)

read_vps: Pseudopotential generation method:
read_vps: ATM 3.2.2 Troullier-Martins                       
Valence charge in pseudo generation:    8.00000

read_vps: Pseudopotential includes a core correction:
read_vps: Pseudo-core for xc-correction

xc_check: Exchange-correlation functional:
xc_check: GGA Perdew, Burke & Ernzerhof 1996
V l=0 = -2*Zval/r beyond r=  2.7302
V l=1 = -2*Zval/r beyond r=  2.7302
V l=2 = -2*Zval/r beyond r=  2.7302
V l=3 = -2*Zval/r beyond r=  2.7302
All V_l potentials equal beyond r=  2.4397
This should be close to max(r_c) in ps generation
All pots = -2*Zval/r beyond r=  2.7302
Using small-core scheme (local charge) for Vlocal

VLOCAL_FROM_CHLOCAL: 99.0% of the norm of Vloc inside      7.293 Ry
VLOCAL_FROM_CHLOCAL: 99.9% of the norm of Vloc inside     16.621 Ry
atom: Maximum radius for chlocal:    2.94283
atom: Maximum radius for r*vlocal+2*Zval:    2.73018

KBgen: Kleinman-Bylander projectors: 
GHOST: No ghost state for L =  0
   l= 0   rc=  2.942828   el= -0.388448   Ekb=  3.456139   kbcos=  0.265108
GHOST: No ghost state for L =  1
j- l= 1   rc=  3.017329   el= -0.099767   Ekb=  1.637230   kbcos=  0.233020
GHOST: No ghost state for L =  1
j+ l= 1   rc=  3.017329   el= -0.096587   Ekb=  1.623287   kbcos=  0.233737
GHOST: No ghost state for L =  2
j- l= 2   rc=  2.597026   el= -0.559633   Ekb=-41.700190   kbcos= -0.528903
GHOST: No ghost state for L =  2
j+ l= 2   rc=  2.597026   el= -0.549775   Ekb=-41.390808   kbcos= -0.527867
GHOST: No ghost state for L =  3
j- l= 3   rc=  3.132630   el=  0.003178   Ekb= -1.814054   kbcos= -0.008386
GHOST: No ghost state for L =  3
j+ l= 3   rc=  3.132630   el=  0.003178   Ekb= -1.799389   kbcos= -0.008411

KBgen: Total number of Kleinman-Bylander projectors:  31
atom: -------------------------------------------------------------------------

atom: SANKEY-TYPE ORBITALS:

SPLIT: Orbitals with angular momentum L= 0

SPLIT: Basis orbitals for state 4s

SPLIT: PAO cut-off radius determined from an
SPLIT: energy shift=  0.020000 Ry

   izeta = 1
                 lambda =    1.000000
                     rc =    6.308440
                 energy =   -0.368303
                kinetic =    0.348867
    potential(screened) =   -0.717170
       potential(ionic) =   -6.139715

SPLIT: Orbitals with angular momentum L= 2

SPLIT: Basis orbitals for state 3d

SPLIT: PAO cut-off radius determined from an
SPLIT: energy shift=  0.020000 Ry

   izeta = 1
                 lambda =    1.000000
                     rc =    3.639613
                 energy =   -0.533108
                kinetic =   14.664275
    potential(screened) =  -15.197383
       potential(ionic) =  -24.746001

POLgen: Perturbative polarization orbital with L=  1

POLgen: Polarization orbital for state 4s

   izeta = 1
                     rc =    6.308440
                 energy =   -0.029139
                kinetic =    0.656544
    potential(screened) =   -0.685683
       potential(ionic) =   -5.742194
atom: Total number of Sankey-type orbitals:  9

atm_pop: Valence configuration (for local Pseudopot. screening):
 4s( 2.00)                                                            
 4p( 0.00)                                                            
 3d( 6.00)                                                            
Vna: chval, zval:    8.00000   8.00000

Vna:  Cut-off radius for the neutral-atom potential:   6.308440
comcore: Pseudo-core radius Rcore=  3.778693

atom: _________________________________________________________________________

<basis_specs>
===============================================================================
Pt_fept_SOC          Z=  78    Mass=  195.08        Charge= 0.17977+309
Lmxo=2 Lmxkb= 3    BasisType=split      Semic=F
L=0  Nsemic=0  Cnfigmx=6
          i=1  nzeta=1  polorb=1  (6s)  (to be polarized perturbatively)
            splnorm:   0.15000    
               vcte:    0.0000    
               rinn:    0.0000    
               qcoe:    0.0000    
               qyuk:    0.0000    
               qwid:   0.10000E-01
                rcs:    0.0000    
            lambdas:    1.0000    
L=1  Nsemic=0  Cnfigmx=6
          i=1  nzeta=0  polorb=0  (6p)  (perturbative polarization orbital) (from 6s)
L=2  Nsemic=0  Cnfigmx=5
          i=1  nzeta=1  polorb=0  (5d)
            splnorm:   0.15000    
               vcte:    0.0000    
               rinn:    0.0000    
               qcoe:    0.0000    
               qyuk:    0.0000    
               qwid:   0.10000E-01
                rcs:    0.0000    
            lambdas:    1.0000    
-------------------------------------------------------------------------------
L=0  Nkbl=1  erefs: 0.17977+309
L=1  Nkbl=1  erefs: 0.17977+309
L=2  Nkbl=1  erefs: 0.17977+309
L=3  Nkbl=1  erefs: 0.17977+309
===============================================================================
</basis_specs>

atom: Called for Pt_fept_SOC           (Z =  78)

read_vps: Pseudopotential generation method:
read_vps: ATM 3.2.2 Troullier-Martins                       
Valence charge in pseudo generation:   10.00000

read_vps: Pseudopotential includes a core correction:
read_vps: Pseudo-core for xc-correction

xc_check: Exchange-correlation functional:
xc_check: GGA Perdew, Burke & Ernzerhof 1996
V l=0 = -2*Zval/r beyond r=  3.0596
V l=1 = -2*Zval/r beyond r=  3.0596
V l=2 = -2*Zval/r beyond r=  3.0596
V l=3 = -2*Zval/r beyond r=  3.0981
All V_l potentials equal beyond r=  2.9104
This should be close to max(r_c) in ps generation
All pots = -2*Zval/r beyond r=  3.0981
Using small-core scheme (local charge) for Vlocal

VLOCAL_FROM_CHLOCAL: 99.0% of the norm of Vloc inside      5.125 Ry
VLOCAL_FROM_CHLOCAL: 99.9% of the norm of Vloc inside     11.679 Ry
atom: Maximum radius for chlocal:    3.51058
atom: Maximum radius for r*vlocal+2*Zval:    3.25692

KBgen: Kleinman-Bylander projectors: 
GHOST: No ghost state for L =  0
   l= 0   rc=  3.297886   el= -0.413885   Ekb=  4.454381   kbcos=  0.246717
GHOST: No ghost state for L =  1
j- l= 1   rc=  3.381373   el= -0.088667   Ekb=  2.279260   kbcos=  0.222025
GHOST: No ghost state for L =  1
j+ l= 1   rc=  3.381373   el= -0.053882   Ekb=  1.951953   kbcos=  0.228197
GHOST: No ghost state for L =  2
j- l= 2   rc=  3.137044   el= -0.514155   Ekb= -5.403232   kbcos= -0.686649
GHOST: No ghost state for L =  2
j+ l= 2   rc=  3.176504   el= -0.416969   Ekb= -4.932723   kbcos= -0.669034
GHOST: No ghost state for L =  3
j- l= 3   rc=  3.599455   el=  0.003169   Ekb= -0.949828   kbcos= -0.024383
GHOST: No ghost state for L =  3
j+ l= 3   rc=  3.599455   el=  0.003169   Ekb= -0.924821   kbcos= -0.024361

KBgen: Total number of Kleinman-Bylander projectors:  31
atom: -------------------------------------------------------------------------

atom: SANKEY-TYPE ORBITALS:

SPLIT: Orbitals with angular momentum L= 0

SPLIT: Basis orbitals for state 6s

SPLIT: PAO cut-off radius determined from an
SPLIT: energy shift=  0.020000 Ry

   izeta = 1
                 lambda =    1.000000
                     rc =    6.161289
                 energy =   -0.393422
                kinetic =    0.394963
    potential(screened) =   -0.788385
       potential(ionic) =   -7.557034

SPLIT: Orbitals with angular momentum L= 2

SPLIT: Basis orbitals for state 5d

SPLIT: PAO cut-off radius determined from an
SPLIT: energy shift=  0.020000 Ry

   izeta = 1
                 lambda =    1.000000
                     rc =    4.451691
                 energy =   -0.436043
                kinetic =    4.736040
    potential(screened) =   -5.172083
       potential(ionic) =  -14.189016

POLgen: Perturbative polarization orbital with L=  1

POLgen: Polarization orbital for state 6s

   izeta = 1
                     rc =    6.161289
                 energy =   -0.056057
                kinetic =    0.701323
    potential(screened) =   -0.757381
       potential(ionic) =   -7.200791
atom: Total number of Sankey-type orbitals:  9

atm_pop: Valence configuration (for local Pseudopot. screening):
 6s( 1.00)                                                            
 6p( 0.00)                                                            
 5d( 9.00)                                                            
Vna: chval, zval:   10.00000  10.00000

Vna:  Cut-off radius for the neutral-atom potential:   6.161289
comcore: Pseudo-core radius Rcore=  4.130025

atom: _________________________________________________________________________

prinput: Basis input 

PAO.BasisType split     

%block ChemicalSpeciesLabel
    1   26 Fe_fept_SOC             # Species index, atomic number, species label
    2   78 Pt_fept_SOC             # Species index, atomic number, species label
%endblock ChemicalSpeciesLabel

%block PAO.Basis                 # Define Basis set
# WARNING: This information might be incomplete!
Fe_fept_SOC           2                    # Species label, number of l-shells
 n=4   0   1 P   1                   # n, l, Nzeta, Polarization, NzetaPol
   6.308   
   1.000   
 n=3   2   1                         # n, l, Nzeta 
   3.640   
   1.000   
Pt_fept_SOC           2                    # Species label, number of l-shells
 n=6   0   1 P   1                   # n, l, Nzeta, Polarization, NzetaPol
   6.161   
   1.000   
 n=5   2   1                         # n, l, Nzeta 
   4.452   
   1.000   
%endblock PAO.Basis

prinput: ----------------------------------------------------------------------

Dumping basis to NetCDF file Fe_fept_SOC.ion.nc
Dumping basis to NetCDF file Pt_fept_SOC.ion.nc
coor:   Atomic-coordinates input format  =     Cartesian coordinates
coor:                                          (in Angstroms)

siesta: Atomic coordinates (Bohr) and species
siesta:      2.63907   2.74010   0.00000  1        1
siesta:      0.00000   0.00000   3.58292  2        2

siesta: System type = bulk      

initatomlists: Number of atoms, orbitals, and projectors:      2    18    62

siesta: ******************** Simulation parameters ****************************
siesta:
siesta: The following are some of the parameters of the simulation.
siesta: A complete list of the parameters used, including default values,
siesta: can be found in file out.fdf
siesta:
redata: Spin configuration                          = spin-orbit+offsite
redata: Number of spin components                   = 8
redata: Time-Reversal Symmetry                      = F
redata: Spin spiral                                 = F
redata: Long output                                 =   F
redata: Number of Atomic Species                    =        2
redata: Charge density info will appear in .RHO file
redata: Write Mulliken Pop.                         = NO
redata: Matel table size (NRTAB)                    =     1024
redata: Mesh Cutoff                                 =    50.0000 Ry
redata: Net charge of the system                    =     0.0000 |e|
redata: Min. number of SCF Iter                     =        0
redata: Max. number of SCF Iter                     =        6
redata: SCF mix quantity                            = Hamiltonian
redata: Mix DM or H after convergence               =   F
redata: Recompute H after scf cycle                 =   F
redata: Mix DM in first SCF step                    =   T
redata: Write Pulay info on disk                    =   F
redata: New DM Occupancy tolerance                  = 0.000000000001
redata: No kicks to SCF
redata: DM Mixing Weight for Kicks                  =     0.5000
redata: Require Harris convergence for SCF          =   F
redata: Harris energy tolerance for SCF             =     0.000100 eV
redata: Require DM convergence for SCF              =   T
redata: DM tolerance for SCF                        =     0.000100
redata: Require EDM convergence for SCF             =   F
redata: EDM tolerance for SCF                       =     0.001000 eV
redata: Require H convergence for SCF               =   T
redata: Hamiltonian tolerance for SCF               =     0.001000 eV
redata: Require (free) Energy convergence for SCF   =   F
redata: (free) Energy tolerance for SCF             =     0.000100 eV
redata: Using DFT-D3 dispersion                     =   F
redata: Using Saved Data (generic)                  =   F
redata: Use continuation files for DM               =   F
redata: Neglect nonoverlap interactions             =   F
redata: Method of Calculation                       = Diagonalization
redata: Electronic Temperature                      =   299.9863 K
redata: Fix the spin of the system                  =   F
redata: Split SR and SO contributions               =   F
redata: Max. number of TDED Iter                    =        1
redata: Number of TDED substeps                     =        3
redata: Dynamics option                             = Single-point calculation
mix.SCF: Pulay mixing                            = Pulay
mix.SCF:    Variant                              = stable
mix.SCF:    History steps                        = 4
mix.SCF:    Linear mixing weight                 =     0.010000
mix.SCF:    Mixing weight                        =     0.010000
mix.SCF:    SVD condition                        = 0.1000E-07
mix.SCF: Spin-component mixing                   all
redata: Save all siesta data in one NC              =   F
redata: ***********************************************************************

%block SCF.Mixers
  Pulay
%endblock SCF.Mixers

%block SCF.Mixer.Pulay
  # Mixing method
  method pulay
  variant stable

  # Mixing options
  weight 0.0100
  weight.linear 0.0100
  history 4
%endblock SCF.Mixer.Pulay

DM_history_depth set to one: no extrapolation allowed by default for geometry relaxation
Size of DM history Fstack: 1
Total number of electrons:    18.000000
Total ionic charge:    18.000000
k-point displ. along   2 input, could be:     0.00    0.50
k-point displ. along   3 input, could be:     0.00    0.50

Time-reversal symmetry not used.

siesta: k-grid: Number of k-points = 4
siesta: k-points from Monkhorst-Pack grid
siesta: k-cutoff (effective) =     1.397 Ang
siesta: k-point supercell and displacements
siesta: k-grid:     1     0     0      0.000
siesta: k-grid:     0     2     0      0.000
siesta: k-grid:     0     0     2      0.000

diag: Algorithm                                     = D&C
diag: Used triangular part                          = Lower
diag: Absolute tolerance                            =  0.100E-15
diag: Orthogonalization factor                      =  0.100E-05
diag: Memory factor                                 =  1.0000

superc: Internal auxiliary supercell:     7 x     7 x     5  =     245
superc: Number of atoms, orbitals, and projectors:    490   4410  15190


ts: **************************************************************
ts: Save H and S matrices                           =    F
ts: Save DM and EDM matrices                        =    F
ts: Only save the overlap matrix S                  =    F
ts: **************************************************************

************************ Begin: TS CHECKS AND WARNINGS ************************
************************ End: TS CHECKS AND WARNINGS **************************


                     ====================================
                        Single-point calculation
                     ====================================

superc: Internal auxiliary supercell:     7 x     7 x     5  =     245
superc: Number of atoms, orbitals, and projectors:    490   4410  15190

outcell: Unit cell vectors (Ang):
        2.793069    0.000000    0.000000
        0.000000    2.700000    0.000000
        0.000000    0.000000    3.792000

outcell: Cell vector modules (Ang)   :    2.793069    2.700000    3.792000
outcell: Cell angles (23,13,12) (deg):     90.0000     90.0000     90.0000
outcell: Cell volume (Ang**3)        :     28.5966
<dSpData1D:S at geom step 0
  <sparsity:sparsity for geom step 0
    nrows_g=18 nrows=18 sparsity=73.6667 nnzs=23868, refcount: 8>
  <dData1D:(new from dSpData1D) n=23868, refcount: 1>
refcount: 1>
new_DM -- step:     1
Initializing Density Matrix...
DM filled with atomic data (user-defined):
<dSpData2D:DM initialized from atoms
  <sparsity:sparsity for geom step 0
    nrows_g=18 nrows=18 sparsity=73.6667 nnzs=23868, refcount: 9>
  <dData2D:DM n=23868 m=8, refcount: 1>
refcount: 1>
     spin moment: {S} , |S| = {    0.00000    3.00000    0.00000 }     3.00000

InitMesh: MESH = 12 x 12 x 18 = 2592
InitMesh: Mesh cutoff (required, used) =    50.000    51.015 Ry
New grid distribution [1]: sub = 2

stepf: Fermi-Dirac step function

siesta: Program's energy decomposition (eV):
siesta: Ebs     =       -86.363267
siesta: Eions   =      1473.880420
siesta: Ena     =        24.598288
siesta: Ekin    =      1702.102508
siesta: Enl(+so)=     -1238.711384
siesta: Eso(nil)=         0.000000
siesta: Edftu   =         0.000000
siesta: DEna    =        15.709073
siesta: DUscf   =        17.178089
siesta: DUext   =         0.000000
siesta: Ex      =     -1191.816951
siesta: Ec      =       -69.141436
siesta: Exc     =     -1260.958386
siesta: EbV     =         0.000000
siesta: eta*DQ  =         0.000000
siesta: Emadel  =         0.000000
siesta: Emeta   =         0.000000
siesta: Emolmec =         0.000000
siesta: Ekinion =         0.000000
siesta: Eharris =     -2201.119647
siesta: Etot    =     -2213.962231
siesta: FreeEng =     -2213.967830

        iscf     Eharris(eV)        E_KS(eV)     FreeEng(eV)     dDmax    Ef(eV) dHmax(eV)
   scf:    1    -2201.119647    -2213.962231    -2213.967830  0.919218 -1.099225 11.783940
     spin moment: {S} , |S| = {   -0.00000    1.58283   -0.00000 }     1.58283
timer: Routine,Calls,Time,% = IterSCF        1       0.033   0.67
   scf:    2    -2220.681699    -2217.458424    -2217.471368  0.053956 -1.095078  9.933060
     spin moment: {S} , |S| = {   -0.00000    1.68245   -0.00000 }     1.68245
   scf:    3    -2228.318345    -2224.689844    -2224.704671  0.253594 -1.147162  4.523282
     spin moment: {S} , |S| = {    0.00000    1.54262   -0.00000 }     1.54262
   scf:    4    -2217.007673    -2222.995692    -2223.008970  0.164993 -1.143553 10.252131
     spin moment: {S} , |S| = {    0.00000    1.49166   -0.00000 }     1.49166
   scf:    5    -2222.753698    -2222.873403    -2222.875464  0.105251 -1.442147 10.139804
     spin moment: {S} , |S| = {    0.00000    1.49225    0.00000 }     1.49225
   scf:    6    -2224.422598    -2223.696621    -2223.696971  0.042497 -2.478832  7.671070
     spin moment: {S} , |S| = {    0.00000    1.48738   -0.00000 }     1.48738
SCF_NOT_CONV: SCF did not converge  in maximum number of steps.
Geom step, scf iteration, dmax:    0     6     0.563813

Using DM_out to compute the final energy and forces

siesta: E_KS(eV) =            -2223.6966

siesta: E_KS - E_eggbox =     -2223.6966
     spin moment: {S} , |S| = {    0.00000    1.48738   -0.00000 }     1.48738

siesta: Atomic forces (eV/Ang):
     1   -0.003893  -13.680534   -0.000000
     2    0.000007    0.070341    0.000000
----------------------------------------
   Tot   -0.003886  -13.610194    0.000000
----------------------------------------
   Max   13.680534
   Res    5.585129    sqrt( Sum f_i^2 / 3N )
----------------------------------------
   Max   13.680534    constrained

Stress tensor Voigt[x,y,z,yz,xz,xy] (kbar):     -547.14     -351.74     -110.67       -0.00        0.00       -0.00
(Free)E + p*V (eV/cell)    -2217.6906
Target enthalpy (eV/cell)    -2223.6970

siesta: Program's energy decomposition (eV):
siesta: Ebs     =      -117.755204
siesta: Eions   =      1473.880420
siesta: Ena     =        24.598288
siesta: Ekin    =      1591.273569
siesta: Enl(+so)=     -1114.162177
siesta: Eso(nil)=         0.000000
siesta: Edftu   =         0.000000
siesta: DEna    =         4.834364
siesta: DUscf   =         4.766009
siesta: DUext   =         0.000000
siesta: Ex      =     -1191.934793
siesta: Ec      =       -69.191461
siesta: Exc     =     -1261.126254
siesta: EbV     =         0.000000
siesta: eta*DQ  =         0.000000
siesta: Emadel  =         0.000000
siesta: Emeta   =         0.000000
siesta: Emolmec =         0.000000
siesta: Ekinion =         0.000000
siesta: Eharris =     -2224.422598
siesta: Etot    =     -2223.696621
siesta: FreeEng =     -2223.696971

siesta: Final energy (eV):
siesta:  Band Struct. =    -117.755204
siesta:       Kinetic =    1591.273569
siesta:       Hartree =     175.306547
siesta:         Edftu =       0.000000
siesta:      Eso(nil) =       0.000000
siesta:    Ext. field =       0.000000
siesta:         Exch. =   -1191.934793
siesta:         Corr. =     -69.191461
siesta:     Bulk bias =       0.000000
siesta:   Exch.-corr. =   -1261.126254
siesta:  Ion-electron =   -1654.510359
siesta:       Ion-ion =   -1074.640123
siesta:       Ekinion =       0.000000
siesta: D3 dispersion =       0.000000
siesta:         Total =   -2223.696621
siesta:         Fermi =      -2.478832

siesta: Atomic forces (eV/Ang):
siesta:      1   -0.003893  -13.680534   -0.000000
siesta:      2    0.000007    0.070341    0.000000
siesta: ----------------------------------------
siesta:    Tot   -0.003886  -13.610194    0.000000

siesta: Stress tensor (static) (eV/Ang**3):
siesta:    -0.341501   -0.000001    0.000000
siesta:    -0.000001   -0.219542   -0.000000
siesta:     0.000000   -0.000000   -0.069073

siesta: Cell volume =         28.596555 Ang**3

siesta: Pressure (static):
siesta:                Solid            Molecule  Units
siesta:           0.00228761          0.00355361  Ry/Bohr**3
siesta:           0.21003837          0.32627741  eV/Ang**3
siesta:         336.51857407        522.75404401  kBar
(Free)E+ p_basis*V_orbitals  =       -2222.839747
(Free)Eharris+ p_basis*V_orbitals  =       -2223.565725
     spin moment: {S} , |S| = {    0.00000    1.48738   -0.00000 }     1.48738

cite: Please see "FePt-offsite.bib" for an exhaustive BiBTeX file.
cite: Please clearly indicate Siesta version in published work: 5.0.0-alpha-120-g24fa496ce-dirty
cite: This calculation has made use of the following articles
cite: which are encouraged to be cited in a published work.
        Primary SIESTA paper
          DOI: www.doi.org/10.1088/0953-8984/14/11/302
        Spin-orbit coupling (off-site approximation)
          DOI: www.doi.org/10.1088/0953-8984/24/8/086005


timer: Elapsed wall time (sec) =       5.554
timer: CPU execution times (sec):

Routine            Calls   Time/call    Tot.time        %
siesta                 1       5.548       5.548   100.00
Setup                  1       0.049       0.049     0.89
bands                  1       0.000       0.000     0.00
KSV_init               1       0.000       0.000     0.00
IterGeom               1       5.498       5.498    99.10
geom_init              1       4.907       4.907    88.45
state_init             1       0.190       0.190     3.42
hsparse                1       0.004       0.004     0.08
overlap                1       0.170       0.170     3.06
Setup_H0               1       4.688       4.688    84.50
naefs                  2       0.000       0.000     0.01
MolMec                 2       0.000       0.000     0.00
kinefsm                2       0.085       0.170     3.07
nlefsm                 2       2.415       4.829    87.05
DHSCF_Init             1       0.013       0.013     0.23
DHSCF1                 1       0.001       0.001     0.02
INITMESH               1       0.000       0.000     0.00
DHSCF2                 1       0.011       0.011     0.21
REMESH                 1       0.002       0.002     0.03
REORD                 84       0.000       0.000     0.01
PHION                  1       0.008       0.008     0.14
COMM_BSC             134       0.000       0.000     0.01
POISON                 9       0.000       0.001     0.01
fft                   18       0.000       0.000     0.01
setup_H                7       0.025       0.176     3.18
DHSCF                  8       0.029       0.235     4.24
DHSCF3                 8       0.025       0.196     3.54
rhoofd                 8       0.011       0.089     1.60
XC                     8       0.002       0.016     0.29
GXC-CellXC             8       0.002       0.016     0.29
vmat                   8       0.011       0.090     1.62
IterSCF                6       0.033       0.200     3.61
compute_dm             6       0.006       0.034     0.61
diagon                 6       0.005       0.032     0.57
cdiag                 48       0.000       0.007     0.12
cdiag1                48       0.000       0.001     0.01
cdiag2                48       0.000       0.001     0.02
cdiag3                48       0.000       0.004     0.08
cdiag4                24       0.000       0.000     0.00
MIXER                  6       0.002       0.011     0.20
PostSCF                1       0.390       0.390     7.02
DHSCF4                 1       0.039       0.039     0.70
dfscf                  1       0.037       0.037     0.66
overfsm                1       0.002       0.002     0.03
state_analysis         1       0.000       0.000     0.00
siesta_move            1       0.000       0.000     0.00
Analysis               1       0.000       0.000     0.01
optical                1       0.000       0.000     0.00
  

>> End of run:  25-SEP-2023   9:44:00
Job completed
