Siesta Version  : 5.0.0-alpha-120-g24fa496ce-dirty
Architecture    : ----
Compiler version: GNU-11.4.0
Compiler flags  : -fallow-argument-mismatch;-O3 -march=native
PP flags        : ----
Libraries       : ----
Parallelisations: none
GEMM3M support
NetCDF support
NetCDF-4 support
Lua support

Runtime information:
* Directory : /home/fnpedron/Siesta/siesta-dev/Tests/00.BasisSets/work/bessel_rich
* Running in serial mode.
>> Start of run:  25-SEP-2023   9:43:22

                           *********************** 
                           *  WELCOME TO SIESTA  * 
                           *********************** 

reinit: Reading from standard input
reinit: Dumping input in INPUT_TMP.52213
************************** Dump of input data file ****************************
%include ../../basejob.fdf
SystemLabel         bessel_rich
NumberofAtoms   7
NumberOfSpecies 4
%block ChemicalSpeciesLabel
 1  8  O
 2  1  H
 3  -100 Bessel
 4  -100 J
%endblock ChemicalSpeciesLabel
AtomicCoordinatesFormat  Ang
%block AtomicCoordinatesAndAtomicSpecies
 0.000  0.000  0.000  1
 0.757  0.586  0.000  2
-0.757  0.586  0.000  2
 0.3785 0.293  0.000  3
-0.3785 0.293  0.000  3
 0.3785 0.293  0.000  4
-0.3785 0.293  0.000  4
%endblock AtomicCoordinatesAndAtomicSpecies
%block PAO.Basis
Bessel    3
 n=1    0    1
   2.0
   1.0
 n=2    0    1
   2.5
   1.0
 n=3    1    1
   3.5
   1.0
J         2
n=2   0   7
  4.5
n=2   1   3
  4.5 4.5 5.0
%endblock PAO.Basis
************************** End of input data file *****************************

reinit: -----------------------------------------------------------------------
reinit: System Name: Water molecule
reinit: -----------------------------------------------------------------------
reinit: System Label: bessel_rich
reinit: -----------------------------------------------------------------------

initatom: Reading input for the pseudopotentials and atomic orbitals ----------
Species number:   1 Atomic number:    8 Label: O
Species number:   2 Atomic number:    1 Label: H
Species number:   3 Label: Bessel (floating Bessel functions)
Species number:   4 Label: J (floating Bessel functions)


---- Processing specs for species: O
Ground state valence configuration:   2s02  2p04
Reading pseudopotential information in formatted form from:
  /home/fnpedron/Siesta/siesta-dev/Tests/Pseudos/O.psf

---- Processing specs for species: H
Ground state valence configuration:   1s01
Reading pseudopotential information in formatted form from:
  /home/fnpedron/Siesta/siesta-dev/Tests/Pseudos/H.psf

---- Pseudopotential check for O 

Pseudized shells:
2s( 2.00) rc: 1.14
2p( 4.00) rc: 1.14
3d( 0.00) rc: 1.14
4f( 0.00) rc: 1.14
Valence configuration for ps generation: (assumed as above)

---- Pseudopotential check for H 

Pseudized shells:
1s( 1.00) rc: 1.25
2p( 0.00) rc: 1.25
3d( 0.00) rc: 1.25
4f( 0.00) rc: 1.25
Valence configuration for ps generation: (assumed as above)
For O, standard SIESTA heuristics set lmxkb to 3
 (one more than the basis l, including polarization orbitals).
Use PS.lmax or PS.KBprojectors blocks to override.
For H, standard SIESTA heuristics set lmxkb to 2
 (one more than the basis l, including polarization orbitals).
Use PS.lmax or PS.KBprojectors blocks to override.

<basis_specs>
===============================================================================
O                    Z=   8    Mass=  15.999        Charge= 0.17977+309
Lmxo=2 Lmxkb= 3    BasisType=split      Semic=F
L=0  Nsemic=0  Cnfigmx=2
          i=1  nzeta=2  polorb=0  (2s)
            splnorm:   0.15000    
               vcte:    0.0000    
               rinn:    0.0000    
               qcoe:    0.0000    
               qyuk:    0.0000    
               qwid:   0.10000E-01
                rcs:    0.0000      0.0000    
            lambdas:    1.0000      1.0000    
L=1  Nsemic=0  Cnfigmx=2
          i=1  nzeta=2  polorb=1  (2p)  (to be polarized perturbatively)
            splnorm:   0.15000    
               vcte:    0.0000    
               rinn:    0.0000    
               qcoe:    0.0000    
               qyuk:    0.0000    
               qwid:   0.10000E-01
                rcs:    0.0000      0.0000    
            lambdas:    1.0000      1.0000    
L=2  Nsemic=0  Cnfigmx=3
          i=1  nzeta=0  polorb=0  (3d)  (perturbative polarization orbital) (from 2p)
-------------------------------------------------------------------------------
L=0  Nkbl=1  erefs: 0.17977+309
L=1  Nkbl=1  erefs: 0.17977+309
L=2  Nkbl=1  erefs: 0.17977+309
L=3  Nkbl=1  erefs: 0.17977+309
===============================================================================
</basis_specs>

atom: Called for O                     (Z =   8)

read_vps: Pseudopotential generation method:
read_vps: ATM3      Troullier-Martins                       
Valence charge in pseudo generation:    6.00000

xc_check: Exchange-correlation functional:
xc_check: Ceperley-Alder
V l=0 = -2*Zval/r beyond r=  1.1278
V l=1 = -2*Zval/r beyond r=  1.1278
V l=2 = -2*Zval/r beyond r=  1.1278
V l=3 = -2*Zval/r beyond r=  1.1138
All V_l potentials equal beyond r=  1.1278
This should be close to max(r_c) in ps generation
All pots = -2*Zval/r beyond r=  1.1278
Using small-core scheme (local charge) for Vlocal

VLOCAL_FROM_CHLOCAL: 99.0% of the norm of Vloc inside     34.126 Ry
VLOCAL_FROM_CHLOCAL: 99.9% of the norm of Vloc inside     77.774 Ry
atom: Maximum radius for chlocal:    1.37759
atom: Maximum radius for r*vlocal+2*Zval:    1.24646

KBgen: Kleinman-Bylander projectors: 
GHOST: No ghost state for L =  0
   l= 0   rc=  1.294105   el= -1.742414   Ekb=  9.135903   kbcos=  0.326910
GHOST: No ghost state for L =  1
   l= 1   rc=  1.294105   el= -0.676589   Ekb= -8.124878   kbcos= -0.395047
GHOST: No ghost state for L =  2
   l= 2   rc=  1.448233   el=  0.002386   Ekb= -2.039267   kbcos= -0.003484
GHOST: No ghost state for L =  3
   l= 3   rc=  1.561052   el=  0.003508   Ekb= -0.799141   kbcos= -0.000344

KBgen: Total number of Kleinman-Bylander projectors:  16
atom: -------------------------------------------------------------------------

atom: SANKEY-TYPE ORBITALS:
atom: Selected multiple-zeta basis: split     

SPLIT: Orbitals with angular momentum L= 0

SPLIT: Basis orbitals for state 2s

SPLIT: PAO cut-off radius determined from an
SPLIT: energy shift=  0.020000 Ry

   izeta = 1
                 lambda =    1.000000
                     rc =    3.305093
                 energy =   -1.723766
                kinetic =    1.614911
    potential(screened) =   -3.338677
       potential(ionic) =  -11.304675

   izeta = 2
                 rmatch =    2.510382
              splitnorm =    0.150000
                 energy =   -1.471299
                kinetic =    2.446434
    potential(screened) =   -3.917732
       potential(ionic) =  -12.476133

SPLIT: Orbitals with angular momentum L= 1

SPLIT: Basis orbitals for state 2p

SPLIT: PAO cut-off radius determined from an
SPLIT: energy shift=  0.020000 Ry

   izeta = 1
                 lambda =    1.000000
                     rc =    3.937239
                 energy =   -0.658841
                kinetic =    5.005986
    potential(screened) =   -5.664827
       potential(ionic) =  -13.452360

   izeta = 2
                 rmatch =    2.541963
              splitnorm =    0.150000
                 energy =   -0.367441
                kinetic =    7.530509
    potential(screened) =   -7.897949
       potential(ionic) =  -16.611953

POLgen: Perturbative polarization orbital with L=  2

POLgen: Polarization orbital for state 2p

   izeta = 1
                     rc =    3.937239
                 energy =    2.398520
                kinetic =    4.716729
    potential(screened) =   -2.318209
       potential(ionic) =   -8.603170
atom: Total number of Sankey-type orbitals: 13

atm_pop: Valence configuration (for local Pseudopot. screening):
 2s( 2.00)                                                            
 2p( 4.00)                                                            
 3d( 0.00)                                                            
Vna: chval, zval:    6.00000   6.00000

Vna:  Cut-off radius for the neutral-atom potential:   3.937239

atom: _________________________________________________________________________

<basis_specs>
===============================================================================
H                    Z=   1    Mass=  1.0080        Charge= 0.17977+309
Lmxo=1 Lmxkb= 2    BasisType=split      Semic=F
L=0  Nsemic=0  Cnfigmx=1
          i=1  nzeta=2  polorb=1  (1s)  (to be polarized perturbatively)
            splnorm:   0.15000    
               vcte:    0.0000    
               rinn:    0.0000    
               qcoe:    0.0000    
               qyuk:    0.0000    
               qwid:   0.10000E-01
                rcs:    0.0000      0.0000    
            lambdas:    1.0000      1.0000    
L=1  Nsemic=0  Cnfigmx=2
          i=1  nzeta=0  polorb=0  (2p)  (perturbative polarization orbital) (from 1s)
-------------------------------------------------------------------------------
L=0  Nkbl=1  erefs: 0.17977+309
L=1  Nkbl=1  erefs: 0.17977+309
L=2  Nkbl=1  erefs: 0.17977+309
===============================================================================
</basis_specs>

atom: Called for H                     (Z =   1)

read_vps: Pseudopotential generation method:
read_vps: ATM3      Troullier-Martins                       
Valence charge in pseudo generation:    1.00000

xc_check: Exchange-correlation functional:
xc_check: Ceperley-Alder
V l=0 = -2*Zval/r beyond r=  1.2343
V l=1 = -2*Zval/r beyond r=  1.2189
V l=2 = -2*Zval/r beyond r=  1.2189
All V_l potentials equal beyond r=  1.2343
This should be close to max(r_c) in ps generation
All pots = -2*Zval/r beyond r=  1.2343
Using small-core scheme (local charge) for Vlocal

VLOCAL_FROM_CHLOCAL: 99.0% of the norm of Vloc inside     28.493 Ry
VLOCAL_FROM_CHLOCAL: 99.9% of the norm of Vloc inside     64.935 Ry
atom: Maximum radius for chlocal:    1.45251
atom: Maximum radius for r*vlocal+2*Zval:    1.31405

KBgen: Kleinman-Bylander projectors: 
GHOST: No ghost state for L =  0
   l= 0   rc=  1.364359   el= -0.467325   Ekb= -2.005361   kbcos= -0.336422
GHOST: No ghost state for L =  1
   l= 1   rc=  1.434438   el=  0.001430   Ekb= -0.501708   kbcos= -0.021697
GHOST: No ghost state for L =  2
   l= 2   rc=  1.470814   el=  0.002365   Ekb= -0.190555   kbcos= -0.002281

KBgen: Total number of Kleinman-Bylander projectors:   9
atom: -------------------------------------------------------------------------

atom: SANKEY-TYPE ORBITALS:
atom: Selected multiple-zeta basis: split     

SPLIT: Orbitals with angular momentum L= 0

SPLIT: Basis orbitals for state 1s

SPLIT: PAO cut-off radius determined from an
SPLIT: energy shift=  0.020000 Ry

   izeta = 1
                 lambda =    1.000000
                     rc =    4.828263
                 energy =   -0.449375
                kinetic =    0.929372
    potential(screened) =   -1.378747
       potential(ionic) =   -1.915047

   izeta = 2
                 rmatch =    3.854947
              splitnorm =    0.150000
                 energy =   -0.336153
                kinetic =    1.505294
    potential(screened) =   -1.841447
       potential(ionic) =   -2.413582

POLgen: Perturbative polarization orbital with L=  1

POLgen: Polarization orbital for state 1s

   izeta = 1
                     rc =    4.828263
                 energy =    0.706972
                kinetic =    1.396397
    potential(screened) =   -0.689424
       potential(ionic) =   -1.169792
atom: Total number of Sankey-type orbitals:  5

atm_pop: Valence configuration (for local Pseudopot. screening):
 1s( 1.00)                                                            
 2p( 0.00)                                                            
Vna: chval, zval:    1.00000   1.00000

Vna:  Cut-off radius for the neutral-atom potential:   4.828263

atom: _________________________________________________________________________

<basis_specs>
===============================================================================
Bessel               Z=-100    Mass= 0.10000E+41    Charge= 0.17977+309
Lmxo=1 Lmxkb=-1    BasisType=split      Semic=F
L=0  Nsemic=1  Cnfigmx=2
          i=1  nzeta=1  polorb=0  (1s)  (higher-lying shell (n> n_valence(l)))
            splnorm:   0.15000    
               vcte:    0.0000    
               rinn:    0.0000    
               qcoe:    0.0000    
               qyuk:    0.0000    
               qwid:   0.10000E-01
                rcs:    2.0000    
            lambdas:    1.0000    
          i=2  nzeta=1  polorb=0  (2s)  (higher-lying shell (n> n_valence(l)))
            splnorm:   0.15000    
               vcte:    0.0000    
               rinn:    0.0000    
               qcoe:    0.0000    
               qyuk:    0.0000    
               qwid:   0.10000E-01
                rcs:    2.5000    
            lambdas:    1.0000    
L=1  Nsemic=0  Cnfigmx=3
          i=1  nzeta=1  polorb=0  (3p)  (higher-lying shell (n> n_valence(l)))
            splnorm:   0.15000    
               vcte:    0.0000    
               rinn:    0.0000    
               qcoe:    0.0000    
               qyuk:    0.0000    
               qwid:   0.10000E-01
                rcs:    3.5000    
            lambdas:    1.0000    
===============================================================================
</basis_specs>

atom: Called for Bessel                (Z =-100) ( Floating Bessel functions ) 

Bessel: floating Bessel functions with angular momentum L= 0

Bessel: Basis orbitals for "state" 1s

   izeta = 1
                     rc =    2.011274
                 energy =    2.439817

Bessel: Basis orbitals for "state" 2s

   izeta = 1
                     rc =    2.519390
                 energy =    1.554924

Bessel: floating Bessel functions with angular momentum L= 1

Bessel: Basis orbitals for "state" 3p

   izeta = 1
                     rc =    3.487864
                 energy =    1.659713

atom: Total number of floating Bessel orbitals:  5

atom: _________________________________________________________________________

<basis_specs>
===============================================================================
J                    Z=-100    Mass= 0.10000E+41    Charge= 0.17977+309
Lmxo=1 Lmxkb=-1    BasisType=split      Semic=F
L=0  Nsemic=0  Cnfigmx=2
          i=1  nzeta=7  polorb=0  (2s)  (higher-lying shell (n> n_valence(l)))
            splnorm:   0.15000    
               vcte:    0.0000    
               rinn:    0.0000    
               qcoe:    0.0000    
               qyuk:    0.0000    
               qwid:   0.10000E-01
                rcs:    4.5000      4.5000      4.5000      4.5000    
            lambdas:    1.0000      1.0000      1.0000      1.0000    
L=1  Nsemic=0  Cnfigmx=2
          i=1  nzeta=3  polorb=0  (2p)  (higher-lying shell (n> n_valence(l)))
            splnorm:   0.15000    
               vcte:    0.0000    
               rinn:    0.0000    
               qcoe:    0.0000    
               qyuk:    0.0000    
               qwid:   0.10000E-01
                rcs:    4.5000      4.5000      5.0000    
            lambdas:    1.0000      1.0000      1.0000    
===============================================================================
</basis_specs>

atom: Called for J                     (Z =-100) ( Floating Bessel functions ) 

Bessel: floating Bessel functions with angular momentum L= 0

Bessel: Basis orbitals for "state" 2s

   izeta = 1
                     rc =    4.479210
                 energy =    0.491923

   izeta = 2
                     rc =    4.479210
                 energy =    1.967691

   izeta = 3
                     rc =    4.479210
                 energy =    4.427304

   izeta = 4
                     rc =    4.479210
                 energy =    7.870760

   izeta = 5
                     rc =    4.479210
                 energy =   12.298054

   izeta = 6
                     rc =    4.479210
                 energy =   17.709175

   izeta = 7
                     rc =    4.479210
                 energy =   24.104105

Bessel: floating Bessel functions with angular momentum L= 1

Bessel: Basis orbitals for "state" 2p

   izeta = 1
                     rc =    4.479210
                 energy =    1.006350

   izeta = 2
                     rc =    4.479210
                 energy =    2.974558

   izeta = 3
                     rc =    5.075940
                 energy =    4.614751

atom: Total number of floating Bessel orbitals: 16

atom: _________________________________________________________________________

prinput: Basis input 

PAO.BasisType split     

%block ChemicalSpeciesLabel
    1    8 O                       # Species index, atomic number, species label
    2    1 H                       # Species index, atomic number, species label
    3 -100 Bessel                  # Species index, atomic number, species label
    4 -100 J                       # Species index, atomic number, species label
%endblock ChemicalSpeciesLabel

%block PAO.Basis                 # Define Basis set
# WARNING: This information might be incomplete!
O                     2                    # Species label, number of l-shells
 n=2   0   2                         # n, l, Nzeta 
   3.305      2.510   
   1.000      1.000   
 n=2   1   2 P   1                   # n, l, Nzeta, Polarization, NzetaPol
   3.937      2.542   
   1.000      1.000   
H                     1                    # Species label, number of l-shells
 n=1   0   2 P   1                   # n, l, Nzeta, Polarization, NzetaPol
   4.828      3.855   
   1.000      1.000   
Bessel                3                    # Species label, number of l-shells
 n=1   0   1                         # n, l, Nzeta 
   2.011   
   1.000   
 n=2   0   1                         # n, l, Nzeta 
   2.519   
   1.000   
 n=3   1   1                         # n, l, Nzeta 
   3.488   
   1.000   
J                     2                    # Species label, number of l-shells
 n=2   0   7                         # n, l, Nzeta 
   4.479      4.479      4.479      4.479      4.479      4.479      4.479   
   1.000      1.000      1.000      1.000      1.000      1.000      1.000   
 n=2   1   3                         # n, l, Nzeta 
   4.479      4.479      5.076   
   1.000      1.000      1.000   
%endblock PAO.Basis

prinput: ----------------------------------------------------------------------

Dumping basis to NetCDF file O.ion.nc
Dumping basis to NetCDF file H.ion.nc
Dumping basis to NetCDF file Bessel.ion.nc
Dumping basis to NetCDF file J.ion.nc
coor:   Atomic-coordinates input format  =     Cartesian coordinates
coor:                                          (in Angstroms)

siesta: Atomic coordinates (Bohr) and species
siesta:      0.00000   0.00000   0.00000  1        1
siesta:      1.43052   1.10738   0.00000  2        2
siesta:     -1.43052   1.10738   0.00000  2        3
siesta:      0.71526   0.55369   0.00000  3        4
siesta:     -0.71526   0.55369   0.00000  3        5
siesta:      0.71526   0.55369   0.00000  4        6
siesta:     -0.71526   0.55369   0.00000  4        7

siesta: System type = molecule  

initatomlists: Number of atoms, orbitals, and projectors:      7    65    34

siesta: ******************** Simulation parameters ****************************
siesta:
siesta: The following are some of the parameters of the simulation.
siesta: A complete list of the parameters used, including default values,
siesta: can be found in file out.fdf
siesta:
redata: Spin configuration                          = none
redata: Number of spin components                   = 1
redata: Time-Reversal Symmetry                      = T
redata: Spin spiral                                 = F
redata: Long output                                 =   F
redata: Number of Atomic Species                    =        4
redata: Charge density info will appear in .RHO file
redata: Write Mulliken Pop.                         = NO
redata: Matel table size (NRTAB)                    =     1024
redata: Mesh Cutoff                                 =   100.0000 Ry
redata: Net charge of the system                    =     0.0000 |e|
redata: Min. number of SCF Iter                     =        0
redata: Max. number of SCF Iter                     =        3
redata: SCF mix quantity                            = Hamiltonian
redata: Mix DM or H after convergence               =   F
redata: Recompute H after scf cycle                 =   F
redata: Mix DM in first SCF step                    =   T
redata: Write Pulay info on disk                    =   F
redata: New DM Occupancy tolerance                  = 0.000000000001
redata: No kicks to SCF
redata: DM Mixing Weight for Kicks                  =     0.5000
redata: Require Harris convergence for SCF          =   F
redata: Harris energy tolerance for SCF             =     0.000100 eV
redata: Require DM convergence for SCF              =   T
redata: DM tolerance for SCF                        =     0.000100
redata: Require EDM convergence for SCF             =   F
redata: EDM tolerance for SCF                       =     0.001000 eV
redata: Require H convergence for SCF               =   T
redata: Hamiltonian tolerance for SCF               =     0.001000 eV
redata: Require (free) Energy convergence for SCF   =   F
redata: (free) Energy tolerance for SCF             =     0.000100 eV
redata: Using DFT-D3 dispersion                     =   F
redata: Using Saved Data (generic)                  =   F
redata: Use continuation files for DM               =   F
redata: Neglect nonoverlap interactions             =   F
redata: Method of Calculation                       = Diagonalization
redata: Electronic Temperature                      =   299.9863 K
redata: Fix the spin of the system                  =   F
redata: Max. number of TDED Iter                    =        1
redata: Number of TDED substeps                     =        3
redata: Dynamics option                             = Single-point calculation
mix.SCF: Pulay mixing                            = Pulay
mix.SCF:    Variant                              = stable
mix.SCF:    History steps                        = 2
mix.SCF:    Linear mixing weight                 =     0.250000
mix.SCF:    Mixing weight                        =     0.250000
mix.SCF:    SVD condition                        = 0.1000E-07
redata: Save all siesta data in one NC              =   F
redata: ***********************************************************************

%block SCF.Mixers
  Pulay
%endblock SCF.Mixers

%block SCF.Mixer.Pulay
  # Mixing method
  method pulay
  variant stable

  # Mixing options
  weight 0.2500
  weight.linear 0.2500
  history 2
%endblock SCF.Mixer.Pulay

DM_history_depth set to one: no extrapolation allowed by default for geometry relaxation
Size of DM history Fstack: 1
Total number of electrons:     8.000000
Total ionic charge:     8.000000

siesta: k-grid: Number of k-points = 1
siesta: k-point is Gamma-only

diag: Algorithm                                     = D&C
diag: Used triangular part                          = Lower
diag: Absolute tolerance                            =  0.100E-15
diag: Orthogonalization factor                      =  0.100E-05
diag: Memory factor                                 =  1.0000


ts: **************************************************************
ts: Save H and S matrices                           =    F
ts: Save DM and EDM matrices                        =    F
ts: Only save the overlap matrix S                  =    F
ts: **************************************************************

************************ Begin: TS CHECKS AND WARNINGS ************************
************************ End: TS CHECKS AND WARNINGS **************************


                     ====================================
                        Single-point calculation
                     ====================================

outcell: Unit cell vectors (Ang):
       10.000000    0.000000    0.000000
        0.000000   10.000000    0.000000
        0.000000    0.000000    8.000000

outcell: Cell vector modules (Ang)   :   10.000000   10.000000    8.000000
outcell: Cell angles (23,13,12) (deg):     90.0000     90.0000     90.0000
outcell: Cell volume (Ang**3)        :    800.0000
<dSpData1D:S at geom step 0
  <sparsity:sparsity for geom step 0
    nrows_g=65 nrows=65 sparsity=1.0000 nnzs=4225, refcount: 7>
  <dData1D:(new from dSpData1D) n=4225, refcount: 1>
refcount: 1>
new_DM -- step:     1
Initializing Density Matrix...
DM filled with atomic data:
<dSpData2D:DM initialized from atoms
  <sparsity:sparsity for geom step 0
    nrows_g=65 nrows=65 sparsity=1.0000 nnzs=4225, refcount: 8>
  <dData2D:DM n=4225 m=1, refcount: 1>
refcount: 1>
No. of atoms with KB's overlaping orbs in proc 0. Max # of overlaps:       3      65

InitMesh: MESH = 64 x 64 x 50 = 204800
InitMesh: Mesh cutoff (required, used) =   100.000   107.960 Ry
New grid distribution [1]: sub = 2

stepf: Fermi-Dirac step function

siesta: Program's energy decomposition (eV):
siesta: Ebs     =       -85.586134
siesta: Eions   =       815.848070
siesta: Ena     =       175.154322
siesta: Ekin    =       373.601113
siesta: Enl     =       -68.646636
siesta: Eso     =         0.000000
siesta: Edftu   =         0.000000
siesta: DEna    =       -15.544414
siesta: DUscf   =         1.961882
siesta: DUext   =         0.000000
siesta: Ex      =      -103.839132
siesta: Ec      =       -12.758013
siesta: Exc     =      -116.597145
siesta: EbV     =         0.000000
siesta: eta*DQ  =         0.000000
siesta: Emadel  =         0.000000
siesta: Emeta   =         0.000000
siesta: Emolmec =         0.000000
siesta: Ekinion =         0.000000
siesta: Eharris =      -468.867547
siesta: Etot    =      -465.918948
siesta: FreeEng =      -465.918948

        iscf     Eharris(eV)        E_KS(eV)     FreeEng(eV)     dDmax    Ef(eV) dHmax(eV)
   scf:    1     -468.867547     -465.918948     -465.918948  1.774022 -8.482630  6.809842
timer: Routine,Calls,Time,% = IterSCF        1       0.028   0.39
   scf:    2     -466.985270     -466.555610     -466.555610  0.034137 -7.282815  2.532741
   scf:    3     -466.651634     -466.636191     -466.636191  0.027007 -6.513861  0.296995
SCF_NOT_CONV: SCF did not converge  in maximum number of steps.
Geom step, scf iteration, dmax:    0     3     0.021829

Using DM_out to compute the final energy and forces
No. of atoms with KB's overlaping orbs in proc 0. Max # of overlaps:       3      65

siesta: E_KS(eV) =             -466.6362

siesta: E_KS - E_eggbox =      -466.6362

siesta: Atomic forces (eV/Ang):
----------------------------------------
   Tot   -0.000000   -0.053713    0.000000
----------------------------------------
   Max    0.491040
   Res    0.213270    sqrt( Sum f_i^2 / 3N )
----------------------------------------
   Max    0.491040    constrained

Stress tensor Voigt[x,y,z,yz,xz,xy] (kbar):       -1.39       -0.67       -0.30        0.00       -0.00        0.00
(Free)E + p*V (eV/cell)     -466.2435
Target enthalpy (eV/cell)     -466.6362

siesta: Program's energy decomposition (eV):
siesta: Ebs     =      -107.730973
siesta: Eions   =       815.848070
siesta: Ena     =       175.154322
siesta: Ekin    =       349.813558
siesta: Enl     =       -62.548148
siesta: Eso     =         0.000000
siesta: Edftu   =         0.000000
siesta: DEna    =        -1.344730
siesta: DUscf   =         0.785082
siesta: DUext   =         0.000000
siesta: Ex      =      -100.073087
siesta: Ec      =       -12.575118
siesta: Exc     =      -112.648205
siesta: EbV     =         0.000000
siesta: eta*DQ  =         0.000000
siesta: Emadel  =         0.000000
siesta: Emeta   =         0.000000
siesta: Emolmec =         0.000000
siesta: Ekinion =         0.000000
siesta: Eharris =      -466.651634
siesta: Etot    =      -466.636191
siesta: FreeEng =      -466.636191

siesta: Final energy (eV):
siesta:  Band Struct. =    -107.730973
siesta:       Kinetic =     349.813558
siesta:       Hartree =     447.112991
siesta:         Edftu =       0.000000
siesta:       Eso     =       0.000000
siesta:    Ext. field =       0.000000
siesta:         Exch. =    -100.073087
siesta:         Corr. =     -12.575118
siesta:     Bulk bias =       0.000000
siesta:   Exch.-corr. =    -112.648205
siesta:  Ion-electron =   -1204.176567
siesta:       Ion-ion =      53.262032
siesta:       Ekinion =       0.000000
siesta: D3 dispersion =       0.000000
siesta:         Total =    -466.636191
siesta:         Fermi =      -6.513861

siesta: Atomic forces (eV/Ang):
siesta:      1    0.000000   -0.303035    0.000000
siesta:      2    0.491040    0.353486   -0.000000
siesta:      3   -0.491040    0.353486   -0.000000
siesta:      4    0.001078    0.001563   -0.000000
siesta:      5   -0.001078    0.001563   -0.000000
siesta:      6   -0.111860   -0.230388   -0.000000
siesta:      7    0.111860   -0.230388   -0.000000
siesta: ----------------------------------------
siesta:    Tot   -0.000000   -0.053713    0.000000

siesta: Stress tensor (static) (eV/Ang**3):
siesta:    -0.000866    0.000000   -0.000000
siesta:     0.000000   -0.000421   -0.000000
siesta:    -0.000000    0.000000   -0.000185

siesta: Cell volume =        800.000000 Ang**3

siesta: Pressure (static):
siesta:                Solid            Molecule  Units
siesta:           0.00000535          0.00000100  Ry/Bohr**3
siesta:           0.00049088          0.00009182  eV/Ang**3
siesta:           0.78648183          0.14711198  kBar
(Free)E+ p_basis*V_orbitals  =        -464.491806
(Free)Eharris+ p_basis*V_orbitals  =        -464.507249

siesta: Electric dipole (a.u.)  =    0.000000    0.653860   -0.000000
siesta: Electric dipole (Debye) =    0.000000    1.661947   -0.000000

cite: Please see "bessel_rich.bib" for an exhaustive BiBTeX file.
cite: Please clearly indicate Siesta version in published work: 5.0.0-alpha-120-g24fa496ce-dirty
cite: This calculation has made use of the following articles
cite: which are encouraged to be cited in a published work.
        Primary SIESTA paper
          DOI: www.doi.org/10.1088/0953-8984/14/11/302


timer: Elapsed wall time (sec) =       7.154
timer: CPU execution times (sec):

Routine            Calls   Time/call    Tot.time        %
siesta                 1       7.146       7.146   100.00
Setup                  1       0.050       0.050     0.69
bands                  1       0.000       0.000     0.00
KSV_init               1       0.000       0.000     0.00
IterGeom               1       7.096       7.096    99.30
geom_init              1       6.941       6.941    97.13
state_init             1       1.396       1.396    19.54
hsparse                1       0.000       0.000     0.00
overlap                1       1.396       1.396    19.53
Setup_H0               1       5.519       5.519    77.23
naefs                  2       0.000       0.000     0.00
MolMec                 2       0.000       0.000     0.00
kinefsm                2       0.695       1.390    19.44
nlefsm                 2       2.045       4.091    57.24
DHSCF_Init             1       0.041       0.041     0.57
DHSCF1                 1       0.003       0.003     0.04
INITMESH               1       0.000       0.000     0.00
DHSCF2                 1       0.038       0.038     0.53
REMESH                 1       0.003       0.003     0.04
REORD                 18       0.000       0.003     0.04
PHION                  1       0.025       0.025     0.35
COMM_BSC              23       0.000       0.003     0.04
POISON                 6       0.006       0.036     0.50
fft                   12       0.002       0.028     0.39
setup_H                4       0.026       0.105     1.46
DHSCF                  5       0.035       0.175     2.45
DHSCF3                 5       0.026       0.130     1.82
rhoofd                 5       0.009       0.044     0.62
XC                     5       0.003       0.016     0.22
GXC-CellXC             5       0.003       0.014     0.19
vmat                   5       0.006       0.031     0.44
IterSCF                3       0.027       0.081     1.14
compute_dm             3       0.001       0.002     0.02
diagon                 3       0.001       0.002     0.02
r-eigvec               3       0.000       0.001     0.02
r-buildHS              3       0.000       0.000     0.00
rdiag                  3       0.000       0.001     0.02
rdiag1                 3       0.000       0.000     0.00
rdiag2                 3       0.000       0.000     0.00
rdiag3                 3       0.000       0.001     0.01
rdiag4                 3       0.000       0.000     0.00
r-buildD               3       0.000       0.000     0.00
MIXER                  3       0.000       0.000     0.00
PostSCF                1       0.074       0.074     1.03
DHSCF4                 1       0.045       0.045     0.64
dfscf                  1       0.042       0.042     0.59
overfsm                1       0.001       0.001     0.01
state_analysis         1       0.000       0.000     0.00
siesta_move            1       0.000       0.000     0.00
Analysis               1       0.000       0.000     0.00
optical                1       0.000       0.000     0.00
  

>> End of run:  25-SEP-2023   9:43:29
Job completed
