Siesta Version  : 5.0.0-alpha-120-g24fa496ce-dirty
Architecture    : ----
Compiler version: GNU-11.4.0
Compiler flags  : -fallow-argument-mismatch;-O3 -march=native
PP flags        : ----
Libraries       : ----
Parallelisations: none
GEMM3M support
NetCDF support
NetCDF-4 support
Lua support

Runtime information:
* Directory : /home/fnpedron/Siesta/siesta-dev/Tests/00.BasisSets/work/charge_confinement
* Running in serial mode.
>> Start of run:  25-SEP-2023   9:43:32

                           *********************** 
                           *  WELCOME TO SIESTA  * 
                           *********************** 

reinit: Reading from standard input
reinit: Dumping input in INPUT_TMP.61844
************************** Dump of input data file ****************************
%include ../../basejob.fdf
SystemLabel         charge_confinement
NumberOfAtoms       3
NumberOfSpecies     2
%block ChemicalSpeciesLabel
 1  8  O
 2  1  H
%endblock ChemicalSpeciesLabel
%block PAO.Basis
O    3
n=2   0   3   E   50. 8.0
    8.0   3.5   2.0
n=2   1   3   Q   0.0 0.0 0.1  E   10. 8.0
    8.0   3.5   2.0
n=3   2   1   E   50. 9.0 Q  8.5 0.4
    8.0
H    2
n=1   0   3   E   50. 8.0
    8.0   3.5   2.0
n=2   1   1   E   50. 9.0 Q  5.5 0.5
    8.0
%endblock PAO.Basis
AtomicCoordinatesFormat  Ang
%block AtomicCoordinatesAndAtomicSpecies
 0.000  0.000  0.000  1
 0.757  0.586  0.000  2
-0.757  0.586  0.000  2
%endblock AtomicCoordinatesAndAtomicSpecies
************************** End of input data file *****************************

reinit: -----------------------------------------------------------------------
reinit: System Name: Water molecule
reinit: -----------------------------------------------------------------------
reinit: System Label: charge_confinement
reinit: -----------------------------------------------------------------------

initatom: Reading input for the pseudopotentials and atomic orbitals ----------
Species number:   1 Atomic number:    8 Label: O
Species number:   2 Atomic number:    1 Label: H


---- Processing specs for species: O
Ground state valence configuration:   2s02  2p04
Reading pseudopotential information in formatted form from:
  /home/fnpedron/Siesta/siesta-dev/Tests/Pseudos/O.psf

---- Processing specs for species: H
Ground state valence configuration:   1s01
Reading pseudopotential information in formatted form from:
  /home/fnpedron/Siesta/siesta-dev/Tests/Pseudos/H.psf

---- Pseudopotential check for O 

Pseudized shells:
2s( 2.00) rc: 1.14
2p( 4.00) rc: 1.14
3d( 0.00) rc: 1.14
4f( 0.00) rc: 1.14
Valence configuration for ps generation: (assumed as above)

---- Pseudopotential check for H 

Pseudized shells:
1s( 1.00) rc: 1.25
2p( 0.00) rc: 1.25
3d( 0.00) rc: 1.25
4f( 0.00) rc: 1.25
Valence configuration for ps generation: (assumed as above)
For O, standard SIESTA heuristics set lmxkb to 3
 (one more than the basis l, including polarization orbitals).
Use PS.lmax or PS.KBprojectors blocks to override.
For H, standard SIESTA heuristics set lmxkb to 2
 (one more than the basis l, including polarization orbitals).
Use PS.lmax or PS.KBprojectors blocks to override.

<basis_specs>
===============================================================================
O                    Z=   8    Mass=  15.999        Charge= 0.17977+309
Lmxo=2 Lmxkb= 3    BasisType=split      Semic=F
L=0  Nsemic=0  Cnfigmx=2
          i=1  nzeta=3  polorb=0  (2s)
            splnorm:   0.15000    
               vcte:    50.000    
               rinn:    8.0000    
               qcoe:    0.0000    
               qyuk:    0.0000    
               qwid:   0.10000E-01
                rcs:    8.0000      3.5000      2.0000    
            lambdas:    1.0000      1.0000      1.0000    
L=1  Nsemic=0  Cnfigmx=2
          i=1  nzeta=3  polorb=0  (2p)
            splnorm:   0.15000    
               vcte:    10.000    
               rinn:    8.0000    
               qcoe:    0.0000    
               qyuk:    0.0000    
               qwid:   0.10000    
                rcs:    8.0000      3.5000      2.0000    
            lambdas:    1.0000      1.0000      1.0000    
L=2  Nsemic=0  Cnfigmx=3
          i=1  nzeta=1  polorb=0  (3d)
            splnorm:   0.15000    
               vcte:    50.000    
               rinn:    9.0000    
               qcoe:    8.5000    
               qyuk:   0.40000    
               qwid:   0.10000E-01
                rcs:    8.0000    
            lambdas:    1.0000    
-------------------------------------------------------------------------------
L=0  Nkbl=1  erefs: 0.17977+309
L=1  Nkbl=1  erefs: 0.17977+309
L=2  Nkbl=1  erefs: 0.17977+309
L=3  Nkbl=1  erefs: 0.17977+309
===============================================================================
</basis_specs>

atom: Called for O                     (Z =   8)

read_vps: Pseudopotential generation method:
read_vps: ATM3      Troullier-Martins                       
Valence charge in pseudo generation:    6.00000

xc_check: Exchange-correlation functional:
xc_check: Ceperley-Alder
V l=0 = -2*Zval/r beyond r=  1.1278
V l=1 = -2*Zval/r beyond r=  1.1278
V l=2 = -2*Zval/r beyond r=  1.1278
V l=3 = -2*Zval/r beyond r=  1.1138
All V_l potentials equal beyond r=  1.1278
This should be close to max(r_c) in ps generation
All pots = -2*Zval/r beyond r=  1.1278
Using small-core scheme (local charge) for Vlocal

VLOCAL_FROM_CHLOCAL: 99.0% of the norm of Vloc inside     34.126 Ry
VLOCAL_FROM_CHLOCAL: 99.9% of the norm of Vloc inside     77.774 Ry
atom: Maximum radius for chlocal:    1.37759
atom: Maximum radius for r*vlocal+2*Zval:    1.24646

KBgen: Kleinman-Bylander projectors: 
GHOST: No ghost state for L =  0
   l= 0   rc=  1.294105   el= -1.742414   Ekb=  9.135903   kbcos=  0.326910
GHOST: No ghost state for L =  1
   l= 1   rc=  1.294105   el= -0.676589   Ekb= -8.124878   kbcos= -0.395047
GHOST: No ghost state for L =  2
   l= 2   rc=  1.448233   el=  0.002386   Ekb= -2.039267   kbcos= -0.003484
GHOST: No ghost state for L =  3
   l= 3   rc=  1.561052   el=  0.003508   Ekb= -0.799141   kbcos= -0.000344

KBgen: Total number of Kleinman-Bylander projectors:  16
atom: -------------------------------------------------------------------------

atom: SANKEY-TYPE ORBITALS:
atom: Selected multiple-zeta basis: split     

SPLIT: Orbitals with angular momentum L= 0

SPLIT: Basis orbitals for state 2s

   izeta = 1
                 lambda =    1.000000
                     rc =    8.129670
                 energy =   -1.742482
                kinetic =    1.522831
    potential(screened) =   -3.265314
       potential(ionic) =  -11.137951

   izeta = 2
                 rmatch =    3.562532
              splitnorm =    0.024480
                 energy =   -1.707444
* WARNING: effective split_norm is quite small. Orbitals will be very similar.
                kinetic =    1.794713
    potential(screened) =   -3.502157
       potential(ionic) =  -11.642114

   izeta = 3
                 rmatch =    2.004519
              splitnorm =    0.377959
                 energy =   -0.924481
                kinetic =    3.364538
    potential(screened) =   -4.289019
       potential(ionic) =  -13.192928

SPLIT: Orbitals with angular momentum L= 1

SPLIT: Basis orbitals for state 2p

   izeta = 1
                 lambda =    1.000000
                     rc =    8.129670
                 energy =   -0.676628
                kinetic =    4.738773
    potential(screened) =   -5.415402
       potential(ionic) =  -13.028117

   izeta = 2
                 rmatch =    3.562532
              splitnorm =    0.054816
                 energy =   -0.614246
                kinetic =    5.788177
    potential(screened) =   -6.402423
       potential(ionic) =  -14.559102

   izeta = 3
                 rmatch =    2.004519
              splitnorm =    0.338057
                 energy =    0.126300
                kinetic =    9.704347
    potential(screened) =   -9.578047
       potential(ionic) =  -18.731401

SPLIT: Orbitals with angular momentum L= 2

SPLIT: Basis orbitals for state 3d
Charge confinement: Q:     8.5000

   izeta = 1
                 lambda =    1.000000
                     rc =    8.129670
                 energy =    2.943836
                kinetic =    5.678420
    potential(screened) =   -2.734583
       potential(ionic) =   -9.457239
atom: Total number of Sankey-type orbitals: 17

atm_pop: Valence configuration (for local Pseudopot. screening):
 2s( 2.00)                                                            
 2p( 4.00)                                                            
 3d( 0.00)                                                            
Vna: chval, zval:    6.00000   6.00000

Vna:  Cut-off radius for the neutral-atom potential:   8.129670

atom: _________________________________________________________________________

<basis_specs>
===============================================================================
H                    Z=   1    Mass=  1.0080        Charge= 0.17977+309
Lmxo=1 Lmxkb= 2    BasisType=split      Semic=F
L=0  Nsemic=0  Cnfigmx=1
          i=1  nzeta=3  polorb=0  (1s)
            splnorm:   0.15000    
               vcte:    50.000    
               rinn:    8.0000    
               qcoe:    0.0000    
               qyuk:    0.0000    
               qwid:   0.10000E-01
                rcs:    8.0000      3.5000      2.0000    
            lambdas:    1.0000      1.0000      1.0000    
L=1  Nsemic=0  Cnfigmx=2
          i=1  nzeta=1  polorb=0  (2p)
            splnorm:   0.15000    
               vcte:    50.000    
               rinn:    9.0000    
               qcoe:    5.5000    
               qyuk:   0.50000    
               qwid:   0.10000E-01
                rcs:    8.0000    
            lambdas:    1.0000    
-------------------------------------------------------------------------------
L=0  Nkbl=1  erefs: 0.17977+309
L=1  Nkbl=1  erefs: 0.17977+309
L=2  Nkbl=1  erefs: 0.17977+309
===============================================================================
</basis_specs>

atom: Called for H                     (Z =   1)

read_vps: Pseudopotential generation method:
read_vps: ATM3      Troullier-Martins                       
Valence charge in pseudo generation:    1.00000

xc_check: Exchange-correlation functional:
xc_check: Ceperley-Alder
V l=0 = -2*Zval/r beyond r=  1.2343
V l=1 = -2*Zval/r beyond r=  1.2189
V l=2 = -2*Zval/r beyond r=  1.2189
All V_l potentials equal beyond r=  1.2343
This should be close to max(r_c) in ps generation
All pots = -2*Zval/r beyond r=  1.2343
Using small-core scheme (local charge) for Vlocal

VLOCAL_FROM_CHLOCAL: 99.0% of the norm of Vloc inside     28.493 Ry
VLOCAL_FROM_CHLOCAL: 99.9% of the norm of Vloc inside     64.935 Ry
atom: Maximum radius for chlocal:    1.45251
atom: Maximum radius for r*vlocal+2*Zval:    1.31405

KBgen: Kleinman-Bylander projectors: 
GHOST: No ghost state for L =  0
   l= 0   rc=  1.364359   el= -0.467325   Ekb= -2.005361   kbcos= -0.336422
GHOST: No ghost state for L =  1
   l= 1   rc=  1.434438   el=  0.001430   Ekb= -0.501708   kbcos= -0.021697
GHOST: No ghost state for L =  2
   l= 2   rc=  1.470814   el=  0.002365   Ekb= -0.190555   kbcos= -0.002281

KBgen: Total number of Kleinman-Bylander projectors:   9
atom: -------------------------------------------------------------------------

atom: SANKEY-TYPE ORBITALS:
atom: Selected multiple-zeta basis: split     

SPLIT: Orbitals with angular momentum L= 0

SPLIT: Basis orbitals for state 1s

   izeta = 1
                 lambda =    1.000000
                     rc =    7.962068
                 energy =   -0.467034
                kinetic =    0.826974
    potential(screened) =   -1.294008
       potential(ionic) =   -1.818631

   izeta = 2
                 rmatch =    3.487864
              splitnorm =    0.271543
                 energy =   -0.269634
                kinetic =    1.708313
    potential(screened) =   -1.977947
       potential(ionic) =   -2.557478

   izeta = 3
                 rmatch =    2.011274
              splitnorm =    0.682547
                 energy =    0.828049
                kinetic =    3.883148
    potential(screened) =   -3.055100
       potential(ionic) =   -3.664655

SPLIT: Orbitals with angular momentum L= 1

SPLIT: Basis orbitals for state 2p
Charge confinement: Q:     5.5000

   izeta = 1
                 lambda =    1.000000
                     rc =    7.962068
                 energy =    1.532669
                kinetic =    2.592838
    potential(screened) =   -1.060169
       potential(ionic) =   -1.592129
atom: Total number of Sankey-type orbitals:  6

atm_pop: Valence configuration (for local Pseudopot. screening):
 1s( 1.00)                                                            
 2p( 0.00)                                                            
Vna: chval, zval:    1.00000   1.00000

Vna:  Cut-off radius for the neutral-atom potential:   7.962068

atom: _________________________________________________________________________

prinput: Basis input 

PAO.BasisType split     

%block ChemicalSpeciesLabel
    1    8 O                       # Species index, atomic number, species label
    2    1 H                       # Species index, atomic number, species label
%endblock ChemicalSpeciesLabel

%block PAO.Basis                 # Define Basis set
# WARNING: This information might be incomplete!
O                     3                    # Species label, number of l-shells
 n=2   0   3                         # n, l, Nzeta 
   8.130      3.563      2.005   
   1.000      1.000      1.000   
 n=2   1   3                         # n, l, Nzeta 
   8.130      3.563      2.005   
   1.000      1.000      1.000   
 n=3   2   1                         # n, l, Nzeta 
   8.130   
   1.000   
H                     2                    # Species label, number of l-shells
 n=1   0   3                         # n, l, Nzeta 
   7.962      3.488      2.011   
   1.000      1.000      1.000   
 n=2   1   1                         # n, l, Nzeta 
   7.962   
   1.000   
%endblock PAO.Basis

prinput: ----------------------------------------------------------------------

Dumping basis to NetCDF file O.ion.nc
Dumping basis to NetCDF file H.ion.nc
coor:   Atomic-coordinates input format  =     Cartesian coordinates
coor:                                          (in Angstroms)

siesta: Atomic coordinates (Bohr) and species
siesta:      0.00000   0.00000   0.00000  1        1
siesta:      1.43052   1.10738   0.00000  2        2
siesta:     -1.43052   1.10738   0.00000  2        3

siesta: System type = chain     

initatomlists: Number of atoms, orbitals, and projectors:      3    29    34

siesta: ******************** Simulation parameters ****************************
siesta:
siesta: The following are some of the parameters of the simulation.
siesta: A complete list of the parameters used, including default values,
siesta: can be found in file out.fdf
siesta:
redata: Spin configuration                          = none
redata: Number of spin components                   = 1
redata: Time-Reversal Symmetry                      = T
redata: Spin spiral                                 = F
redata: Long output                                 =   F
redata: Number of Atomic Species                    =        2
redata: Charge density info will appear in .RHO file
redata: Write Mulliken Pop.                         = NO
redata: Matel table size (NRTAB)                    =     1024
redata: Mesh Cutoff                                 =   100.0000 Ry
redata: Net charge of the system                    =     0.0000 |e|
redata: Min. number of SCF Iter                     =        0
redata: Max. number of SCF Iter                     =        3
redata: SCF mix quantity                            = Hamiltonian
redata: Mix DM or H after convergence               =   F
redata: Recompute H after scf cycle                 =   F
redata: Mix DM in first SCF step                    =   T
redata: Write Pulay info on disk                    =   F
redata: New DM Occupancy tolerance                  = 0.000000000001
redata: No kicks to SCF
redata: DM Mixing Weight for Kicks                  =     0.5000
redata: Require Harris convergence for SCF          =   F
redata: Harris energy tolerance for SCF             =     0.000100 eV
redata: Require DM convergence for SCF              =   T
redata: DM tolerance for SCF                        =     0.000100
redata: Require EDM convergence for SCF             =   F
redata: EDM tolerance for SCF                       =     0.001000 eV
redata: Require H convergence for SCF               =   T
redata: Hamiltonian tolerance for SCF               =     0.001000 eV
redata: Require (free) Energy convergence for SCF   =   F
redata: (free) Energy tolerance for SCF             =     0.000100 eV
redata: Using DFT-D3 dispersion                     =   F
redata: Using Saved Data (generic)                  =   F
redata: Use continuation files for DM               =   F
redata: Neglect nonoverlap interactions             =   F
redata: Method of Calculation                       = Diagonalization
redata: Electronic Temperature                      =   299.9863 K
redata: Fix the spin of the system                  =   F
redata: Max. number of TDED Iter                    =        1
redata: Number of TDED substeps                     =        3
redata: Dynamics option                             = Single-point calculation
mix.SCF: Pulay mixing                            = Pulay
mix.SCF:    Variant                              = stable
mix.SCF:    History steps                        = 2
mix.SCF:    Linear mixing weight                 =     0.250000
mix.SCF:    Mixing weight                        =     0.250000
mix.SCF:    SVD condition                        = 0.1000E-07
redata: Save all siesta data in one NC              =   F
redata: ***********************************************************************

%block SCF.Mixers
  Pulay
%endblock SCF.Mixers

%block SCF.Mixer.Pulay
  # Mixing method
  method pulay
  variant stable

  # Mixing options
  weight 0.2500
  weight.linear 0.2500
  history 2
%endblock SCF.Mixer.Pulay

DM_history_depth set to one: no extrapolation allowed by default for geometry relaxation
Size of DM history Fstack: 1
Total number of electrons:     8.000000
Total ionic charge:     8.000000

siesta: k-grid: Number of k-points = 1
siesta: k-point is Gamma-only

diag: Algorithm                                     = D&C
diag: Used triangular part                          = Lower
diag: Absolute tolerance                            =  0.100E-15
diag: Orthogonalization factor                      =  0.100E-05
diag: Memory factor                                 =  1.0000


ts: **************************************************************
ts: Save H and S matrices                           =    F
ts: Save DM and EDM matrices                        =    F
ts: Only save the overlap matrix S                  =    F
ts: **************************************************************

************************ Begin: TS CHECKS AND WARNINGS ************************
************************ End: TS CHECKS AND WARNINGS **************************


                     ====================================
                        Single-point calculation
                     ====================================

outcell: Unit cell vectors (Ang):
       10.000000    0.000000    0.000000
        0.000000   10.000000    0.000000
        0.000000    0.000000    8.000000

outcell: Cell vector modules (Ang)   :   10.000000   10.000000    8.000000
outcell: Cell angles (23,13,12) (deg):     90.0000     90.0000     90.0000
outcell: Cell volume (Ang**3)        :    800.0000
Gamma-point calculation with interaction between periodic images
Some features might not work optimally:
e.g. DM initialization from atomic data
<dSpData1D:S at geom step 0
  <sparsity:sparsity for geom step 0
    nrows_g=29 nrows=29 sparsity=1.0000 nnzs=841, refcount: 7>
  <dData1D:(new from dSpData1D) n=841, refcount: 1>
refcount: 1>
new_DM -- step:     1
Initializing Density Matrix...
DM filled with atomic data:
<dSpData2D:DM initialized from atoms
  <sparsity:sparsity for geom step 0
    nrows_g=29 nrows=29 sparsity=1.0000 nnzs=841, refcount: 8>
  <dData2D:DM n=841 m=1, refcount: 1>
refcount: 1>
No. of atoms with KB's overlaping orbs in proc 0. Max # of overlaps:       3      29

InitMesh: MESH = 64 x 64 x 50 = 204800
InitMesh: Mesh cutoff (required, used) =   100.000   107.960 Ry
New grid distribution [1]: sub = 2

stepf: Fermi-Dirac step function

siesta: Program's energy decomposition (eV):
siesta: Ebs     =       -61.069472
siesta: Eions   =       815.848070
siesta: Ena     =       186.382949
siesta: Ekin    =       401.707978
siesta: Enl     =       -76.283682
siesta: Eso     =         0.000000
siesta: Edftu   =         0.000000
siesta: DEna    =       -45.776387
siesta: DUscf   =         6.783711
siesta: DUext   =         0.000000
siesta: Ex      =      -107.873718
siesta: Ec      =       -12.937740
siesta: Exc     =      -120.811459
siesta: EbV     =         0.000000
siesta: eta*DQ  =         0.000000
siesta: Emadel  =         0.000000
siesta: Emeta   =         0.000000
siesta: Emolmec =         0.000000
siesta: Ekinion =         0.000000
siesta: Eharris =      -459.373410
siesta: Etot    =      -463.844960
siesta: FreeEng =      -463.844960

        iscf     Eharris(eV)        E_KS(eV)     FreeEng(eV)     dDmax    Ef(eV) dHmax(eV)
   scf:    1     -459.373410     -463.844960     -463.844960  0.990053 -9.160945 15.870906
timer: Routine,Calls,Time,% = IterSCF        1       0.029   1.55
   scf:    2     -468.607685     -466.669033     -466.669033  0.686783 -6.500853  5.876096
   scf:    3     -467.097112     -467.047640     -467.047640  0.579250 -4.770913  0.684081
SCF_NOT_CONV: SCF did not converge  in maximum number of steps.
Geom step, scf iteration, dmax:    0     3     0.050279

Using DM_out to compute the final energy and forces
No. of atoms with KB's overlaping orbs in proc 0. Max # of overlaps:       3      29

siesta: E_KS(eV) =             -467.0476

siesta: E_KS - E_eggbox =      -467.0476

siesta: Atomic forces (eV/Ang):
----------------------------------------
   Tot    0.000000   -0.046251    0.000000
----------------------------------------
   Max    0.969836
   Res    0.509919    sqrt( Sum f_i^2 / 3N )
----------------------------------------
   Max    0.969836    constrained

Stress tensor Voigt[x,y,z,yz,xz,xy] (kbar):       -2.15       -1.18       -0.32        0.00        0.00        0.00
(Free)E + p*V (eV/cell)     -466.4394
Target enthalpy (eV/cell)     -467.0476

siesta: Program's energy decomposition (eV):
siesta: Ebs     =      -112.042446
siesta: Eions   =       815.848070
siesta: Ena     =       186.382949
siesta: Ekin    =       347.639095
siesta: Enl     =       -62.670152
siesta: Eso     =         0.000000
siesta: Edftu   =         0.000000
siesta: DEna    =       -12.090888
siesta: DUscf   =         1.497477
siesta: DUext   =         0.000000
siesta: Ex      =       -99.430405
siesta: Ec      =       -12.527646
siesta: Exc     =      -111.958051
siesta: EbV     =         0.000000
siesta: eta*DQ  =         0.000000
siesta: Emadel  =         0.000000
siesta: Emeta   =         0.000000
siesta: Emolmec =         0.000000
siesta: Ekinion =         0.000000
siesta: Eharris =      -467.097112
siesta: Etot    =      -467.047640
siesta: FreeEng =      -467.047640

siesta: Final energy (eV):
siesta:  Band Struct. =    -112.042446
siesta:       Kinetic =     347.639095
siesta:       Hartree =     443.270052
siesta:         Edftu =       0.000000
siesta:       Eso     =       0.000000
siesta:    Ext. field =       0.000000
siesta:         Exch. =     -99.430405
siesta:         Corr. =     -12.527646
siesta:     Bulk bias =       0.000000
siesta:   Exch.-corr. =    -111.958051
siesta:  Ion-electron =   -1199.535737
siesta:       Ion-ion =      53.537001
siesta:       Ekinion =       0.000000
siesta: D3 dispersion =       0.000000
siesta:         Total =    -467.047640
siesta:         Fermi =      -4.770913

siesta: Atomic forces (eV/Ang):
siesta:      1    0.000000   -0.969836    0.000000
siesta:      2    0.697521    0.461793   -0.000000
siesta:      3   -0.697521    0.461793   -0.000000
siesta: ----------------------------------------
siesta:    Tot    0.000000   -0.046251    0.000000

siesta: Stress tensor (static) (eV/Ang**3):
siesta:    -0.001344   -0.000000    0.000000
siesta:     0.000000   -0.000735    0.000000
siesta:     0.000000    0.000000   -0.000203

siesta: Cell volume =        800.000000 Ang**3

siesta: Pressure (static):
siesta:                Solid            Molecule  Units
siesta:           0.00000828          0.00000095  Ry/Bohr**3
siesta:           0.00076033          0.00008728  eV/Ang**3
siesta:           1.21818708          0.13983066  kBar
(Free)E+ p_basis*V_orbitals  =        -464.073354
(Free)Eharris+ p_basis*V_orbitals  =        -464.122826

siesta: Electric dipole (a.u.)  =   -0.000000    0.770460    0.000000
siesta: Electric dipole (Debye) =   -0.000000    1.958313    0.000000

cite: Please see "charge_confinement.bib" for an exhaustive BiBTeX file.
cite: Please clearly indicate Siesta version in published work: 5.0.0-alpha-120-g24fa496ce-dirty
cite: This calculation has made use of the following articles
cite: which are encouraged to be cited in a published work.
        Primary SIESTA paper
          DOI: www.doi.org/10.1088/0953-8984/14/11/302


timer: Elapsed wall time (sec) =       2.011
timer: CPU execution times (sec):

Routine            Calls   Time/call    Tot.time        %
siesta                 1       2.011       2.011   100.00
Setup                  1       0.039       0.039     1.94
bands                  1       0.000       0.000     0.00
KSV_init               1       0.000       0.000     0.00
IterGeom               1       1.972       1.972    98.04
geom_init              1       1.782       1.782    88.58
state_init             1       0.234       0.234    11.61
hsparse                1       0.000       0.000     0.00
overlap                1       0.233       0.233    11.59
Setup_H0               1       1.520       1.520    75.55
naefs                  2       0.000       0.000     0.01
MolMec                 2       0.000       0.000     0.00
kinefsm                2       0.114       0.228    11.35
nlefsm                 2       0.609       1.217    60.52
DHSCF_Init             1       0.075       0.075     3.71
DHSCF1                 1       0.008       0.008     0.39
INITMESH               1       0.000       0.000     0.00
DHSCF2                 1       0.067       0.067     3.32
REMESH                 1       0.004       0.004     0.21
REORD                 18       0.000       0.003     0.15
PHION                  1       0.047       0.047     2.35
COMM_BSC              23       0.000       0.003     0.15
POISON                 6       0.006       0.037     1.86
fft                   12       0.003       0.030     1.50
setup_H                4       0.029       0.115     5.71
DHSCF                  5       0.043       0.216    10.75
DHSCF3                 5       0.029       0.144     7.15
rhoofd                 5       0.007       0.035     1.75
XC                     5       0.008       0.042     2.07
GXC-CellXC             5       0.008       0.040     1.97
vmat                   5       0.005       0.027     1.34
IterSCF                3       0.029       0.088     4.36
compute_dm             3       0.000       0.001     0.04
diagon                 3       0.000       0.001     0.04
r-eigvec               3       0.000       0.001     0.04
r-buildHS              3       0.000       0.000     0.00
rdiag                  3       0.000       0.001     0.04
rdiag1                 3       0.000       0.000     0.00
rdiag2                 3       0.000       0.000     0.00
rdiag3                 3       0.000       0.001     0.03
rdiag4                 3       0.000       0.000     0.00
r-buildD               3       0.000       0.000     0.00
MIXER                  3       0.000       0.000     0.00
PostSCF                1       0.102       0.102     5.09
DHSCF4                 1       0.072       0.072     3.60
dfscf                  1       0.063       0.063     3.15
overfsm                1       0.000       0.000     0.01
state_analysis         1       0.000       0.000     0.01
siesta_move            1       0.000       0.000     0.00
Analysis               1       0.000       0.000     0.01
optical                1       0.000       0.000     0.00
  

>> End of run:  25-SEP-2023   9:43:34
Job completed
