Siesta Version  : 5.0.0-alpha-120-g24fa496ce-dirty
Architecture    : ----
Compiler version: GNU-11.4.0
Compiler flags  : -fallow-argument-mismatch;-O3 -march=native
PP flags        : ----
Libraries       : ----
Parallelisations: none
GEMM3M support
NetCDF support
NetCDF-4 support
Lua support

Runtime information:
* Directory : /home/fnpedron/Siesta/siesta-dev/Tests/13.MiscOptions/work/gate_charge
* Running in serial mode.
>> Start of run:  25-SEP-2023   9:47:48

                           *********************** 
                           *  WELCOME TO SIESTA  * 
                           *********************** 

reinit: Reading from standard input
reinit: Dumping input in INPUT_TMP.17724
************************** Dump of input data file ****************************
%include ../../basejob.fdf
SystemLabel     gate_charge
Slab.DipoleCorrection True
%block Geometry.Charge
 plane -0.001 charge
  gauss 1. 2. Ang
   0. 20. 0. Ang
   0.  1. 0.
%endblock Geometry.Charge
************************** End of input data file *****************************

reinit: -----------------------------------------------------------------------
reinit: System Name: 2 Water molecules
reinit: -----------------------------------------------------------------------
reinit: System Label: gate_charge
reinit: -----------------------------------------------------------------------

initatom: Reading input for the pseudopotentials and atomic orbitals ----------
Species number:   1 Atomic number:    8 Label: O
Species number:   2 Atomic number:    1 Label: H


---- Processing specs for species: O
Ground state valence configuration:   2s02  2p04
Reading pseudopotential information in formatted form from:
  /home/fnpedron/Siesta/siesta-dev/Tests/Pseudos/O.psf

---- Processing specs for species: H
Ground state valence configuration:   1s01
Reading pseudopotential information in formatted form from:
  /home/fnpedron/Siesta/siesta-dev/Tests/Pseudos/H.psf

---- Pseudopotential check for O 

Pseudized shells:
2s( 2.00) rc: 1.14
2p( 4.00) rc: 1.14
3d( 0.00) rc: 1.14
4f( 0.00) rc: 1.14
Valence configuration for ps generation: (assumed as above)

---- Pseudopotential check for H 

Pseudized shells:
1s( 1.00) rc: 1.25
2p( 0.00) rc: 1.25
3d( 0.00) rc: 1.25
4f( 0.00) rc: 1.25
Valence configuration for ps generation: (assumed as above)
For O, standard SIESTA heuristics set lmxkb to 3
 (one more than the basis l, including polarization orbitals).
Use PS.lmax or PS.KBprojectors blocks to override.
For H, standard SIESTA heuristics set lmxkb to 2
 (one more than the basis l, including polarization orbitals).
Use PS.lmax or PS.KBprojectors blocks to override.

<basis_specs>
===============================================================================
O                    Z=   8    Mass=  15.999        Charge= 0.17977+309
Lmxo=2 Lmxkb= 3    BasisType=split      Semic=F
L=0  Nsemic=0  Cnfigmx=2
          i=1  nzeta=1  polorb=0  (2s)
            splnorm:   0.15000    
               vcte:    0.0000    
               rinn:    0.0000    
               qcoe:    0.0000    
               qyuk:    0.0000    
               qwid:   0.10000E-01
                rcs:    0.0000    
            lambdas:    1.0000    
L=1  Nsemic=0  Cnfigmx=2
          i=1  nzeta=1  polorb=1  (2p)  (to be polarized perturbatively)
            splnorm:   0.15000    
               vcte:    0.0000    
               rinn:    0.0000    
               qcoe:    0.0000    
               qyuk:    0.0000    
               qwid:   0.10000E-01
                rcs:    0.0000    
            lambdas:    1.0000    
L=2  Nsemic=0  Cnfigmx=3
          i=1  nzeta=0  polorb=0  (3d)  (perturbative polarization orbital) (from 2p)
-------------------------------------------------------------------------------
L=0  Nkbl=1  erefs: 0.17977+309
L=1  Nkbl=1  erefs: 0.17977+309
L=2  Nkbl=1  erefs: 0.17977+309
L=3  Nkbl=1  erefs: 0.17977+309
===============================================================================
</basis_specs>

atom: Called for O                     (Z =   8)

read_vps: Pseudopotential generation method:
read_vps: ATM3      Troullier-Martins                       
Valence charge in pseudo generation:    6.00000

xc_check: Exchange-correlation functional:
xc_check: Ceperley-Alder
V l=0 = -2*Zval/r beyond r=  1.1278
V l=1 = -2*Zval/r beyond r=  1.1278
V l=2 = -2*Zval/r beyond r=  1.1278
V l=3 = -2*Zval/r beyond r=  1.1138
All V_l potentials equal beyond r=  1.1278
This should be close to max(r_c) in ps generation
All pots = -2*Zval/r beyond r=  1.1278
Using small-core scheme (local charge) for Vlocal

VLOCAL_FROM_CHLOCAL: 99.0% of the norm of Vloc inside     34.126 Ry
VLOCAL_FROM_CHLOCAL: 99.9% of the norm of Vloc inside     77.774 Ry
atom: Maximum radius for chlocal:    1.37759
atom: Maximum radius for r*vlocal+2*Zval:    1.24646

KBgen: Kleinman-Bylander projectors: 
GHOST: No ghost state for L =  0
   l= 0   rc=  1.294105   el= -1.742414   Ekb=  9.135903   kbcos=  0.326910
GHOST: No ghost state for L =  1
   l= 1   rc=  1.294105   el= -0.676589   Ekb= -8.124878   kbcos= -0.395047
GHOST: No ghost state for L =  2
   l= 2   rc=  1.448233   el=  0.002386   Ekb= -2.039267   kbcos= -0.003484
GHOST: No ghost state for L =  3
   l= 3   rc=  1.561052   el=  0.003508   Ekb= -0.799141   kbcos= -0.000344

KBgen: Total number of Kleinman-Bylander projectors:  16
atom: -------------------------------------------------------------------------

atom: SANKEY-TYPE ORBITALS:

SPLIT: Orbitals with angular momentum L= 0

SPLIT: Basis orbitals for state 2s

SPLIT: PAO cut-off radius determined from an
SPLIT: energy shift=  0.020000 Ry

   izeta = 1
                 lambda =    1.000000
                     rc =    3.305093
                 energy =   -1.723766
                kinetic =    1.614911
    potential(screened) =   -3.338677
       potential(ionic) =  -11.304675

SPLIT: Orbitals with angular momentum L= 1

SPLIT: Basis orbitals for state 2p

SPLIT: PAO cut-off radius determined from an
SPLIT: energy shift=  0.020000 Ry

   izeta = 1
                 lambda =    1.000000
                     rc =    3.937239
                 energy =   -0.658841
                kinetic =    5.005986
    potential(screened) =   -5.664827
       potential(ionic) =  -13.452360

POLgen: Perturbative polarization orbital with L=  2

POLgen: Polarization orbital for state 2p

   izeta = 1
                     rc =    3.937239
                 energy =    2.398520
                kinetic =    4.716729
    potential(screened) =   -2.318209
       potential(ionic) =   -8.603170
atom: Total number of Sankey-type orbitals:  9

atm_pop: Valence configuration (for local Pseudopot. screening):
 2s( 2.00)                                                            
 2p( 4.00)                                                            
 3d( 0.00)                                                            
Vna: chval, zval:    6.00000   6.00000

Vna:  Cut-off radius for the neutral-atom potential:   3.937239

atom: _________________________________________________________________________

<basis_specs>
===============================================================================
H                    Z=   1    Mass=  1.0080        Charge= 0.17977+309
Lmxo=1 Lmxkb= 2    BasisType=split      Semic=F
L=0  Nsemic=0  Cnfigmx=1
          i=1  nzeta=1  polorb=1  (1s)  (to be polarized perturbatively)
            splnorm:   0.15000    
               vcte:    0.0000    
               rinn:    0.0000    
               qcoe:    0.0000    
               qyuk:    0.0000    
               qwid:   0.10000E-01
                rcs:    0.0000    
            lambdas:    1.0000    
L=1  Nsemic=0  Cnfigmx=2
          i=1  nzeta=0  polorb=0  (2p)  (perturbative polarization orbital) (from 1s)
-------------------------------------------------------------------------------
L=0  Nkbl=1  erefs: 0.17977+309
L=1  Nkbl=1  erefs: 0.17977+309
L=2  Nkbl=1  erefs: 0.17977+309
===============================================================================
</basis_specs>

atom: Called for H                     (Z =   1)

read_vps: Pseudopotential generation method:
read_vps: ATM3      Troullier-Martins                       
Valence charge in pseudo generation:    1.00000

xc_check: Exchange-correlation functional:
xc_check: Ceperley-Alder
V l=0 = -2*Zval/r beyond r=  1.2343
V l=1 = -2*Zval/r beyond r=  1.2189
V l=2 = -2*Zval/r beyond r=  1.2189
All V_l potentials equal beyond r=  1.2343
This should be close to max(r_c) in ps generation
All pots = -2*Zval/r beyond r=  1.2343
Using small-core scheme (local charge) for Vlocal

VLOCAL_FROM_CHLOCAL: 99.0% of the norm of Vloc inside     28.493 Ry
VLOCAL_FROM_CHLOCAL: 99.9% of the norm of Vloc inside     64.935 Ry
atom: Maximum radius for chlocal:    1.45251
atom: Maximum radius for r*vlocal+2*Zval:    1.31405

KBgen: Kleinman-Bylander projectors: 
GHOST: No ghost state for L =  0
   l= 0   rc=  1.364359   el= -0.467325   Ekb= -2.005361   kbcos= -0.336422
GHOST: No ghost state for L =  1
   l= 1   rc=  1.434438   el=  0.001430   Ekb= -0.501708   kbcos= -0.021697
GHOST: No ghost state for L =  2
   l= 2   rc=  1.470814   el=  0.002365   Ekb= -0.190555   kbcos= -0.002281

KBgen: Total number of Kleinman-Bylander projectors:   9
atom: -------------------------------------------------------------------------

atom: SANKEY-TYPE ORBITALS:

SPLIT: Orbitals with angular momentum L= 0

SPLIT: Basis orbitals for state 1s

SPLIT: PAO cut-off radius determined from an
SPLIT: energy shift=  0.020000 Ry

   izeta = 1
                 lambda =    1.000000
                     rc =    4.828263
                 energy =   -0.449375
                kinetic =    0.929372
    potential(screened) =   -1.378747
       potential(ionic) =   -1.915047

POLgen: Perturbative polarization orbital with L=  1

POLgen: Polarization orbital for state 1s

   izeta = 1
                     rc =    4.828263
                 energy =    0.706972
                kinetic =    1.396397
    potential(screened) =   -0.689424
       potential(ionic) =   -1.169792
atom: Total number of Sankey-type orbitals:  4

atm_pop: Valence configuration (for local Pseudopot. screening):
 1s( 1.00)                                                            
 2p( 0.00)                                                            
Vna: chval, zval:    1.00000   1.00000

Vna:  Cut-off radius for the neutral-atom potential:   4.828263

atom: _________________________________________________________________________

prinput: Basis input 

PAO.BasisType split     

%block ChemicalSpeciesLabel
    1    8 O                       # Species index, atomic number, species label
    2    1 H                       # Species index, atomic number, species label
%endblock ChemicalSpeciesLabel

%block PAO.Basis                 # Define Basis set
# WARNING: This information might be incomplete!
O                     2                    # Species label, number of l-shells
 n=2   0   1                         # n, l, Nzeta 
   3.305   
   1.000   
 n=2   1   1 P   1                   # n, l, Nzeta, Polarization, NzetaPol
   3.937   
   1.000   
H                     1                    # Species label, number of l-shells
 n=1   0   1 P   1                   # n, l, Nzeta, Polarization, NzetaPol
   4.828   
   1.000   
%endblock PAO.Basis

prinput: ----------------------------------------------------------------------

Dumping basis to NetCDF file O.ion.nc
Dumping basis to NetCDF file H.ion.nc
coor:   Atomic-coordinates input format  =     Cartesian coordinates
coor:                                          (in Angstroms)

siesta: Atomic coordinates (Bohr) and species
siesta:      0.00000   0.00000   0.00000  1        1
siesta:      1.43052   1.10738   0.00000  2        2
siesta:     -1.43052   1.10738   0.00000  2        3
siesta:      0.00000   9.44863   0.00000  1        4
siesta:      1.43052   8.34125   0.00000  2        5
siesta:     -1.43052   8.34125   0.00000  2        6

siesta: System type = slab      

initatomlists: Number of atoms, orbitals, and projectors:      6    34    68

siesta: ******************** Simulation parameters ****************************
siesta:
siesta: The following are some of the parameters of the simulation.
siesta: A complete list of the parameters used, including default values,
siesta: can be found in file out.fdf
siesta:
redata: Spin configuration                          = none
redata: Number of spin components                   = 1
redata: Time-Reversal Symmetry                      = T
redata: Spin spiral                                 = F
redata: Long output                                 =   F
redata: Number of Atomic Species                    =        2
redata: Charge density info will appear in .RHO file
redata: Write Mulliken Pop.                         = NO
redata: Matel table size (NRTAB)                    =     1024
redata: Mesh Cutoff                                 =   300.0000 Ry
redata: Net charge of the system                    =     0.0000 |e|
redata: Min. number of SCF Iter                     =        0
redata: Max. number of SCF Iter                     =     1000
redata: SCF convergence failure will abort job
redata: SCF mix quantity                            = Hamiltonian
redata: Mix DM or H after convergence               =   F
redata: Recompute H after scf cycle                 =   F
redata: Mix DM in first SCF step                    =   T
redata: Write Pulay info on disk                    =   F
redata: New DM Occupancy tolerance                  = 0.000000000001
redata: No kicks to SCF
redata: DM Mixing Weight for Kicks                  =     0.5000
redata: Require Harris convergence for SCF          =   F
redata: Harris energy tolerance for SCF             =     0.000100 eV
redata: Require DM convergence for SCF              =   T
redata: DM tolerance for SCF                        =     0.000100
redata: Require EDM convergence for SCF             =   F
redata: EDM tolerance for SCF                       =     0.001000 eV
redata: Require H convergence for SCF               =   T
redata: Hamiltonian tolerance for SCF               =     0.001000 eV
redata: Require (free) Energy convergence for SCF   =   F
redata: (free) Energy tolerance for SCF             =     0.000100 eV
redata: Using DFT-D3 dispersion                     =   F
redata: Using Saved Data (generic)                  =   F
redata: Use continuation files for DM               =   F
redata: Neglect nonoverlap interactions             =   F
redata: Method of Calculation                       = Diagonalization
redata: Electronic Temperature                      =   299.9863 K
redata: Fix the spin of the system                  =   F
redata: Max. number of TDED Iter                    =        1
redata: Number of TDED substeps                     =        3
redata: Dynamics option                             = Single-point calculation
mix.SCF: Pulay mixing                            = Pulay
mix.SCF:    Variant                              = stable
mix.SCF:    History steps                        = 2
mix.SCF:    Linear mixing weight                 =     0.250000
mix.SCF:    Mixing weight                        =     0.250000
mix.SCF:    SVD condition                        = 0.1000E-07
redata: Save all siesta data in one NC              =   F
redata: ***********************************************************************

%block SCF.Mixers
  Pulay
%endblock SCF.Mixers

%block SCF.Mixer.Pulay
  # Mixing method
  method pulay
  variant stable

  # Mixing options
  weight 0.2500
  weight.linear 0.2500
  history 2
%endblock SCF.Mixer.Pulay

DM_history_depth set to one: no extrapolation allowed by default for geometry relaxation
Size of DM history Fstack: 1
Total number of electrons:    16.001000
Total ionic charge:    16.000000
madelung: WARNING: Charged system, but not an atom or molecule.
madelung: WARNING: Energy correction terms can not be applied. 
madelung: WARNING: Continue only if you really know what you are doing.

siesta: k-grid: Number of k-points = 1
siesta: k-point is Gamma-only

diag: Algorithm                                     = D&C
diag: Used triangular part                          = Lower
diag: Absolute tolerance                            =  0.100E-15
diag: Orthogonalization factor                      =  0.100E-05
diag: Memory factor                                 =  1.0000


ts: **************************************************************
ts: Save H and S matrices                           =    F
ts: Save DM and EDM matrices                        =    F
ts: Only save the overlap matrix S                  =    F
ts: **************************************************************

************************ Begin: TS CHECKS AND WARNINGS ************************
************************ End: TS CHECKS AND WARNINGS **************************


                     ====================================
                        Single-point calculation
                     ====================================

outcell: Unit cell vectors (Ang):
        3.000000    0.000000    0.000000
        0.000000   30.000000    0.000000
        0.000000    0.000000    5.000000

outcell: Cell vector modules (Ang)   :    3.000000   30.000000    5.000000
outcell: Cell angles (23,13,12) (deg):     90.0000     90.0000     90.0000
outcell: Cell volume (Ang**3)        :    450.0000
Gamma-point calculation with interaction between periodic images
Some features might not work optimally:
e.g. DM initialization from atomic data
<dSpData1D:S at geom step 0
  <sparsity:sparsity for geom step 0
    nrows_g=34 nrows=34 sparsity=.8322 nnzs=962, refcount: 7>
  <dData1D:(new from dSpData1D) n=962, refcount: 1>
refcount: 1>
new_DM -- step:     1
Initializing Density Matrix...
DM filled with atomic data:
<dSpData2D:DM initialized from atoms
  <sparsity:sparsity for geom step 0
    nrows_g=34 nrows=34 sparsity=.8322 nnzs=962, refcount: 8>
  <dData2D:DM n=962 m=1, refcount: 1>
refcount: 1>
No. of atoms with KB's overlaping orbs in proc 0. Max # of overlaps:       6      38

InitMesh: MESH = 32 x 320 x 54 = 552960
InitMesh: Mesh cutoff (required, used) =   300.000   314.456 Ry
New grid distribution [1]: sub = 2

Geometric charge distributions:
   Infinite Gauss-plane   adding -0.10000E-02 e divided in 74304 grid points


dipole: A dipole layer will be introduced in the vacuum
dipole: region to compensate the system dipole
Dipole moment in unit cell =      -0.0000      -0.0602      -0.0000 D
Electric field for dipole correction =     0.000000     0.005043     0.000000 eV/Ang/e

stepf: Fermi-Dirac step function
Dipole moment in unit cell =      -0.0000      -0.0539      -0.0000 D
Electric field for dipole correction =     0.000000     0.004512     0.000000 eV/Ang/e

siesta: Program's energy decomposition (eV):
siesta: Ebs     =      -219.359659
siesta: Eions   =      1631.696139
siesta: Ena     =       349.727571
siesta: Ekin    =       734.627717
siesta: Enl     =      -132.785208
siesta: Eso     =         0.000000
siesta: Edftu   =         0.000000
siesta: DEna    =       -18.599929
siesta: DUscf   =         3.881718
siesta: DUext   =         0.000025
siesta: Ex      =      -204.531104
siesta: Ec      =       -25.389291
siesta: Exc     =      -229.920395
siesta: EbV     =         0.000000
siesta: eta*DQ  =         0.000000
siesta: Emadel  =         0.000000
siesta: Emeta   =         0.000000
siesta: Emolmec =         0.000000
siesta: Ekinion =         0.000000
siesta: Eharris =      -918.482192
siesta: Etot    =      -924.764640
siesta: FreeEng =      -924.764863

        iscf     Eharris(eV)        E_KS(eV)     FreeEng(eV)     dDmax    Ef(eV) dHmax(eV)
   scf:    1     -918.482192     -924.764640     -924.764863  0.606797 -1.501778  2.467665
timer: Routine,Calls,Time,% = IterSCF        1       0.061   7.98
Dipole moment in unit cell =      -0.0000      -0.0625      -0.0000 D
Electric field for dipole correction =     0.000000     0.005231     0.000000 eV/Ang/e
   scf:    2     -902.219578     -918.732597     -918.732820  0.548922 -3.146847  6.026765
Dipole moment in unit cell =      -0.0000      -0.0558      -0.0000 D
Electric field for dipole correction =     0.000000     0.004675     0.000000 eV/Ang/e
   scf:    3     -927.837695     -926.148227     -926.148450  0.410531 -2.256806  0.525441
Dipole moment in unit cell =      -0.0000      -0.0564      -0.0000 D
Electric field for dipole correction =     0.000000     0.004721     0.000000 eV/Ang/e
   scf:    4     -926.186430     -926.173097     -926.173320  0.018051 -2.432611  0.226047
Dipole moment in unit cell =      -0.0000      -0.0566      -0.0000 D
Electric field for dipole correction =     0.000000     0.004741     0.000000 eV/Ang/e
   scf:    5     -926.177711     -926.175701     -926.175923  0.003601 -2.564893  0.119367
Dipole moment in unit cell =      -0.0000      -0.0567      -0.0000 D
Electric field for dipole correction =     0.000000     0.004744     0.000000 eV/Ang/e
   scf:    6     -926.177425     -926.176615     -926.176838  0.002994 -2.644310  0.035402
Dipole moment in unit cell =      -0.0000      -0.0567      -0.0000 D
Electric field for dipole correction =     0.000000     0.004743     0.000000 eV/Ang/e
   scf:    7     -926.176923     -926.176780     -926.177002  0.001037 -2.669737  0.017348
Dipole moment in unit cell =      -0.0000      -0.0566      -0.0000 D
Electric field for dipole correction =     0.000000     0.004742     0.000000 eV/Ang/e
   scf:    8     -926.176860     -926.176821     -926.177043  0.000426 -2.681204  0.010676
Dipole moment in unit cell =      -0.0000      -0.0566      -0.0000 D
Electric field for dipole correction =     0.000000     0.004742     0.000000 eV/Ang/e
   scf:    9     -926.176846     -926.176834     -926.177056  0.000363 -2.690394  0.004248
Dipole moment in unit cell =      -0.0000      -0.0566      -0.0000 D
Electric field for dipole correction =     0.000000     0.004742     0.000000 eV/Ang/e
   scf:   10     -926.176834     -926.176834     -926.177057  0.000042 -2.690784  0.002824
Dipole moment in unit cell =      -0.0000      -0.0566      -0.0000 D
Electric field for dipole correction =     0.000000     0.004742     0.000000 eV/Ang/e
   scf:   11     -926.176834     -926.176834     -926.177057  0.000024 -2.690439  0.001346
Dipole moment in unit cell =      -0.0000      -0.0566      -0.0000 D
Electric field for dipole correction =     0.000000     0.004742     0.000000 eV/Ang/e
   scf:   12     -926.176834     -926.176834     -926.177057  0.000019 -2.689922  0.000741

SCF Convergence by DM+H criterion
max |DM_out - DM_in|         :     0.0000194628
max |H_out - H_in|      (eV) :     0.0007412103
SCF cycle converged after 12 iterations

Using DM_out to compute the final energy and forces
No. of atoms with KB's overlaping orbs in proc 0. Max # of overlaps:       6      38
Dipole moment in unit cell =      -0.0000      -0.0566      -0.0000 D
Electric field for dipole correction =     0.000000     0.004742     0.000000 eV/Ang/e

siesta: E_KS(eV) =             -926.1768

siesta: E_KS - E_eggbox =      -926.1768

siesta: Atomic forces (eV/Ang):
----------------------------------------
   Tot    0.000000    0.000564   -0.000000
----------------------------------------
   Max    2.312980
   Res    0.959816    sqrt( Sum f_i^2 / 3N )
----------------------------------------
   Max    2.312980    constrained

Stress tensor Voigt[x,y,z,yz,xz,xy] (kbar):      -49.18       -9.30       -0.05        0.00       -0.00        0.00
(Free)E + p*V (eV/cell)     -920.6984
Target enthalpy (eV/cell)     -926.1771

siesta: Program's energy decomposition (eV):
siesta: Ebs     =      -238.360404
siesta: Eions   =      1631.696139
siesta: Ena     =       349.727571
siesta: Ekin    =       699.134123
siesta: Enl     =      -122.401735
siesta: Eso     =         0.000000
siesta: Edftu   =         0.000000
siesta: DEna    =         1.672128
siesta: DUscf   =         1.465792
siesta: DUext   =         0.000028
siesta: Ex      =      -198.955159
siesta: Ec      =       -25.123444
siesta: Exc     =      -224.078603
siesta: EbV     =         0.000000
siesta: eta*DQ  =         0.000000
siesta: Emadel  =         0.000000
siesta: Emeta   =         0.000000
siesta: Emolmec =         0.000000
siesta: Ekinion =         0.000000
siesta: Eharris =      -926.176834
siesta: Etot    =      -926.176834
siesta: FreeEng =      -926.177057

siesta: Final energy (eV):
siesta:  Band Struct. =    -238.360404
siesta:       Kinetic =     699.134123
siesta:       Hartree =    2607.954400
siesta:         Edftu =       0.000000
siesta:       Eso     =       0.000000
siesta:    Ext. field =       0.000028
siesta:         Exch. =    -198.955159
siesta:         Corr. =     -25.123444
siesta:     Bulk bias =       0.000000
siesta:   Exch.-corr. =    -224.078603
siesta:  Ion-electron =   -5859.825377
siesta:       Ion-ion =    1850.638594
siesta:       Ekinion =       0.000000
siesta: D3 dispersion =       0.000000
siesta:         Total =    -926.176834
siesta:         Fermi =      -2.689922

siesta: Atomic forces (eV/Ang):
siesta:      1    0.000000   -2.312980    0.000000
siesta:      2    0.321924    1.169660   -0.000000
siesta:      3   -0.321924    1.169660   -0.000000
siesta:      4    0.000000    2.309930    0.000000
siesta:      5    0.335813   -1.167853   -0.000000
siesta:      6   -0.335813   -1.167853   -0.000000
siesta: ----------------------------------------
siesta:    Tot    0.000000    0.000564   -0.000000

siesta: Stress tensor (static) (eV/Ang**3):
siesta:    -0.030693    0.000000    0.000000
siesta:     0.000000   -0.005802   -0.000000
siesta:    -0.000000    0.000000   -0.000029

siesta: Cell volume =        450.000000 Ang**3

siesta: Pressure (static):
siesta:                Solid            Molecule  Units
siesta:           0.00013260          0.00010352  Ry/Bohr**3
siesta:           0.01217482          0.00950438  eV/Ang**3
siesta:          19.50620502         15.22769549  kBar
(Free)E+ p_basis*V_orbitals  =        -925.234231
(Free)Eharris+ p_basis*V_orbitals  =        -925.234231

siesta: Electric dipole (a.u.)  =   -0.000000   -0.022287   -0.000000
siesta: Electric dipole (Debye) =   -0.000000   -0.056647   -0.000000

cite: Please see "gate_charge.bib" for an exhaustive BiBTeX file.
cite: Please clearly indicate Siesta version in published work: 5.0.0-alpha-120-g24fa496ce-dirty
cite: This calculation has made use of the following articles
cite: which are encouraged to be cited in a published work.
        Primary SIESTA paper
          DOI: www.doi.org/10.1088/0953-8984/14/11/302
        Slab-dipole correction
          DOI: www.doi.org/10.1103/PhysRevB.59.12301
        Charge/Hartree gate model
          DOI: www.doi.org/10.1039/C5CP04613K


timer: Elapsed wall time (sec) =       1.695
timer: CPU execution times (sec):

Routine            Calls   Time/call    Tot.time        %
siesta                 1       1.692       1.692   100.00
Setup                  1       0.034       0.034     2.01
bands                  1       0.000       0.000     0.00
KSV_init               1       0.000       0.000     0.00
IterGeom               1       1.657       1.657    97.96
geom_init              1       0.674       0.674    39.85
state_init             1       0.049       0.049     2.91
hsparse                1       0.000       0.000     0.01
overlap                1       0.049       0.049     2.88
Setup_H0               1       0.566       0.566    33.44
naefs                  2       0.000       0.000     0.02
MolMec                 2       0.000       0.000     0.00
kinefsm                2       0.023       0.047     2.76
nlefsm                 2       0.202       0.404    23.89
DHSCF_Init             1       0.116       0.116     6.87
DHSCF1                 1       0.013       0.013     0.80
INITMESH               1       0.000       0.000     0.00
DHSCF2                 1       0.103       0.103     6.06
REMESH                 1       0.006       0.006     0.38
REORD                 36       0.000       0.017     1.02
PHION                  1       0.065       0.065     3.84
COMM_BSC              59       0.000       0.023     1.36
POISON                15       0.013       0.202    11.96
fft                   30       0.005       0.142     8.41
setup_H               13       0.061       0.789    46.61
DHSCF                 14       0.074       1.034    61.12
DHSCF3                14       0.061       0.848    50.12
rhoofd                14       0.013       0.184    10.90
XC                    14       0.013       0.183    10.81
GXC-CellXC            14       0.011       0.161     9.51
vmat                  14       0.009       0.128     7.59
IterSCF               12       0.061       0.733    43.32
compute_dm            12       0.000       0.002     0.13
diagon                12       0.000       0.002     0.13
r-eigvec              12       0.000       0.002     0.11
r-buildHS             12       0.000       0.000     0.00
rdiag                 12       0.000       0.002     0.10
rdiag1                12       0.000       0.000     0.02
rdiag2                12       0.000       0.000     0.01
rdiag3                12       0.000       0.001     0.06
rdiag4                12       0.000       0.000     0.00
r-buildD              12       0.000       0.000     0.02
MIXER                 11       0.000       0.000     0.01
PostSCF                1       0.250       0.250    14.77
DHSCF4                 1       0.186       0.186    10.99
dfscf                  1       0.169       0.169     9.96
overfsm                1       0.000       0.000     0.03
state_analysis         1       0.000       0.000     0.01
siesta_move            1       0.000       0.000     0.00
Analysis               1       0.000       0.000     0.01
optical                1       0.000       0.000     0.00
  

>> End of run:  25-SEP-2023   9:47:49
Job completed
