Siesta Version  : 5.0.0-alpha-120-g24fa496ce-dirty
Architecture    : ----
Compiler version: GNU-11.4.0
Compiler flags  : -fallow-argument-mismatch;-O3 -march=native
PP flags        : ----
Libraries       : ----
Parallelisations: none
GEMM3M support
NetCDF support
NetCDF-4 support
Lua support

Runtime information:
* Directory : /home/fnpedron/Siesta/siesta-dev/Tests/13.MiscOptions/work/net_charge_dope
* Running in serial mode.
>> Start of run:  25-SEP-2023   9:47:54

                           *********************** 
                           *  WELCOME TO SIESTA  * 
                           *********************** 

reinit: Reading from standard input
reinit: Dumping input in INPUT_TMP.23616
************************** Dump of input data file ****************************
%include ../../basejob.fdf
SystemLabel     net_charge_dope
NetCharge -1
Slab.DipoleCorrection T
SimulateDoping        T
SCF.MustConverge F
MaxSCFIterations 30
************************** End of input data file *****************************

reinit: -----------------------------------------------------------------------
reinit: System Name: 2 Water molecules
reinit: -----------------------------------------------------------------------
reinit: System Label: net_charge_dope
reinit: -----------------------------------------------------------------------

initatom: Reading input for the pseudopotentials and atomic orbitals ----------
Species number:   1 Atomic number:    8 Label: O
Species number:   2 Atomic number:    1 Label: H


---- Processing specs for species: O
Ground state valence configuration:   2s02  2p04
Reading pseudopotential information in formatted form from:
  /home/fnpedron/Siesta/siesta-dev/Tests/Pseudos/O.psf

---- Processing specs for species: H
Ground state valence configuration:   1s01
Reading pseudopotential information in formatted form from:
  /home/fnpedron/Siesta/siesta-dev/Tests/Pseudos/H.psf

---- Pseudopotential check for O 

Pseudized shells:
2s( 2.00) rc: 1.14
2p( 4.00) rc: 1.14
3d( 0.00) rc: 1.14
4f( 0.00) rc: 1.14
Valence configuration for ps generation: (assumed as above)

---- Pseudopotential check for H 

Pseudized shells:
1s( 1.00) rc: 1.25
2p( 0.00) rc: 1.25
3d( 0.00) rc: 1.25
4f( 0.00) rc: 1.25
Valence configuration for ps generation: (assumed as above)
For O, standard SIESTA heuristics set lmxkb to 3
 (one more than the basis l, including polarization orbitals).
Use PS.lmax or PS.KBprojectors blocks to override.
For H, standard SIESTA heuristics set lmxkb to 2
 (one more than the basis l, including polarization orbitals).
Use PS.lmax or PS.KBprojectors blocks to override.

<basis_specs>
===============================================================================
O                    Z=   8    Mass=  15.999        Charge= 0.17977+309
Lmxo=2 Lmxkb= 3    BasisType=split      Semic=F
L=0  Nsemic=0  Cnfigmx=2
          i=1  nzeta=1  polorb=0  (2s)
            splnorm:   0.15000    
               vcte:    0.0000    
               rinn:    0.0000    
               qcoe:    0.0000    
               qyuk:    0.0000    
               qwid:   0.10000E-01
                rcs:    0.0000    
            lambdas:    1.0000    
L=1  Nsemic=0  Cnfigmx=2
          i=1  nzeta=1  polorb=1  (2p)  (to be polarized perturbatively)
            splnorm:   0.15000    
               vcte:    0.0000    
               rinn:    0.0000    
               qcoe:    0.0000    
               qyuk:    0.0000    
               qwid:   0.10000E-01
                rcs:    0.0000    
            lambdas:    1.0000    
L=2  Nsemic=0  Cnfigmx=3
          i=1  nzeta=0  polorb=0  (3d)  (perturbative polarization orbital) (from 2p)
-------------------------------------------------------------------------------
L=0  Nkbl=1  erefs: 0.17977+309
L=1  Nkbl=1  erefs: 0.17977+309
L=2  Nkbl=1  erefs: 0.17977+309
L=3  Nkbl=1  erefs: 0.17977+309
===============================================================================
</basis_specs>

atom: Called for O                     (Z =   8)

read_vps: Pseudopotential generation method:
read_vps: ATM3      Troullier-Martins                       
Valence charge in pseudo generation:    6.00000

xc_check: Exchange-correlation functional:
xc_check: Ceperley-Alder
V l=0 = -2*Zval/r beyond r=  1.1278
V l=1 = -2*Zval/r beyond r=  1.1278
V l=2 = -2*Zval/r beyond r=  1.1278
V l=3 = -2*Zval/r beyond r=  1.1138
All V_l potentials equal beyond r=  1.1278
This should be close to max(r_c) in ps generation
All pots = -2*Zval/r beyond r=  1.1278
Using small-core scheme (local charge) for Vlocal

VLOCAL_FROM_CHLOCAL: 99.0% of the norm of Vloc inside     34.126 Ry
VLOCAL_FROM_CHLOCAL: 99.9% of the norm of Vloc inside     77.774 Ry
atom: Maximum radius for chlocal:    1.37759
atom: Maximum radius for r*vlocal+2*Zval:    1.24646

KBgen: Kleinman-Bylander projectors: 
GHOST: No ghost state for L =  0
   l= 0   rc=  1.294105   el= -1.742414   Ekb=  9.135903   kbcos=  0.326910
GHOST: No ghost state for L =  1
   l= 1   rc=  1.294105   el= -0.676589   Ekb= -8.124878   kbcos= -0.395047
GHOST: No ghost state for L =  2
   l= 2   rc=  1.448233   el=  0.002386   Ekb= -2.039267   kbcos= -0.003484
GHOST: No ghost state for L =  3
   l= 3   rc=  1.561052   el=  0.003508   Ekb= -0.799141   kbcos= -0.000344

KBgen: Total number of Kleinman-Bylander projectors:  16
atom: -------------------------------------------------------------------------

atom: SANKEY-TYPE ORBITALS:

SPLIT: Orbitals with angular momentum L= 0

SPLIT: Basis orbitals for state 2s

SPLIT: PAO cut-off radius determined from an
SPLIT: energy shift=  0.020000 Ry

   izeta = 1
                 lambda =    1.000000
                     rc =    3.305093
                 energy =   -1.723766
                kinetic =    1.614911
    potential(screened) =   -3.338677
       potential(ionic) =  -11.304675

SPLIT: Orbitals with angular momentum L= 1

SPLIT: Basis orbitals for state 2p

SPLIT: PAO cut-off radius determined from an
SPLIT: energy shift=  0.020000 Ry

   izeta = 1
                 lambda =    1.000000
                     rc =    3.937239
                 energy =   -0.658841
                kinetic =    5.005986
    potential(screened) =   -5.664827
       potential(ionic) =  -13.452360

POLgen: Perturbative polarization orbital with L=  2

POLgen: Polarization orbital for state 2p

   izeta = 1
                     rc =    3.937239
                 energy =    2.398520
                kinetic =    4.716729
    potential(screened) =   -2.318209
       potential(ionic) =   -8.603170
atom: Total number of Sankey-type orbitals:  9

atm_pop: Valence configuration (for local Pseudopot. screening):
 2s( 2.00)                                                            
 2p( 4.00)                                                            
 3d( 0.00)                                                            
Vna: chval, zval:    6.00000   6.00000

Vna:  Cut-off radius for the neutral-atom potential:   3.937239

atom: _________________________________________________________________________

<basis_specs>
===============================================================================
H                    Z=   1    Mass=  1.0080        Charge= 0.17977+309
Lmxo=1 Lmxkb= 2    BasisType=split      Semic=F
L=0  Nsemic=0  Cnfigmx=1
          i=1  nzeta=1  polorb=1  (1s)  (to be polarized perturbatively)
            splnorm:   0.15000    
               vcte:    0.0000    
               rinn:    0.0000    
               qcoe:    0.0000    
               qyuk:    0.0000    
               qwid:   0.10000E-01
                rcs:    0.0000    
            lambdas:    1.0000    
L=1  Nsemic=0  Cnfigmx=2
          i=1  nzeta=0  polorb=0  (2p)  (perturbative polarization orbital) (from 1s)
-------------------------------------------------------------------------------
L=0  Nkbl=1  erefs: 0.17977+309
L=1  Nkbl=1  erefs: 0.17977+309
L=2  Nkbl=1  erefs: 0.17977+309
===============================================================================
</basis_specs>

atom: Called for H                     (Z =   1)

read_vps: Pseudopotential generation method:
read_vps: ATM3      Troullier-Martins                       
Valence charge in pseudo generation:    1.00000

xc_check: Exchange-correlation functional:
xc_check: Ceperley-Alder
V l=0 = -2*Zval/r beyond r=  1.2343
V l=1 = -2*Zval/r beyond r=  1.2189
V l=2 = -2*Zval/r beyond r=  1.2189
All V_l potentials equal beyond r=  1.2343
This should be close to max(r_c) in ps generation
All pots = -2*Zval/r beyond r=  1.2343
Using small-core scheme (local charge) for Vlocal

VLOCAL_FROM_CHLOCAL: 99.0% of the norm of Vloc inside     28.493 Ry
VLOCAL_FROM_CHLOCAL: 99.9% of the norm of Vloc inside     64.935 Ry
atom: Maximum radius for chlocal:    1.45251
atom: Maximum radius for r*vlocal+2*Zval:    1.31405

KBgen: Kleinman-Bylander projectors: 
GHOST: No ghost state for L =  0
   l= 0   rc=  1.364359   el= -0.467325   Ekb= -2.005361   kbcos= -0.336422
GHOST: No ghost state for L =  1
   l= 1   rc=  1.434438   el=  0.001430   Ekb= -0.501708   kbcos= -0.021697
GHOST: No ghost state for L =  2
   l= 2   rc=  1.470814   el=  0.002365   Ekb= -0.190555   kbcos= -0.002281

KBgen: Total number of Kleinman-Bylander projectors:   9
atom: -------------------------------------------------------------------------

atom: SANKEY-TYPE ORBITALS:

SPLIT: Orbitals with angular momentum L= 0

SPLIT: Basis orbitals for state 1s

SPLIT: PAO cut-off radius determined from an
SPLIT: energy shift=  0.020000 Ry

   izeta = 1
                 lambda =    1.000000
                     rc =    4.828263
                 energy =   -0.449375
                kinetic =    0.929372
    potential(screened) =   -1.378747
       potential(ionic) =   -1.915047

POLgen: Perturbative polarization orbital with L=  1

POLgen: Polarization orbital for state 1s

   izeta = 1
                     rc =    4.828263
                 energy =    0.706972
                kinetic =    1.396397
    potential(screened) =   -0.689424
       potential(ionic) =   -1.169792
atom: Total number of Sankey-type orbitals:  4

atm_pop: Valence configuration (for local Pseudopot. screening):
 1s( 1.00)                                                            
 2p( 0.00)                                                            
Vna: chval, zval:    1.00000   1.00000

Vna:  Cut-off radius for the neutral-atom potential:   4.828263

atom: _________________________________________________________________________

prinput: Basis input 

PAO.BasisType split     

%block ChemicalSpeciesLabel
    1    8 O                       # Species index, atomic number, species label
    2    1 H                       # Species index, atomic number, species label
%endblock ChemicalSpeciesLabel

%block PAO.Basis                 # Define Basis set
# WARNING: This information might be incomplete!
O                     2                    # Species label, number of l-shells
 n=2   0   1                         # n, l, Nzeta 
   3.305   
   1.000   
 n=2   1   1 P   1                   # n, l, Nzeta, Polarization, NzetaPol
   3.937   
   1.000   
H                     1                    # Species label, number of l-shells
 n=1   0   1 P   1                   # n, l, Nzeta, Polarization, NzetaPol
   4.828   
   1.000   
%endblock PAO.Basis

prinput: ----------------------------------------------------------------------

Dumping basis to NetCDF file O.ion.nc
Dumping basis to NetCDF file H.ion.nc
coor:   Atomic-coordinates input format  =     Cartesian coordinates
coor:                                          (in Angstroms)

siesta: Atomic coordinates (Bohr) and species
siesta:      0.00000   0.00000   0.00000  1        1
siesta:      1.43052   1.10738   0.00000  2        2
siesta:     -1.43052   1.10738   0.00000  2        3
siesta:      0.00000   9.44863   0.00000  1        4
siesta:      1.43052   8.34125   0.00000  2        5
siesta:     -1.43052   8.34125   0.00000  2        6

siesta: System type = slab      

initatomlists: Number of atoms, orbitals, and projectors:      6    34    68

siesta: ******************** Simulation parameters ****************************
siesta:
siesta: The following are some of the parameters of the simulation.
siesta: A complete list of the parameters used, including default values,
siesta: can be found in file out.fdf
siesta:
redata: Spin configuration                          = none
redata: Number of spin components                   = 1
redata: Time-Reversal Symmetry                      = T
redata: Spin spiral                                 = F
redata: Long output                                 =   F
redata: Number of Atomic Species                    =        2
redata: Charge density info will appear in .RHO file
redata: Write Mulliken Pop.                         = NO
redata: Matel table size (NRTAB)                    =     1024
redata: Mesh Cutoff                                 =   300.0000 Ry
redata: Net charge of the system                    =    -1.0000 |e|
redata: Min. number of SCF Iter                     =        0
redata: Max. number of SCF Iter                     =       30
redata: SCF mix quantity                            = Hamiltonian
redata: Mix DM or H after convergence               =   F
redata: Recompute H after scf cycle                 =   F
redata: Mix DM in first SCF step                    =   T
redata: Write Pulay info on disk                    =   F
redata: New DM Occupancy tolerance                  = 0.000000000001
redata: No kicks to SCF
redata: DM Mixing Weight for Kicks                  =     0.5000
redata: Require Harris convergence for SCF          =   F
redata: Harris energy tolerance for SCF             =     0.000100 eV
redata: Require DM convergence for SCF              =   T
redata: DM tolerance for SCF                        =     0.000100
redata: Require EDM convergence for SCF             =   F
redata: EDM tolerance for SCF                       =     0.001000 eV
redata: Require H convergence for SCF               =   T
redata: Hamiltonian tolerance for SCF               =     0.001000 eV
redata: Require (free) Energy convergence for SCF   =   F
redata: (free) Energy tolerance for SCF             =     0.000100 eV
redata: Using DFT-D3 dispersion                     =   F
redata: Using Saved Data (generic)                  =   F
redata: Use continuation files for DM               =   F
redata: Neglect nonoverlap interactions             =   F
redata: Method of Calculation                       = Diagonalization
redata: Electronic Temperature                      =   299.9863 K
redata: Fix the spin of the system                  =   F
redata: Max. number of TDED Iter                    =        1
redata: Number of TDED substeps                     =        3
redata: Dynamics option                             = Single-point calculation
mix.SCF: Pulay mixing                            = Pulay
mix.SCF:    Variant                              = stable
mix.SCF:    History steps                        = 2
mix.SCF:    Linear mixing weight                 =     0.250000
mix.SCF:    Mixing weight                        =     0.250000
mix.SCF:    SVD condition                        = 0.1000E-07
redata: Save all siesta data in one NC              =   F
redata: ***********************************************************************

%block SCF.Mixers
  Pulay
%endblock SCF.Mixers

%block SCF.Mixer.Pulay
  # Mixing method
  method pulay
  variant stable

  # Mixing options
  weight 0.2500
  weight.linear 0.2500
  history 2
%endblock SCF.Mixer.Pulay

DM_history_depth set to one: no extrapolation allowed by default for geometry relaxation
Size of DM history Fstack: 1
Total number of electrons:    17.000000
Total ionic charge:    16.000000
madelung: WARNING: Charged system, but not an atom or molecule.
madelung: WARNING: Energy correction terms can not be applied. 
madelung: WARNING: Continue only if you really know what you are doing.

siesta: k-grid: Number of k-points = 1
siesta: k-point is Gamma-only

diag: Algorithm                                     = D&C
diag: Used triangular part                          = Lower
diag: Absolute tolerance                            =  0.100E-15
diag: Orthogonalization factor                      =  0.100E-05
diag: Memory factor                                 =  1.0000


ts: **************************************************************
ts: Save H and S matrices                           =    F
ts: Save DM and EDM matrices                        =    F
ts: Only save the overlap matrix S                  =    F
ts: **************************************************************

************************ Begin: TS CHECKS AND WARNINGS ************************
************************ End: TS CHECKS AND WARNINGS **************************


                     ====================================
                        Single-point calculation
                     ====================================

outcell: Unit cell vectors (Ang):
        3.000000    0.000000    0.000000
        0.000000   30.000000    0.000000
        0.000000    0.000000    5.000000

outcell: Cell vector modules (Ang)   :    3.000000   30.000000    5.000000
outcell: Cell angles (23,13,12) (deg):     90.0000     90.0000     90.0000
outcell: Cell volume (Ang**3)        :    450.0000
Gamma-point calculation with interaction between periodic images
Some features might not work optimally:
e.g. DM initialization from atomic data
<dSpData1D:S at geom step 0
  <sparsity:sparsity for geom step 0
    nrows_g=34 nrows=34 sparsity=.8322 nnzs=962, refcount: 7>
  <dData1D:(new from dSpData1D) n=962, refcount: 1>
refcount: 1>
new_DM -- step:     1
Initializing Density Matrix...
DM filled with atomic data:
<dSpData2D:DM initialized from atoms
  <sparsity:sparsity for geom step 0
    nrows_g=34 nrows=34 sparsity=.8322 nnzs=962, refcount: 8>
  <dData2D:DM n=962 m=1, refcount: 1>
refcount: 1>
Note: For starting DM, Qtot, Tr[D*S] =         17.00000000         16.00000000
No. of atoms with KB's overlaping orbs in proc 0. Max # of overlaps:       6      38

InitMesh: MESH = 32 x 320 x 54 = 552960
InitMesh: Mesh cutoff (required, used) =   300.000   314.456 Ry
New grid distribution [1]: sub = 2

doping: SimulateDoping = .true. in input file
doping: Neutralizing background will be added to points
doping: other than vacuum, to simulate doping

dipole: A dipole layer will be introduced in the vacuum
dipole: region to compensate the system dipole
Dipole moment in unit cell =      -0.0000      -0.0008      -0.0000 D
Electric field for dipole correction =     0.000000     0.000071     0.000000 eV/Ang/e

stepf: Fermi-Dirac step function
Dipole moment in unit cell =      -0.0000      -0.0665      -0.0000 D
Electric field for dipole correction =     0.000000     0.005569     0.000000 eV/Ang/e

siesta: Program's energy decomposition (eV):
siesta: Ebs     =      -248.192895
siesta: Eions   =      1631.696139
siesta: Ena     =       349.727571
siesta: Ekin    =       700.109273
siesta: Enl     =      -119.500877
siesta: Eso     =         0.000000
siesta: Edftu   =         0.000000
siesta: DEna    =         4.580653
siesta: DUscf   =         0.489029
siesta: DUext   =         0.000039
siesta: Ex      =      -204.404148
siesta: Ec      =       -26.330466
siesta: Exc     =      -230.734615
siesta: EbV     =         0.000000
siesta: eta*DQ  =         0.000000
siesta: Emadel  =         0.000000
siesta: Emeta   =         0.000000
siesta: Emolmec =         0.000000
siesta: Ekinion =         0.000000
siesta: Eharris =      -909.683887
siesta: Etot    =      -927.025065
siesta: FreeEng =      -927.060903

        iscf     Eharris(eV)        E_KS(eV)     FreeEng(eV)     dDmax    Ef(eV) dHmax(eV)
   scf:    1     -909.683887     -927.025065     -927.060903  0.667468 -0.781549  3.355560
timer: Routine,Calls,Time,% = IterSCF        1       0.059   7.74
Dipole moment in unit cell =       0.0000       3.6417       0.0000 D
Electric field for dipole correction =    -0.000000    -0.304873    -0.000000 eV/Ang/e
   scf:    2     -916.979652     -924.482243     -924.518080  0.360240 -1.596312  9.859108
Dipole moment in unit cell =      -0.0000      -6.4048      -0.0000 D
Electric field for dipole correction =     0.000000     0.536193     0.000000 eV/Ang/e
   scf:    3     -917.248189     -925.114382     -925.150219  0.383748 -1.218538 10.226034
Dipole moment in unit cell =       0.0000       2.7992       0.0000 D
Electric field for dipole correction =    -0.000000    -0.234341    -0.000000 eV/Ang/e
   scf:    4     -923.687985     -927.265419     -927.301256  0.228923 -1.569721  5.032436
Dipole moment in unit cell =      -0.0000      -0.4437      -0.0000 D
Electric field for dipole correction =     0.000000     0.037145     0.000000 eV/Ang/e
   scf:    5     -927.760997     -927.885731     -927.921569  0.091905 -1.509102  0.756344
Dipole moment in unit cell =       0.0000       0.2113       0.0000 D
Electric field for dipole correction =    -0.000000    -0.017688    -0.000000 eV/Ang/e
   scf:    6     -927.883281     -927.899158     -927.934995  0.016017 -1.557463  0.370810
Dipole moment in unit cell =      -0.0000      -0.0702      -0.0000 D
Electric field for dipole correction =     0.000000     0.005881     0.000000 eV/Ang/e
   scf:    7     -927.900641     -927.902621     -927.938458  0.007519 -1.571888  0.159150
Dipole moment in unit cell =       0.0000       0.0287       0.0000 D
Electric field for dipole correction =    -0.000000    -0.002402    -0.000000 eV/Ang/e
   scf:    8     -927.902794     -927.903047     -927.938884  0.002617 -1.588929  0.085187
Dipole moment in unit cell =      -0.0000      -0.0568      -0.0000 D
Electric field for dipole correction =     0.000000     0.004757     0.000000 eV/Ang/e
   scf:    9     -927.902383     -927.902960     -927.938797  0.001964 -1.599716  0.114926
Dipole moment in unit cell =       0.0000       0.0185       0.0000 D
Electric field for dipole correction =    -0.000000    -0.001551    -0.000000 eV/Ang/e
   scf:   10     -927.902979     -927.903158     -927.938995  0.001508 -1.605735  0.058868
Dipole moment in unit cell =      -0.0000      -0.0193      -0.0000 D
Electric field for dipole correction =     0.000000     0.001616     0.000000 eV/Ang/e
   scf:   11     -927.903119     -927.903186     -927.939024  0.000811 -1.613749  0.049512
Dipole moment in unit cell =       0.0000       0.0190       0.0000 D
Electric field for dipole correction =    -0.000000    -0.001592    -0.000000 eV/Ang/e
   scf:   12     -927.903092     -927.903188     -927.939025  0.000742 -1.618144  0.048998
Dipole moment in unit cell =      -0.0000      -0.0167      -0.0000 D
Electric field for dipole correction =     0.000000     0.001396     0.000000 eV/Ang/e
   scf:   13     -927.903143     -927.903208     -927.939045  0.000694 -1.622172  0.037971
Dipole moment in unit cell =       0.0000       0.0037       0.0000 D
Electric field for dipole correction =    -0.000000    -0.000308    -0.000000 eV/Ang/e
   scf:   14     -927.903217     -927.903226     -927.939063  0.000390 -1.625521  0.019786
Dipole moment in unit cell =      -0.0000      -0.0136      -0.0000 D
Electric field for dipole correction =     0.000000     0.001137     0.000000 eV/Ang/e
   scf:   15     -927.903197     -927.903222     -927.939059  0.000333 -1.628629  0.027284
Dipole moment in unit cell =       0.0000       0.0053       0.0000 D
Electric field for dipole correction =    -0.000000    -0.000441    -0.000000 eV/Ang/e
   scf:   16     -927.903213     -927.903229     -927.939067  0.000356 -1.629908  0.017990
Dipole moment in unit cell =      -0.0000      -0.0058      -0.0000 D
Electric field for dipole correction =     0.000000     0.000486     0.000000 eV/Ang/e
   scf:   17     -927.903228     -927.903233     -927.939070  0.000211 -1.632027  0.012637
Dipole moment in unit cell =       0.0000       0.0030       0.0000 D
Electric field for dipole correction =    -0.000000    -0.000248    -0.000000 eV/Ang/e
   scf:   18     -927.903229     -927.903233     -927.939071  0.000165 -1.633340  0.011442
Dipole moment in unit cell =      -0.0000      -0.0063      -0.0000 D
Electric field for dipole correction =     0.000000     0.000527     0.000000 eV/Ang/e
   scf:   19     -927.903228     -927.903234     -927.939071  0.000175 -1.634392  0.011104
Dipole moment in unit cell =      -0.0000      -0.0002      -0.0000 D
Electric field for dipole correction =     0.000000     0.000013     0.000000 eV/Ang/e
   scf:   20     -927.903235     -927.903235     -927.939073  0.000116 -1.635226  0.005176
Dipole moment in unit cell =      -0.0000      -0.0042      -0.0000 D
Electric field for dipole correction =     0.000000     0.000353     0.000000 eV/Ang/e
   scf:   21     -927.903234     -927.903235     -927.939073  0.000078 -1.636102  0.006469
Dipole moment in unit cell =       0.0000       0.0007       0.0000 D
Electric field for dipole correction =    -0.000000    -0.000058    -0.000000 eV/Ang/e
   scf:   22     -927.903234     -927.903236     -927.939073  0.000093 -1.636457  0.005303
Dipole moment in unit cell =      -0.0000      -0.0027      -0.0000 D
Electric field for dipole correction =     0.000000     0.000225     0.000000 eV/Ang/e
   scf:   23     -927.903236     -927.903236     -927.939073  0.000065 -1.637003  0.003393
Dipole moment in unit cell =      -0.0000      -0.0006      -0.0000 D
Electric field for dipole correction =     0.000000     0.000050     0.000000 eV/Ang/e
   scf:   24     -927.903236     -927.903236     -927.939073  0.000040 -1.637382  0.002594
Dipole moment in unit cell =      -0.0000      -0.0029      -0.0000 D
Electric field for dipole correction =     0.000000     0.000246     0.000000 eV/Ang/e
   scf:   25     -927.903236     -927.903236     -927.939073  0.000045 -1.637681  0.003144
Dipole moment in unit cell =      -0.0000      -0.0011      -0.0000 D
Electric field for dipole correction =     0.000000     0.000091     0.000000 eV/Ang/e
   scf:   26     -927.903236     -927.903236     -927.939074  0.000035 -1.637876  0.001448
Dipole moment in unit cell =      -0.0000      -0.0021      -0.0000 D
Electric field for dipole correction =     0.000000     0.000177     0.000000 eV/Ang/e
   scf:   27     -927.903236     -927.903236     -927.939074  0.000020 -1.638119  0.001534
Dipole moment in unit cell =      -0.0000      -0.0009      -0.0000 D
Electric field for dipole correction =     0.000000     0.000074     0.000000 eV/Ang/e
   scf:   28     -927.903236     -927.903236     -927.939074  0.000024 -1.638229  0.001458
Dipole moment in unit cell =      -0.0000      -0.0019      -0.0000 D
Electric field for dipole correction =     0.000000     0.000157     0.000000 eV/Ang/e
   scf:   29     -927.903236     -927.903236     -927.939074  0.000019 -1.638366  0.000963

SCF Convergence by DM+H criterion
max |DM_out - DM_in|         :     0.0000192009
max |H_out - H_in|      (eV) :     0.0009627704
SCF cycle converged after 29 iterations

Using DM_out to compute the final energy and forces
No. of atoms with KB's overlaping orbs in proc 0. Max # of overlaps:       6      38
Dipole moment in unit cell =      -0.0000      -0.0019      -0.0000 D
Electric field for dipole correction =     0.000000     0.000157     0.000000 eV/Ang/e

siesta: E_KS(eV) =             -927.9032

siesta: E_KS - E_eggbox =      -927.9032

siesta: Atomic forces (eV/Ang):
----------------------------------------
   Tot   -0.000000   -0.003424   -0.000000
----------------------------------------
   Max    4.164414
   Res    2.383957    sqrt( Sum f_i^2 / 3N )
----------------------------------------
   Max    4.164414    constrained

Stress tensor Voigt[x,y,z,yz,xz,xy] (kbar):      -73.76      -10.01        0.87       -0.00       -0.00       -0.00
(Free)E + p*V (eV/cell)     -920.1776
Target enthalpy (eV/cell)     -927.9391

siesta: Program's energy decomposition (eV):
siesta: Ebs     =      -229.441556
siesta: Eions   =      1631.696139
siesta: Ena     =       349.727571
siesta: Ekin    =       731.104458
siesta: Enl     =      -127.272687
siesta: Eso     =         0.000000
siesta: Edftu   =         0.000000
siesta: DEna    =       -14.698254
siesta: DUscf   =         0.715573
siesta: DUext   =         0.000000
siesta: Ex      =      -209.230910
siesta: Ec      =       -26.552848
siesta: Exc     =      -235.783758
siesta: EbV     =         0.000000
siesta: eta*DQ  =         0.000000
siesta: Emadel  =         0.000000
siesta: Emeta   =         0.000000
siesta: Emolmec =         0.000000
siesta: Ekinion =         0.000000
siesta: Eharris =      -927.903236
siesta: Etot    =      -927.903236
siesta: FreeEng =      -927.939074

siesta: Final energy (eV):
siesta:  Band Struct. =    -229.441556
siesta:       Kinetic =     731.104458
siesta:       Hartree =    2622.246455
siesta:         Edftu =       0.000000
siesta:       Eso     =       0.000000
siesta:    Ext. field =       0.000000
siesta:         Exch. =    -209.230910
siesta:         Corr. =     -26.552848
siesta:     Bulk bias =       0.000000
siesta:   Exch.-corr. =    -235.783758
siesta:  Ion-electron =   -5896.108985
siesta:       Ion-ion =    1850.638594
siesta:       Ekinion =       0.000000
siesta: D3 dispersion =       0.000000
siesta:         Total =    -927.903236
siesta:         Fermi =      -1.638366

siesta: Atomic forces (eV/Ang):
siesta:      1   -0.000000   -4.164414   -0.000000
siesta:      2    3.349652    2.381464   -0.000000
siesta:      3   -3.349652    2.381464   -0.000000
siesta:      4    0.000000    4.160202   -0.000000
siesta:      5    3.356099   -2.381070   -0.000000
siesta:      6   -3.356099   -2.381070   -0.000000
siesta: ----------------------------------------
siesta:    Tot   -0.000000   -0.003424   -0.000000

siesta: Stress tensor (static) (eV/Ang**3):
siesta:    -0.046038   -0.000000    0.000000
siesta:    -0.000000   -0.006246   -0.000000
siesta:    -0.000000   -0.000000    0.000541

siesta: Cell volume =        450.000000 Ang**3

siesta: Pressure (static):
siesta:                Solid            Molecule  Units
siesta:           0.00018785          0.00008512  Ry/Bohr**3
siesta:           0.01724763          0.00781573  eV/Ang**3
siesta:          27.63375156         12.52217991  kBar
(Free)E+ p_basis*V_orbitals  =        -926.996248
(Free)Eharris+ p_basis*V_orbitals  =        -926.996248

siesta: Electric dipole (a.u.)  =   -0.000000   -0.000738   -0.000000
siesta: Electric dipole (Debye) =   -0.000000   -0.001875   -0.000000

cite: Please see "net_charge_dope.bib" for an exhaustive BiBTeX file.
cite: Please clearly indicate Siesta version in published work: 5.0.0-alpha-120-g24fa496ce-dirty
cite: This calculation has made use of the following articles
cite: which are encouraged to be cited in a published work.
        Primary SIESTA paper
          DOI: www.doi.org/10.1088/0953-8984/14/11/302
        Slab-dipole correction
          DOI: www.doi.org/10.1103/PhysRevB.59.12301


timer: Elapsed wall time (sec) =       2.585
timer: CPU execution times (sec):

Routine            Calls   Time/call    Tot.time        %
siesta                 1       2.585       2.585   100.00
Setup                  1       0.034       0.034     1.31
bands                  1       0.000       0.000     0.00
KSV_init               1       0.000       0.000     0.00
IterGeom               1       2.551       2.551    98.67
geom_init              1       0.664       0.664    25.70
state_init             1       0.048       0.048     1.86
hsparse                1       0.000       0.000     0.01
overlap                1       0.048       0.048     1.84
Setup_H0               1       0.559       0.559    21.62
naefs                  2       0.000       0.000     0.01
MolMec                 2       0.000       0.000     0.00
kinefsm                2       0.023       0.047     1.80
nlefsm                 2       0.202       0.405    15.66
DHSCF_Init             1       0.109       0.109     4.20
DHSCF1                 1       0.010       0.010     0.40
INITMESH               1       0.000       0.000     0.00
DHSCF2                 1       0.098       0.098     3.80
REMESH                 1       0.005       0.005     0.19
REORD                 70       0.000       0.034     1.32
PHION                  1       0.065       0.065     2.51
COMM_BSC             127       0.000       0.049     1.91
POISON                32       0.014       0.433    16.74
fft                   64       0.005       0.306    11.84
setup_H               30       0.056       1.690    65.37
DHSCF                 31       0.062       1.930    74.64
DHSCF3                31       0.056       1.742    67.38
rhoofd                31       0.013       0.401    15.50
XC                    31       0.013       0.394    15.26
GXC-CellXC            31       0.011       0.353    13.65
vmat                  31       0.010       0.295    11.41
IterSCF               29       0.057       1.641    63.47
compute_dm            29       0.000       0.005     0.20
diagon                29       0.000       0.005     0.19
r-eigvec              29       0.000       0.004     0.15
r-buildHS             29       0.000       0.000     0.00
rdiag                 29       0.000       0.004     0.15
rdiag1                29       0.000       0.000     0.02
rdiag2                29       0.000       0.000     0.02
rdiag3                29       0.000       0.003     0.10
rdiag4                29       0.000       0.000     0.01
r-buildD              29       0.000       0.001     0.02
MIXER                 28       0.000       0.000     0.02
PostSCF                1       0.245       0.245     9.48
DHSCF4                 1       0.188       0.188     7.26
dfscf                  1       0.171       0.171     6.60
overfsm                1       0.000       0.000     0.02
state_analysis         1       0.000       0.000     0.01
siesta_move            1       0.000       0.000     0.00
Analysis               1       0.000       0.000     0.01
optical                1       0.000       0.000     0.00
  

>> End of run:  25-SEP-2023   9:47:56
Job completed
