Siesta Version  : 5.0.0-alpha-120-g24fa496ce-dirty
Architecture    : ----
Compiler version: GNU-11.4.0
Compiler flags  : -fallow-argument-mismatch;-O3 -march=native
PP flags        : ----
Libraries       : ----
Parallelisations: none
GEMM3M support
NetCDF support
NetCDF-4 support
Lua support

Runtime information:
* Directory : /home/fnpedron/Siesta/siesta-dev/Tests/01.PseudoPotentials/work/reparam
* Running in serial mode.
>> Start of run:  25-SEP-2023   9:43:39

                           *********************** 
                           *  WELCOME TO SIESTA  * 
                           *********************** 

reinit: Reading from standard input
reinit: Dumping input in INPUT_TMP.69202
************************** Dump of input data file ****************************
SystemLabel         reparam
Reparametrize.Pseudos T
%block ChemicalSpeciesLabel
 1  14  Si.psf
%endblock ChemicalSpeciesLabel
%include ../../basejob.fdf
************************** End of input data file *****************************

reinit: -----------------------------------------------------------------------
reinit: System Name: Si bulk
reinit: -----------------------------------------------------------------------
reinit: System Label: reparam
reinit: -----------------------------------------------------------------------

initatom: Reading input for the pseudopotentials and atomic orbitals ----------
Species number:   1 Atomic number:   14 Label: Si.psf


---- Processing specs for species: Si.psf
Ground state valence configuration:   3s02  3p02
Reading pseudopotential information in formatted form from:
  /home/fnpedron/Siesta/siesta-dev/Tests/Pseudos/Si.psf
 Reparametrization. rmax:    119.81407816200000     
 Reparametrization. New nrval:         9392

---- Pseudopotential check for Si

Pseudized shells:
3s( 2.00) rc: 1.89
3p( 2.00) rc: 1.89
3d( 0.00) rc: 1.89
4f( 0.00) rc: 1.89
Valence configuration for ps generation: (assumed as above)
For Si.psf, standard SIESTA heuristics set lmxkb to 3
 (one more than the basis l, including polarization orbitals).
Use PS.lmax or PS.KBprojectors blocks to override.

<basis_specs>
===============================================================================
Si.psf               Z=  14    Mass=  28.090        Charge= 0.17977+309
Lmxo=2 Lmxkb= 3    BasisType=split      Semic=F
L=0  Nsemic=0  Cnfigmx=3
          i=1  nzeta=1  polorb=0  (3s)
            splnorm:   0.15000    
               vcte:    0.0000    
               rinn:    0.0000    
               qcoe:    0.0000    
               qyuk:    0.0000    
               qwid:   0.10000E-01
                rcs:    0.0000    
            lambdas:    1.0000    
L=1  Nsemic=0  Cnfigmx=3
          i=1  nzeta=1  polorb=1  (3p)  (to be polarized perturbatively)
            splnorm:   0.15000    
               vcte:    0.0000    
               rinn:    0.0000    
               qcoe:    0.0000    
               qyuk:    0.0000    
               qwid:   0.10000E-01
                rcs:    0.0000    
            lambdas:    1.0000    
L=2  Nsemic=0  Cnfigmx=3
          i=1  nzeta=0  polorb=0  (3d)  (perturbative polarization orbital) (from 3p)
-------------------------------------------------------------------------------
L=0  Nkbl=1  erefs: 0.17977+309
L=1  Nkbl=1  erefs: 0.17977+309
L=2  Nkbl=1  erefs: 0.17977+309
L=3  Nkbl=1  erefs: 0.17977+309
===============================================================================
</basis_specs>

atom: Called for Si.psf                (Z =  14)
Maximum radius (at nrval) set to   50.00000 8518

read_vps: Pseudopotential generation method:
read_vps: ATM3      Troullier-Martins                       
Valence charge in pseudo generation:    4.00000

xc_check: Exchange-correlation functional:
xc_check: Ceperley-Alder
V l=0 = -2*Zval/r beyond r=  2.5804
V l=1 = -2*Zval/r beyond r=  2.5804
V l=2 = -2*Zval/r beyond r=  2.5804
V l=3 = -2*Zval/r beyond r=  2.5804
All V_l potentials equal beyond r=  1.8729
This should be close to max(r_c) in ps generation
All pots = -2*Zval/r beyond r=  2.5804
Using large-core scheme (fit) for Vlocal

atom: Estimated core radius    2.58045

atom: Including non-local core corrections could be a good idea
Fit of Vlocal with continuous 2nd derivative
Fitting vlocal at       1.8786
Choosing vlocal chloc cutoff:***  2.821566
qtot up to nchloc:    4.00020356
atom: Maximum radius for chlocal:    2.82157
atom: Maximum radius for r*vlocal+2*Zval:    2.82157

KBgen: Kleinman-Bylander projectors: 
GHOST: No ghost state for L =  0
   l= 0   rc=  1.872931   el= -0.796617   Ekb=  5.353935   kbcos=  0.317881
GHOST: No ghost state for L =  1
   l= 1   rc=  1.886158   el= -0.307040   Ekb=  2.204864   kbcos=  0.299917
GHOST: No ghost state for L =  2
   l= 2   rc=  1.909049   el=  0.013097   Ekb= -2.473633   kbcos= -0.044292
GHOST: No ghost state for L =  3
   l= 3   rc=  1.951736   el=  0.019538   Ekb= -1.407727   kbcos= -0.001862

KBgen: Total number of Kleinman-Bylander projectors:  16
atom: -------------------------------------------------------------------------

atom: SANKEY-TYPE ORBITALS:

SPLIT: Orbitals with angular momentum L= 0

SPLIT: Basis orbitals for state 3s

SPLIT: PAO cut-off radius determined from an
SPLIT: energy shift=  0.020000 Ry

   izeta = 1
                 lambda =    1.000000
                     rc =    4.976976
                 energy =   -0.776693
                kinetic =    0.576572
    potential(screened) =   -1.353265
       potential(ionic) =   -3.830617

SPLIT: Orbitals with angular momentum L= 1

SPLIT: Basis orbitals for state 3p

SPLIT: PAO cut-off radius determined from an
SPLIT: energy shift=  0.020000 Ry

   izeta = 1
                 lambda =    1.000000
                     rc =    6.179348
                 energy =   -0.287102
                kinetic =    0.886177
    potential(screened) =   -1.173280
       potential(ionic) =   -3.438422

POLgen: Perturbative polarization orbital with L=  2

POLgen: Polarization orbital for state 3p

   izeta = 1
                     rc =    6.179348
                 energy =    0.440849
                kinetic =    1.314712
    potential(screened) =   -0.873864
       potential(ionic) =   -2.947158
atom: Total number of Sankey-type orbitals:  9

atm_pop: Valence configuration (for local Pseudopot. screening):
 3s( 2.00)                                                            
 3p( 2.00)                                                            
 3d( 0.00)                                                            
Vna: chval, zval:    4.00000   4.00000

Vna:  Cut-off radius for the neutral-atom potential:   6.179348

atom: _________________________________________________________________________

prinput: Basis input 

PAO.BasisType split     

%block ChemicalSpeciesLabel
    1   14 Si.psf                  # Species index, atomic number, species label
%endblock ChemicalSpeciesLabel

%block PAO.Basis                 # Define Basis set
# WARNING: This information might be incomplete!
Si.psf                2                    # Species label, number of l-shells
 n=3   0   1                         # n, l, Nzeta 
   4.977   
   1.000   
 n=3   1   1 P   1                   # n, l, Nzeta, Polarization, NzetaPol
   6.179   
   1.000   
%endblock PAO.Basis

prinput: ----------------------------------------------------------------------

Dumping basis to NetCDF file Si.psf.ion.nc
coor:   Atomic-coordinates input format  =     Cartesian coordinates
coor:                                          (in units of alat)

siesta: Atomic coordinates (Bohr) and species
siesta:      0.00000   0.00000   0.00000  1        1
siesta:      2.56530   2.56530   2.56530  1        2

siesta: System type = bulk      

initatomlists: Number of atoms, orbitals, and projectors:      2    18    32

siesta: ******************** Simulation parameters ****************************
siesta:
siesta: The following are some of the parameters of the simulation.
siesta: A complete list of the parameters used, including default values,
siesta: can be found in file out.fdf
siesta:
redata: Spin configuration                          = none
redata: Number of spin components                   = 1
redata: Time-Reversal Symmetry                      = T
redata: Spin spiral                                 = F
redata: Long output                                 =   F
redata: Number of Atomic Species                    =        1
redata: Charge density info will appear in .RHO file
redata: Write Mulliken Pop.                         = NO
redata: Matel table size (NRTAB)                    =     1024
redata: Mesh Cutoff                                 =   150.0000 Ry
redata: Net charge of the system                    =     0.0000 |e|
redata: Min. number of SCF Iter                     =        0
redata: Max. number of SCF Iter                     =     1000
redata: SCF convergence failure will abort job
redata: SCF mix quantity                            = Hamiltonian
redata: Mix DM or H after convergence               =   F
redata: Recompute H after scf cycle                 =   F
redata: Mix DM in first SCF step                    =   T
redata: Write Pulay info on disk                    =   F
redata: New DM Occupancy tolerance                  = 0.000000000001
redata: No kicks to SCF
redata: DM Mixing Weight for Kicks                  =     0.5000
redata: Require Harris convergence for SCF          =   F
redata: Harris energy tolerance for SCF             =     0.000100 eV
redata: Require DM convergence for SCF              =   T
redata: DM tolerance for SCF                        =     0.000100
redata: Require EDM convergence for SCF             =   F
redata: EDM tolerance for SCF                       =     0.001000 eV
redata: Require H convergence for SCF               =   T
redata: Hamiltonian tolerance for SCF               =     0.001000 eV
redata: Require (free) Energy convergence for SCF   =   F
redata: (free) Energy tolerance for SCF             =     0.000100 eV
redata: Using DFT-D3 dispersion                     =   F
redata: Using Saved Data (generic)                  =   F
redata: Use continuation files for DM               =   F
redata: Neglect nonoverlap interactions             =   F
redata: Method of Calculation                       = Diagonalization
redata: Electronic Temperature                      =   299.9863 K
redata: Fix the spin of the system                  =   F
redata: Max. number of TDED Iter                    =        1
redata: Number of TDED substeps                     =        3
redata: Dynamics option                             = Single-point calculation
mix.SCF: Pulay mixing                            = Pulay
mix.SCF:    Variant                              = stable
mix.SCF:    History steps                        = 2
mix.SCF:    Linear mixing weight                 =     0.250000
mix.SCF:    Mixing weight                        =     0.250000
mix.SCF:    SVD condition                        = 0.1000E-07
redata: Save all siesta data in one NC              =   F
redata: ***********************************************************************

%block SCF.Mixers
  Pulay
%endblock SCF.Mixers

%block SCF.Mixer.Pulay
  # Mixing method
  method pulay
  variant stable

  # Mixing options
  weight 0.2500
  weight.linear 0.2500
  history 2
%endblock SCF.Mixer.Pulay

DM_history_depth set to one: no extrapolation allowed by default for geometry relaxation
Size of DM history Fstack: 1
Total number of electrons:     8.000000
Total ionic charge:     8.000000
 Kpoints in:           18 . Kpoints trimmed:           14

siesta: k-grid: Number of k-points = 14
siesta: k-points from Monkhorst-Pack grid
siesta: k-cutoff (effective) =     5.759 Ang
siesta: k-point supercell and displacements
siesta: k-grid:     3     0     0      0.000
siesta: k-grid:     0     3     0      0.000
siesta: k-grid:     0     0     3      0.000

diag: Algorithm                                     = D&C
diag: Used triangular part                          = Lower
diag: Absolute tolerance                            =  0.100E-15
diag: Orthogonalization factor                      =  0.100E-05
diag: Memory factor                                 =  1.0000

superc: Internal auxiliary supercell:     5 x     5 x     5  =     125
superc: Number of atoms, orbitals, and projectors:    250   2250   4000


ts: **************************************************************
ts: Save H and S matrices                           =    F
ts: Save DM and EDM matrices                        =    F
ts: Only save the overlap matrix S                  =    F
ts: **************************************************************

************************ Begin: TS CHECKS AND WARNINGS ************************
************************ End: TS CHECKS AND WARNINGS **************************


                     ====================================
                        Single-point calculation
                     ====================================

superc: Internal auxiliary supercell:     5 x     5 x     5  =     125
superc: Number of atoms, orbitals, and projectors:    250   2250   4000

outcell: Unit cell vectors (Ang):
        0.000000    2.715000    2.715000
        2.715000    0.000000    2.715000
        2.715000    2.715000    0.000000

outcell: Cell vector modules (Ang)   :    3.839590    3.839590    3.839590
outcell: Cell angles (23,13,12) (deg):     60.0000     60.0000     60.0000
outcell: Cell volume (Ang**3)        :     40.0258
<dSpData1D:S at geom step 0
  <sparsity:sparsity for geom step 0
    nrows_g=18 nrows=18 sparsity=37.6111 nnzs=12186, refcount: 7>
  <dData1D:(new from dSpData1D) n=12186, refcount: 1>
refcount: 1>
new_DM -- step:     1
Initializing Density Matrix...
DM filled with atomic data:
<dSpData2D:DM initialized from atoms
  <sparsity:sparsity for geom step 0
    nrows_g=18 nrows=18 sparsity=37.6111 nnzs=12186, refcount: 8>
  <dData2D:DM n=12186 m=1, refcount: 1>
refcount: 1>
No. of atoms with KB's overlaping orbs in proc 0. Max # of overlaps:      26     141

InitMesh: MESH = 24 x 24 x 24 = 13824
InitMesh: Mesh cutoff (required, used) =   150.000   161.974 Ry
New grid distribution [1]: sub = 2

stepf: Fermi-Dirac step function

siesta: Program's energy decomposition (eV):
siesta: Ebs     =       -74.681383
siesta: Eions   =       491.936403
siesta: Ena     =       214.422788
siesta: Ekin    =        79.806240
siesta: Enl     =        39.077242
siesta: Eso     =         0.000000
siesta: Edftu   =         0.000000
siesta: DEna    =         8.737160
siesta: DUscf   =         0.311660
siesta: DUext   =         0.000000
siesta: Ex      =       -54.335698
siesta: Ec      =       -10.131054
siesta: Exc     =       -64.466752
siesta: EbV     =         0.000000
siesta: eta*DQ  =         0.000000
siesta: Emadel  =         0.000000
siesta: Emeta   =         0.000000
siesta: Emolmec =         0.000000
siesta: Ekinion =         0.000000
siesta: Eharris =      -213.350524
siesta: Etot    =      -214.048065
siesta: FreeEng =      -214.048065

        iscf     Eharris(eV)        E_KS(eV)     FreeEng(eV)     dDmax    Ef(eV) dHmax(eV)
   scf:    1     -213.350524     -214.048065     -214.048065  1.177784 -3.844727  0.098852
timer: Routine,Calls,Time,% = IterSCF        1       0.037   9.79
   scf:    2     -214.049168     -214.048622     -214.048622  0.001612 -3.855491  0.069971
   scf:    3     -214.049718     -214.049203     -214.049203  0.003988 -3.880623  0.002920
   scf:    4     -214.049205     -214.049204     -214.049204  0.000086 -3.880072  0.002230
   scf:    5     -214.049206     -214.049205     -214.049205  0.000256 -3.878414  0.000265
   scf:    6     -214.049205     -214.049205     -214.049205  0.000004 -3.878395  0.000189

SCF Convergence by DM+H criterion
max |DM_out - DM_in|         :     0.0000035424
max |H_out - H_in|      (eV) :     0.0001886119
SCF cycle converged after 6 iterations

Using DM_out to compute the final energy and forces
No. of atoms with KB's overlaping orbs in proc 0. Max # of overlaps:      26     141

siesta: E_KS(eV) =             -214.0492

siesta: E_KS - E_eggbox =      -214.0492

siesta: Atomic forces (eV/Ang):
----------------------------------------
   Tot    0.000000   -0.000000    0.000000
----------------------------------------
   Max    0.000000
   Res    0.000000    sqrt( Sum f_i^2 / 3N )
----------------------------------------
   Max    0.000000    constrained

Stress tensor Voigt[x,y,z,yz,xz,xy] (kbar):      -38.86      -38.86      -38.86        0.00        0.00        0.00
(Free)E + p*V (eV/cell)     -213.0783
Target enthalpy (eV/cell)     -214.0492

siesta: Program's energy decomposition (eV):
siesta: Ebs     =       -74.586556
siesta: Eions   =       491.936403
siesta: Ena     =       214.422788
siesta: Ekin    =        79.938961
siesta: Enl     =        39.195570
siesta: Eso     =         0.000000
siesta: Edftu   =         0.000000
siesta: DEna    =         8.527176
siesta: DUscf   =         0.309475
siesta: DUext   =         0.000000
siesta: Ex      =       -54.373028
siesta: Ec      =       -10.133744
siesta: Exc     =       -64.506772
siesta: EbV     =         0.000000
siesta: eta*DQ  =         0.000000
siesta: Emadel  =         0.000000
siesta: Emeta   =         0.000000
siesta: Emolmec =         0.000000
siesta: Ekinion =         0.000000
siesta: Eharris =      -214.049205
siesta: Etot    =      -214.049205
siesta: FreeEng =      -214.049205

siesta: Final energy (eV):
siesta:  Band Struct. =     -74.586556
siesta:       Kinetic =      79.938961
siesta:       Hartree =      13.196167
siesta:         Edftu =       0.000000
siesta:       Eso     =       0.000000
siesta:    Ext. field =       0.000000
siesta:         Exch. =     -54.373028
siesta:         Corr. =     -10.133744
siesta:     Bulk bias =       0.000000
siesta:   Exch.-corr. =     -64.506772
siesta:  Ion-electron =     -96.812777
siesta:       Ion-ion =    -145.864784
siesta:       Ekinion =       0.000000
siesta: D3 dispersion =       0.000000
siesta:         Total =    -214.049205
siesta:         Fermi =      -3.878395

siesta: Stress tensor (static) (eV/Ang**3):
siesta:    -0.024256    0.000000    0.000000
siesta:     0.000000   -0.024256    0.000000
siesta:     0.000000    0.000000   -0.024256

siesta: Cell volume =         40.025752 Ang**3

siesta: Pressure (static):
siesta:                Solid            Molecule  Units
siesta:           0.00026418          0.00026418  Ry/Bohr**3
siesta:           0.02425617          0.02425617  eV/Ang**3
siesta:          38.86266829         38.86266833  kBar
(Free)E+ p_basis*V_orbitals  =        -213.126852
(Free)Eharris+ p_basis*V_orbitals  =        -213.126852

cite: Please see "reparam.bib" for an exhaustive BiBTeX file.
cite: Please clearly indicate Siesta version in published work: 5.0.0-alpha-120-g24fa496ce-dirty
cite: This calculation has made use of the following articles
cite: which are encouraged to be cited in a published work.
        Primary SIESTA paper
          DOI: www.doi.org/10.1088/0953-8984/14/11/302


timer: Elapsed wall time (sec) =       0.682
timer: CPU execution times (sec):

Routine            Calls   Time/call    Tot.time        %
siesta                 1       0.682       0.682   100.00
Setup                  1       0.036       0.036     5.28
bands                  1       0.000       0.000     0.00
KSV_init               1       0.000       0.000     0.00
IterGeom               1       0.645       0.645    94.65
geom_init              1       0.304       0.304    44.58
state_init             1       0.033       0.033     4.86
hsparse                1       0.001       0.001     0.16
overlap                1       0.027       0.027     3.99
Setup_H0               1       0.240       0.240    35.15
naefs                  2       0.000       0.000     0.02
MolMec                 2       0.000       0.000     0.00
kinefsm                2       0.014       0.027     3.96
nlefsm                 2       0.090       0.180    26.34
DHSCF_Init             1       0.061       0.061     8.88
DHSCF1                 1       0.005       0.005     0.75
INITMESH               1       0.000       0.000     0.00
DHSCF2                 1       0.055       0.055     8.12
REMESH                 1       0.007       0.007     1.01
REORD                 24       0.000       0.000     0.05
PHION                  1       0.043       0.043     6.32
COMM_BSC              35       0.000       0.000     0.05
POISON                 9       0.000       0.002     0.31
fft                   18       0.000       0.001     0.19
setup_H                7       0.030       0.208    30.47
DHSCF                  8       0.038       0.306    44.86
DHSCF3                 8       0.030       0.237    34.71
rhoofd                 8       0.016       0.130    19.02
XC                     8       0.001       0.009     1.32
GXC-CellXC             8       0.001       0.009     1.30
vmat                   8       0.012       0.095    13.93
IterSCF                6       0.035       0.213    31.24
compute_dm             6       0.006       0.035     5.12
diagon                 6       0.006       0.035     5.09
c-eigval              84       0.000       0.011     1.64
c-buildHS             84       0.000       0.009     1.29
cdiag                168       0.000       0.006     0.88
cdiag1               168       0.000       0.001     0.10
cdiag2               168       0.000       0.001     0.12
cdiag3               168       0.000       0.004     0.56
c-eigvec              84       0.000       0.013     1.84
cdiag4                84       0.000       0.000     0.02
c-buildD              84       0.000       0.011     1.58
MIXER                  5       0.000       0.000     0.05
PostSCF                1       0.128       0.128    18.79
DHSCF4                 1       0.069       0.069    10.15
dfscf                  1       0.064       0.064     9.41
overfsm                1       0.002       0.002     0.27
state_analysis         1       0.000       0.000     0.02
siesta_move            1       0.000       0.000     0.00
Analysis               1       0.000       0.000     0.04
optical                1       0.000       0.000     0.00
  

>> End of run:  25-SEP-2023   9:43:40
Job completed
