Siesta Version  : 5.0.0-alpha-120-g24fa496ce-dirty
Architecture    : ----
Compiler version: GNU-11.4.0
Compiler flags  : -fallow-argument-mismatch;-O3 -march=native
PP flags        : ----
Libraries       : ----
Parallelisations: none
GEMM3M support
NetCDF support
NetCDF-4 support
Lua support

Runtime information:
* Directory : /home/fnpedron/Siesta/siesta-dev/Tests/04.SCFMixing/work/pulay
* Running in serial mode.
>> Start of run:  25-SEP-2023   9:44:06

                           *********************** 
                           *  WELCOME TO SIESTA  * 
                           *********************** 

reinit: Reading from standard input
reinit: Dumping input in INPUT_TMP.96301
************************** Dump of input data file ****************************
%include ../../basejob.fdf
SystemLabel        pulay
Mixer.Debug.MPI
SCF.Mixer.Weight 0.01
SCF.Mixer.History 6
%block SCF.Mixers
  pulay
  pulay-GR
%endblock
%block SCF.Mixer.pulay
  method pulay
  iterations 12
  next pulay-GR
%endblock
%block SCF.Mixer.pulay-GR
  method pulay
  variant GR
  iterations 12
  next pulay
%endblock
************************** End of input data file *****************************

reinit: -----------------------------------------------------------------------
reinit: System Name: Linear Fe3 cluster.
reinit: -----------------------------------------------------------------------
reinit: System Label: pulay
reinit: -----------------------------------------------------------------------

initatom: Reading input for the pseudopotentials and atomic orbitals ----------
Species number:   1 Atomic number:   26 Label: Fe_nc


---- Processing specs for species: Fe_nc
Ground state valence configuration:   4s02  3d06
Reading pseudopotential information in formatted form from:
  /home/fnpedron/Siesta/siesta-dev/Tests/Pseudos/Fe_nc.psf

---- Pseudopotential check for Fe

Pseudized shells:
4s( 1.00) rc: 2.00
4p( 0.00) rc: 2.00
3d( 7.00) rc: 2.00
4f( 0.00) rc: 2.00
Valence configuration for ps generation: (assumed as above)
For Fe_nc, standard SIESTA heuristics set lmxkb to 3
 (one more than the basis l, including polarization orbitals).
Use PS.lmax or PS.KBprojectors blocks to override.

<basis_specs>
===============================================================================
Fe_nc                Z=  26    Mass=  55.845        Charge= 0.17977+309
Lmxo=2 Lmxkb= 3    BasisType=split      Semic=F
L=0  Nsemic=0  Cnfigmx=4
          i=1  nzeta=1  polorb=0  (4s)
            splnorm:   0.15000    
               vcte:    0.0000    
               rinn:    0.0000    
               qcoe:    0.0000    
               qyuk:    0.0000    
               qwid:   0.10000E-01
                rcs:    0.0000    
            lambdas:    1.0000    
L=1  Nsemic=0  Cnfigmx=4
          i=1  nzeta=0  polorb=0  (4p)  (empty shell (??) )
L=2  Nsemic=0  Cnfigmx=3
          i=1  nzeta=1  polorb=0  (3d)
            splnorm:   0.15000    
               vcte:    0.0000    
               rinn:    0.0000    
               qcoe:    0.0000    
               qyuk:    0.0000    
               qwid:   0.10000E-01
                rcs:    0.0000    
            lambdas:    1.0000    
-------------------------------------------------------------------------------
L=0  Nkbl=1  erefs: 0.17977+309
L=1  Nkbl=1  erefs: 0.17977+309
L=2  Nkbl=1  erefs: 0.17977+309
L=3  Nkbl=1  erefs: 0.17977+309
===============================================================================
</basis_specs>

atom: Called for Fe_nc                 (Z =  26)

read_vps: Pseudopotential generation method:
read_vps: ATM3      Troullier-Martins                       
Valence charge in pseudo generation:    8.00000

read_vps: Pseudopotential includes a core correction:
read_vps: Pseudo-core for xc-correction

xc_check: Exchange-correlation functional:
xc_check: Ceperley-Alder
V l=0 = -2*Zval/r beyond r=  2.8345
V l=1 = -2*Zval/r beyond r=  2.8345
V l=2 = -2*Zval/r beyond r=  2.8345
V l=3 = -2*Zval/r beyond r=  2.8345
All V_l potentials equal beyond r=  1.9726
This should be close to max(r_c) in ps generation
All pots = -2*Zval/r beyond r=  2.8345
Using large-core scheme (fit) for Vlocal

atom: Estimated core radius    2.83451
Fit of Vlocal with continuous 2nd derivative
Fitting vlocal at       2.0480
Choosing vlocal chloc cutoff:833  3.132630
qtot up to nchloc:    7.99939873
atom: Maximum radius for chlocal:    3.13263
atom: Maximum radius for r*vlocal+2*Zval:    3.13263

KBgen: Kleinman-Bylander projectors: 
GHOST: No ghost state for L =  0
   l= 0   rc=  2.047986   el= -0.319855   Ekb=  3.923406   kbcos=  0.252820
GHOST: No ghost state for L =  1
   l= 1   rc=  2.047986   el= -0.070931   Ekb=  3.313875   kbcos=  0.157841
GHOST: No ghost state for L =  2
   l= 2   rc=  2.022544   el= -0.307264   Ekb=-12.478630   kbcos= -0.654791
GHOST: No ghost state for L =  3
   l= 3   rc=  2.047986   el=  0.003534   Ekb= -1.656634   kbcos= -0.005966

KBgen: Total number of Kleinman-Bylander projectors:  16
atom: -------------------------------------------------------------------------

atom: SANKEY-TYPE ORBITALS:

SPLIT: Orbitals with angular momentum L= 0

SPLIT: Basis orbitals for state 4s

SPLIT: PAO cut-off radius determined from an
SPLIT: energy shift=  0.020000 Ry

   izeta = 1
                 lambda =    1.000000
                     rc =    6.799774
                 energy =   -0.302238
                kinetic =    0.298810
    potential(screened) =   -0.601048
       potential(ionic) =   -5.818758

SPLIT: Orbitals with angular momentum L= 2

SPLIT: Basis orbitals for state 3d

SPLIT: PAO cut-off radius determined from an
SPLIT: energy shift=  0.020000 Ry

   izeta = 1
                 lambda =    1.000000
                     rc =    4.022404
                 energy =   -0.287031
                kinetic =    8.952870
    potential(screened) =   -9.239901
       potential(ionic) =  -18.247427
atom: Total number of Sankey-type orbitals:  6

atm_pop: Valence configuration (for local Pseudopot. screening):
 4s( 2.00)                                                            
 4p( 0.00)                                                            
 3d( 6.00)                                                            
Vna: chval, zval:    8.00000   8.00000

Vna:  Cut-off radius for the neutral-atom potential:   6.799774
comcore: Pseudo-core radius Rcore=  3.874354

atom: _________________________________________________________________________

prinput: Basis input 

PAO.BasisType split     

%block ChemicalSpeciesLabel
    1   26 Fe_nc                   # Species index, atomic number, species label
%endblock ChemicalSpeciesLabel

%block PAO.Basis                 # Define Basis set
# WARNING: This information might be incomplete!
Fe_nc                 2                    # Species label, number of l-shells
 n=4   0   1                         # n, l, Nzeta 
   6.800   
   1.000   
 n=3   2   1                         # n, l, Nzeta 
   4.022   
   1.000   
%endblock PAO.Basis

prinput: ----------------------------------------------------------------------

Dumping basis to NetCDF file Fe_nc.ion.nc
coor:   Atomic-coordinates input format  =     Cartesian coordinates
coor:                                            (in Bohr units)

siesta: Atomic coordinates (Bohr) and species
siesta:      0.00000   0.00000   3.64400  1        1
siesta:      0.00000   0.00000   0.00000  1        2
siesta:      0.00000   0.00000  -3.64400  1        3

siesta: System type = bulk      

initatomlists: Number of atoms, orbitals, and projectors:      3    18    48

siesta: ******************** Simulation parameters ****************************
siesta:
siesta: The following are some of the parameters of the simulation.
siesta: A complete list of the parameters used, including default values,
siesta: can be found in file out.fdf
siesta:
redata: Spin configuration                          = non-collinear
redata: Number of spin components                   = 4
redata: Time-Reversal Symmetry                      = F
redata: Spin spiral                                 = F
redata: Long output                                 =   F
redata: Number of Atomic Species                    =        1
redata: Charge density info will appear in .RHO file
redata: Write Mulliken Pop.                         = Atomic and Orbital charges
redata: Matel table size (NRTAB)                    =     1024
redata: Mesh Cutoff                                 =   150.0000 Ry
redata: Net charge of the system                    =     0.0000 |e|
redata: Min. number of SCF Iter                     =        0
redata: Max. number of SCF Iter                     =     1000
redata: SCF convergence failure will abort job
redata: SCF mix quantity                            = Hamiltonian
redata: Mix DM or H after convergence               =   F
redata: Recompute H after scf cycle                 =   F
redata: Mix DM in first SCF step                    =   T
redata: Write Pulay info on disk                    =   F
redata: New DM Occupancy tolerance                  = 0.000000000001
redata: No kicks to SCF
redata: DM Mixing Weight for Kicks                  =     0.5000
redata: Require Harris convergence for SCF          =   F
redata: Harris energy tolerance for SCF             =     0.000100 eV
redata: Require DM convergence for SCF              =   T
redata: DM tolerance for SCF                        =     0.000100
redata: Require EDM convergence for SCF             =   F
redata: EDM tolerance for SCF                       =     0.001000 eV
redata: Require H convergence for SCF               =   T
redata: Hamiltonian tolerance for SCF               =     0.001000 eV
redata: Require (free) Energy convergence for SCF   =   F
redata: (free) Energy tolerance for SCF             =     0.000100 eV
redata: Using DFT-D3 dispersion                     =   F
redata: Using Saved Data (generic)                  =   F
redata: Use continuation files for DM               =   F
redata: Neglect nonoverlap interactions             =   F
redata: Method of Calculation                       = Diagonalization
redata: Electronic Temperature                      =   299.9863 K
redata: Fix the spin of the system                  =   F
redata: Max. number of TDED Iter                    =        1
redata: Number of TDED substeps                     =        3
redata: Dynamics option                             = Single-point calculation
mix.SCF: Debug messages                          = T
mix.SCF: Pulay mixing                            = pulay
mix.SCF:    Variant                              = stable
mix.SCF:    History steps                        = 6
mix.SCF:    Linear mixing weight                 =     0.010000
mix.SCF:    Mixing weight                        =     0.010000
mix.SCF:    SVD condition                        = 0.1000E-07
mix.SCF:    Number of mixing iterations          = 12
mix.SCF:    Following mixer                      = pulay-GR
mix.SCF: Pulay mixing                            = pulay-GR
mix.SCF:    Variant                              = GR
mix.SCF:    History steps                        = 6
mix.SCF:    Linear mixing weight                 =     0.010000
mix.SCF:    Mixing weight                        =     0.010000
mix.SCF:    SVD condition                        = 0.1000E-07
mix.SCF:    Number of mixing iterations          = 12
mix.SCF:    Following mixer                      = pulay
mix.SCF: Spin-component mixing                   all
redata: Save all siesta data in one NC              =   F
redata: ***********************************************************************

%block SCF.Mixers
  pulay
  pulay-GR
%endblock SCF.Mixers

%block SCF.Mixer.pulay
  # Mixing method
  method pulay
  variant stable

  # Mixing options
  weight 0.0100
  weight.linear 0.0100
  history 6

  # Continuation options
  iterations 12
  next pulay-GR
%endblock SCF.Mixer.pulay

%block SCF.Mixer.pulay-GR
  # Mixing method
  method pulay
  variant GR

  # Mixing options
  weight 0.0100
  weight.linear 0.0100
  history 6

  # Continuation options
  iterations 12
  next pulay
%endblock SCF.Mixer.pulay-GR

DM_history_depth set to one: no extrapolation allowed by default for geometry relaxation
Size of DM history Fstack: 1
Total number of electrons:    24.000000
Total ionic charge:    24.000000

siesta: k-grid: Number of k-points = 1
siesta: k-point is Gamma-only

diag: Algorithm                                     = D&C
diag: Used triangular part                          = Lower
diag: Absolute tolerance                            =  0.100E-15
diag: Orthogonalization factor                      =  0.100E-05
diag: Memory factor                                 =  1.0000


ts: **************************************************************
ts: Save H and S matrices                           =    F
ts: Save DM and EDM matrices                        =    F
ts: Only save the overlap matrix S                  =    F
ts: **************************************************************

************************ Begin: TS CHECKS AND WARNINGS ************************
************************ End: TS CHECKS AND WARNINGS **************************


                     ====================================
                        Single-point calculation
                     ====================================

outcell: Unit cell vectors (Ang):
        6.350127    0.000000    0.000000
        0.000000    6.350127    0.000000
        0.000000    0.000000   10.583544

outcell: Cell vector modules (Ang)   :    6.350127    6.350127   10.583544
outcell: Cell angles (23,13,12) (deg):     90.0000     90.0000     90.0000
outcell: Cell volume (Ang**3)        :    426.7720
Gamma-point calculation with interaction between periodic images
Some features might not work optimally:
e.g. DM initialization from atomic data
<dSpData1D:S at geom step 0
  <sparsity:sparsity for geom step 0
    nrows_g=18 nrows=18 sparsity=1.0000 nnzs=324, refcount: 7>
  <dData1D:(new from dSpData1D) n=324, refcount: 1>
refcount: 1>
new_DM -- step:     1
Initializing Density Matrix...
DM filled with atomic data (user-defined):
<dSpData2D:DM initialized from atoms
  <sparsity:sparsity for geom step 0
    nrows_g=18 nrows=18 sparsity=1.0000 nnzs=324, refcount: 8>
  <dData2D:DM n=324 m=4, refcount: 1>
refcount: 1>
     spin moment: {S} , |S| = {    1.50000    0.00000    0.00000 }     1.50000
No. of atoms with KB's overlaping orbs in proc 0. Max # of overlaps:       3      18

InitMesh: MESH = 48 x 48 x 80 = 184320
InitMesh: Mesh cutoff (required, used) =   150.000   157.914 Ry
New grid distribution [1]: sub = 2

stepf: Fermi-Dirac step function

siesta: Program's energy decomposition (eV):
siesta: Ebs     =       225.224791
siesta: Eions   =      2141.467523
siesta: Ena     =        95.468485
siesta: Ekin    =      2791.346684
siesta: Enl     =     -1766.502620
siesta: Eso     =         0.000000
siesta: Edftu   =         0.000000
siesta: DEna    =      -106.367583
siesta: DUscf   =        49.261886
siesta: DUext   =         0.000000
siesta: Ex      =     -1114.844763
siesta: Ec      =       -97.620483
siesta: Exc     =     -1212.465246
siesta: EbV     =         0.000000
siesta: eta*DQ  =         0.000000
siesta: Emadel  =         0.000000
siesta: Emeta   =         0.000000
siesta: Emolmec =         0.000000
siesta: Ekinion =         0.000000
siesta: Eharris =     -2224.472955
siesta: Etot    =     -2290.725918
siesta: FreeEng =     -2290.833616

        iscf     Eharris(eV)        E_KS(eV)     FreeEng(eV)     dDmax    Ef(eV) dHmax(eV)
   scf:    1    -2224.472955    -2290.725918    -2290.833616  0.980577 -7.864557 33.987724
     spin moment: {S} , |S| = {    1.74296    0.00000   -0.00000 }     1.74296
mix (0): Pulay
mix (0): Pulay (initial), alpha = 0.1000E-01
timer: Routine,Calls,Time,% = IterSCF        1       0.045  17.79
   scf:    2    -2300.110529    -2295.574110    -2295.670313  0.098145 -7.736078 31.114776
     spin moment: {S} , |S| = {    1.63642    0.00000   -0.00000 }     1.63642
mix (0): Pulay
mix (0): n_hist = 2 / 6
mix (0): G =   0.010000, sum(alpha) = 0.9615E+01, alpha =  0.9615E+01
   scf:    3    -2162.683289    -2274.754565    -2274.754603  0.447891 -6.119914 23.454073
     spin moment: {S} , |S| = {    2.31871    0.00000    0.00000 }     2.31871
mix (0): Pulay
mix (0): n_hist = 3 / 6
mix (0): G =   0.010000, sum(alpha) = 0.4115E+02, alpha =  0.4422E+02 -.3075E+01
mix (0): f(x)[coeff] == 0 :   0.1438E+02,0.0000E+00
   scf:    4    -1624.070697    -2011.854673    -2011.854673  0.662001 -3.072866 79.345703
     spin moment: {S} , |S| = {    0.03181    0.00000    0.00000 }     0.03181
mix (0): Pulay
mix (0): n_hist = 4 / 6
mix (0): G =   0.010000, sum(alpha) = 0.1285E+02, alpha =  0.1596E+02 -.5320E+01 0.2214E+01
mix (0): f(x)[coeff] == 0 :   0.1201E+01,0.2401E+01  0.1201E+01,-.2401E+01
   scf:    5    -1971.196805    -1991.674763    -1991.674763  0.037377 -4.177433 80.262288
     spin moment: {S} , |S| = {    0.01799    0.00000    0.00000 }     0.01799
mix (0): Pulay
mix (0): n_hist = 5 / 6
mix (0): G =   0.010000, sum(alpha) = -.8755E+01, alpha =  -.3251E+00 -.3445E+00 -.9088E+00 -.7177E+01
mix (0): f(x)[coeff] == 0 :   -.3534E+00,0.0000E+00  0.1134E+00,0.3396E+00  0.1134E+00,-.3396E+00
   scf:    6    -1762.208430    -2234.308001    -2234.375388  2.188181  3.688422 30.940218
     spin moment: {S} , |S| = {    0.40692    0.00000    0.00000 }     0.40692
mix (0): Pulay
mix (0): n_hist = 6 / 6
mix (0): G =   0.010000, sum(alpha) = -.6155E+01, alpha =  0.2699E+00 -.1928E+00 -.8003E+00 -.4603E+01 -.8296E+00
mix (0): f(x)[coeff] == 0 :   0.3045E+00,0.0000E+00  -.2368E+00,0.3776E+00  -.2368E+00,-.3776E+00  -.5378E+01,0.0000E+00
   scf:    7    -2282.162527    -2259.130706    -2259.197114  0.382711  0.988996 24.869585
     spin moment: {S} , |S| = {    0.41091    0.00000    0.00000 }     0.41091
mix (0): Pulay
mix (0): n_hist = 6 / 6
mix (0): G =   0.010000, sum(alpha) = -.6747E+01, alpha =  -.1759E+00 -.7043E+00 -.5004E+01 -.7522E+00 -.1101E+00
mix (0): f(x)[coeff] == 0 :   -.6919E-01,0.1764E+00  -.6919E-01,-.1764E+00  -.3346E+01,0.5769E+01  -.3346E+01,-.5769E+01
   scf:    8    -2293.361856    -2276.951299    -2277.006633  0.739833  0.655572 23.629845
     spin moment: {S} , |S| = {    0.64691    0.00000    0.00000 }     0.64691
mix (0): Pulay
mix (0): n_hist = 6 / 6
mix (0): G =   0.010000, sum(alpha) = -.5228E+01, alpha =  -.6295E+00 -.2738E+01 -.6228E+00 -.6540E+00 -.5831E+00
mix (0): f(x)[coeff] == 0 :   0.4575E+00,0.1513E+01  0.4575E+00,-.1513E+01  -.1796E+01,0.0000E+00  -.2404E+00,0.0000E+00
   scf:    9    -2306.750705    -2292.690184    -2292.690220  0.768586 -0.300513 23.343130
     spin moment: {S} , |S| = {    0.73621    0.00000   -0.00000 }     0.73621
mix (0): Pulay
mix (0): n_hist = 6 / 6
mix (0): G =   0.010000, sum(alpha) = 0.1473E+01, alpha =  0.1993E+01 -.1438E+00 0.2086E+01 0.8222E-02 -.2470E+01
mix (0): f(x)[coeff] == 0 :   -.1203E+01,0.0000E+00  0.1514E-01,0.7552E+00  0.1514E-01,-.7552E+00  0.1176E+01,0.0000E+00
   scf:   10    -1980.836969    -2240.321556    -2240.321925  0.963941 -5.899233 28.452078
     spin moment: {S} , |S| = {    2.23946    0.00000   -0.00000 }     2.23946
mix (0): Pulay
mix (0): n_hist = 6 / 6
mix (0): G =   0.010000, sum(alpha) = -.1225E+01, alpha =  0.4169E-01 0.2104E-01 0.3355E+00 -.1159E+01 -.4641E+00
mix (0): f(x)[coeff] == 0 :   0.4395E+00,0.0000E+00  -.8957E-01,0.2570E+00  -.8957E-01,-.2570E+00  -.2759E+01,0.0000E+00
   scf:   11    -2231.528224    -2312.200075    -2312.200076  0.915961 -1.839064 15.916823
     spin moment: {S} , |S| = {    0.88954    0.00000   -0.00000 }     0.88954
mix (0): Pulay
mix (0): n_hist = 6 / 6
mix (0): G =   0.010000, sum(alpha) = -.4325E+01, alpha =  0.5865E+00 -.1423E+00 -.9306E+00 -.1622E+01 -.2216E+01
mix (0): f(x)[coeff] == 0 :   0.4821E+00,0.0000E+00  -.8097E+00,0.0000E+00  -.2022E+00,0.7981E+00  -.2022E+00,-.7981E+00
   scf:   12    -2311.941644    -2312.071046    -2312.071049  0.009185 -1.577709 15.687099
     spin moment: {S} , |S| = {    0.90832    0.00000   -0.00000 }     0.90832
mix (0): Pulay
mix (0): n_hist = 6 / 6
mix (0): G =   0.010000, sum(alpha) = -.7441E+01, alpha =  0.1804E+00 -.1167E+01 -.9176E+00 -.1449E+01 -.4087E+01
mix (0): f(x)[coeff] == 0 :   -.7169E+00,0.0000E+00  0.1133E+00,0.6638E+00  0.1133E+00,-.6638E+00  0.1358E+00,0.0000E+00
mix (0): switching mixer --> pulay-GR
   scf:   13    -2306.686019    -2309.437977    -2309.437978  0.016418 -2.120723 17.935770
     spin moment: {S} , |S| = {    0.79054    0.00000   -0.00000 }     0.79054
mix (0): Pulay, GR
mix (0): Direct mixing, alpha = 0.1000E-01
   scf:   14    -2320.256674    -2315.162846    -2315.162848  0.036521 -2.062997 14.137560
     spin moment: {S} , |S| = {    0.92342    0.00000   -0.00000 }     0.92342
mix (0): Pulay, GR
mix (0): n_hist = 2 / 6
mix (0): G =   0.010000, sum(alpha) = 0.3819E+01, alpha =  0.3819E+01
   scf:   15    -2272.725638    -2314.174459    -2314.179475  0.340668 -2.047988 15.669453
     spin moment: {S} , |S| = {    1.94010    0.00000   -0.00000 }     1.94010
mix (0): Pulay, GR
mix (0): Direct mixing, alpha = 0.1000E-01
   scf:   16    -2325.145204    -2320.255688    -2320.258544  0.053844 -2.031556 10.583378
     spin moment: {S} , |S| = {    1.85718    0.00000   -0.00000 }     1.85718
mix (0): Pulay, GR
mix (0): n_hist = 3 / 6
mix (0): G =   0.010000, sum(alpha) = -.7689E-01, alpha =  -.2712E+00 0.1943E+00
mix (0): f(x)[coeff] == 0 :   0.1396E+01,0.0000E+00
   scf:   17    -2314.309273    -2323.313892    -2323.313961  0.196065 -2.024449  5.649821
     spin moment: {S} , |S| = {    1.27354    0.00000   -0.00000 }     1.27354
mix (0): Pulay, GR
mix (0): Direct mixing, alpha = 0.1000E-01
   scf:   18    -2325.217825    -2324.388009    -2324.388159  0.028039 -2.025037  3.332465
     spin moment: {S} , |S| = {    1.37253    0.00000   -0.00000 }     1.37253
mix (0): Pulay, GR
mix (0): n_hist = 4 / 6
mix (0): G =   0.010000, sum(alpha) = 0.3826E+02, alpha =  -.4449E+01 -.2313E+01 0.4502E+02
mix (0): f(x)[coeff] == 0 :   -.2897E+00,0.0000E+00  0.3411E+00,0.0000E+00
   scf:   19    -2286.085675    -2309.850768    -2309.850768  0.143276 -2.251545 17.794643
     spin moment: {S} , |S| = {    0.83576    0.00000   -0.00000 }     0.83576
mix (0): Pulay, GR
mix (0): Direct mixing, alpha = 0.1000E-01
   scf:   20    -2320.979333    -2315.765610    -2315.765612  0.037981 -2.210205 13.797628
     spin moment: {S} , |S| = {    0.97839    0.00000   -0.00000 }     0.97839
mix (0): Pulay, GR
mix (0): n_hist = 5 / 6
mix (0): G =   0.010000, sum(alpha) = 0.1311E+02, alpha =  0.2139E+01 0.1900E+01 0.3336E+01 0.5737E+01
mix (0): f(x)[coeff] == 0 :   -.7749E+00,0.0000E+00  0.9676E-01,0.6869E+00  0.9676E-01,-.6869E+00
   scf:   21    -2261.015604    -2310.972106    -2310.975584  0.390940 -2.803136 17.233527
     spin moment: {S} , |S| = {    1.84165    0.00000    0.00000 }     1.84165
mix (0): Pulay, GR
mix (0): Direct mixing, alpha = 0.1000E-01
   scf:   22    -2325.656283    -2319.167643    -2319.170326  0.065368 -2.777286 11.175356
     spin moment: {S} , |S| = {    1.85461    0.00000   -0.00000 }     1.85461
mix (0): Pulay, GR
mix (0): n_hist = 6 / 6
mix (0): G =   0.010000, sum(alpha) = 0.1518E+02, alpha =  0.7133E+01 0.6659E+01 0.4995E+01 -.1706E+01 -.1901E+01
mix (0): f(x)[coeff] == 0 :   0.1929E+01,0.0000E+00  -.4768E+00,0.9007E+00  -.4768E+00,-.9007E+00  -.1873E+01,0.0000E+00
   scf:   23    -2326.154492    -2323.215480    -2323.217103  0.057005 -2.748030  6.286217
     spin moment: {S} , |S| = {    1.77034    0.00000    0.00000 }     1.77034
mix (0): Pulay, GR
mix (0): Direct mixing, alpha = 0.1000E-01
   scf:   24    -2325.327879    -2324.421566    -2324.422664  0.031201 -2.742304  3.736535
     spin moment: {S} , |S| = {    1.70318    0.00000    0.00000 }     1.70318
mix (0): Pulay, GR
mix (0): n_hist = 6 / 6
mix (0): G =   0.010000, sum(alpha) = 0.2072E+02, alpha =  -.1896E+01 -.2431E+00 0.8742E-01 -.9405E+00 0.2371E+02
mix (0): f(x)[coeff] == 0 :   0.5493E+00,0.0000E+00  -.5115E+00,0.0000E+00  0.9131E-03,0.5334E+00  0.9131E-03,-.5334E+00
mix (0): switching mixer --> pulay
   scf:   25    -2323.853858    -2324.151399    -2324.152455  0.011690 -2.734862  4.440783
     spin moment: {S} , |S| = {    1.70916    0.00000   -0.00000 }     1.70916
mix (0): Pulay
mix (0): n_hist = 6 / 6
mix (0): G =   0.010000, sum(alpha) = -.3517E+01, alpha =  -.3024E+00 -.2958E+00 -.4391E+00 -.2084E+01 -.3960E+00
mix (0): f(x)[coeff] == 0 :   0.1634E+00,0.5116E+00  0.1634E+00,-.5116E+00  -.5225E+00,0.0000E+00  -.5067E+01,0.0000E+00
   scf:   26    -2312.336094    -2321.933036    -2321.933070  0.164571 -2.566285  8.172368
     spin moment: {S} , |S| = {    1.23732    0.00000   -0.00000 }     1.23732
mix (0): Pulay
mix (0): n_hist = 6 / 6
mix (0): G =   0.010000, sum(alpha) = 0.5624E+01, alpha =  0.3126E+00 0.3323E+00 0.3742E+01 0.6561E+00 0.5812E+00
mix (0): f(x)[coeff] == 0 :   -.3839E-01,0.2903E+00  -.3839E-01,-.2903E+00  -.5260E+00,0.2448E+01  -.5260E+00,-.2448E+01
   scf:   27    -2309.373612    -2321.876606    -2321.878384  0.209386 -2.766861  8.199141
     spin moment: {S} , |S| = {    1.79685    0.00000   -0.00000 }     1.79685
mix (0): Pulay
mix (0): n_hist = 6 / 6
mix (0): G =   0.010000, sum(alpha) = 0.3468E+01, alpha =  -.5478E-01 0.3424E+01 0.4498E+00 0.5077E+00 -.8590E+00
mix (0): f(x)[coeff] == 0 :   -.6761E+00,0.1271E+01  -.6761E+00,-.1271E+01  0.1596E-01,0.0000E+00  0.1927E+01,0.0000E+00
   scf:   28    -2326.188400    -2324.836861    -2324.837531  0.076192 -2.329179  2.714881
     spin moment: {S} , |S| = {    1.66205    0.00000   -0.00000 }     1.66205
mix (0): Pulay
mix (0): n_hist = 6 / 6
mix (0): G =   0.010000, sum(alpha) = 0.9858E+01, alpha =  -.5523E+01 0.6378E+00 0.4891E+01 0.4642E+01 0.5211E+01
mix (0): f(x)[coeff] == 0 :   0.6923E+00,0.0000E+00  -.1041E+01,0.0000E+00  -.2709E+00,0.1182E+01  -.2709E+00,-.1182E+01
   scf:   29    -2320.510529    -2323.078039    -2323.079480  0.054619 -2.689044  6.550337
     spin moment: {S} , |S| = {    1.75657    0.00000    0.00000 }     1.75657
mix (0): Pulay
mix (0): n_hist = 6 / 6
mix (0): G =   0.010000, sum(alpha) = 0.5101E+01, alpha =  0.9537E+00 0.5097E+01 0.2962E+01 -.5412E+00 -.3371E+01
mix (0): f(x)[coeff] == 0 :   0.1379E+01,0.0000E+00  -.2132E+00,0.0000E+00  -.6633E+00,0.7226E+00  -.6633E+00,-.7226E+00
   scf:   30    -2323.922070    -2323.512970    -2323.514232  0.008037 -2.698730  5.800209
     spin moment: {S} , |S| = {    1.75615    0.00000    0.00000 }     1.75615
mix (0): Pulay
mix (0): n_hist = 6 / 6
mix (0): G =   0.010000, sum(alpha) = -.5151E+02, alpha =  -.4781E+01 -.5436E+01 -.1488E+02 -.1711E+02 -.9301E+01
mix (0): f(x)[coeff] == 0 :   0.4371E-01,0.6041E+00  0.4371E-01,-.6041E+00  -.9636E+00,0.6875E+00  -.9636E+00,-.6875E+00
   scf:   31    -2325.228534    -2325.095843    -2325.096309  0.071717 -2.650843  0.198378
     spin moment: {S} , |S| = {    1.54376    0.00000   -0.00000 }     1.54376
mix (0): Pulay
mix (0): n_hist = 6 / 6
mix (0): G =   0.010000, sum(alpha) = -.2520E+02, alpha =  -.1708E+00 -.1128E+02 -.1328E+02 -.2253E+01 0.1788E+01
mix (0): f(x)[coeff] == 0 :   -.1542E-01,0.0000E+00  -.1221E+01,0.4208E+00  -.1221E+01,-.4208E+00  0.3716E+01,0.0000E+00
   scf:   32    -2325.062705    -2325.083201    -2325.083665  0.003711 -2.645715  0.621097
     spin moment: {S} , |S| = {    1.55148    0.00000   -0.00000 }     1.55148
mix (0): Pulay
mix (0): n_hist = 6 / 6
mix (0): G =   0.010000, sum(alpha) = 0.3067E+01, alpha =  0.1082E+01 0.1388E+01 -.8498E+00 0.2062E+00 0.1241E+01
mix (0): f(x)[coeff] == 0 :   0.7722E+00,0.8222E+00  0.7722E+00,-.8222E+00  -.6395E+00,0.0000E+00  -.1071E+01,0.0000E+00
   scf:   33    -2325.102319    -2325.101504    -2325.101877  0.012425 -2.649303  0.050455
     spin moment: {S} , |S| = {    1.47920    0.00000   -0.00000 }     1.47920
mix (0): Pulay
mix (0): n_hist = 6 / 6
mix (0): G =   0.010000, sum(alpha) = 0.6193E+01, alpha =  -.1665E+01 0.1560E+02 -.6205E+01 -.1648E+02 0.1494E+02
mix (0): f(x)[coeff] == 0 :   -.8801E+00,0.0000E+00  0.1133E+00,0.0000E+00  0.9347E+00,0.4942E+00  0.9347E+00,-.4942E+00
   scf:   34    -2325.071788    -2325.091652    -2325.091952  0.009101 -2.639256  0.487335
     spin moment: {S} , |S| = {    1.47856    0.00000    0.00000 }     1.47856
mix (0): Pulay
mix (0): n_hist = 6 / 6
mix (0): G =   0.010000, sum(alpha) = -.1705E+00, alpha =  -.7190E-01 -.5170E-01 0.9379E-01 -.2956E+00 0.1549E+00
mix (0): f(x)[coeff] == 0 :   -.4400E+00,0.0000E+00  0.2955E+00,0.7162E+00  0.2955E+00,-.7162E+00  0.1757E+01,0.0000E+00
   scf:   35    -2325.103028    -2325.102947    -2325.103284  0.006836 -2.637563  0.027065
     spin moment: {S} , |S| = {    1.51362    0.00000    0.00000 }     1.51362
mix (0): Pulay
mix (0): n_hist = 6 / 6
mix (0): G =   0.010000, sum(alpha) = -.1106E-01, alpha =  -.4152E-02 -.2421E-01 0.1883E-01 0.1457E-02 -.2988E-02
mix (0): f(x)[coeff] == 0 :   -.2774E+01,0.0000E+00  -.1534E+00,0.0000E+00  0.1707E+01,0.5920E+00  0.1707E+01,-.5920E+00
   scf:   36    -2325.102954    -2325.102951    -2325.103287  0.000089 -2.638173  0.026243
     spin moment: {S} , |S| = {    1.51310    0.00000    0.00000 }     1.51310
mix (0): Pulay
mix (0): n_hist = 6 / 6
mix (0): G =   0.010000, sum(alpha) = 0.6253E+02, alpha =  0.1651E+01 -.2044E+01 0.4704E+00 -.2889E+01 0.6534E+02
mix (0): f(x)[coeff] == 0 :   -.2692E+00,0.3310E+00  -.2692E+00,-.3310E+00  0.2913E+00,0.2324E+00  0.2913E+00,-.2324E+00
mix (0): switching mixer --> pulay-GR
   scf:   37    -2325.104375    -2325.103601    -2325.103920  0.002852 -2.661407  0.015846
     spin moment: {S} , |S| = {    1.53684    0.00000   -0.00000 }     1.53684
mix (0): Pulay, GR
mix (0): Direct mixing, alpha = 0.1000E-01
   scf:   38    -2325.103616    -2325.103609    -2325.103927  0.000055 -2.661433  0.016466
     spin moment: {S} , |S| = {    1.53691    0.00000   -0.00000 }     1.53691
mix (0): Pulay, GR
mix (0): n_hist = 6 / 6
mix (0): G =   0.010000, sum(alpha) = 0.9707E+02, alpha =  -.5655E-02 0.5455E-02 0.1295E-02 -.1621E-01 0.9709E+02
mix (0): f(x)[coeff] == 0 :   -.8910E-01,0.0000E+00  0.1882E-02,0.8742E-01  0.1882E-02,-.8742E-01  0.8550E-01,0.0000E+00
   scf:   39    -2325.104532    -2325.104000    -2325.104304  0.002037 -2.666254  0.015879
     spin moment: {S} , |S| = {    1.55725    0.00000    0.00005 }     1.55725
mix (0): Pulay, GR
mix (0): Direct mixing, alpha = 0.1000E-01
   scf:   40    -2325.104023    -2325.104013    -2325.104316  0.000100 -2.666275  0.009097
     spin moment: {S} , |S| = {    1.55720    0.00000    0.00002 }     1.55720
mix (0): Pulay, GR
mix (0): n_hist = 6 / 6
mix (0): G =   0.010000, sum(alpha) = 0.1448E+01, alpha =  0.4703E-03 0.2795E-02 -.2789E-02 0.8063E-02 0.1439E+01
mix (0): f(x)[coeff] == 0 :   0.9768E-01,0.1173E+00  0.9768E-01,-.1173E+00  -.1005E+00,0.6268E-01  -.1005E+00,-.6268E-01
   scf:   41    -2325.103993    -2325.104016    -2325.104318  0.000275 -2.666620  0.018110
     spin moment: {S} , |S| = {    1.55704    0.00000   -0.00002 }     1.55704
mix (0): Pulay, GR
mix (0): Direct mixing, alpha = 0.1000E-01
   scf:   42    -2325.104032    -2325.104025    -2325.104327  0.000079 -2.666630  0.011863
     spin moment: {S} , |S| = {    1.55743    0.00000   -0.00001 }     1.55743
mix (0): Pulay, GR
mix (0): n_hist = 6 / 6
mix (0): G =   0.010000, sum(alpha) = 0.1279E+03, alpha =  -.1177E-01 0.3026E-01 0.2013E-01 0.1912E+02 0.1088E+03
mix (0): f(x)[coeff] == 0 :   0.7082E-01,0.0000E+00  -.2512E-01,0.8457E-01  -.2512E-01,-.8457E-01  -.1963E+00,0.0000E+00
   scf:   43    -2325.101492    -2325.103213    -2325.103512  0.003380 -2.674600  0.153405
     spin moment: {S} , |S| = {    1.59897    0.00000    0.00003 }     1.59897
mix (0): Pulay, GR
mix (0): Direct mixing, alpha = 0.1000E-01
   scf:   44    -2325.104549    -2325.103983    -2325.104277  0.000827 -2.674600  0.086792
     spin moment: {S} , |S| = {    1.59700    0.00000    0.00001 }     1.59700
mix (0): Pulay, GR
mix (0): n_hist = 6 / 6
mix (0): G =   0.010000, sum(alpha) = -.6494E+00, alpha =  0.1780E-01 0.1837E-02 0.9887E-02 -.9564E-01 -.5833E+00
mix (0): f(x)[coeff] == 0 :   0.3949E+00,0.0000E+00  -.4272E-01,0.4018E+00  -.4272E-01,-.4018E+00  -.4734E+00,0.0000E+00
   scf:   45    -2325.104449    -2325.104273    -2325.104563  0.000859 -2.673717  0.036034
     spin moment: {S} , |S| = {    1.59166    0.00000    0.00001 }     1.59166
mix (0): Pulay, GR
mix (0): Direct mixing, alpha = 0.1000E-01
   scf:   46    -2325.104359    -2325.104322    -2325.104611  0.000208 -2.673699  0.019426
     spin moment: {S} , |S| = {    1.59128    0.00000    0.00000 }     1.59128
mix (0): Pulay, GR
mix (0): n_hist = 6 / 6
mix (0): G =   0.010000, sum(alpha) = 0.3138E+01, alpha =  0.1006E+00 -.8297E+00 -.1481E+00 -.4271E+00 0.4443E+01
mix (0): f(x)[coeff] == 0 :   -.3040E+00,0.4826E+00  -.3040E+00,-.4826E+00  0.5853E+00,0.0000E+00  0.1189E+00,0.0000E+00
   scf:   47    -2325.104297    -2325.104331    -2325.104619  0.000422 -2.672977  0.011482
     spin moment: {S} , |S| = {    1.58855    0.00000    0.00004 }     1.58855
mix (0): Pulay, GR
mix (0): Direct mixing, alpha = 0.1000E-01
   scf:   48    -2325.104337    -2325.104335    -2325.104623  0.000054 -2.672954  0.007557
     spin moment: {S} , |S| = {    1.58882    0.00000    0.00002 }     1.58882
mix (0): Pulay, GR
mix (0): n_hist = 6 / 6
mix (0): G =   0.010000, sum(alpha) = 0.6412E+01, alpha =  -.1095E+01 0.3243E+00 0.6598E+00 0.6603E+00 0.5863E+01
mix (0): f(x)[coeff] == 0 :   -.6749E+00,0.0000E+00  0.5624E+00,0.0000E+00  -.6349E-04,0.7015E+00  -.6349E-04,-.7015E+00
mix (0): switching mixer --> pulay
   scf:   49    -2325.104461    -2325.104390    -2325.104674  0.000864 -2.673897  0.004590
     spin moment: {S} , |S| = {    1.59746    0.00000   -0.00002 }     1.59746
mix (0): Pulay
mix (0): n_hist = 6 / 6
mix (0): G =   0.010000, sum(alpha) = 0.6332E+00, alpha =  -.4955E-01 0.4676E-01 -.1363E-01 0.7217E+00 -.7207E-01
mix (0): f(x)[coeff] == 0 :   -.1767E+00,0.3954E+00  -.1767E+00,-.3954E+00  0.3666E+00,0.0000E+00  0.1000E+02,0.0000E+00
   scf:   50    -2325.104337    -2325.104359    -2325.104646  0.000516 -2.671138  0.004933
     spin moment: {S} , |S| = {    1.59432    0.00000   -0.00001 }     1.59432
mix (0): Pulay
mix (0): n_hist = 6 / 6
mix (0): G =   0.010000, sum(alpha) = 0.6603E-01, alpha =  0.1332E-03 0.1826E-02 0.5797E-01 0.4274E-03 0.5669E-02
mix (0): f(x)[coeff] == 0 :   -.1575E-01,0.4528E-01  -.1575E-01,-.4528E-01  -.2195E-01,0.3197E+01  -.2195E-01,-.3197E+01
   scf:   51    -2325.104360    -2325.104359    -2325.104647  0.000013 -2.671167  0.004923
     spin moment: {S} , |S| = {    1.59451    0.00000   -0.00000 }     1.59451
mix (0): Pulay
mix (0): n_hist = 6 / 6
mix (0): G =   0.010000, sum(alpha) = 0.5090E+01, alpha =  -.9531E-02 -.3769E+00 -.2231E-02 -.6300E-01 0.5542E+01
mix (0): f(x)[coeff] == 0 :   0.4204E+00,0.0000E+00  -.1919E+00,0.3536E+00  -.1919E+00,-.3536E+00  -.2528E-01,0.0000E+00
   scf:   52    -2325.104371    -2325.104365    -2325.104652  0.000099 -2.671209  0.004834
     spin moment: {S} , |S| = {    1.59556    0.00000    0.00001 }     1.59556
mix (0): Pulay
mix (0): n_hist = 6 / 6
mix (0): G =   0.010000, sum(alpha) = -.1559E+01, alpha =  -.4894E+00 0.8943E-02 0.5365E-01 -.4623E+01 0.3491E+01
mix (0): f(x)[coeff] == 0 :   -.4290E+00,0.0000E+00  0.1934E+00,0.4491E+00  0.1934E+00,-.4491E+00  0.1367E+01,0.0000E+00
   scf:   53    -2325.104406    -2325.104385    -2325.104671  0.000342 -2.671093  0.004504
     spin moment: {S} , |S| = {    1.59931    0.00000    0.00002 }     1.59931
mix (0): Pulay
mix (0): n_hist = 6 / 6
mix (0): G =   0.010000, sum(alpha) = 0.1668E+01, alpha =  0.5448E-02 0.8800E-01 0.9099E-01 -.7727E-01 0.1560E+01
mix (0): f(x)[coeff] == 0 :   0.2015E+00,0.3754E+00  0.2015E+00,-.3754E+00  -.2862E+00,0.0000E+00  -.6720E-01,0.0000E+00
   scf:   54    -2325.104446    -2325.104412    -2325.104697  0.000537 -2.670867  0.003992
     spin moment: {S} , |S| = {    1.60541    0.00000    0.00001 }     1.60541
mix (0): Pulay
mix (0): n_hist = 6 / 6
mix (0): G =   0.010000, sum(alpha) = 0.4768E+01, alpha =  -.6563E+00 -.8694E+01 0.2746E+02 -.3312E+02 0.1977E+02
mix (0): f(x)[coeff] == 0 :   -.6228E-01,0.0000E+00  0.6872E+00,0.0000E+00  0.5249E+00,0.7070E+00  0.5249E+00,-.7070E+00
   scf:   55    -2325.104671    -2325.104494    -2325.104773  0.002232 -2.672974  0.002441
     spin moment: {S} , |S| = {    1.63113    0.00000    0.00001 }     1.63113
mix (0): Pulay
mix (0): n_hist = 6 / 6
mix (0): G =   0.010000, sum(alpha) = -.3699E+00, alpha =  -.1094E+01 0.7451E+00 0.7516E-01 -.1279E+00 0.3188E-01
mix (0): f(x)[coeff] == 0 :   -.2288E+01,0.0000E+00  0.2326E+01,0.1923E+01  0.2326E+01,-.1923E+01  0.1647E+01,0.0000E+00
   scf:   56    -2325.104498    -2325.104496    -2325.104775  0.000093 -2.673059  0.002353
     spin moment: {S} , |S| = {    1.63213    0.00000    0.00001 }     1.63213
mix (0): Pulay
mix (0): n_hist = 6 / 6
mix (0): G =   0.010000, sum(alpha) = 0.1154E+02, alpha =  -.1131E+01 0.1097E+01 -.8219E+00 -.2905E+00 0.1268E+02
mix (0): f(x)[coeff] == 0 :   -.6371E+00,0.0000E+00  0.7755E-01,0.5209E+00  0.7755E-01,-.5209E+00  0.5049E+00,0.0000E+00
   scf:   57    -2325.104513    -2325.104504    -2325.104783  0.000350 -2.673542  0.002736
     spin moment: {S} , |S| = {    1.63537    0.00000   -0.00000 }     1.63537
mix (0): Pulay
mix (0): n_hist = 6 / 6
mix (0): G =   0.010000, sum(alpha) = 0.4537E+02, alpha =  -.2542E+01 0.1304E+01 -.1369E+01 0.5148E+02 -.3508E+01
mix (0): f(x)[coeff] == 0 :   -.1650E+00,0.3347E+00  -.1650E+00,-.3347E+00  0.3552E+00,0.0000E+00  0.1465E+02,0.0000E+00
   scf:   58    -2325.104516    -2325.104509    -2325.104788  0.000314 -2.673377  0.003127
     spin moment: {S} , |S| = {    1.63887    0.00000   -0.00001 }     1.63887
mix (0): Pulay
mix (0): n_hist = 6 / 6
mix (0): G =   0.010000, sum(alpha) = 0.4448E+02, alpha =  -.1104E+01 -.1342E+01 0.4959E+02 -.4212E+01 0.1553E+01
mix (0): f(x)[coeff] == 0 :   -.1355E+00,0.0000E+00  0.1645E+00,0.0000E+00  0.1342E+01,0.5484E+01  0.1342E+01,-.5484E+01
   scf:   59    -2325.104509    -2325.104509    -2325.104789  0.000103 -2.672770  0.003155
     spin moment: {S} , |S| = {    1.63919    0.00000    0.00000 }     1.63919
mix (0): Pulay
mix (0): n_hist = 6 / 6
mix (0): G =   0.010000, sum(alpha) = 0.3942E+02, alpha =  -.1184E+01 0.4489E+02 -.3341E+01 -.5478E+00 -.3998E+00
mix (0): f(x)[coeff] == 0 :   0.3881E+01,0.0000E+00  0.2644E-01,0.0000E+00  -.2639E+01,0.4681E+01  -.2639E+01,-.4681E+01
   scf:   60    -2325.104515    -2325.104512    -2325.104791  0.000164 -2.672840  0.002801
     spin moment: {S} , |S| = {    1.64090    0.00000    0.00001 }     1.64090
mix (0): Pulay
mix (0): n_hist = 6 / 6
mix (0): G =   0.010000, sum(alpha) = 0.5056E+01, alpha =  0.6296E+01 -.3884E+00 -.1718E+01 0.4488E+00 0.4176E+00
mix (0): f(x)[coeff] == 0 :   0.1485E+01,0.1004E+01  0.1485E+01,-.1004E+01  -.2023E+01,0.7737E+00  -.2023E+01,-.7737E+00
mix (0): switching mixer --> pulay-GR
   scf:   61    -2325.104512    -2325.104512    -2325.104790  0.000097 -2.673231  0.002318
     spin moment: {S} , |S| = {    1.64086    0.00000    0.00001 }     1.64086
mix (0): Pulay, GR
mix (0): Direct mixing, alpha = 0.1000E-01
   scf:   62    -2325.104512    -2325.104512    -2325.104790  0.000010 -2.673234  0.002519
     spin moment: {S} , |S| = {    1.64094    0.00000    0.00001 }     1.64094
mix (0): Pulay, GR
mix (0): n_hist = 6 / 6
mix (0): G =   0.010000, sum(alpha) = 0.1784E+01, alpha =  0.2969E-01 0.1538E+00 -.2135E+00 0.8663E-01 0.1727E+01
mix (0): f(x)[coeff] == 0 :   0.3097E+00,0.3362E+00  0.3097E+00,-.3362E+00  -.1620E+00,0.0000E+00  -.5077E+00,0.0000E+00
   scf:   63    -2325.104517    -2325.104514    -2325.104791  0.000187 -2.673574  0.002031
     spin moment: {S} , |S| = {    1.64269    0.00000   -0.00002 }     1.64269
mix (0): Pulay, GR
mix (0): Direct mixing, alpha = 0.1000E-01
   scf:   64    -2325.104514    -2325.104514    -2325.104791  0.000018 -2.673575  0.002050
     spin moment: {S} , |S| = {    1.64279    0.00000   -0.00001 }     1.64279
mix (0): Pulay, GR
mix (0): n_hist = 6 / 6
mix (0): G =   0.010000, sum(alpha) = -.5897E+00, alpha =  0.2138E+00 -.4499E+00 0.1105E+00 -.1086E+01 0.6221E+00
mix (0): f(x)[coeff] == 0 :   -.2309E+00,0.6517E+00  -.2309E+00,-.6517E+00  0.3971E+00,0.0000E+00  0.1811E+01,0.0000E+00
   scf:   65    -2325.104512    -2325.104513    -2325.104790  0.000083 -2.673447  0.001860
     spin moment: {S} , |S| = {    1.64174    0.00000    0.00001 }     1.64174
mix (0): Pulay, GR
mix (0): Direct mixing, alpha = 0.1000E-01
   scf:   66    -2325.104513    -2325.104513    -2325.104791  0.000014 -2.673449  0.002221
     spin moment: {S} , |S| = {    1.64183    0.00000    0.00000 }     1.64183
mix (0): Pulay, GR
mix (0): n_hist = 6 / 6
mix (0): G =   0.010000, sum(alpha) = 0.4458E+02, alpha =  0.5372E+00 0.1044E+00 -.7322E+00 0.5025E+01 0.3964E+02
mix (0): f(x)[coeff] == 0 :   0.2216E+00,0.2364E+00  0.2216E+00,-.2364E+00  -.2849E+00,0.2188E+00  -.2849E+00,-.2188E+00
   scf:   67    -2325.104507    -2325.104507    -2325.104788  0.000411 -2.672332  0.001589
     spin moment: {S} , |S| = {    1.63866    0.00000   -0.00002 }     1.63866
mix (0): Pulay, GR
mix (0): Direct mixing, alpha = 0.1000E-01
   scf:   68    -2325.104507    -2325.104507    -2325.104788  0.000010 -2.672339  0.001585
     spin moment: {S} , |S| = {    1.63873    0.00000   -0.00001 }     1.63873
mix (0): Pulay, GR
mix (0): n_hist = 6 / 6
mix (0): G =   0.010000, sum(alpha) = 0.2256E+02, alpha =  -.2845E-01 0.2795E+01 -.3235E+01 0.5407E+00 0.2249E+02
mix (0): f(x)[coeff] == 0 :   0.2857E+00,0.3480E+00  0.2857E+00,-.3480E+00  0.1030E-01,0.0000E+00  -.6058E+00,0.0000E+00
   scf:   69    -2325.104538    -2325.104518    -2325.104799  0.000635 -2.673241  0.001339
     spin moment: {S} , |S| = {    1.64688    0.00000   -0.00001 }     1.64688
mix (0): Pulay, GR
mix (0): Direct mixing, alpha = 0.1000E-01
   scf:   70    -2325.104518    -2325.104518    -2325.104799  0.000005 -2.673241  0.001339
     spin moment: {S} , |S| = {    1.64694    0.00000   -0.00001 }     1.64694
mix (0): Pulay, GR
mix (0): n_hist = 6 / 6
mix (0): G =   0.010000, sum(alpha) = 0.6322E+02, alpha =  0.5400E+01 -.6306E+01 0.1229E+01 -.1176E+01 0.6407E+02
mix (0): f(x)[coeff] == 0 :   -.3743E+00,0.4668E+00  -.3743E+00,-.4668E+00  0.3835E+00,0.2972E+00  0.3835E+00,-.2972E+00
   scf:   71    -2325.104533    -2325.104524    -2325.104804  0.000464 -2.673441  0.001202
     spin moment: {S} , |S| = {    1.65324    0.00000   -0.00002 }     1.65324
mix (0): Pulay, GR
mix (0): Direct mixing, alpha = 0.1000E-01
   scf:   72    -2325.104524    -2325.104524    -2325.104804  0.000006 -2.673440  0.001201
     spin moment: {S} , |S| = {    1.65329    0.00000   -0.00001 }     1.65329
mix (0): Pulay, GR
mix (0): n_hist = 6 / 6
mix (0): G =   0.010000, sum(alpha) = 0.9487E+01, alpha =  -.2093E+01 0.4061E+00 -.2391E+00 0.1655E+01 0.9758E+01
mix (0): f(x)[coeff] == 0 :   0.6284E+00,0.0000E+00  -.1860E-01,0.6696E+00  -.1860E-01,-.6696E+00  -.7608E+00,0.0000E+00
mix (0): switching mixer --> pulay
   scf:   73    -2325.104540    -2325.104528    -2325.104810  0.000643 -2.673350  0.001030
     spin moment: {S} , |S| = {    1.66306    0.00000    0.00000 }     1.66306
mix (0): Pulay
mix (0): n_hist = 6 / 6
mix (0): G =   0.010000, sum(alpha) = -.5756E+00, alpha =  -.1339E+00 -.2102E+00 -.4390E-01 -.2611E+00 0.7337E-01
mix (0): f(x)[coeff] == 0 :   -.5063E+00,0.0000E+00  0.6897E-01,0.9555E+00  0.6897E-01,-.9555E+00  0.3926E+01,0.0000E+00
   scf:   74    -2325.104528    -2325.104528    -2325.104810  0.000071 -2.673365  0.000795
     spin moment: {S} , |S| = {    1.66308    0.00000    0.00000 }     1.66308

SCF Convergence by DM+H criterion
max |DM_out - DM_in|         :     0.0000711932
max |H_out - H_in|      (eV) :     0.0007953388
SCF cycle converged after 74 iterations
mix (0): resetting history of all mixers

Using DM_out to compute the final energy and forces
No. of atoms with KB's overlaping orbs in proc 0. Max # of overlaps:       3      18

siesta: E_KS(eV) =            -2325.1045

siesta: E_KS - E_eggbox =     -2325.1045
     spin moment: {S} , |S| = {    1.66308    0.00000    0.00000 }     1.66308

siesta: Atomic forces (eV/Ang):
----------------------------------------
   Tot    0.000000   -0.000000    0.000000
----------------------------------------
   Max    0.211627
   Res    0.099760    sqrt( Sum f_i^2 / 3N )
----------------------------------------
   Max    0.211627    constrained

Stress tensor Voigt[x,y,z,yz,xz,xy] (kbar):        7.90        7.90        1.24        0.00       -0.00        0.00
(Free)E + p*V (eV/cell)    -2326.6174
Target enthalpy (eV/cell)    -2325.1048

mulliken: Atomic and Orbital Populations:

Species: Fe_nc               

Atom      Orb        Charge      Spin       Svec
----------------------------------------------------------------
    1  1 4s         1.50464   0.08148     -0.015   0.000   0.080
    1  2 3dxy       1.26503   0.73011      0.085   0.000   0.725
    1  3 3dyz       1.35721   0.52939      0.012   0.000   0.529
    1  4 3dz2       1.35370   0.52386      0.022   0.000   0.523
    1  5 3dxz       1.35721   0.52939      0.012   0.000   0.529
    1  6 3dx2-y2    1.26490   0.73023      0.085   0.000   0.725
    1     Total     8.10269   3.11886      0.201   0.000   3.112

    2  1 4s         1.01239   0.03956      0.040   0.000  -0.000
    2  2 3dxy       1.46996   0.43151      0.432   0.000  -0.000
    2  3 3dyz       1.28558   0.12254      0.123   0.000  -0.000
    2  4 3dz2       1.27093   0.11388      0.114   0.000  -0.000
    2  5 3dxz       1.28558   0.12254      0.123   0.000  -0.000
    2  6 3dx2-y2    1.47018   0.43129      0.431   0.000  -0.000
    2     Total     7.79461   1.26132      1.261   0.000  -0.000

    3  1 4s         1.50464   0.08148     -0.015   0.000  -0.080
    3  2 3dxy       1.26503   0.73011      0.085   0.000  -0.725
    3  3 3dyz       1.35721   0.52939      0.012   0.000  -0.529
    3  4 3dz2       1.35370   0.52386      0.022   0.000  -0.523
    3  5 3dxz       1.35721   0.52939      0.012   0.000  -0.529
    3  6 3dx2-y2    1.26491   0.73023      0.085   0.000  -0.725
    3     Total     8.10270   3.11886      0.201   0.000  -3.112

----------------------------------------------------------------
Total              24.00000   1.66308      1.663   0.000   0.000


siesta: Program's energy decomposition (eV):
siesta: Ebs     =      -117.177631
siesta: Eions   =      2141.467523
siesta: Ena     =        95.468485
siesta: Ekin    =      2390.274913
siesta: Enl     =     -1485.931023
siesta: Eso     =         0.000000
siesta: Edftu   =         0.000000
siesta: DEna    =       -34.931946
siesta: DUscf   =         4.059536
siesta: DUext   =         0.000000
siesta: Ex      =     -1057.860146
siesta: Ec      =       -94.716824
siesta: Exc     =     -1152.576970
siesta: EbV     =         0.000000
siesta: eta*DQ  =         0.000000
siesta: Emadel  =         0.000000
siesta: Emeta   =         0.000000
siesta: Emolmec =         0.000000
siesta: Ekinion =         0.000000
siesta: Eharris =     -2325.104528
siesta: Etot    =     -2325.104528
siesta: FreeEng =     -2325.104810

siesta: Final energy (eV):
siesta:  Band Struct. =    -117.177631
siesta:       Kinetic =    2390.274913
siesta:       Hartree =    1426.681838
siesta:         Edftu =       0.000000
siesta:       Eso     =       0.000000
siesta:    Ext. field =       0.000000
siesta:         Exch. =   -1057.860146
siesta:         Corr. =     -94.716824
siesta:     Bulk bias =       0.000000
siesta:   Exch.-corr. =   -1152.576970
siesta:  Ion-electron =   -4795.787979
siesta:       Ion-ion =    -193.696330
siesta:       Ekinion =       0.000000
siesta: D3 dispersion =       0.000000
siesta:         Total =   -2325.104528
siesta:         Fermi =      -2.673365

siesta: Atomic forces (eV/Ang):
siesta:      1    0.000000    0.000000   -0.211627
siesta:      2    0.000000    0.000000    0.000007
siesta:      3   -0.000000   -0.000000    0.211621
siesta: ----------------------------------------
siesta:    Tot    0.000000   -0.000000    0.000000

siesta: Stress tensor (static) (eV/Ang**3):
siesta:     0.004930    0.000000   -0.000000
siesta:     0.000000    0.004930    0.000000
siesta:    -0.000000    0.000000    0.000772

siesta: Cell volume =        426.771969 Ang**3

siesta: Pressure (static):
siesta:                Solid            Molecule  Units
siesta:          -0.00003860         -0.00003166  Ry/Bohr**3
siesta:          -0.00354425         -0.00290678  eV/Ang**3
siesta:          -5.67850979         -4.65717654  kBar
(Free)E+ p_basis*V_orbitals  =       -2324.222697
(Free)Eharris+ p_basis*V_orbitals  =       -2324.222697
     spin moment: {S} , |S| = {    1.66308    0.00000    0.00000 }     1.66308

cite: Please see "pulay.bib" for an exhaustive BiBTeX file.
cite: Please clearly indicate Siesta version in published work: 5.0.0-alpha-120-g24fa496ce-dirty
cite: This calculation has made use of the following articles
cite: which are encouraged to be cited in a published work.
        Primary SIESTA paper
          DOI: www.doi.org/10.1088/0953-8984/14/11/302


timer: Elapsed wall time (sec) =       3.627
timer: CPU execution times (sec):

Routine            Calls   Time/call    Tot.time        %
siesta                 1       3.621       3.621   100.00
Setup                  1       0.019       0.019     0.52
bands                  1       0.000       0.000     0.00
KSV_init               1       0.000       0.000     0.00
IterGeom               1       3.601       3.601    99.47
geom_init              1       0.189       0.189     5.22
state_init             1       0.014       0.014     0.38
hsparse                1       0.000       0.000     0.00
overlap                1       0.013       0.013     0.37
Setup_H0               1       0.133       0.133     3.67
naefs                  2       0.000       0.000     0.00
MolMec                 2       0.000       0.000     0.00
kinefsm                2       0.006       0.012     0.32
nlefsm                 2       0.038       0.077     2.12
DHSCF_Init             1       0.045       0.045     1.24
DHSCF1                 1       0.008       0.008     0.22
INITMESH               1       0.000       0.000     0.00
DHSCF2                 1       0.037       0.037     1.02
REMESH                 1       0.003       0.003     0.08
REORD                628       0.000       0.110     3.04
PHION                  1       0.018       0.018     0.51
COMM_BSC            1222       0.000       0.172     4.75
POISON                77       0.005       0.378    10.45
fft                  154       0.002       0.303     8.38
setup_H               75       0.044       3.324    91.82
DHSCF                 76       0.045       3.404    94.01
DHSCF3                76       0.044       3.353    92.62
rhoofd                76       0.003       0.261     7.22
XC                    76       0.026       1.991    54.98
GXC-CellXC            76       0.023       1.773    48.96
vmat                  76       0.003       0.246     6.78
IterSCF               74       0.045       3.315    91.56
compute_dm            74       0.000       0.021     0.57
diagon                74       0.000       0.020     0.56
cdiag                 74       0.000       0.015     0.41
cdiag1                74       0.000       0.001     0.03
cdiag2                74       0.000       0.002     0.05
cdiag3                74       0.000       0.010     0.28
cdiag4                74       0.000       0.001     0.03
MIXER                 73       0.000       0.004     0.10
PostSCF                1       0.096       0.096     2.66
DHSCF4                 1       0.050       0.050     1.39
dfscf                  1       0.035       0.035     0.98
overfsm                1       0.000       0.000     0.00
state_analysis         1       0.000       0.000     0.01
siesta_move            1       0.000       0.000     0.00
Analysis               1       0.000       0.000     0.00
optical                1       0.000       0.000     0.00
  

>> End of run:  25-SEP-2023   9:44:10
Job completed
