Siesta Version  : 5.0.0-alpha-120-g24fa496ce-dirty
Architecture    : ----
Compiler version: GNU-11.4.0
Compiler flags  : -fallow-argument-mismatch;-O3 -march=native
PP flags        : ----
Libraries       : ----
Parallelisations: none
GEMM3M support
NetCDF support
NetCDF-4 support
Lua support

Runtime information:
* Directory : /home/fnpedron/Siesta/siesta-dev/Tests/02.SpinPolarization/work/fe_noncol
* Running in serial mode.
>> Start of run:  25-SEP-2023   9:43:43

                           *********************** 
                           *  WELCOME TO SIESTA  * 
                           *********************** 

reinit: Reading from standard input
reinit: Dumping input in INPUT_TMP.73131
************************** Dump of input data file ****************************
%include ../../basejob.fdf
SystemLabel         fe_noncol
Spin non-collinear
************************** End of input data file *****************************

reinit: -----------------------------------------------------------------------
reinit: System Name: Linear Fe3 cluster
reinit: -----------------------------------------------------------------------
reinit: System Label: fe_noncol
reinit: -----------------------------------------------------------------------

initatom: Reading input for the pseudopotentials and atomic orbitals ----------
Species number:   1 Atomic number:   26 Label: Fe_nc


---- Processing specs for species: Fe_nc
Ground state valence configuration:   4s02  3d06
Reading pseudopotential information in formatted form from:
  /home/fnpedron/Siesta/siesta-dev/Tests/Pseudos/Fe_nc.psf

---- Pseudopotential check for Fe

Pseudized shells:
4s( 1.00) rc: 2.00
4p( 0.00) rc: 2.00
3d( 7.00) rc: 2.00
4f( 0.00) rc: 2.00
Valence configuration for ps generation: (assumed as above)
For Fe_nc, standard SIESTA heuristics set lmxkb to 3
 (one more than the basis l, including polarization orbitals).
Use PS.lmax or PS.KBprojectors blocks to override.

<basis_specs>
===============================================================================
Fe_nc                Z=  26    Mass=  55.845        Charge= 0.17977+309
Lmxo=2 Lmxkb= 3    BasisType=split      Semic=F
L=0  Nsemic=0  Cnfigmx=4
          i=1  nzeta=1  polorb=1  (4s)  (to be polarized perturbatively)
            splnorm:   0.15000    
               vcte:    0.0000    
               rinn:    0.0000    
               qcoe:    0.0000    
               qyuk:    0.0000    
               qwid:   0.10000E-01
                rcs:    0.0000    
            lambdas:    1.0000    
L=1  Nsemic=0  Cnfigmx=4
          i=1  nzeta=0  polorb=0  (4p)  (perturbative polarization orbital) (from 4s)
L=2  Nsemic=0  Cnfigmx=3
          i=1  nzeta=1  polorb=0  (3d)
            splnorm:   0.15000    
               vcte:    0.0000    
               rinn:    0.0000    
               qcoe:    0.0000    
               qyuk:    0.0000    
               qwid:   0.10000E-01
                rcs:    0.0000    
            lambdas:    1.0000    
-------------------------------------------------------------------------------
L=0  Nkbl=1  erefs: 0.17977+309
L=1  Nkbl=1  erefs: 0.17977+309
L=2  Nkbl=1  erefs: 0.17977+309
L=3  Nkbl=1  erefs: 0.17977+309
===============================================================================
</basis_specs>

atom: Called for Fe_nc                 (Z =  26)

read_vps: Pseudopotential generation method:
read_vps: ATM3      Troullier-Martins                       
Valence charge in pseudo generation:    8.00000

read_vps: Pseudopotential includes a core correction:
read_vps: Pseudo-core for xc-correction

xc_check: Exchange-correlation functional:
xc_check: Ceperley-Alder
V l=0 = -2*Zval/r beyond r=  2.8345
V l=1 = -2*Zval/r beyond r=  2.8345
V l=2 = -2*Zval/r beyond r=  2.8345
V l=3 = -2*Zval/r beyond r=  2.8345
All V_l potentials equal beyond r=  1.9726
This should be close to max(r_c) in ps generation
All pots = -2*Zval/r beyond r=  2.8345
Using large-core scheme (fit) for Vlocal

atom: Estimated core radius    2.83451
Fit of Vlocal with continuous 2nd derivative
Fitting vlocal at       2.0480
Choosing vlocal chloc cutoff:833  3.132630
qtot up to nchloc:    7.99939873
atom: Maximum radius for chlocal:    3.13263
atom: Maximum radius for r*vlocal+2*Zval:    3.13263

KBgen: Kleinman-Bylander projectors: 
GHOST: No ghost state for L =  0
   l= 0   rc=  2.047986   el= -0.319855   Ekb=  3.923406   kbcos=  0.252820
GHOST: No ghost state for L =  1
   l= 1   rc=  2.047986   el= -0.070931   Ekb=  3.313875   kbcos=  0.157841
GHOST: No ghost state for L =  2
   l= 2   rc=  2.022544   el= -0.307264   Ekb=-12.478630   kbcos= -0.654791
GHOST: No ghost state for L =  3
   l= 3   rc=  2.047986   el=  0.003534   Ekb= -1.656634   kbcos= -0.005966

KBgen: Total number of Kleinman-Bylander projectors:  16
atom: -------------------------------------------------------------------------

atom: SANKEY-TYPE ORBITALS:

SPLIT: Orbitals with angular momentum L= 0

SPLIT: Basis orbitals for state 4s

SPLIT: PAO cut-off radius determined from an
SPLIT: energy shift=  0.020000 Ry

   izeta = 1
                 lambda =    1.000000
                     rc =    6.799774
                 energy =   -0.302238
                kinetic =    0.298810
    potential(screened) =   -0.601048
       potential(ionic) =   -5.818758

SPLIT: Orbitals with angular momentum L= 2

SPLIT: Basis orbitals for state 3d

SPLIT: PAO cut-off radius determined from an
SPLIT: energy shift=  0.020000 Ry

   izeta = 1
                 lambda =    1.000000
                     rc =    4.022404
                 energy =   -0.287031
                kinetic =    8.952870
    potential(screened) =   -9.239901
       potential(ionic) =  -18.247427

POLgen: Perturbative polarization orbital with L=  1

POLgen: Polarization orbital for state 4s

   izeta = 1
                     rc =    6.799774
                 energy =   -0.003154
                kinetic =    0.566601
    potential(screened) =   -0.569755
       potential(ionic) =   -5.393577
atom: Total number of Sankey-type orbitals:  9

atm_pop: Valence configuration (for local Pseudopot. screening):
 4s( 2.00)                                                            
 4p( 0.00)                                                            
 3d( 6.00)                                                            
Vna: chval, zval:    8.00000   8.00000

Vna:  Cut-off radius for the neutral-atom potential:   6.799774
comcore: Pseudo-core radius Rcore=  3.874354

atom: _________________________________________________________________________

prinput: Basis input 

PAO.BasisType split     

%block ChemicalSpeciesLabel
    1   26 Fe_nc                   # Species index, atomic number, species label
%endblock ChemicalSpeciesLabel

%block PAO.Basis                 # Define Basis set
# WARNING: This information might be incomplete!
Fe_nc                 2                    # Species label, number of l-shells
 n=4   0   1 P   1                   # n, l, Nzeta, Polarization, NzetaPol
   6.800   
   1.000   
 n=3   2   1                         # n, l, Nzeta 
   4.022   
   1.000   
%endblock PAO.Basis

prinput: ----------------------------------------------------------------------

Dumping basis to NetCDF file Fe_nc.ion.nc
coor:   Atomic-coordinates input format  =     Cartesian coordinates
coor:                                            (in Bohr units)

siesta: Atomic coordinates (Bohr) and species
siesta:      0.00000   0.00000   3.64400  1        1
siesta:      0.00000   0.00000   0.00000  1        2
siesta:      0.00000   0.00000  -3.64400  1        3

siesta: System type = bulk      

initatomlists: Number of atoms, orbitals, and projectors:      3    27    48

siesta: ******************** Simulation parameters ****************************
siesta:
siesta: The following are some of the parameters of the simulation.
siesta: A complete list of the parameters used, including default values,
siesta: can be found in file out.fdf
siesta:
redata: Spin configuration                          = non-collinear
redata: Number of spin components                   = 4
redata: Time-Reversal Symmetry                      = F
redata: Spin spiral                                 = F
redata: Long output                                 =   F
redata: Number of Atomic Species                    =        1
redata: Charge density info will appear in .RHO file
redata: Write Mulliken Pop.                         = Atomic and Orbital charges
redata: Matel table size (NRTAB)                    =     1024
redata: Mesh Cutoff                                 =   100.0000 Ry
redata: Net charge of the system                    =     0.0000 |e|
redata: Min. number of SCF Iter                     =        0
redata: Max. number of SCF Iter                     =       20
redata: SCF mix quantity                            = Hamiltonian
redata: Mix DM or H after convergence               =   F
redata: Recompute H after scf cycle                 =   F
redata: Mix DM in first SCF step                    =   T
redata: Write Pulay info on disk                    =   F
redata: New DM Occupancy tolerance                  = 0.000000000001
redata: No kicks to SCF
redata: DM Mixing Weight for Kicks                  =     0.5000
redata: Require Harris convergence for SCF          =   F
redata: Harris energy tolerance for SCF             =     0.000100 eV
redata: Require DM convergence for SCF              =   T
redata: DM tolerance for SCF                        =     0.000100
redata: Require EDM convergence for SCF             =   F
redata: EDM tolerance for SCF                       =     0.001000 eV
redata: Require H convergence for SCF               =   T
redata: Hamiltonian tolerance for SCF               =     0.001000 eV
redata: Require (free) Energy convergence for SCF   =   F
redata: (free) Energy tolerance for SCF             =     0.000100 eV
redata: Using DFT-D3 dispersion                     =   F
redata: Using Saved Data (generic)                  =   F
redata: Use continuation files for DM               =   F
redata: Neglect nonoverlap interactions             =   F
redata: Method of Calculation                       = Diagonalization
redata: Electronic Temperature                      =   299.9863 K
redata: Fix the spin of the system                  =   F
redata: Max. number of TDED Iter                    =        1
redata: Number of TDED substeps                     =        3
redata: Dynamics option                             = Single-point calculation
mix.SCF: Pulay mixing                            = Pulay
mix.SCF:    Variant                              = stable
mix.SCF:    History steps                        = 8
mix.SCF:    Linear mixing weight                 =     0.010000
mix.SCF:    Mixing weight                        =     0.010000
mix.SCF:    SVD condition                        = 0.1000E-07
mix.SCF: Spin-component mixing                   all
redata: Save all siesta data in one NC              =   F
redata: ***********************************************************************

%block SCF.Mixers
  Pulay
%endblock SCF.Mixers

%block SCF.Mixer.Pulay
  # Mixing method
  method pulay
  variant stable

  # Mixing options
  weight 0.0100
  weight.linear 0.0100
  history 8
%endblock SCF.Mixer.Pulay

DM_history_depth set to one: no extrapolation allowed by default for geometry relaxation
Size of DM history Fstack: 1
Total number of electrons:    24.000000
Total ionic charge:    24.000000

siesta: k-grid: Number of k-points = 1
siesta: k-point is Gamma-only

diag: Algorithm                                     = D&C
diag: Used triangular part                          = Lower
diag: Absolute tolerance                            =  0.100E-15
diag: Orthogonalization factor                      =  0.100E-05
diag: Memory factor                                 =  1.0000


ts: **************************************************************
ts: Save H and S matrices                           =    F
ts: Save DM and EDM matrices                        =    F
ts: Only save the overlap matrix S                  =    F
ts: **************************************************************

************************ Begin: TS CHECKS AND WARNINGS ************************
************************ End: TS CHECKS AND WARNINGS **************************


                     ====================================
                        Single-point calculation
                     ====================================

outcell: Unit cell vectors (Ang):
        6.350127    0.000000    0.000000
        0.000000    6.350127    0.000000
        0.000000    0.000000   10.583544

outcell: Cell vector modules (Ang)   :    6.350127    6.350127   10.583544
outcell: Cell angles (23,13,12) (deg):     90.0000     90.0000     90.0000
outcell: Cell volume (Ang**3)        :    426.7720
Gamma-point calculation with interaction between periodic images
Some features might not work optimally:
e.g. DM initialization from atomic data
<dSpData1D:S at geom step 0
  <sparsity:sparsity for geom step 0
    nrows_g=27 nrows=27 sparsity=1.0000 nnzs=729, refcount: 7>
  <dData1D:(new from dSpData1D) n=729, refcount: 1>
refcount: 1>
new_DM -- step:     1
Initializing Density Matrix...
DM filled with atomic data (user-defined):
<dSpData2D:DM initialized from atoms
  <sparsity:sparsity for geom step 0
    nrows_g=27 nrows=27 sparsity=1.0000 nnzs=729, refcount: 8>
  <dData2D:DM n=729 m=4, refcount: 1>
refcount: 1>
     spin moment: {S} , |S| = {    1.50000    0.00000    0.00000 }     1.50000
No. of atoms with KB's overlaping orbs in proc 0. Max # of overlaps:       3      27

InitMesh: MESH = 40 x 40 x 64 = 102400
InitMesh: Mesh cutoff (required, used) =   100.000   101.065 Ry
New grid distribution [1]: sub = 2

stepf: Fermi-Dirac step function

siesta: Program's energy decomposition (eV):
siesta: Ebs     =       224.836578
siesta: Eions   =      2141.467523
siesta: Ena     =        95.468485
siesta: Ekin    =      2765.029512
siesta: Enl     =     -1747.413769
siesta: Eso     =         0.000000
siesta: Edftu   =         0.000000
siesta: DEna    =      -102.909797
siesta: DUscf   =        50.578869
siesta: DUext   =         0.000000
siesta: Ex      =     -1112.140636
siesta: Ec      =       -97.433339
siesta: Exc     =     -1209.573975
siesta: EbV     =         0.000000
siesta: eta*DQ  =         0.000000
siesta: Emadel  =         0.000000
siesta: Emeta   =         0.000000
siesta: Emolmec =         0.000000
siesta: Ekinion =         0.000000
siesta: Eharris =     -2221.950815
siesta: Etot    =     -2290.288199
siesta: FreeEng =     -2290.381367

        iscf     Eharris(eV)        E_KS(eV)     FreeEng(eV)     dDmax    Ef(eV) dHmax(eV)
   scf:    1    -2221.950815    -2290.288199    -2290.381367  0.969409 -7.887703 35.200355
     spin moment: {S} , |S| = {    2.14859    0.00000   -0.00000 }     2.14859
timer: Routine,Calls,Time,% = IterSCF        1       0.034  11.56
   scf:    2    -2301.163326    -2295.930706    -2296.033980  0.117037 -7.768280 31.983963
     spin moment: {S} , |S| = {    2.05753    0.00000    0.00000 }     2.05753
   scf:    3    -2169.483657    -2279.376444    -2279.376650  0.487551 -6.361773 22.931403
     spin moment: {S} , |S| = {    2.32250    0.00000   -0.00000 }     2.32250
   scf:    4    -1617.063667    -2013.170598    -2013.170598  0.529797 -3.975990 79.788525
     spin moment: {S} , |S| = {    0.03461    0.00000   -0.00000 }     0.03461
   scf:    5    -1939.898771    -1977.009702    -1977.009702  0.057588 -4.207407 83.482248
     spin moment: {S} , |S| = {    0.01256    0.00000    0.00000 }     0.01256
   scf:    6    -1172.896262    -2095.236675    -2095.304086  0.995136  0.051751 46.011872
     spin moment: {S} , |S| = {    0.28030    0.00000   -0.00000 }     0.28030
   scf:    7    -2381.793907    -2269.262313    -2269.262313  0.995182 -2.892226 34.470913
     spin moment: {S} , |S| = {    0.43811    0.00000    0.00000 }     0.43811
   scf:    8    -2345.726751    -2316.955595    -2316.955597  0.189932 -3.756340 14.620405
     spin moment: {S} , |S| = {    0.96851    0.00000    0.00000 }     0.96851
   scf:    9    -2319.525435    -2318.263503    -2318.263508  0.010238 -3.849581 13.761427
     spin moment: {S} , |S| = {    1.00964    0.00000   -0.00000 }     1.00964
   scf:   10    -2267.757135    -2296.290810    -2296.290810  0.118492 -2.376343 23.170084
     spin moment: {S} , |S| = {    0.64344    0.00000    0.00000 }     0.64344
   scf:   11    -2129.294788    -2283.632503    -2283.635731  0.572707 -3.595853 30.381648
     spin moment: {S} , |S| = {    1.56924    0.00000    0.00000 }     1.56924
   scf:   12    -1920.506777    -2129.031226    -2129.031256  0.368186 -4.401352 62.264698
     spin moment: {S} , |S| = {    0.21537    0.00000   -0.00000 }     0.21537
   scf:   13    -2320.783699    -2326.604466    -2326.604922  0.721412 -4.020030  2.374758
     spin moment: {S} , |S| = {    1.52776    0.00000    0.00000 }     1.52776
   scf:   14    -2221.375044    -2292.760907    -2292.761028  0.424276 -3.429662 27.286796
     spin moment: {S} , |S| = {    0.81072    0.00000   -0.00000 }     0.81072
   scf:   15    -2120.171774    -2217.012607    -2217.012607  0.255806 -3.639772 47.945728
     spin moment: {S} , |S| = {    0.21327    0.00000   -0.00000 }     0.21327
   scf:   16    -2347.434214    -2325.613371    -2325.613572  0.558005 -3.452242  5.651680
     spin moment: {S} , |S| = {    1.01946    0.00000   -0.00000 }     1.01946
   scf:   17    -2323.211451    -2324.515433    -2324.515878  0.037419 -3.859034  7.106788
     spin moment: {S} , |S| = {    1.20571    0.00000   -0.00000 }     1.20571
   scf:   18    -2312.146987    -2319.100784    -2319.101221  0.087537 -3.721559 13.031374
     spin moment: {S} , |S| = {    1.13798    0.00000   -0.00000 }     1.13798
   scf:   19    -2327.291052    -2323.702991    -2323.703359  0.061468 -3.682398  8.442617
     spin moment: {S} , |S| = {    1.14089    0.00000   -0.00000 }     1.14089
   scf:   20    -2327.129928    -2326.817922    -2326.818110  0.123824 -3.826355  0.467275
     spin moment: {S} , |S| = {    1.11291    0.00000    0.00000 }     1.11291
SCF_NOT_CONV: SCF did not converge  in maximum number of steps.
Geom step, scf iteration, dmax:    0    20     0.034344

Using DM_out to compute the final energy and forces
No. of atoms with KB's overlaping orbs in proc 0. Max # of overlaps:       3      27

siesta: E_KS(eV) =            -2326.8179

siesta: E_KS - E_eggbox =     -2326.8179
     spin moment: {S} , |S| = {    1.11291    0.00000    0.00000 }     1.11291

siesta: Atomic forces (eV/Ang):
----------------------------------------
   Tot   -0.000000   -0.000000   -0.000000
----------------------------------------
   Max    0.979448
   Res    0.461716    sqrt( Sum f_i^2 / 3N )
----------------------------------------
   Max    0.979448    constrained

Stress tensor Voigt[x,y,z,yz,xz,xy] (kbar):        3.41        3.41        4.26        0.00        0.00       -0.00
(Free)E + p*V (eV/cell)    -2327.8020
Target enthalpy (eV/cell)    -2326.8181

mulliken: Atomic and Orbital Populations:

Species: Fe_nc               

Atom      Orb        Charge      Spin       Svec
----------------------------------------------------------------
    1  1 4s         1.43863   0.06777     -0.010   0.000   0.067
    1  2 3dxy       1.27887   0.71591      0.035   0.000   0.715
    1  3 3dyz       1.29096   0.52173     -0.010   0.000   0.522
    1  4 3dz2       1.36042   0.50493     -0.001   0.000   0.505
    1  5 3dxz       1.29096   0.52173     -0.010   0.000   0.522
    1  6 3dx2-y2    1.27796   0.71685      0.035   0.000   0.716
    1  7 4Ppy       0.02554   0.00458      0.000   0.000  -0.005
    1  8 4Ppz       0.00531   0.00277      0.002   0.000   0.002
    1  9 4Ppx       0.02554   0.00458      0.000   0.000  -0.005
    1     Total     7.99420   3.03970      0.040   0.000   3.039

    2  1 4s         1.02731   0.02212      0.022   0.000  -0.000
    2  2 3dxy       1.44225   0.36295      0.363   0.000  -0.000
    2  3 3dyz       1.25513   0.09054      0.091   0.000  -0.000
    2  4 3dz2       1.26136   0.08766      0.088   0.000  -0.000
    2  5 3dxz       1.25513   0.09054      0.091   0.000  -0.000
    2  6 3dx2-y2    1.44408   0.36164      0.362   0.000  -0.000
    2  7 4Ppy       0.11187   0.00737      0.007   0.000   0.000
    2  8 4Ppz       0.10262   0.00235      0.002   0.000  -0.000
    2  9 4Ppx       0.11187   0.00737      0.007   0.000   0.000
    2     Total     8.01161   1.03253      1.033   0.000  -0.000

    3  1 4s         1.43863   0.06777     -0.010   0.000  -0.067
    3  2 3dxy       1.27887   0.71591      0.035   0.000  -0.715
    3  3 3dyz       1.29096   0.52173     -0.010   0.000  -0.522
    3  4 3dz2       1.36042   0.50493     -0.001   0.000  -0.505
    3  5 3dxz       1.29096   0.52173     -0.010   0.000  -0.522
    3  6 3dx2-y2    1.27796   0.71685      0.035   0.000  -0.716
    3  7 4Ppy       0.02554   0.00458      0.000   0.000   0.005
    3  8 4Ppz       0.00531   0.00277      0.002   0.000  -0.002
    3  9 4Ppx       0.02554   0.00458      0.000   0.000   0.005
    3     Total     7.99420   3.03970      0.040   0.000  -3.039

----------------------------------------------------------------
Total              24.00000   1.11291      1.113   0.000   0.000


siesta: Program's energy decomposition (eV):
siesta: Ebs     =      -144.612706
siesta: Eions   =      2141.467523
siesta: Ena     =        95.468485
siesta: Ekin    =      2336.984183
siesta: Enl     =     -1449.057399
siesta: Eso     =         0.000000
siesta: Edftu   =         0.000000
siesta: DEna    =       -26.101183
siesta: DUscf   =         2.532957
siesta: DUext   =         0.000000
siesta: Ex      =     -1050.720188
siesta: Ec      =       -94.457253
siesta: Exc     =     -1145.177441
siesta: EbV     =         0.000000
siesta: eta*DQ  =         0.000000
siesta: Emadel  =         0.000000
siesta: Emeta   =         0.000000
siesta: Emolmec =         0.000000
siesta: Ekinion =         0.000000
siesta: Eharris =     -2327.129928
siesta: Etot    =     -2326.817922
siesta: FreeEng =     -2326.818110

siesta: Final energy (eV):
siesta:  Band Struct. =    -144.612706
siesta:       Kinetic =    2336.984183
siesta:       Hartree =    1400.077963
siesta:         Edftu =       0.000000
siesta:       Eso     =       0.000000
siesta:    Ext. field =       0.000000
siesta:         Exch. =   -1050.720188
siesta:         Corr. =     -94.457253
siesta:     Bulk bias =       0.000000
siesta:   Exch.-corr. =   -1145.177441
siesta:  Ion-electron =   -4724.994887
siesta:       Ion-ion =    -193.707740
siesta:       Ekinion =       0.000000
siesta: D3 dispersion =       0.000000
siesta:         Total =   -2326.817922
siesta:         Fermi =      -3.826355

siesta: Atomic forces (eV/Ang):
siesta:      1    0.000000   -0.000000    0.979448
siesta:      2    0.000000    0.000000    0.000000
siesta:      3   -0.000000   -0.000000   -0.979448
siesta: ----------------------------------------
siesta:    Tot   -0.000000   -0.000000   -0.000000

siesta: Stress tensor (static) (eV/Ang**3):
siesta:     0.002130   -0.000000   -0.000000
siesta:    -0.000000    0.002130   -0.000000
siesta:     0.000000    0.000000    0.002657

siesta: Cell volume =        426.771969 Ang**3

siesta: Pressure (static):
siesta:                Solid            Molecule  Units
siesta:          -0.00002511         -0.00005724  Ry/Bohr**3
siesta:          -0.00230542         -0.00525577  eV/Ang**3
siesta:          -3.69368315         -8.42066892  kBar
(Free)E+ p_basis*V_orbitals  =       -2325.205167
(Free)Eharris+ p_basis*V_orbitals  =       -2325.517173
     spin moment: {S} , |S| = {    1.11291    0.00000    0.00000 }     1.11291

cite: Please see "fe_noncol.bib" for an exhaustive BiBTeX file.
cite: Please clearly indicate Siesta version in published work: 5.0.0-alpha-120-g24fa496ce-dirty
cite: This calculation has made use of the following articles
cite: which are encouraged to be cited in a published work.
        Primary SIESTA paper
          DOI: www.doi.org/10.1088/0953-8984/14/11/302


timer: Elapsed wall time (sec) =       1.022
timer: CPU execution times (sec):

Routine            Calls   Time/call    Tot.time        %
siesta                 1       1.015       1.015   100.00
Setup                  1       0.019       0.019     1.86
bands                  1       0.000       0.000     0.00
KSV_init               1       0.000       0.000     0.00
IterGeom               1       0.995       0.995    98.10
geom_init              1       0.243       0.243    23.92
state_init             1       0.023       0.023     2.29
hsparse                1       0.000       0.000     0.01
overlap                1       0.023       0.023     2.25
Setup_H0               1       0.185       0.185    18.23
naefs                  2       0.000       0.000     0.01
MolMec                 2       0.000       0.000     0.00
kinefsm                2       0.011       0.022     2.12
nlefsm                 2       0.064       0.127    12.52
DHSCF_Init             1       0.037       0.037     3.66
DHSCF1                 1       0.004       0.004     0.43
INITMESH               1       0.000       0.000     0.00
DHSCF2                 1       0.033       0.033     3.23
REMESH                 1       0.002       0.002     0.22
REORD                196       0.000       0.015     1.51
PHION                  1       0.022       0.022     2.20
COMM_BSC             358       0.000       0.022     2.15
POISON                23       0.002       0.050     4.93
fft                   46       0.001       0.038     3.73
setup_H               21       0.032       0.682    67.19
DHSCF                 22       0.035       0.767    75.58
DHSCF3                22       0.032       0.711    70.09
rhoofd                22       0.007       0.160    15.75
XC                    22       0.014       0.297    29.31
GXC-CellXC            22       0.012       0.266    26.26
vmat                  22       0.006       0.137    13.49
IterSCF               20       0.033       0.662    65.27
compute_dm            20       0.001       0.011     1.11
diagon                20       0.001       0.011     1.10
cdiag                 20       0.000       0.008     0.78
cdiag1                20       0.000       0.000     0.05
cdiag2                20       0.000       0.001     0.13
cdiag3                20       0.000       0.005     0.52
cdiag4                20       0.000       0.001     0.06
MIXER                 20       0.000       0.002     0.15
PostSCF                1       0.090       0.090     8.85
DHSCF4                 1       0.056       0.056     5.49
dfscf                  1       0.048       0.048     4.70
overfsm                1       0.000       0.000     0.03
state_analysis         1       0.000       0.000     0.02
siesta_move            1       0.000       0.000     0.00
Analysis               1       0.000       0.000     0.02
optical                1       0.000       0.000     0.00
  

>> End of run:  25-SEP-2023   9:43:44
Job completed
