Siesta Version  : 5.0.0-alpha-120-g24fa496ce-dirty
Architecture    : ----
Compiler version: GNU-11.4.0
Compiler flags  : -fallow-argument-mismatch;-O3 -march=native
PP flags        : ----
Libraries       : ----
Parallelisations: none
GEMM3M support
NetCDF support
NetCDF-4 support
Lua support

Runtime information:
* Directory : /home/fnpedron/Siesta/siesta-dev/Tests/02.SpinPolarization/work/fe_noncol_gga
* Running in serial mode.
>> Start of run:  25-SEP-2023   9:43:44

                           *********************** 
                           *  WELCOME TO SIESTA  * 
                           *********************** 

reinit: Reading from standard input
reinit: Dumping input in INPUT_TMP.74160
************************** Dump of input data file ****************************
%include ../../basejob.fdf
SystemLabel         fe_noncol_gga
XC.Functional GGA
XC.Authors    PBE
Spin non-collinear
************************** End of input data file *****************************

reinit: -----------------------------------------------------------------------
reinit: System Name: Linear Fe3 cluster
reinit: -----------------------------------------------------------------------
reinit: System Label: fe_noncol_gga
reinit: -----------------------------------------------------------------------

initatom: Reading input for the pseudopotentials and atomic orbitals ----------
Species number:   1 Atomic number:   26 Label: Fe_nc


---- Processing specs for species: Fe_nc
Ground state valence configuration:   4s02  3d06
Reading pseudopotential information in formatted form from:
  /home/fnpedron/Siesta/siesta-dev/Tests/Pseudos/Fe_nc.psf

---- Pseudopotential check for Fe

Pseudized shells:
4s( 1.00) rc: 2.00
4p( 0.00) rc: 2.00
3d( 7.00) rc: 2.00
4f( 0.00) rc: 2.00
Valence configuration for ps generation: (assumed as above)
For Fe_nc, standard SIESTA heuristics set lmxkb to 3
 (one more than the basis l, including polarization orbitals).
Use PS.lmax or PS.KBprojectors blocks to override.

<basis_specs>
===============================================================================
Fe_nc                Z=  26    Mass=  55.845        Charge= 0.17977+309
Lmxo=2 Lmxkb= 3    BasisType=split      Semic=F
L=0  Nsemic=0  Cnfigmx=4
          i=1  nzeta=1  polorb=1  (4s)  (to be polarized perturbatively)
            splnorm:   0.15000    
               vcte:    0.0000    
               rinn:    0.0000    
               qcoe:    0.0000    
               qyuk:    0.0000    
               qwid:   0.10000E-01
                rcs:    0.0000    
            lambdas:    1.0000    
L=1  Nsemic=0  Cnfigmx=4
          i=1  nzeta=0  polorb=0  (4p)  (perturbative polarization orbital) (from 4s)
L=2  Nsemic=0  Cnfigmx=3
          i=1  nzeta=1  polorb=0  (3d)
            splnorm:   0.15000    
               vcte:    0.0000    
               rinn:    0.0000    
               qcoe:    0.0000    
               qyuk:    0.0000    
               qwid:   0.10000E-01
                rcs:    0.0000    
            lambdas:    1.0000    
-------------------------------------------------------------------------------
L=0  Nkbl=1  erefs: 0.17977+309
L=1  Nkbl=1  erefs: 0.17977+309
L=2  Nkbl=1  erefs: 0.17977+309
L=3  Nkbl=1  erefs: 0.17977+309
===============================================================================
</basis_specs>

atom: Called for Fe_nc                 (Z =  26)

read_vps: Pseudopotential generation method:
read_vps: ATM3      Troullier-Martins                       
Valence charge in pseudo generation:    8.00000

read_vps: Pseudopotential includes a core correction:
read_vps: Pseudo-core for xc-correction

xc_check: Exchange-correlation functional:
xc_check: GGA Perdew, Burke & Ernzerhof 1996
xc_check: WARNING: Pseudopotential generated with LDA CA functional
V l=0 = -2*Zval/r beyond r=  2.8345
V l=1 = -2*Zval/r beyond r=  2.8345
V l=2 = -2*Zval/r beyond r=  2.8345
V l=3 = -2*Zval/r beyond r=  2.8345
All V_l potentials equal beyond r=  1.9726
This should be close to max(r_c) in ps generation
All pots = -2*Zval/r beyond r=  2.8345
Using large-core scheme (fit) for Vlocal

atom: Estimated core radius    2.83451
Fit of Vlocal with continuous 2nd derivative
Fitting vlocal at       2.0480
Choosing vlocal chloc cutoff:833  3.132630
qtot up to nchloc:    7.99939873
atom: Maximum radius for chlocal:    3.13263
atom: Maximum radius for r*vlocal+2*Zval:    3.13263

KBgen: Kleinman-Bylander projectors: 
GHOST: No ghost state for L =  0
   l= 0   rc=  2.047986   el= -0.298497   Ekb=  3.940459   kbcos=  0.248865
GHOST: No ghost state for L =  1
   l= 1   rc=  2.047986   el= -0.060693   Ekb=  3.320572   kbcos=  0.152155
GHOST: No ghost state for L =  2
   l= 2   rc=  2.022544   el= -0.319649   Ekb=-12.479708   kbcos= -0.664074
GHOST: No ghost state for L =  3
   l= 3   rc=  2.047986   el=  0.003178   Ekb= -1.658649   kbcos= -0.005728

KBgen: Total number of Kleinman-Bylander projectors:  16
atom: -------------------------------------------------------------------------

atom: SANKEY-TYPE ORBITALS:

SPLIT: Orbitals with angular momentum L= 0

SPLIT: Basis orbitals for state 4s

SPLIT: PAO cut-off radius determined from an
SPLIT: energy shift=  0.020000 Ry

   izeta = 1
                 lambda =    1.000000
                     rc =    6.799774
                 energy =   -0.278954
                kinetic =    0.294500
    potential(screened) =   -0.573455
       potential(ionic) =   -5.790307

SPLIT: Orbitals with angular momentum L= 2

SPLIT: Basis orbitals for state 3d

SPLIT: PAO cut-off radius determined from an
SPLIT: energy shift=  0.020000 Ry

   izeta = 1
                 lambda =    1.000000
                     rc =    4.022404
                 energy =   -0.301586
                kinetic =    9.105448
    potential(screened) =   -9.407035
       potential(ionic) =  -18.437424

POLgen: Perturbative polarization orbital with L=  1

POLgen: Polarization orbital for state 4s

   izeta = 1
                     rc =    6.799774
                 energy =    0.016759
                kinetic =    0.560326
    potential(screened) =   -0.543567
       potential(ionic) =   -5.364158
atom: Total number of Sankey-type orbitals:  9

atm_pop: Valence configuration (for local Pseudopot. screening):
 4s( 2.00)                                                            
 4p( 0.00)                                                            
 3d( 6.00)                                                            
Vna: chval, zval:    8.00000   8.00000

Vna:  Cut-off radius for the neutral-atom potential:   6.799774
comcore: Pseudo-core radius Rcore=  3.874354

atom: _________________________________________________________________________

prinput: Basis input 

PAO.BasisType split     

%block ChemicalSpeciesLabel
    1   26 Fe_nc                   # Species index, atomic number, species label
%endblock ChemicalSpeciesLabel

%block PAO.Basis                 # Define Basis set
# WARNING: This information might be incomplete!
Fe_nc                 2                    # Species label, number of l-shells
 n=4   0   1 P   1                   # n, l, Nzeta, Polarization, NzetaPol
   6.800   
   1.000   
 n=3   2   1                         # n, l, Nzeta 
   4.022   
   1.000   
%endblock PAO.Basis

prinput: ----------------------------------------------------------------------

Dumping basis to NetCDF file Fe_nc.ion.nc
coor:   Atomic-coordinates input format  =     Cartesian coordinates
coor:                                            (in Bohr units)

siesta: Atomic coordinates (Bohr) and species
siesta:      0.00000   0.00000   3.64400  1        1
siesta:      0.00000   0.00000   0.00000  1        2
siesta:      0.00000   0.00000  -3.64400  1        3

siesta: System type = bulk      

initatomlists: Number of atoms, orbitals, and projectors:      3    27    48

siesta: ******************** Simulation parameters ****************************
siesta:
siesta: The following are some of the parameters of the simulation.
siesta: A complete list of the parameters used, including default values,
siesta: can be found in file out.fdf
siesta:
redata: Spin configuration                          = non-collinear
redata: Number of spin components                   = 4
redata: Time-Reversal Symmetry                      = F
redata: Spin spiral                                 = F
redata: Long output                                 =   F
redata: Number of Atomic Species                    =        1
redata: Charge density info will appear in .RHO file
redata: Write Mulliken Pop.                         = Atomic and Orbital charges
redata: Matel table size (NRTAB)                    =     1024
redata: Mesh Cutoff                                 =   100.0000 Ry
redata: Net charge of the system                    =     0.0000 |e|
redata: Min. number of SCF Iter                     =        0
redata: Max. number of SCF Iter                     =       20
redata: SCF mix quantity                            = Hamiltonian
redata: Mix DM or H after convergence               =   F
redata: Recompute H after scf cycle                 =   F
redata: Mix DM in first SCF step                    =   T
redata: Write Pulay info on disk                    =   F
redata: New DM Occupancy tolerance                  = 0.000000000001
redata: No kicks to SCF
redata: DM Mixing Weight for Kicks                  =     0.5000
redata: Require Harris convergence for SCF          =   F
redata: Harris energy tolerance for SCF             =     0.000100 eV
redata: Require DM convergence for SCF              =   T
redata: DM tolerance for SCF                        =     0.000100
redata: Require EDM convergence for SCF             =   F
redata: EDM tolerance for SCF                       =     0.001000 eV
redata: Require H convergence for SCF               =   T
redata: Hamiltonian tolerance for SCF               =     0.001000 eV
redata: Require (free) Energy convergence for SCF   =   F
redata: (free) Energy tolerance for SCF             =     0.000100 eV
redata: Using DFT-D3 dispersion                     =   F
redata: Using Saved Data (generic)                  =   F
redata: Use continuation files for DM               =   F
redata: Neglect nonoverlap interactions             =   F
redata: Method of Calculation                       = Diagonalization
redata: Electronic Temperature                      =   299.9863 K
redata: Fix the spin of the system                  =   F
redata: Max. number of TDED Iter                    =        1
redata: Number of TDED substeps                     =        3
redata: Dynamics option                             = Single-point calculation
mix.SCF: Pulay mixing                            = Pulay
mix.SCF:    Variant                              = stable
mix.SCF:    History steps                        = 8
mix.SCF:    Linear mixing weight                 =     0.010000
mix.SCF:    Mixing weight                        =     0.010000
mix.SCF:    SVD condition                        = 0.1000E-07
mix.SCF: Spin-component mixing                   all
redata: Save all siesta data in one NC              =   F
redata: ***********************************************************************

%block SCF.Mixers
  Pulay
%endblock SCF.Mixers

%block SCF.Mixer.Pulay
  # Mixing method
  method pulay
  variant stable

  # Mixing options
  weight 0.0100
  weight.linear 0.0100
  history 8
%endblock SCF.Mixer.Pulay

DM_history_depth set to one: no extrapolation allowed by default for geometry relaxation
Size of DM history Fstack: 1
Total number of electrons:    24.000000
Total ionic charge:    24.000000

siesta: k-grid: Number of k-points = 1
siesta: k-point is Gamma-only

diag: Algorithm                                     = D&C
diag: Used triangular part                          = Lower
diag: Absolute tolerance                            =  0.100E-15
diag: Orthogonalization factor                      =  0.100E-05
diag: Memory factor                                 =  1.0000


ts: **************************************************************
ts: Save H and S matrices                           =    F
ts: Save DM and EDM matrices                        =    F
ts: Only save the overlap matrix S                  =    F
ts: **************************************************************

************************ Begin: TS CHECKS AND WARNINGS ************************
************************ End: TS CHECKS AND WARNINGS **************************


                     ====================================
                        Single-point calculation
                     ====================================

outcell: Unit cell vectors (Ang):
        6.350127    0.000000    0.000000
        0.000000    6.350127    0.000000
        0.000000    0.000000   10.583544

outcell: Cell vector modules (Ang)   :    6.350127    6.350127   10.583544
outcell: Cell angles (23,13,12) (deg):     90.0000     90.0000     90.0000
outcell: Cell volume (Ang**3)        :    426.7720
Gamma-point calculation with interaction between periodic images
Some features might not work optimally:
e.g. DM initialization from atomic data
<dSpData1D:S at geom step 0
  <sparsity:sparsity for geom step 0
    nrows_g=27 nrows=27 sparsity=1.0000 nnzs=729, refcount: 7>
  <dData1D:(new from dSpData1D) n=729, refcount: 1>
refcount: 1>
new_DM -- step:     1
Initializing Density Matrix...
DM filled with atomic data (user-defined):
<dSpData2D:DM initialized from atoms
  <sparsity:sparsity for geom step 0
    nrows_g=27 nrows=27 sparsity=1.0000 nnzs=729, refcount: 8>
  <dData2D:DM n=729 m=4, refcount: 1>
refcount: 1>
     spin moment: {S} , |S| = {    1.50000    0.00000    0.00000 }     1.50000
No. of atoms with KB's overlaping orbs in proc 0. Max # of overlaps:       3      27

InitMesh: MESH = 40 x 40 x 64 = 102400
InitMesh: Mesh cutoff (required, used) =   100.000   101.065 Ry
New grid distribution [1]: sub = 2

stepf: Fermi-Dirac step function

siesta: Program's energy decomposition (eV):
siesta: Ebs     =       233.693168
siesta: Eions   =      2141.467523
siesta: Ena     =        91.260748
siesta: Ekin    =      2763.900614
siesta: Enl     =     -1749.621393
siesta: Eso     =         0.000000
siesta: Edftu   =         0.000000
siesta: DEna    =       -94.004311
siesta: DUscf   =        55.866090
siesta: DUext   =         0.000000
siesta: Ex      =     -1162.621958
siesta: Ec      =       -68.399811
siesta: Exc     =     -1231.021768
siesta: EbV     =         0.000000
siesta: eta*DQ  =         0.000000
siesta: Emadel  =         0.000000
siesta: Emeta   =         0.000000
siesta: Emolmec =         0.000000
siesta: Ekinion =         0.000000
siesta: Eharris =     -2226.477479
siesta: Etot    =     -2305.087544
siesta: FreeEng =     -2305.165430

        iscf     Eharris(eV)        E_KS(eV)     FreeEng(eV)     dDmax    Ef(eV) dHmax(eV)
   scf:    1    -2226.477479    -2305.087544    -2305.165430  0.957266 -7.401108 38.629052
     spin moment: {S} , |S| = {    1.75948    0.00000    0.00000 }     1.75948
timer: Routine,Calls,Time,% = IterSCF        1       0.078  20.31
   scf:    2    -2318.257121    -2312.061589    -2312.156827  0.142875 -7.300374 34.674064
     spin moment: {S} , |S| = {    2.03803    0.00000   -0.00000 }     2.03803
   scf:    3    -2259.446218    -2319.760657    -2319.764025  0.669545 -6.490613 20.568923
     spin moment: {S} , |S| = {    2.35892    0.00000    0.00000 }     2.35892
   scf:    4    -2110.196696    -2279.151295    -2279.178500  0.908259 -7.417655 49.432950
     spin moment: {S} , |S| = {    0.78626    0.00000   -0.00000 }     0.78626
   scf:    5    -2219.132893    -2251.175553    -2251.272040  0.274027 -5.281183 58.523467
     spin moment: {S} , |S| = {    0.01486    0.00000    0.00000 }     0.01486
   scf:    6    -1756.147709    -2053.486902    -2053.557999  1.095381 -0.037293 57.981439
     spin moment: {S} , |S| = {   -0.03916    0.00000    0.00000 }     0.03916
   scf:    7    -2391.281427    -2253.958243    -2253.958243  0.999912 -2.964222 47.177007
     spin moment: {S} , |S| = {    0.18673    0.00000   -0.00000 }     0.18673
   scf:    8    -1455.586210    -2135.448885    -2135.448885  0.961091 -2.903112 66.910728
     spin moment: {S} , |S| = {    0.25906    0.00000   -0.00000 }     0.25906
   scf:    9    -2290.432600    -2343.136960    -2343.137015  0.807923 -2.917517  8.005328
     spin moment: {S} , |S| = {    1.22282    0.00000   -0.00000 }     1.22282
   scf:   10    -2340.781777    -2342.001159    -2342.001191  0.014697 -3.075859  9.607439
     spin moment: {S} , |S| = {    1.16935    0.00000   -0.00000 }     1.16935
   scf:   11    -2328.737188    -2335.982977    -2335.982979  0.058174 -2.720168 14.279666
     spin moment: {S} , |S| = {    0.94219    0.00000   -0.00000 }     0.94219
   scf:   12    -2065.723081    -2270.435985    -2270.437313  0.623779 -3.683428 39.563844
     spin moment: {S} , |S| = {    1.26793    0.00000    0.00000 }     1.26793
   scf:   13    -2212.919534    -2326.458983    -2326.458983  0.664345 -3.322036 20.982442
     spin moment: {S} , |S| = {    0.76917    0.00000    0.00000 }     0.76917
   scf:   14    -1651.808266    -2153.526487    -2153.526490  0.921416 -3.973861 62.119923
     spin moment: {S} , |S| = {    0.26751    0.00000    0.00000 }     0.26751
   scf:   15    -2054.044595    -2105.140075    -2105.140075  0.076236 -3.405706 71.067837
     spin moment: {S} , |S| = {    0.13217    0.00000    0.00000 }     0.13217
   scf:   16    -2429.236706    -2316.656207    -2316.657896  0.375063 -3.321652 25.367989
     spin moment: {S} , |S| = {    1.50911    0.00000    0.00000 }     1.50911
   scf:   17    -2261.658084    -2291.038581    -2291.038904  0.120535 -3.356877 34.341532
     spin moment: {S} , |S| = {    1.08712    0.00000    0.00000 }     1.08712
   scf:   18    -2299.998467    -2295.564595    -2295.565050  0.019648 -3.330288 32.971216
     spin moment: {S} , |S| = {    1.15743    0.00000    0.00000 }     1.15743
   scf:   19    -2364.429513    -2342.121215    -2342.126436  0.305842 -3.476108  9.608797
     spin moment: {S} , |S| = {    1.93867    0.00000   -0.00000 }     1.93867
   scf:   20    -2335.585502    -2339.042914    -2339.047008  0.045195 -3.241155 12.934288
     spin moment: {S} , |S| = {    1.90875    0.00000    0.00000 }     1.90875
SCF_NOT_CONV: SCF did not converge  in maximum number of steps.
Geom step, scf iteration, dmax:    0    20     0.950653

Using DM_out to compute the final energy and forces
No. of atoms with KB's overlaping orbs in proc 0. Max # of overlaps:       3      27

siesta: E_KS(eV) =            -2339.0429

siesta: E_KS - E_eggbox =     -2339.0429
     spin moment: {S} , |S| = {    1.90875    0.00000    0.00000 }     1.90875

siesta: Atomic forces (eV/Ang):
----------------------------------------
   Tot    0.000000   -0.000000   -0.000000
----------------------------------------
   Max    0.461284
   Res    0.217451    sqrt( Sum f_i^2 / 3N )
----------------------------------------
   Max    0.461284    constrained

Stress tensor Voigt[x,y,z,yz,xz,xy] (kbar):        2.07        2.07       24.94        0.00       -0.00        0.00
(Free)E + p*V (eV/cell)    -2341.6296
Target enthalpy (eV/cell)    -2339.0470

mulliken: Atomic and Orbital Populations:

Species: Fe_nc               

Atom      Orb        Charge      Spin       Svec
----------------------------------------------------------------
    1  1 4s         1.46732   0.06635     -0.019   0.000   0.063
    1  2 3dxy       1.46450   0.52976      0.022  -0.000   0.529
    1  3 3dyz       1.31658   0.51167     -0.009   0.000   0.512
    1  4 3dz2       1.37291   0.50909      0.003   0.000   0.509
    1  5 3dxz       1.31658   0.51167     -0.009   0.000   0.512
    1  6 3dx2-y2    1.45391   0.54043      0.023  -0.000   0.540
    1  7 4Ppy       0.02818   0.00625      0.001   0.000  -0.006
    1  8 4Ppz       0.00169   0.00261      0.002   0.000   0.001
    1  9 4Ppx       0.02818   0.00625      0.001   0.000  -0.006
    1     Total     8.44985   2.65384      0.014   0.000   2.654

    2  1 4s         1.00982   0.03811      0.038  -0.000  -0.000
    2  2 3dxy       1.07739   0.68948      0.689  -0.000  -0.000
    2  3 3dyz       1.19466   0.14999      0.150  -0.000  -0.000
    2  4 3dz2       1.23262   0.13999      0.140  -0.000  -0.000
    2  5 3dxz       1.19466   0.14999      0.150  -0.000  -0.000
    2  6 3dx2-y2    1.08579   0.68241      0.682  -0.000  -0.000
    2  7 4Ppy       0.11583   0.01169      0.012  -0.000   0.000
    2  8 4Ppz       0.07371   0.00643      0.006  -0.000  -0.000
    2  9 4Ppx       0.11583   0.01169      0.012  -0.000   0.000
    2     Total     7.10030   1.87980      1.880  -0.000  -0.000

    3  1 4s         1.46732   0.06635     -0.019   0.000  -0.063
    3  2 3dxy       1.46450   0.52976      0.022  -0.000  -0.529
    3  3 3dyz       1.31658   0.51167     -0.009   0.000  -0.512
    3  4 3dz2       1.37291   0.50909      0.003   0.000  -0.509
    3  5 3dxz       1.31658   0.51167     -0.009   0.000  -0.512
    3  6 3dx2-y2    1.45391   0.54042      0.023  -0.000  -0.540
    3  7 4Ppy       0.02818   0.00625      0.001   0.000   0.006
    3  8 4Ppz       0.00169   0.00261      0.002   0.000  -0.001
    3  9 4Ppx       0.02818   0.00625      0.001   0.000   0.006
    3     Total     8.44985   2.65383      0.014   0.000  -2.654

----------------------------------------------------------------
Total              24.00000   1.90875      1.909   0.000   0.000


siesta: Program's energy decomposition (eV):
siesta: Ebs     =      -146.957251
siesta: Eions   =      2141.467523
siesta: Ena     =        91.260748
siesta: Ekin    =      2376.202567
siesta: Enl     =     -1480.140143
siesta: Eso     =         0.000000
siesta: Edftu   =         0.000000
siesta: DEna    =       -25.026584
siesta: DUscf   =         9.050100
siesta: DUext   =         0.000000
siesta: Ex      =     -1102.878512
siesta: Ec      =       -66.043568
siesta: Exc     =     -1168.922080
siesta: EbV     =         0.000000
siesta: eta*DQ  =         0.000000
siesta: Emadel  =         0.000000
siesta: Emeta   =         0.000000
siesta: Emolmec =         0.000000
siesta: Ekinion =         0.000000
siesta: Eharris =     -2335.585502
siesta: Etot    =     -2339.042914
siesta: FreeEng =     -2339.047008

siesta: Final energy (eV):
siesta:  Band Struct. =    -146.957251
siesta:       Kinetic =    2376.202567
siesta:       Hartree =    1392.584860
siesta:         Edftu =       0.000000
siesta:       Eso     =       0.000000
siesta:    Ext. field =       0.000000
siesta:         Exch. =   -1102.878512
siesta:         Corr. =     -66.043568
siesta:     Bulk bias =       0.000000
siesta:   Exch.-corr. =   -1168.922080
siesta:  Ion-electron =   -4745.152791
siesta:       Ion-ion =    -193.755470
siesta:       Ekinion =       0.000000
siesta: D3 dispersion =       0.000000
siesta:         Total =   -2339.042914
siesta:         Fermi =      -3.241155

siesta: Atomic forces (eV/Ang):
siesta:      1    0.000000   -0.000000   -0.461284
siesta:      2    0.000000   -0.000000    0.000003
siesta:      3   -0.000000   -0.000000    0.461281
siesta: ----------------------------------------
siesta:    Tot    0.000000   -0.000000   -0.000000

siesta: Stress tensor (static) (eV/Ang**3):
siesta:     0.001293   -0.000000   -0.000000
siesta:     0.000000    0.001293   -0.000000
siesta:    -0.000000    0.000000    0.015569

siesta: Cell volume =        426.771969 Ang**3

siesta: Pressure (static):
siesta:                Solid            Molecule  Units
siesta:          -0.00006591         -0.00005078  Ry/Bohr**3
siesta:          -0.00605156         -0.00466206  eV/Ang**3
siesta:          -9.69567438         -7.46944520  kBar
(Free)E+ p_basis*V_orbitals  =       -2337.434065
(Free)Eharris+ p_basis*V_orbitals  =       -2333.976653
     spin moment: {S} , |S| = {    1.90875    0.00000    0.00000 }     1.90875

cite: Please see "fe_noncol_gga.bib" for an exhaustive BiBTeX file.
cite: Please clearly indicate Siesta version in published work: 5.0.0-alpha-120-g24fa496ce-dirty
cite: This calculation has made use of the following articles
cite: which are encouraged to be cited in a published work.
        Primary SIESTA paper
          DOI: www.doi.org/10.1088/0953-8984/14/11/302


timer: Elapsed wall time (sec) =       1.994
timer: CPU execution times (sec):

Routine            Calls   Time/call    Tot.time        %
siesta                 1       1.979       1.979   100.00
Setup                  1       0.021       0.021     1.04
bands                  1       0.000       0.000     0.00
KSV_init               1       0.000       0.000     0.00
IterGeom               1       1.958       1.958    98.94
geom_init              1       0.286       0.286    14.43
state_init             1       0.024       0.024     1.19
hsparse                1       0.000       0.000     0.01
overlap                1       0.023       0.023     1.17
Setup_H0               1       0.187       0.187     9.47
naefs                  2       0.000       0.000     0.01
MolMec                 2       0.000       0.000     0.00
kinefsm                2       0.011       0.022     1.13
nlefsm                 2       0.064       0.128     6.48
DHSCF_Init             1       0.037       0.037     1.89
DHSCF1                 1       0.005       0.005     0.23
INITMESH               1       0.000       0.000     0.00
DHSCF2                 1       0.033       0.033     1.66
REMESH                 1       0.002       0.002     0.11
REORD                196       0.000       0.015     0.78
PHION                  1       0.022       0.022     1.13
COMM_BSC             358       0.000       0.024     1.20
POISON                23       0.002       0.050     2.53
fft                   46       0.001       0.038     1.92
setup_H               21       0.076       1.599    80.79
DHSCF                 22       0.079       1.728    87.32
DHSCF3                22       0.076       1.673    84.52
rhoofd                22       0.007       0.161     8.11
XC                    22       0.057       1.261    63.72
GXC-CellXC            22       0.056       1.223    61.79
vmat                  22       0.006       0.137     6.91
IterSCF               20       0.077       1.539    77.76
compute_dm            20       0.001       0.011     0.55
diagon                20       0.001       0.011     0.54
cdiag                 20       0.000       0.007     0.38
cdiag1                20       0.000       0.000     0.02
cdiag2                20       0.000       0.001     0.06
cdiag3                20       0.000       0.005     0.25
cdiag4                20       0.000       0.001     0.03
MIXER                 20       0.000       0.002     0.08
PostSCF                1       0.133       0.133     6.72
DHSCF4                 1       0.055       0.055     2.79
dfscf                  1       0.047       0.047     2.38
overfsm                1       0.000       0.000     0.01
state_analysis         1       0.000       0.000     0.01
siesta_move            1       0.000       0.000     0.00
Analysis               1       0.000       0.000     0.01
optical                1       0.000       0.000     0.00
  

>> End of run:  25-SEP-2023   9:43:46
Job completed
